<?xml version="1.0" encoding="UTF-8"?>
<kml xmlns="http://www.opengis.net/kml/2.2">
  <Document>
    <name>Zona 115</name>
    <description/>
    <Style id="poly-0288D1-3001-76-normal">
      <LineStyle>
        <color>ffd18802</color>
        <width>3.001</width>
      </LineStyle>
      <PolyStyle>
        <color>4cd18802</color>
        <fill>1</fill>
        <outline>1</outline>
      </PolyStyle>
    </Style>
    <Style id="poly-0288D1-3001-76-highlight">
      <LineStyle>
        <color>ffd18802</color>
        <width>4.5015</width>
      </LineStyle>
      <PolyStyle>
        <color>4cd18802</color>
        <fill>1</fill>
        <outline>1</outline>
      </PolyStyle>
    </Style>
    <StyleMap id="poly-0288D1-3001-76">
      <Pair>
        <key>normal</key>
        <styleUrl>#poly-0288D1-3001-76-normal</styleUrl>
      </Pair>
      <Pair>
        <key>highlight</key>
        <styleUrl>#poly-0288D1-3001-76-highlight</styleUrl>
      </Pair>
    </StyleMap>
    <Style id="poly-0288D1-3501-76-normal">
      <LineStyle>
        <color>ffd18802</color>
        <width>3.501</width>
      </LineStyle>
      <PolyStyle>
        <color>4cd18802</color>
        <fill>1</fill>
        <outline>1</outline>
      </PolyStyle>
    </Style>
    <Style id="poly-0288D1-3501-76-highlight">
      <LineStyle>
        <color>ffd18802</color>
        <width>5.2515</width>
      </LineStyle>
      <PolyStyle>
        <color>4cd18802</color>
        <fill>1</fill>
        <outline>1</outline>
      </PolyStyle>
    </Style>
    <StyleMap id="poly-0288D1-3501-76">
      <Pair>
        <key>normal</key>
        <styleUrl>#poly-0288D1-3501-76-normal</styleUrl>
      </Pair>
      <Pair>
        <key>highlight</key>
        <styleUrl>#poly-0288D1-3501-76-highlight</styleUrl>
      </Pair>
    </StyleMap>
    <Style id="poly-7CB342-3101-61-normal">
      <LineStyle>
        <color>ff42b37c</color>
        <width>3.101</width>
      </LineStyle>
      <PolyStyle>
        <color>3d42b37c</color>
        <fill>1</fill>
        <outline>1</outline>
      </PolyStyle>
    </Style>
    <Style id="poly-7CB342-3101-61-highlight">
      <LineStyle>
        <color>ff42b37c</color>
        <width>4.6515</width>
      </LineStyle>
      <PolyStyle>
        <color>3d42b37c</color>
        <fill>1</fill>
        <outline>1</outline>
      </PolyStyle>
    </Style>
    <StyleMap id="poly-7CB342-3101-61">
      <Pair>
        <key>normal</key>
        <styleUrl>#poly-7CB342-3101-61-normal</styleUrl>
      </Pair>
      <Pair>
        <key>highlight</key>
        <styleUrl>#poly-7CB342-3101-61-highlight</styleUrl>
      </Pair>
    </StyleMap>
    <Style id="poly-9C27B0-3501-54-normal">
      <LineStyle>
        <color>ffb0279c</color>
        <width>3.501</width>
      </LineStyle>
      <PolyStyle>
        <color>36b0279c</color>
        <fill>1</fill>
        <outline>1</outline>
      </PolyStyle>
    </Style>
    <Style id="poly-9C27B0-3501-54-highlight">
      <LineStyle>
        <color>ffb0279c</color>
        <width>5.2515</width>
      </LineStyle>
      <PolyStyle>
        <color>36b0279c</color>
        <fill>1</fill>
        <outline>1</outline>
      </PolyStyle>
    </Style>
    <StyleMap id="poly-9C27B0-3501-54">
      <Pair>
        <key>normal</key>
        <styleUrl>#poly-9C27B0-3501-54-normal</styleUrl>
      </Pair>
      <Pair>
        <key>highlight</key>
        <styleUrl>#poly-9C27B0-3501-54-highlight</styleUrl>
      </Pair>
    </StyleMap>
    <Style id="poly-FF5252-3101-56-normal">
      <LineStyle>
        <color>ff5252ff</color>
        <width>3.101</width>
      </LineStyle>
      <PolyStyle>
        <color>385252ff</color>
        <fill>1</fill>
        <outline>1</outline>
      </PolyStyle>
    </Style>
    <Style id="poly-FF5252-3101-56-highlight">
      <LineStyle>
        <color>ff5252ff</color>
        <width>4.6515</width>
      </LineStyle>
      <PolyStyle>
        <color>385252ff</color>
        <fill>1</fill>
        <outline>1</outline>
      </PolyStyle>
    </Style>
    <StyleMap id="poly-FF5252-3101-56">
      <Pair>
        <key>normal</key>
        <styleUrl>#poly-FF5252-3101-56-normal</styleUrl>
      </Pair>
      <Pair>
        <key>highlight</key>
        <styleUrl>#poly-FF5252-3101-56-highlight</styleUrl>
      </Pair>
    </StyleMap>
    <Style id="poly-FFEA00-3301-66-normal">
      <LineStyle>
        <color>ff00eaff</color>
        <width>3.301</width>
      </LineStyle>
      <PolyStyle>
        <color>4200eaff</color>
        <fill>1</fill>
        <outline>1</outline>
      </PolyStyle>
    </Style>
    <Style id="poly-FFEA00-3301-66-highlight">
      <LineStyle>
        <color>ff00eaff</color>
        <width>4.9515</width>
      </LineStyle>
      <PolyStyle>
        <color>4200eaff</color>
        <fill>1</fill>
        <outline>1</outline>
      </PolyStyle>
    </Style>
    <StyleMap id="poly-FFEA00-3301-66">
      <Pair>
        <key>normal</key>
        <styleUrl>#poly-FFEA00-3301-66-normal</styleUrl>
      </Pair>
      <Pair>
        <key>highlight</key>
        <styleUrl>#poly-FFEA00-3301-66-highlight</styleUrl>
      </Pair>
    </StyleMap>
    <Style id="poly-FFEA00-3401-76-normal">
      <LineStyle>
        <color>ff00eaff</color>
        <width>3.401</width>
      </LineStyle>
      <PolyStyle>
        <color>4c00eaff</color>
        <fill>1</fill>
        <outline>1</outline>
      </PolyStyle>
    </Style>
    <Style id="poly-FFEA00-3401-76-highlight">
      <LineStyle>
        <color>ff00eaff</color>
        <width>5.1015</width>
      </LineStyle>
      <PolyStyle>
        <color>4c00eaff</color>
        <fill>1</fill>
        <outline>1</outline>
      </PolyStyle>
    </Style>
    <StyleMap id="poly-FFEA00-3401-76">
      <Pair>
        <key>normal</key>
        <styleUrl>#poly-FFEA00-3401-76-normal</styleUrl>
      </Pair>
      <Pair>
        <key>highlight</key>
        <styleUrl>#poly-FFEA00-3401-76-highlight</styleUrl>
      </Pair>
    </StyleMap>
    <Folder>
      <name>VD115</name>
      <Placemark>
        <name/>
        <description><![CDATA[Descripción: <br>Reg_Nom: Bogota 150<br>Dominio: Bogota<br>Region: 150<br>Zona: 115<br>Seccion: B<br>Zsec: 115B]]></description>
        <styleUrl>#poly-0288D1-3001-76</styleUrl>
        <ExtendedData>
          <Data name="Descripción">
            <value/>
          </Data>
          <Data name="Reg_Nom">
            <value>Bogota 150</value>
          </Data>
          <Data name="Dominio">
            <value>Bogota</value>
          </Data>
          <Data name="Region">
            <value>150</value>
          </Data>
          <Data name="Zona">
            <value>115</value>
          </Data>
          <Data name="Seccion">
            <value>B</value>
          </Data>
          <Data name="Zsec">
            <value>115B</value>
          </Data>
        </ExtendedData>
        <Polygon>
          <outerBoundaryIs>
            <LinearRing>
              <tessellate>1</tessellate>
              <coordinates>
                -74.120035,4.720359,0
                -74.120407,4.720954,0
                -74.12097,4.721648,0
                -74.12102,4.721709,0
                -74.122989,4.720177,0
                -74.123417,4.721034,0
                -74.124274,4.721605,0
                -74.125273,4.721676,0
                -74.127415,4.719606,0
                -74.127486,4.718535,0
                -74.129913,4.716465,0
                -74.130309,4.716043,0
                -74.130955,4.715354,0
                -74.13086,4.715162,0
                -74.129422,4.7137,0
                -74.128768,4.713524,0
                -74.128606,4.713328,0
                -74.128387,4.713161,0
                -74.128166,4.712994,0
                -74.12795,4.712831,0
                -74.127733,4.712666,0
                -74.127517,4.712502,0
                -74.127298,4.712336,0
                -74.127094,4.712181,0
                -74.126877,4.712017,0
                -74.126675,4.711864,0
                -74.126562,4.711778,0
                -74.126361,4.711626,0
                -74.126181,4.71149,0
                -74.126136,4.711457,0
                -74.126098,4.71143,0
                -74.126033,4.711383,0
                -74.125969,4.711337,0
                -74.125908,4.711293,0
                -74.125808,4.711221,0
                -74.125744,4.711174,0
                -74.125686,4.711133,0
                -74.125655,4.711108,0
                -74.125629,4.711085,0
                -74.125597,4.71106,0
                -74.125567,4.711038,0
                -74.125476,4.710982,0
                -74.125326,4.710871,0
                -74.125262,4.710824,0
                -74.125198,4.710778,0
                -74.125134,4.710731,0
                -74.125069,4.710684,0
                -74.125005,4.710637,0
                -74.124944,4.710592,0
                -74.124872,4.710539,0
                -74.124813,4.710496,0
                -74.124749,4.710449,0
                -74.1247,4.710414,0
                -74.124653,4.710379,0
                -74.124589,4.710332,0
                -74.124525,4.710285,0
                -74.124487,4.710257,0
                -74.124397,4.710191,0
                -74.124333,4.710144,0
                -74.12428,4.710105,0
                -74.124205,4.71005,0
                -74.124141,4.710002,0
                -74.124077,4.709955,0
                -74.124014,4.709908,0
                -74.123949,4.709861,0
                -74.123899,4.709831,0
                -74.123854,4.70979,0
                -74.12379,4.709743,0
                -74.123726,4.709695,0
                -74.123685,4.709665,0
                -74.123599,4.709601,0
                -74.123535,4.709554,0
                -74.123469,4.709504,0
                -74.123376,4.709435,0
                -74.123312,4.709387,0
                -74.123272,4.709358,0
                -74.123185,4.709292,0
                -74.123094,4.709225,0
                -74.123056,4.709197,0
                -74.123035,4.709181,0
                -74.122962,4.709126,0
                -74.122899,4.709078,0
                -74.122835,4.709031,0
                -74.12274,4.70896,0
                -74.122671,4.708913,0
                -74.122581,4.70884,0
                -74.122518,4.708792,0
                -74.122462,4.708751,0
                -74.122423,4.70872,0
                -74.122359,4.708673,0
                -74.122296,4.708625,0
                -74.122245,4.708587,0
                -74.122011,4.70841,0
                -74.121949,4.708363,0
                -74.121866,4.7083,0
                -74.121514,4.708612,0
                -74.115979,4.71455,0
                -74.116188,4.714854,0
                -74.116736,4.715634,0
                -74.116881,4.715841,0
                -74.117247,4.716324,0
                -74.117412,4.716541,0
                -74.11745,4.716596,0
                -74.117636,4.71686,0
                -74.117671,4.716909,0
                -74.117703,4.716953,0
                -74.117862,4.717178,0
                -74.118573,4.718184,0
                -74.118673,4.718324,0
                -74.119474,4.719462,0
                -74.120035,4.720359,0
              </coordinates>
            </LinearRing>
          </outerBoundaryIs>
        </Polygon>
      </Placemark>
      <Placemark>
        <name/>
        <description><![CDATA[Descripción: <br>Reg_Nom: Bogota 150<br>Dominio: Bogota<br>Region: 150<br>Zona: 115<br>Seccion: A<br>Zsec: 115A]]></description>
        <styleUrl>#poly-FFEA00-3301-66</styleUrl>
        <ExtendedData>
          <Data name="Descripción">
            <value/>
          </Data>
          <Data name="Reg_Nom">
            <value>Bogota 150</value>
          </Data>
          <Data name="Dominio">
            <value>Bogota</value>
          </Data>
          <Data name="Region">
            <value>150</value>
          </Data>
          <Data name="Zona">
            <value>115</value>
          </Data>
          <Data name="Seccion">
            <value>A</value>
          </Data>
          <Data name="Zsec">
            <value>115A</value>
          </Data>
        </ExtendedData>
        <Polygon>
          <outerBoundaryIs>
            <LinearRing>
              <tessellate>1</tessellate>
              <coordinates>
                -74.113326,4.701163,0
                -74.11311,4.701566,0
                -74.112963,4.701836,0
                -74.112513,4.702661,0
                -74.112307,4.703019,0
                -74.112095,4.703387,0
                -74.111877,4.703745,0
                -74.111686,4.704095,0
                -74.111454,4.704493,0
                -74.11118,4.704838,0
                -74.111054,4.705004,0
                -74.110693,4.705521,0
                -74.11049,4.705851,0
                -74.11014,4.706353,0
                -74.109875,4.706594,0
                -74.109486,4.707353,0
                -74.110033,4.707784,0
                -74.110799,4.708594,0
                -74.11224,4.710018,0
                -74.113016,4.710785,0
                -74.113469,4.711233,0
                -74.113555,4.711335,0
                -74.114221,4.712129,0
                -74.114375,4.712313,0
                -74.114675,4.712671,0
                -74.114701,4.712708,0
                -74.114896,4.712983,0
                -74.11511,4.713287,0
                -74.115133,4.713319,0
                -74.115979,4.71455,0
                -74.121514,4.708612,0
                -74.121866,4.7083,0
                -74.121853,4.708289,0
                -74.121789,4.708241,0
                -74.121731,4.708197,0
                -74.12169,4.708166,0
                -74.121626,4.708118,0
                -74.121563,4.708069,0
                -74.121522,4.708038,0
                -74.121476,4.708002,0
                -74.121406,4.707949,0
                -74.121343,4.707901,0
                -74.12128,4.707852,0
                -74.121217,4.707803,0
                -74.121154,4.707755,0
                -74.121073,4.707694,0
                -74.121029,4.707657,0
                -74.120966,4.707608,0
                -74.120904,4.707559,0
                -74.120861,4.707525,0
                -74.12081,4.707485,0
                -74.120748,4.707436,0
                -74.120686,4.707386,0
                -74.120583,4.707304,0
                -74.119935,4.706767,0
                -74.11973,4.706598,0
                -74.119525,4.706424,0
                -74.119381,4.7063,0
                -74.119267,4.706201,0
                -74.118991,4.705963,0
                -74.118521,4.705558,0
                -74.118314,4.705379,0
                -74.118156,4.705243,0
                -74.117829,4.704961,0
                -74.117483,4.704662,0
                -74.11717,4.704392,0
                -74.116846,4.704113,0
                -74.116548,4.703856,0
                -74.116243,4.703593,0
                -74.11612,4.703486,0
                -74.115932,4.703324,0
                -74.115773,4.703187,0
                -74.115626,4.70306,0
                -74.115483,4.702937,0
                -74.115338,4.702812,0
                -74.115155,4.702654,0
                -74.115052,4.702565,0
                -74.114826,4.70237,0
                -74.114522,4.702108,0
                -74.114232,4.701858,0
                -74.113953,4.701617,0
                -74.113586,4.701352,0
                -74.113375,4.701069,0
                -74.113326,4.701163,0
              </coordinates>
            </LinearRing>
          </outerBoundaryIs>
        </Polygon>
      </Placemark>
      <Placemark>
        <name/>
        <description><![CDATA[Descripción: <br>Reg_Nom: Bogota 150<br>Dominio: Bogota<br>Region: 150<br>Zona: 115<br>Seccion: C<br>Zsec: 115C]]></description>
        <styleUrl>#poly-FF5252-3101-56</styleUrl>
        <ExtendedData>
          <Data name="Descripción">
            <value/>
          </Data>
          <Data name="Reg_Nom">
            <value>Bogota 150</value>
          </Data>
          <Data name="Dominio">
            <value>Bogota</value>
          </Data>
          <Data name="Region">
            <value>150</value>
          </Data>
          <Data name="Zona">
            <value>115</value>
          </Data>
          <Data name="Seccion">
            <value>C</value>
          </Data>
          <Data name="Zsec">
            <value>115C</value>
          </Data>
        </ExtendedData>
        <Polygon>
          <outerBoundaryIs>
            <LinearRing>
              <tessellate>1</tessellate>
              <coordinates>
                -74.113375,4.701069,0
                -74.113586,4.701352,0
                -74.113953,4.701617,0
                -74.114232,4.701858,0
                -74.114522,4.702108,0
                -74.114826,4.70237,0
                -74.115052,4.702565,0
                -74.115155,4.702654,0
                -74.115338,4.702812,0
                -74.115483,4.702937,0
                -74.115626,4.70306,0
                -74.115773,4.703187,0
                -74.115932,4.703324,0
                -74.11612,4.703486,0
                -74.116243,4.703593,0
                -74.116548,4.703856,0
                -74.116846,4.704113,0
                -74.11717,4.704392,0
                -74.117483,4.704662,0
                -74.117829,4.704961,0
                -74.118156,4.705243,0
                -74.118314,4.705379,0
                -74.118521,4.705558,0
                -74.118991,4.705963,0
                -74.119267,4.706201,0
                -74.119381,4.7063,0
                -74.119525,4.706424,0
                -74.11973,4.706598,0
                -74.119935,4.706767,0
                -74.120583,4.707304,0
                -74.120686,4.707386,0
                -74.120748,4.707436,0
                -74.12081,4.707485,0
                -74.120861,4.707525,0
                -74.120904,4.707559,0
                -74.120966,4.707608,0
                -74.121029,4.707657,0
                -74.121073,4.707694,0
                -74.121154,4.707755,0
                -74.121217,4.707803,0
                -74.12128,4.707852,0
                -74.121343,4.707901,0
                -74.121406,4.707949,0
                -74.121476,4.708002,0
                -74.121522,4.708038,0
                -74.121563,4.708069,0
                -74.121626,4.708118,0
                -74.12169,4.708166,0
                -74.121731,4.708197,0
                -74.121789,4.708241,0
                -74.121853,4.708289,0
                -74.121949,4.708363,0
                -74.122011,4.70841,0
                -74.122245,4.708587,0
                -74.122296,4.708625,0
                -74.122359,4.708673,0
                -74.122423,4.70872,0
                -74.122462,4.708751,0
                -74.122518,4.708792,0
                -74.122581,4.70884,0
                -74.122671,4.708913,0
                -74.12274,4.70896,0
                -74.122835,4.709031,0
                -74.122899,4.709078,0
                -74.122962,4.709126,0
                -74.123035,4.709181,0
                -74.123056,4.709197,0
                -74.123094,4.709225,0
                -74.123185,4.709292,0
                -74.123272,4.709358,0
                -74.123312,4.709387,0
                -74.123376,4.709435,0
                -74.123469,4.709504,0
                -74.123535,4.709554,0
                -74.123599,4.709601,0
                -74.123685,4.709665,0
                -74.123726,4.709695,0
                -74.12379,4.709743,0
                -74.123854,4.70979,0
                -74.123899,4.709831,0
                -74.123949,4.709861,0
                -74.124014,4.709908,0
                -74.124077,4.709955,0
                -74.124141,4.710002,0
                -74.124205,4.71005,0
                -74.12428,4.710105,0
                -74.124333,4.710144,0
                -74.124397,4.710191,0
                -74.124487,4.710257,0
                -74.124525,4.710285,0
                -74.124589,4.710332,0
                -74.124653,4.710379,0
                -74.1247,4.710414,0
                -74.124749,4.710449,0
                -74.124813,4.710496,0
                -74.124872,4.710539,0
                -74.124944,4.710592,0
                -74.125005,4.710637,0
                -74.125069,4.710684,0
                -74.125134,4.710731,0
                -74.125198,4.710778,0
                -74.125262,4.710824,0
                -74.125326,4.710871,0
                -74.125476,4.710982,0
                -74.125567,4.711038,0
                -74.125597,4.71106,0
                -74.125629,4.711085,0
                -74.125655,4.711108,0
                -74.125686,4.711133,0
                -74.125744,4.711174,0
                -74.125808,4.711221,0
                -74.125908,4.711293,0
                -74.125969,4.711337,0
                -74.126033,4.711383,0
                -74.126098,4.71143,0
                -74.126136,4.711457,0
                -74.126181,4.71149,0
                -74.126361,4.711626,0
                -74.126562,4.711778,0
                -74.126675,4.711864,0
                -74.126877,4.712017,0
                -74.127094,4.712181,0
                -74.127298,4.712336,0
                -74.127517,4.712502,0
                -74.127733,4.712666,0
                -74.12795,4.712831,0
                -74.128166,4.712994,0
                -74.128387,4.713161,0
                -74.128606,4.713328,0
                -74.128768,4.713524,0
                -74.129422,4.7137,0
                -74.13086,4.715162,0
                -74.129068,4.711522,0
                -74.128949,4.710868,0
                -74.127045,4.709797,0
                -74.127938,4.708131,0
                -74.128711,4.706763,0
                -74.128949,4.705573,0
                -74.129009,4.704562,0
                -74.128354,4.703551,0
                -74.126926,4.703253,0
                -74.125618,4.703075,0
                -74.123655,4.702123,0
                -74.122941,4.701588,0
                -74.122643,4.700279,0
                -74.122667,4.699458,0
                -74.123524,4.696745,0
                -74.123702,4.695568,0
                -74.124058,4.694556,0
                -74.123846,4.694384,0
                -74.123592,4.694176,0
                -74.123322,4.693957,0
                -74.123021,4.693763,0
                -74.122645,4.693519,0
                -74.122286,4.693291,0
                -74.121085,4.692415,0
                -74.120576,4.692152,0
                -74.119463,4.693292,0
                -74.119003,4.693772,0
                -74.118887,4.693893,0
                -74.118431,4.694369,0
                -74.118288,4.694519,0
                -74.11803,4.694771,0
                -74.11797,4.694831,0
                -74.1179,4.694924,0
                -74.117756,4.695048,0
                -74.11751,4.695335,0
                -74.117198,4.695699,0
                -74.117083,4.695862,0
                -74.11681,4.696254,0
                -74.116759,4.696339,0
                -74.11671,4.696421,0
                -74.116482,4.696807,0
                -74.11637,4.696996,0
                -74.116185,4.697351,0
                -74.116053,4.697607,0
                -74.11605,4.697688,0
                -74.115255,4.69916,0
                -74.115106,4.699309,0
                -74.114484,4.698991,0
                -74.114306,4.699317,0
                -74.114164,4.699577,0
                -74.11397,4.69997,0
                -74.113875,4.700164,0
                -74.11383,4.700245,0
                -74.113795,4.700313,0
                -74.113574,4.700714,0
                -74.113375,4.701069,0
              </coordinates>
            </LinearRing>
          </outerBoundaryIs>
        </Polygon>
      </Placemark>
      <Placemark>
        <name/>
        <description><![CDATA[Descripción: <br>Reg_Nom: Bogota 150<br>Dominio: Bogota<br>Region: 150<br>Zona: 115<br>Seccion: D<br>Zsec: 115D]]></description>
        <styleUrl>#poly-7CB342-3101-61</styleUrl>
        <ExtendedData>
          <Data name="Descripción">
            <value/>
          </Data>
          <Data name="Reg_Nom">
            <value>Bogota 150</value>
          </Data>
          <Data name="Dominio">
            <value>Bogota</value>
          </Data>
          <Data name="Region">
            <value>150</value>
          </Data>
          <Data name="Zona">
            <value>115</value>
          </Data>
          <Data name="Seccion">
            <value>D</value>
          </Data>
          <Data name="Zsec">
            <value>115D</value>
          </Data>
        </ExtendedData>
        <Polygon>
          <outerBoundaryIs>
            <LinearRing>
              <tessellate>1</tessellate>
              <coordinates>
                -74.135024,4.702874,0
                -74.134909,4.702789,0
                -74.134352,4.702378,0
                -74.133852,4.70194,0
                -74.133472,4.701664,0
                -74.133014,4.70133,0
                -74.132756,4.70116,0
                -74.132535,4.700992,0
                -74.132147,4.700698,0
                -74.131913,4.700521,0
                -74.131692,4.700352,0
                -74.131594,4.700277,0
                -74.13143,4.700146,0
                -74.131172,4.699927,0
                -74.130833,4.699719,0
                -74.130555,4.699503,0
                -74.130312,4.699314,0
                -74.130117,4.699162,0
                -74.129675,4.698818,0
                -74.129442,4.69864,0
                -74.129106,4.698382,0
                -74.128842,4.69818,0
                -74.128605,4.697996,0
                -74.128323,4.69782,0
                -74.128039,4.697618,0
                -74.127801,4.697443,0
                -74.127448,4.697185,0
                -74.127205,4.697007,0
                -74.126972,4.69682,0
                -74.126341,4.696331,0
                -74.125564,4.695728,0
                -74.124792,4.695129,0
                -74.124117,4.694605,0
                -74.124058,4.694556,0
                -74.123702,4.695568,0
                -74.123524,4.696745,0
                -74.122667,4.699458,0
                -74.122643,4.700279,0
                -74.122941,4.701588,0
                -74.123655,4.702123,0
                -74.125618,4.703075,0
                -74.126926,4.703253,0
                -74.128354,4.703551,0
                -74.129009,4.704562,0
                -74.128949,4.705573,0
                -74.128711,4.706763,0
                -74.127938,4.708131,0
                -74.127045,4.709797,0
                -74.128949,4.710868,0
                -74.129068,4.711522,0
                -74.130507,4.714444,0
                -74.134004,4.710813,0
                -74.13429,4.71048,0
                -74.133766,4.709528,0
                -74.133766,4.708006,0
                -74.133481,4.705483,0
                -74.1341,4.705674,0
                -74.136193,4.705245,0
                -74.135051,4.703009,0
                -74.135024,4.702874,0
              </coordinates>
            </LinearRing>
          </outerBoundaryIs>
        </Polygon>
      </Placemark>
      <Placemark>
        <name/>
        <description><![CDATA[Descripción: <br>Reg_Nom: Bogota 150<br>Dominio: Bogota<br>Region: 150<br>Zona: 115<br>Seccion: E<br>Zsec: 115E]]></description>
        <styleUrl>#poly-9C27B0-3501-54</styleUrl>
        <ExtendedData>
          <Data name="Descripción">
            <value/>
          </Data>
          <Data name="Reg_Nom">
            <value>Bogota 150</value>
          </Data>
          <Data name="Dominio">
            <value>Bogota</value>
          </Data>
          <Data name="Region">
            <value>150</value>
          </Data>
          <Data name="Zona">
            <value>115</value>
          </Data>
          <Data name="Seccion">
            <value>E</value>
          </Data>
          <Data name="Zsec">
            <value>115E</value>
          </Data>
        </ExtendedData>
        <Polygon>
          <outerBoundaryIs>
            <LinearRing>
              <tessellate>1</tessellate>
              <coordinates>
                -74.130507,4.714444,0
                -74.130955,4.715354,0
                -74.130984,4.715323,0
                -74.133054,4.717179,0
                -74.133768,4.716679,0
                -74.135767,4.718321,0
                -74.136837,4.719392,0
                -74.139336,4.718036,0
                -74.140549,4.71932,0
                -74.14318,4.718041,0
                -74.143145,4.717974,0
                -74.143829,4.717706,0
                -74.14377,4.716427,0
                -74.14377,4.715535,0
                -74.143919,4.715148,0
                -74.144038,4.714613,0
                -74.143889,4.714048,0
                -74.144127,4.713512,0
                -74.145019,4.712501,0
                -74.145554,4.712114,0
                -74.14606,4.711906,0
                -74.14688,4.711669,0
                -74.14648,4.711353,0
                -74.146157,4.711096,0
                -74.145568,4.710644,0
                -74.145409,4.710517,0
                -74.144652,4.710163,0
                -74.144441,4.709922,0
                -74.144236,4.709741,0
                -74.144021,4.709552,0
                -74.143863,4.709413,0
                -74.143682,4.709254,0
                -74.14314,4.708816,0
                -74.142507,4.708346,0
                -74.142335,4.708218,0
                -74.142235,4.708143,0
                -74.141872,4.707873,0
                -74.141469,4.707532,0
                -74.140274,4.706593,0
                -74.139768,4.706225,0
                -74.137794,4.704832,0
                -74.137253,4.704397,0
                -74.136758,4.70407,0
                -74.136301,4.703768,0
                -74.135747,4.703398,0
                -74.135129,4.702952,0
                -74.135024,4.702874,0
                -74.135051,4.703009,0
                -74.136193,4.705245,0
                -74.1341,4.705674,0
                -74.133481,4.705483,0
                -74.133766,4.708006,0
                -74.133766,4.709528,0
                -74.13429,4.71048,0
                -74.134004,4.710813,0
                -74.130507,4.714444,0
              </coordinates>
            </LinearRing>
          </outerBoundaryIs>
        </Polygon>
      </Placemark>
      <Placemark>
        <name/>
        <description><![CDATA[Descripción: <br>Reg_Nom: Bogota 150<br>Dominio: Bogota<br>Region: 150<br>Zona: 115<br>Seccion: H<br>Zsec: 115H]]></description>
        <styleUrl>#poly-0288D1-3501-76</styleUrl>
        <ExtendedData>
          <Data name="Descripción">
            <value/>
          </Data>
          <Data name="Reg_Nom">
            <value>Bogota 150</value>
          </Data>
          <Data name="Dominio">
            <value>Bogota</value>
          </Data>
          <Data name="Region">
            <value>150</value>
          </Data>
          <Data name="Zona">
            <value>115</value>
          </Data>
          <Data name="Seccion">
            <value>H</value>
          </Data>
          <Data name="Zsec">
            <value>115H</value>
          </Data>
        </ExtendedData>
        <Polygon>
          <outerBoundaryIs>
            <LinearRing>
              <tessellate>1</tessellate>
              <coordinates>
                -74.1044,4.721099,0
                -74.103596,4.722754,0
                -74.103734,4.722815,0
                -74.105381,4.722946,0
                -74.106306,4.723991,0
                -74.113335,4.719304,0
                -74.113942,4.719447,0
                -74.115191,4.71859,0
                -74.11769,4.717127,0
                -74.11779,4.717077,0
                -74.117703,4.716953,0
                -74.117671,4.716909,0
                -74.117636,4.71686,0
                -74.11745,4.716596,0
                -74.117412,4.716541,0
                -74.117247,4.716324,0
                -74.116881,4.715841,0
                -74.116736,4.715634,0
                -74.116188,4.714854,0
                -74.115979,4.71455,0
                -74.115133,4.713319,0
                -74.11511,4.713287,0
                -74.114896,4.712983,0
                -74.114701,4.712708,0
                -74.114675,4.712671,0
                -74.114375,4.712313,0
                -74.114221,4.712129,0
                -74.113555,4.711335,0
                -74.113469,4.711233,0
                -74.113016,4.710785,0
                -74.11224,4.710018,0
                -74.110799,4.708594,0
                -74.110033,4.707784,0
                -74.109705,4.707526,0
                -74.109276,4.707748,0
                -74.108267,4.711997,0
                -74.105709,4.717589,0
                -74.1044,4.721099,0
              </coordinates>
            </LinearRing>
          </outerBoundaryIs>
        </Polygon>
      </Placemark>
      <Placemark>
        <name/>
        <description><![CDATA[Descripción: <br>Reg_Nom: Bogota 150<br>Dominio: Bogota<br>Region: 150<br>Zona: 115<br>Seccion: G<br>Zsec: 115G]]></description>
        <styleUrl>#poly-FFEA00-3401-76</styleUrl>
        <ExtendedData>
          <Data name="Descripción">
            <value/>
          </Data>
          <Data name="Reg_Nom">
            <value>Bogota 150</value>
          </Data>
          <Data name="Dominio">
            <value>Bogota</value>
          </Data>
          <Data name="Region">
            <value>150</value>
          </Data>
          <Data name="Zona">
            <value>115</value>
          </Data>
          <Data name="Seccion">
            <value>G</value>
          </Data>
          <Data name="Zsec">
            <value>115G</value>
          </Data>
        </ExtendedData>
        <Polygon>
          <outerBoundaryIs>
            <LinearRing>
              <tessellate>1</tessellate>
              <coordinates>
                -74.106306,4.723991,0
                -74.106369,4.724063,0
                -74.106945,4.726166,0
                -74.107819,4.726689,0
                -74.108873,4.727345,0
                -74.109465,4.728199,0
                -74.109662,4.728982,0
                -74.11047,4.729692,0
                -74.110717,4.729774,0
                -74.112166,4.730759,0
                -74.112891,4.732204,0
                -74.11355,4.733845,0
                -74.114736,4.735092,0
                -74.117502,4.736405,0
                -74.117752,4.736242,0
                -74.117856,4.736346,0
                -74.124201,4.734803,0
                -74.124925,4.731754,0
                -74.12176,4.730128,0
                -74.126268,4.727772,0
                -74.12632,4.727745,0
                -74.125681,4.727034,0
                -74.125253,4.726531,0
                -74.124905,4.726183,0
                -74.123885,4.725152,0
                -74.123312,4.724573,0
                -74.122901,4.724059,0
                -74.122165,4.723137,0
                -74.121908,4.722802,0
                -74.12097,4.721648,0
                -74.120407,4.720954,0
                -74.120035,4.720359,0
                -74.119474,4.719462,0
                -74.118673,4.718324,0
                -74.118573,4.718184,0
                -74.117862,4.717178,0
                -74.11779,4.717077,0
                -74.11769,4.717127,0
                -74.115191,4.71859,0
                -74.113942,4.719447,0
                -74.113335,4.719304,0
                -74.106306,4.723991,0
              </coordinates>
            </LinearRing>
          </outerBoundaryIs>
        </Polygon>
      </Placemark>
    </Folder>
  </Document>
</kml>
