<?xml version="1.0" encoding="UTF-8"?>
<kml xmlns="http://www.opengis.net/kml/2.2">
  <Document>
    <name>Zona 139</name>
    <description/>
    <Style id="poly-0288D1-2901-76-normal">
      <LineStyle>
        <color>ffd18802</color>
        <width>2.901</width>
      </LineStyle>
      <PolyStyle>
        <color>4cd18802</color>
        <fill>1</fill>
        <outline>1</outline>
      </PolyStyle>
    </Style>
    <Style id="poly-0288D1-2901-76-highlight">
      <LineStyle>
        <color>ffd18802</color>
        <width>4.3515</width>
      </LineStyle>
      <PolyStyle>
        <color>4cd18802</color>
        <fill>1</fill>
        <outline>1</outline>
      </PolyStyle>
    </Style>
    <StyleMap id="poly-0288D1-2901-76">
      <Pair>
        <key>normal</key>
        <styleUrl>#poly-0288D1-2901-76-normal</styleUrl>
      </Pair>
      <Pair>
        <key>highlight</key>
        <styleUrl>#poly-0288D1-2901-76-highlight</styleUrl>
      </Pair>
    </StyleMap>
    <Style id="poly-7CB342-3101-76-normal">
      <LineStyle>
        <color>ff42b37c</color>
        <width>3.101</width>
      </LineStyle>
      <PolyStyle>
        <color>4c42b37c</color>
        <fill>1</fill>
        <outline>1</outline>
      </PolyStyle>
    </Style>
    <Style id="poly-7CB342-3101-76-highlight">
      <LineStyle>
        <color>ff42b37c</color>
        <width>4.6515</width>
      </LineStyle>
      <PolyStyle>
        <color>4c42b37c</color>
        <fill>1</fill>
        <outline>1</outline>
      </PolyStyle>
    </Style>
    <StyleMap id="poly-7CB342-3101-76">
      <Pair>
        <key>normal</key>
        <styleUrl>#poly-7CB342-3101-76-normal</styleUrl>
      </Pair>
      <Pair>
        <key>highlight</key>
        <styleUrl>#poly-7CB342-3101-76-highlight</styleUrl>
      </Pair>
    </StyleMap>
    <Style id="poly-9C27B0-3301-76-normal">
      <LineStyle>
        <color>ffb0279c</color>
        <width>3.301</width>
      </LineStyle>
      <PolyStyle>
        <color>4cb0279c</color>
        <fill>1</fill>
        <outline>1</outline>
      </PolyStyle>
    </Style>
    <Style id="poly-9C27B0-3301-76-highlight">
      <LineStyle>
        <color>ffb0279c</color>
        <width>4.9515</width>
      </LineStyle>
      <PolyStyle>
        <color>4cb0279c</color>
        <fill>1</fill>
        <outline>1</outline>
      </PolyStyle>
    </Style>
    <StyleMap id="poly-9C27B0-3301-76">
      <Pair>
        <key>normal</key>
        <styleUrl>#poly-9C27B0-3301-76-normal</styleUrl>
      </Pair>
      <Pair>
        <key>highlight</key>
        <styleUrl>#poly-9C27B0-3301-76-highlight</styleUrl>
      </Pair>
    </StyleMap>
    <Style id="poly-FF5252-3401-76-normal">
      <LineStyle>
        <color>ff5252ff</color>
        <width>3.401</width>
      </LineStyle>
      <PolyStyle>
        <color>4c5252ff</color>
        <fill>1</fill>
        <outline>1</outline>
      </PolyStyle>
    </Style>
    <Style id="poly-FF5252-3401-76-highlight">
      <LineStyle>
        <color>ff5252ff</color>
        <width>5.1015</width>
      </LineStyle>
      <PolyStyle>
        <color>4c5252ff</color>
        <fill>1</fill>
        <outline>1</outline>
      </PolyStyle>
    </Style>
    <StyleMap id="poly-FF5252-3401-76">
      <Pair>
        <key>normal</key>
        <styleUrl>#poly-FF5252-3401-76-normal</styleUrl>
      </Pair>
      <Pair>
        <key>highlight</key>
        <styleUrl>#poly-FF5252-3401-76-highlight</styleUrl>
      </Pair>
    </StyleMap>
    <Style id="poly-FFEA00-3401-61-normal">
      <LineStyle>
        <color>ff00eaff</color>
        <width>3.401</width>
      </LineStyle>
      <PolyStyle>
        <color>3d00eaff</color>
        <fill>1</fill>
        <outline>1</outline>
      </PolyStyle>
    </Style>
    <Style id="poly-FFEA00-3401-61-highlight">
      <LineStyle>
        <color>ff00eaff</color>
        <width>5.1015</width>
      </LineStyle>
      <PolyStyle>
        <color>3d00eaff</color>
        <fill>1</fill>
        <outline>1</outline>
      </PolyStyle>
    </Style>
    <StyleMap id="poly-FFEA00-3401-61">
      <Pair>
        <key>normal</key>
        <styleUrl>#poly-FFEA00-3401-61-normal</styleUrl>
      </Pair>
      <Pair>
        <key>highlight</key>
        <styleUrl>#poly-FFEA00-3401-61-highlight</styleUrl>
      </Pair>
    </StyleMap>
    <Folder>
      <name>VD139</name>
      <Placemark>
        <name/>
        <description><![CDATA[Descripción: <br>Reg_Nom: Santander 250<br>Dominio: Yopal<br>Region: 250<br>Zona: 139<br>Seccion: B<br>Zsec: 139B]]></description>
        <styleUrl>#poly-0288D1-2901-76</styleUrl>
        <ExtendedData>
          <Data name="Descripción">
            <value/>
          </Data>
          <Data name="Reg_Nom">
            <value>Santander 250</value>
          </Data>
          <Data name="Dominio">
            <value>Yopal</value>
          </Data>
          <Data name="Region">
            <value>250</value>
          </Data>
          <Data name="Zona">
            <value>139</value>
          </Data>
          <Data name="Seccion">
            <value>B</value>
          </Data>
          <Data name="Zsec">
            <value>139B</value>
          </Data>
        </ExtendedData>
        <Polygon>
          <outerBoundaryIs>
            <LinearRing>
              <tessellate>1</tessellate>
              <coordinates>
                -72.405103,5.324195,0
                -72.404972,5.323053,0
                -72.404283,5.315199,0
                -72.404016,5.31206,0
                -72.403715,5.309402,0
                -72.403465,5.309522,0
                -72.403422,5.309256,0
                -72.403362,5.309222,0
                -72.403078,5.309342,0
                -72.400985,5.310345,0
                -72.40095,5.310379,0
                -72.400959,5.310457,0
                -72.400993,5.310551,0
                -72.400821,5.310594,0
                -72.40064,5.31062,0
                -72.40064,5.310722,0
                -72.400649,5.3108,0
                -72.400658,5.310911,0
                -72.40052,5.310937,0
                -72.400115,5.31098,0
                -72.399943,5.310971,0
                -72.399891,5.311031,0
                -72.399848,5.311074,0
                -72.399848,5.311194,0
                -72.399874,5.311348,0
                -72.399745,5.311348,0
                -72.399607,5.311357,0
                -72.399461,5.311426,0
                -72.3994,5.311409,0
                -72.399349,5.311383,0
                -72.399271,5.3114,0
                -72.399159,5.311426,0
                -72.399116,5.311443,0
                -72.399039,5.311529,0
                -72.398987,5.31152,0
                -72.398832,5.311503,0
                -72.398703,5.311546,0
                -72.398625,5.311657,0
                -72.398685,5.312266,0
                -72.398272,5.312343,0
                -72.398238,5.312446,0
                -72.397368,5.312532,0
                -72.397006,5.312583,0
                -72.396825,5.3126,0
                -72.396627,5.312738,0
                -72.396403,5.312815,0
                -72.396334,5.312815,0
                -72.396308,5.313081,0
                -72.396352,5.313509,0
                -72.396153,5.313535,0
                -72.396041,5.313638,0
                -72.396041,5.314041,0
                -72.396128,5.31489,0
                -72.396197,5.31549,0
                -72.396248,5.315859,0
                -72.396326,5.316897,0
                -72.39636,5.317171,0
                -72.396283,5.317197,0
                -72.396283,5.317565,0
                -72.396291,5.318046,0
                -72.396352,5.318534,0
                -72.395783,5.318732,0
                -72.395464,5.316914,0
                -72.395396,5.316888,0
                -72.395103,5.316939,0
                -72.394922,5.317,0
                -72.394698,5.316039,0
                -72.394543,5.314813,0
                -72.39444,5.314641,0
                -72.394319,5.31459,0
                -72.394198,5.314693,0
                -72.39394,5.314881,0
                -72.393837,5.315053,0
                -72.39382,5.31519,0
                -72.393665,5.315293,0
                -72.393596,5.315465,0
                -72.39363,5.315688,0
                -72.393751,5.316236,0
                -72.393148,5.316322,0
                -72.392734,5.316374,0
                -72.392717,5.316717,0
                -72.392442,5.316648,0
                -72.392287,5.316528,0
                -72.392218,5.316202,0
                -72.392045,5.315413,0
                -72.391856,5.314333,0
                -72.391735,5.313818,0
                -72.39177,5.313407,0
                -72.391908,5.313064,0
                -72.392493,5.311829,0
                -72.392597,5.31152,0
                -72.392597,5.311074,0
                -72.392287,5.310765,0
                -72.391735,5.310217,0
                -72.391046,5.309565,0
                -72.389462,5.311177,0
                -72.386361,5.314161,0
                -72.386086,5.31447,0
                -72.383089,5.317385,0
                -72.380746,5.319786,0
                -72.38004,5.32073,0
                -72.379971,5.320884,0
                -72.379885,5.321056,0
                -72.379558,5.321621,0
                -72.379386,5.321862,0
                -72.378714,5.322599,0
                -72.378283,5.323028,0
                -72.377715,5.323542,0
                -72.377543,5.323388,0
                -72.375131,5.321381,0
                -72.373529,5.320027,0
                -72.371876,5.321433,0
                -72.37148,5.321742,0
                -72.371049,5.322102,0
                -72.370705,5.32241,0
                -72.370326,5.322753,0
                -72.370928,5.323422,0
                -72.371583,5.32416,0
                -72.371772,5.324365,0
                -72.372048,5.324606,0
                -72.37241,5.324297,0
                -72.372444,5.324365,0
                -72.374683,5.326595,0
                -72.376199,5.328207,0
                -72.378363,5.330308,0
                -72.379134,5.329597,0
                -72.379434,5.330066,0
                -72.380342,5.331589,0
                -72.382721,5.335505,0
                -72.388408,5.332593,0
                -72.391266,5.331009,0
                -72.392237,5.330477,0
                -72.394471,5.32922,0
                -72.395709,5.328881,0
                -72.397797,5.32835,0
                -72.400128,5.327769,0
                -72.401293,5.327407,0
                -72.40173,5.326972,0
                -72.403235,5.325521,0
                -72.404103,5.324833,0
                -72.404673,5.324355,0
                -72.404983,5.32427,0
                -72.405103,5.324195,0
              </coordinates>
            </LinearRing>
          </outerBoundaryIs>
        </Polygon>
      </Placemark>
      <Placemark>
        <name/>
        <description><![CDATA[Descripción: <br>Reg_Nom: Santander 250<br>Dominio: Aguazul<br>Region: 250<br>Zona: 139<br>Seccion: D<br>Zsec: 139D]]></description>
        <styleUrl>#poly-7CB342-3101-76</styleUrl>
        <ExtendedData>
          <Data name="Descripción">
            <value/>
          </Data>
          <Data name="Reg_Nom">
            <value>Santander 250</value>
          </Data>
          <Data name="Dominio">
            <value>Aguazul</value>
          </Data>
          <Data name="Region">
            <value>250</value>
          </Data>
          <Data name="Zona">
            <value>139</value>
          </Data>
          <Data name="Seccion">
            <value>D</value>
          </Data>
          <Data name="Zsec">
            <value>139D</value>
          </Data>
        </ExtendedData>
        <Polygon>
          <outerBoundaryIs>
            <LinearRing>
              <tessellate>1</tessellate>
              <coordinates>
                -72.540976,5.185392,0
                -72.545092,5.183762,0
                -72.548675,5.182544,0
                -72.55286,5.181001,0
                -72.55553,5.18004,0
                -72.556632,5.179697,0
                -72.55708,5.179594,0
                -72.558148,5.179577,0
                -72.558613,5.179611,0
                -72.560008,5.179611,0
                -72.561162,5.17968,0
                -72.561731,5.17968,0
                -72.563505,5.179628,0
                -72.562678,5.179079,0
                -72.560887,5.178325,0
                -72.55944,5.177364,0
                -72.558338,5.176952,0
                -72.555651,5.175443,0
                -72.555513,5.173041,0
                -72.554342,5.171532,0
                -72.551861,5.168993,0
                -72.547831,5.164756,0
                -72.545523,5.16244,0
                -72.546057,5.161805,0
                -72.546832,5.161067,0
                -72.547452,5.160501,0
                -72.547228,5.16009,0
                -72.546746,5.159626,0
                -72.547073,5.159318,0
                -72.547796,5.158752,0
                -72.548124,5.158443,0
                -72.548468,5.158117,0
                -72.547814,5.157688,0
                -72.546935,5.157105,0
                -72.546694,5.157362,0
                -72.546367,5.15707,0
                -72.546022,5.157379,0
                -72.546315,5.157637,0
                -72.545626,5.158254,0
                -72.54523,5.157928,0
                -72.544903,5.15822,0
                -72.544128,5.157671,0
                -72.5438,5.158597,0
                -72.543731,5.159026,0
                -72.543818,5.159661,0
                -72.543387,5.160107,0
                -72.540011,5.162851,0
                -72.535188,5.159798,0
                -72.533948,5.16093,0
                -72.532949,5.161822,0
                -72.532432,5.162405,0
                -72.531916,5.163057,0
                -72.530675,5.164773,0
                -72.530434,5.165253,0
                -72.530331,5.16563,0
                -72.530365,5.166042,0
                -72.530503,5.166282,0
                -72.531192,5.166969,0
                -72.532811,5.168615,0
                -72.535774,5.171463,0
                -72.536876,5.172527,0
                -72.538047,5.173624,0
                -72.538736,5.174482,0
                -72.539356,5.17534,0
                -72.53977,5.176095,0
                -72.540459,5.176952,0
                -72.540459,5.177295,0
                -72.540562,5.178153,0
                -72.540803,5.178599,0
                -72.541664,5.179388,0
                -72.541458,5.180932,0
                -72.541182,5.183539,0
                -72.540976,5.185392,0
              </coordinates>
            </LinearRing>
          </outerBoundaryIs>
        </Polygon>
      </Placemark>
      <Placemark>
        <name/>
        <description><![CDATA[Descripción: <br>Reg_Nom: Santander 250<br>Dominio: Yopal<br>Region: 250<br>Zona: 139<br>Seccion: C<br>Zsec: 139C]]></description>
        <styleUrl>#poly-FF5252-3401-76</styleUrl>
        <ExtendedData>
          <Data name="Descripción">
            <value/>
          </Data>
          <Data name="Reg_Nom">
            <value>Santander 250</value>
          </Data>
          <Data name="Dominio">
            <value>Yopal</value>
          </Data>
          <Data name="Region">
            <value>250</value>
          </Data>
          <Data name="Zona">
            <value>139</value>
          </Data>
          <Data name="Seccion">
            <value>C</value>
          </Data>
          <Data name="Zsec">
            <value>139C</value>
          </Data>
        </ExtendedData>
        <Polygon>
          <outerBoundaryIs>
            <LinearRing>
              <tessellate>1</tessellate>
              <coordinates>
                -72.388408,5.332593,0
                -72.388936,5.333559,0
                -72.391072,5.33733,0
                -72.395054,5.344774,0
                -72.395782,5.345983,0
                -72.394714,5.346612,0
                -72.392565,5.347856,0
                -72.392832,5.348304,0
                -72.393014,5.348678,0
                -72.393445,5.349483,0
                -72.393648,5.349518,0
                -72.393835,5.34955,0
                -72.394956,5.349816,0
                -72.3963,5.350159,0
                -72.396834,5.350004,0
                -72.397333,5.350845,0
                -72.397712,5.351548,0
                -72.39866,5.351102,0
                -72.399073,5.351736,0
                -72.39928,5.351908,0
                -72.400193,5.351445,0
                -72.40064,5.352285,0
                -72.400933,5.352611,0
                -72.401984,5.351736,0
                -72.402087,5.351925,0
                -72.403103,5.351359,0
                -72.403241,5.351376,0
                -72.403396,5.351256,0
                -72.402802,5.349258,0
                -72.402526,5.347852,0
                -72.402526,5.346686,0
                -72.402802,5.345623,0
                -72.403525,5.344079,0
                -72.404387,5.342227,0
                -72.405627,5.339277,0
                -72.407453,5.33571,0
                -72.408245,5.334132,0
                -72.408865,5.332829,0
                -72.409726,5.331045,0
                -72.410243,5.330325,0
                -72.41045,5.329296,0
                -72.410984,5.328456,0
                -72.41169,5.326912,0
                -72.412224,5.325832,0
                -72.412792,5.324717,0
                -72.413137,5.324203,0
                -72.413722,5.323654,0
                -72.41436,5.322933,0
                -72.414962,5.322367,0
                -72.415634,5.321699,0
                -72.415617,5.321647,0
                -72.415393,5.321476,0
                -72.415255,5.321373,0
                -72.415135,5.321321,0
                -72.4151,5.32127,0
                -72.415066,5.320944,0
                -72.414945,5.320447,0
                -72.415031,5.320035,0
                -72.415066,5.319761,0
                -72.415117,5.319349,0
                -72.415152,5.318526,0
                -72.415186,5.318217,0
                -72.415169,5.317874,0
                -72.415066,5.317788,0
                -72.414153,5.31808,0
                -72.412482,5.318509,0
                -72.411862,5.318577,0
                -72.411724,5.318492,0
                -72.411449,5.318577,0
                -72.411104,5.318732,0
                -72.410949,5.318697,0
                -72.409141,5.31868,0
                -72.408589,5.318715,0
                -72.408228,5.318715,0
                -72.40809,5.318869,0
                -72.408055,5.319023,0
                -72.408176,5.31916,0
                -72.408693,5.319229,0
                -72.40871,5.319606,0
                -72.407935,5.319555,0
                -72.407952,5.319898,0
                -72.407832,5.320001,0
                -72.407814,5.320224,0
                -72.408073,5.320309,0
                -72.408434,5.320327,0
                -72.40902,5.320412,0
                -72.409003,5.320807,0
                -72.408917,5.321047,0
                -72.408934,5.32115,0
                -72.409072,5.321441,0
                -72.40964,5.322265,0
                -72.410191,5.32259,0
                -72.410243,5.323053,0
                -72.410277,5.323311,0
                -72.410519,5.323654,0
                -72.40995,5.324151,0
                -72.409606,5.324305,0
                -72.409399,5.324511,0
                -72.409313,5.324751,0
                -72.409261,5.324991,0
                -72.408986,5.32518,0
                -72.408055,5.325832,0
                -72.407125,5.326569,0
                -72.406833,5.326758,0
                -72.40592,5.325506,0
                -72.405592,5.325111,0
                -72.40511,5.324254,0
                -72.405103,5.324195,0
                -72.404983,5.32427,0
                -72.404673,5.324355,0
                -72.404103,5.324833,0
                -72.403235,5.325521,0
                -72.40173,5.326972,0
                -72.401293,5.327407,0
                -72.400128,5.327769,0
                -72.397797,5.32835,0
                -72.395709,5.328881,0
                -72.394471,5.32922,0
                -72.392237,5.330477,0
                -72.391266,5.331009,0
                -72.388408,5.332593,0
              </coordinates>
            </LinearRing>
          </outerBoundaryIs>
        </Polygon>
      </Placemark>
      <Placemark>
        <name/>
        <description><![CDATA[Descripción: <br>Reg_Nom: Santander 250<br>Dominio: Mani<br>Region: 250<br>Zona: 139<br>Seccion: E<br>Zsec: 139E]]></description>
        <styleUrl>#poly-9C27B0-3301-76</styleUrl>
        <ExtendedData>
          <Data name="Descripción">
            <value/>
          </Data>
          <Data name="Reg_Nom">
            <value>Santander 250</value>
          </Data>
          <Data name="Dominio">
            <value>Mani</value>
          </Data>
          <Data name="Region">
            <value>250</value>
          </Data>
          <Data name="Zona">
            <value>139</value>
          </Data>
          <Data name="Seccion">
            <value>E</value>
          </Data>
          <Data name="Zsec">
            <value>139E</value>
          </Data>
        </ExtendedData>
        <Polygon>
          <outerBoundaryIs>
            <LinearRing>
              <tessellate>1</tessellate>
              <coordinates>
                -72.286662,4.825237,0
                -72.28725,4.825644,0
                -72.287837,4.826073,0
                -72.287816,4.826178,0
                -72.288141,4.826721,0
                -72.288351,4.826773,0
                -72.288582,4.826648,0
                -72.289505,4.826157,0
                -72.290407,4.825697,0
                -72.289621,4.824066,0
                -72.288781,4.822331,0
                -72.287848,4.820491,0
                -72.288005,4.820491,0
                -72.288666,4.819979,0
                -72.289285,4.819394,0
                -72.289946,4.818599,0
                -72.290334,4.817909,0
                -72.290911,4.817136,0
                -72.291257,4.816686,0
                -72.291509,4.816415,0
                -72.290166,4.815369,0
                -72.289369,4.814491,0
                -72.28853,4.813237,0
                -72.2879,4.812735,0
                -72.287732,4.812484,0
                -72.287061,4.812275,0
                -72.28618,4.812108,0
                -72.285341,4.811773,0
                -72.284921,4.811481,0
                -72.284292,4.81123,0
                -72.283662,4.811063,0
                -72.282907,4.810854,0
                -72.281816,4.81031,0
                -72.281396,4.809892,0
                -72.281019,4.809474,0
                -72.280809,4.809265,0
                -72.280578,4.809411,0
                -72.280358,4.809693,0
                -72.280127,4.809976,0
                -72.27998,4.809714,0
                -72.279435,4.809275,0
                -72.278721,4.808732,0
                -72.278281,4.808397,0
                -72.277798,4.808146,0
                -72.277358,4.808857,0
                -72.276938,4.80938,0
                -72.276707,4.809819,0
                -72.276204,4.809631,0
                -72.275742,4.809401,0
                -72.274777,4.808773,0
                -72.273602,4.807979,0
                -72.272448,4.807226,0
                -72.271672,4.806746,0
                -72.271022,4.806348,0
                -72.270288,4.806808,0
                -72.269574,4.807415,0
                -72.268819,4.808209,0
                -72.27012,4.808878,0
                -72.271001,4.809338,0
                -72.27163,4.809735,0
                -72.271882,4.809902,0
                -72.271966,4.811408,0
                -72.271924,4.812348,0
                -72.272008,4.812683,0
                -72.271567,4.813143,0
                -72.271316,4.813477,0
                -72.271337,4.813624,0
                -72.271798,4.813958,0
                -72.272281,4.814439,0
                -72.272742,4.814146,0
                -72.273162,4.813686,0
                -72.273791,4.814334,0
                -72.274295,4.814878,0
                -72.275134,4.81561,0
                -72.274421,4.816467,0
                -72.274337,4.816592,0
                -72.273728,4.817219,0
                -72.273518,4.817449,0
                -72.273456,4.8177,0
                -72.273581,4.817868,0
                -72.273791,4.817721,0
                -72.273959,4.817491,0
                -72.274651,4.817972,0
                -72.275616,4.818892,0
                -72.276288,4.819435,0
                -72.276749,4.819791,0
                -72.277022,4.820021,0
                -72.278155,4.820962,0
                -72.278512,4.821338,0
                -72.279183,4.820773,0
                -72.280022,4.820188,0
                -72.281302,4.821359,0
                -72.281659,4.821714,0
                -72.28275,4.82278,0
                -72.283127,4.823115,0
                -72.283736,4.823742,0
                -72.284281,4.824265,0
                -72.284827,4.824683,0
                -72.284973,4.824766,0
                -72.28512,4.824986,0
                -72.28576,4.825791,0
                -72.28619,4.825519,0
                -72.286442,4.82531,0
                -72.286432,4.825122,0
                -72.28661,4.825101,0
                -72.286662,4.825237,0
              </coordinates>
            </LinearRing>
          </outerBoundaryIs>
        </Polygon>
      </Placemark>
      <Placemark>
        <name/>
        <description><![CDATA[Descripción: <br>Reg_Nom: Santander 250<br>Dominio: Tauramena<br>Region: 250<br>Zona: 139<br>Seccion: E<br>Zsec: 139E]]></description>
        <styleUrl>#poly-9C27B0-3301-76</styleUrl>
        <ExtendedData>
          <Data name="Descripción">
            <value/>
          </Data>
          <Data name="Reg_Nom">
            <value>Santander 250</value>
          </Data>
          <Data name="Dominio">
            <value>Tauramena</value>
          </Data>
          <Data name="Region">
            <value>250</value>
          </Data>
          <Data name="Zona">
            <value>139</value>
          </Data>
          <Data name="Seccion">
            <value>E</value>
          </Data>
          <Data name="Zsec">
            <value>139E</value>
          </Data>
        </ExtendedData>
        <Polygon>
          <outerBoundaryIs>
            <LinearRing>
              <tessellate>1</tessellate>
              <coordinates>
                -72.742922,5.024589,0
                -72.742905,5.024743,0
                -72.74287,5.025155,0
                -72.743353,5.025327,0
                -72.744042,5.025481,0
                -72.744438,5.025584,0
                -72.744576,5.025395,0
                -72.744713,5.024984,0
                -72.744817,5.024761,0
                -72.744834,5.024709,0
                -72.745006,5.024675,0
                -72.745075,5.024589,0
                -72.745058,5.02428,0
                -72.745661,5.024246,0
                -72.746109,5.024246,0
                -72.746987,5.024246,0
                -72.747883,5.024246,0
                -72.748727,5.024229,0
                -72.749226,5.024246,0
                -72.74976,5.024263,0
                -72.749881,5.024126,0
                -72.749881,5.023782,0
                -72.749932,5.023714,0
                -72.750397,5.023748,0
                -72.751017,5.023782,0
                -72.751069,5.023285,0
                -72.751104,5.022925,0
                -72.751207,5.02229,0
                -72.751396,5.021003,0
                -72.751689,5.020145,0
                -72.751844,5.020231,0
                -72.752137,5.020385,0
                -72.752292,5.020471,0
                -72.752482,5.020522,0
                -72.752637,5.020419,0
                -72.75286,5.020042,0
                -72.753033,5.020111,0
                -72.753257,5.020196,0
                -72.753343,5.020128,0
                -72.753463,5.020111,0
                -72.753704,5.020162,0
                -72.753842,5.020128,0
                -72.754015,5.020162,0
                -72.754497,5.020265,0
                -72.755048,5.020419,0
                -72.75553,5.020574,0
                -72.755892,5.02066,0
                -72.756495,5.020797,0
                -72.756409,5.020385,0
                -72.756185,5.019562,0
                -72.756064,5.019133,0
                -72.75572,5.018841,0
                -72.755117,5.018412,0
                -72.754669,5.018017,0
                -72.75429,5.017554,0
                -72.753894,5.016868,0
                -72.753825,5.016576,0
                -72.753773,5.016199,0
                -72.753601,5.015873,0
                -72.753463,5.015701,0
                -72.753015,5.015289,0
                -72.752912,5.015135,0
                -72.753188,5.014826,0
                -72.753481,5.014551,0
                -72.753601,5.014363,0
                -72.753429,5.014225,0
                -72.753033,5.014002,0
                -72.752895,5.013831,0
                -72.752395,5.013402,0
                -72.752482,5.013316,0
                -72.752172,5.01299,0
                -72.751775,5.01335,0
                -72.751517,5.013162,0
                -72.751427,5.013054,0
                -72.751112,5.013389,0
                -72.750298,5.012707,0
                -72.750087,5.012471,0
                -72.749549,5.012063,0
                -72.748473,5.011137,0
                -72.747542,5.010305,0
                -72.74663,5.009447,0
                -72.746276,5.008915,0
                -72.745583,5.008014,0
                -72.745187,5.008409,0
                -72.74467,5.009095,0
                -72.74436,5.009541,0
                -72.744102,5.00985,0
                -72.743516,5.010759,0
                -72.743189,5.011171,0
                -72.743912,5.011686,0
                -72.743689,5.012081,0
                -72.743499,5.012372,0
                -72.743223,5.012681,0
                -72.743043,5.012938,0
                -72.742853,5.013196,0
                -72.742646,5.013496,0
                -72.741579,5.014732,0
                -72.741053,5.015323,0
                -72.740855,5.015624,0
                -72.739744,5.017091,0
                -72.739202,5.017897,0
                -72.738969,5.017923,0
                -72.738521,5.017889,0
                -72.738289,5.017906,0
                -72.738203,5.01782,0
                -72.737626,5.017803,0
                -72.737229,5.017854,0
                -72.737169,5.017974,0
                -72.737195,5.018412,0
                -72.737178,5.018918,0
                -72.737178,5.019296,0
                -72.737255,5.019399,0
                -72.737634,5.019381,0
                -72.737634,5.019836,0
                -72.737281,5.01987,0
                -72.737169,5.01993,0
                -72.737161,5.020145,0
                -72.737238,5.020308,0
                -72.737858,5.020308,0
                -72.738203,5.020325,0
                -72.738151,5.020462,0
                -72.73822,5.02066,0
                -72.738271,5.020745,0
                -72.738306,5.02102,0
                -72.738358,5.021157,0
                -72.738668,5.021192,0
                -72.739202,5.021192,0
                -72.739202,5.021449,0
                -72.739202,5.021706,0
                -72.739253,5.021861,0
                -72.739649,5.021861,0
                -72.74008,5.021929,0
                -72.740114,5.021689,0
                -72.740097,5.021157,0
                -72.740114,5.02066,0
                -72.740097,5.020196,0
                -72.740769,5.019888,0
                -72.740976,5.019802,0
                -72.740993,5.020008,0
                -72.74101,5.020179,0
                -72.740993,5.020728,0
                -72.740993,5.021106,0
                -72.741062,5.021312,0
                -72.741182,5.021398,0
                -72.742061,5.021363,0
                -72.742974,5.021415,0
                -72.742939,5.021861,0
                -72.742388,5.021844,0
                -72.742095,5.021844,0
                -72.74163,5.021826,0
                -72.741647,5.022393,0
                -72.741665,5.022581,0
                -72.74182,5.022787,0
                -72.742199,5.022873,0
                -72.742956,5.02289,0
                -72.742474,5.023731,0
                -72.742922,5.023731,0
                -72.742939,5.024211,0
                -72.742922,5.024589,0
              </coordinates>
            </LinearRing>
          </outerBoundaryIs>
        </Polygon>
      </Placemark>
      <Placemark>
        <name/>
        <description><![CDATA[Descripción: <br>Reg_Nom: Santander 250<br>Dominio: Yopal<br>Region: 250<br>Zona: 139<br>Seccion: A<br>Zsec: 139A]]></description>
        <styleUrl>#poly-FFEA00-3401-61</styleUrl>
        <ExtendedData>
          <Data name="Descripción">
            <value/>
          </Data>
          <Data name="Reg_Nom">
            <value>Santander 250</value>
          </Data>
          <Data name="Dominio">
            <value>Yopal</value>
          </Data>
          <Data name="Region">
            <value>250</value>
          </Data>
          <Data name="Zona">
            <value>139</value>
          </Data>
          <Data name="Seccion">
            <value>A</value>
          </Data>
          <Data name="Zsec">
            <value>139A</value>
          </Data>
        </ExtendedData>
        <Polygon>
          <outerBoundaryIs>
            <LinearRing>
              <tessellate>1</tessellate>
              <coordinates>
                -72.38972,5.350622,0
                -72.390357,5.350759,0
                -72.390891,5.350724,0
                -72.392442,5.349798,0
                -72.393305,5.349534,0
                -72.393445,5.349483,0
                -72.393014,5.348678,0
                -72.392832,5.348304,0
                -72.392565,5.347856,0
                -72.394714,5.346612,0
                -72.395782,5.345983,0
                -72.395054,5.344774,0
                -72.391072,5.33733,0
                -72.388936,5.333559,0
                -72.388408,5.332593,0
                -72.382721,5.335505,0
                -72.380342,5.331589,0
                -72.379434,5.330066,0
                -72.379134,5.329597,0
                -72.378363,5.330308,0
                -72.378231,5.33047,0
                -72.377818,5.33078,0
                -72.377646,5.331191,0
                -72.376957,5.331637,0
                -72.376716,5.331809,0
                -72.376027,5.332357,0
                -72.374856,5.333318,0
                -72.37334,5.33445,0
                -72.372117,5.335341,0
                -72.371635,5.335753,0
                -72.370756,5.336285,0
                -72.369654,5.337142,0
                -72.367931,5.33836,0
                -72.367432,5.338771,0
                -72.367105,5.33896,0
                -72.366519,5.339457,0
                -72.366691,5.339715,0
                -72.367552,5.340949,0
                -72.367794,5.341327,0
                -72.368224,5.341927,0
                -72.367794,5.342304,0
                -72.368431,5.342544,0
                -72.370429,5.343196,0
                -72.372134,5.343968,0
                -72.372771,5.344328,0
                -72.373219,5.344928,0
                -72.373409,5.34522,0
                -72.373908,5.345923,0
                -72.374838,5.346969,0
                -72.376423,5.348255,0
                -72.377904,5.349267,0
                -72.37818,5.349473,0
                -72.378438,5.349541,0
                -72.379007,5.349593,0
                -72.379282,5.349696,0
                -72.379437,5.34985,0
                -72.379799,5.350038,0
                -72.380488,5.350193,0
                -72.380901,5.350279,0
                -72.381142,5.350502,0
                -72.382848,5.350261,0
                -72.383778,5.350193,0
                -72.384673,5.350313,0
                -72.385552,5.350381,0
                -72.386241,5.350416,0
                -72.386981,5.350433,0
                -72.38755,5.350416,0
                -72.388204,5.350416,0
                -72.388566,5.350416,0
                -72.389152,5.350416,0
                -72.38972,5.350622,0
              </coordinates>
            </LinearRing>
          </outerBoundaryIs>
        </Polygon>
      </Placemark>
      <Placemark>
        <name/>
        <description><![CDATA[Descripción: <br>Reg_Nom: Santander 250<br>Dominio: Trinidad<br>Region: 250<br>Zona: 139<br>Seccion: A<br>Zsec: 139A]]></description>
        <styleUrl>#poly-FFEA00-3401-61</styleUrl>
        <ExtendedData>
          <Data name="Descripción">
            <value/>
          </Data>
          <Data name="Reg_Nom">
            <value>Santander 250</value>
          </Data>
          <Data name="Dominio">
            <value>Trinidad</value>
          </Data>
          <Data name="Region">
            <value>250</value>
          </Data>
          <Data name="Zona">
            <value>139</value>
          </Data>
          <Data name="Seccion">
            <value>A</value>
          </Data>
          <Data name="Zsec">
            <value>139A</value>
          </Data>
        </ExtendedData>
        <Polygon>
          <outerBoundaryIs>
            <LinearRing>
              <tessellate>1</tessellate>
              <coordinates>
                -71.661281,5.415948,0
                -71.661597,5.416158,0
                -71.661989,5.415619,0
                -71.662335,5.415738,0
                -71.662516,5.415798,0
                -71.663012,5.415694,0
                -71.663584,5.415708,0
                -71.664231,5.415783,0
                -71.665014,5.416091,0
                -71.664894,5.415251,0
                -71.664683,5.414562,0
                -71.66396,5.412974,0
                -71.66375,5.412225,0
                -71.663539,5.411625,0
                -71.663539,5.411535,0
                -71.66396,5.411326,0
                -71.664743,5.410996,0
                -71.664562,5.410307,0
                -71.664171,5.409408,0
                -71.664201,5.409288,0
                -71.664743,5.409108,0
                -71.664894,5.408988,0
                -71.664412,5.408149,0
                -71.66396,5.40731,0
                -71.664532,5.40689,0
                -71.664653,5.406711,0
                -71.664532,5.406471,0
                -71.664201,5.406231,0
                -71.662847,5.405332,0
                -71.662215,5.404883,0
                -71.661883,5.405002,0
                -71.661402,5.404313,0
                -71.660529,5.403444,0
                -71.660288,5.403174,0
                -71.660047,5.402905,0
                -71.659776,5.402515,0
                -71.659385,5.402815,0
                -71.659204,5.402485,0
                -71.658632,5.402815,0
                -71.658813,5.403174,0
                -71.65803,5.403564,0
                -71.657759,5.403804,0
                -71.658331,5.404823,0
                -71.657669,5.405212,0
                -71.657669,5.405332,0
                -71.657278,5.405572,0
                -71.657579,5.406321,0
                -71.65797,5.40707,0
                -71.658482,5.408149,0
                -71.659054,5.409198,0
                -71.660198,5.411386,0
                -71.658994,5.412015,0
                -71.65797,5.412704,0
                -71.658512,5.412922,0
                -71.658918,5.413101,0
                -71.65928,5.413446,0
                -71.659566,5.413656,0
                -71.659882,5.41391,0
                -71.660228,5.41427,0
                -71.660664,5.414615,0
                -71.66092,5.414884,0
                -71.660544,5.415319,0
                -71.660589,5.415439,0
                -71.660845,5.415604,0
                -71.661281,5.415948,0
              </coordinates>
            </LinearRing>
          </outerBoundaryIs>
        </Polygon>
      </Placemark>
      <Placemark>
        <name/>
        <description><![CDATA[Descripción: <br>Reg_Nom: Santander 250<br>Dominio: Paz de Ariporo<br>Region: 250<br>Zona: 139<br>Seccion: A<br>Zsec: 139A]]></description>
        <styleUrl>#poly-FFEA00-3401-61</styleUrl>
        <ExtendedData>
          <Data name="Descripción">
            <value/>
          </Data>
          <Data name="Reg_Nom">
            <value>Santander 250</value>
          </Data>
          <Data name="Dominio">
            <value>Paz de Ariporo</value>
          </Data>
          <Data name="Region">
            <value>250</value>
          </Data>
          <Data name="Zona">
            <value>139</value>
          </Data>
          <Data name="Seccion">
            <value>A</value>
          </Data>
          <Data name="Zsec">
            <value>139A</value>
          </Data>
        </ExtendedData>
        <Polygon>
          <outerBoundaryIs>
            <LinearRing>
              <tessellate>1</tessellate>
              <coordinates>
                -71.902524,5.885437,0
                -71.901524,5.878655,0
                -71.900596,5.874158,0
                -71.900882,5.873516,0
                -71.893815,5.869233,0
                -71.893387,5.870303,0
                -71.890388,5.86859,0
                -71.87861,5.887721,0
                -71.884321,5.890291,0
                -71.889817,5.893717,0
                -71.891316,5.890862,0
                -71.893601,5.891219,0
                -71.897384,5.885008,0
                -71.902524,5.885437,0
              </coordinates>
            </LinearRing>
          </outerBoundaryIs>
        </Polygon>
      </Placemark>
      <Placemark>
        <name/>
        <description><![CDATA[Descripción: <br>Reg_Nom: Santander 250<br>Dominio: Pore<br>Region: 250<br>Zona: 139<br>Seccion: A<br>Zsec: 139A]]></description>
        <styleUrl>#poly-FFEA00-3401-61</styleUrl>
        <ExtendedData>
          <Data name="Descripción">
            <value/>
          </Data>
          <Data name="Reg_Nom">
            <value>Santander 250</value>
          </Data>
          <Data name="Dominio">
            <value>Pore</value>
          </Data>
          <Data name="Region">
            <value>250</value>
          </Data>
          <Data name="Zona">
            <value>139</value>
          </Data>
          <Data name="Seccion">
            <value>A</value>
          </Data>
          <Data name="Zsec">
            <value>139A</value>
          </Data>
        </ExtendedData>
        <Polygon>
          <outerBoundaryIs>
            <LinearRing>
              <tessellate>1</tessellate>
              <coordinates>
                -72.000977,5.729569,0
                -72.001357,5.728998,0
                -72.000834,5.728237,0
                -71.997074,5.725524,0
                -71.989698,5.720908,0
                -71.985463,5.727237,0
                -71.988365,5.729379,0
                -71.987794,5.730283,0
                -71.990507,5.731949,0
                -71.9936,5.734614,0
                -71.995361,5.733138,0
                -72.000977,5.729569,0
              </coordinates>
            </LinearRing>
          </outerBoundaryIs>
        </Polygon>
      </Placemark>
    </Folder>
  </Document>
</kml>
