<?xml version="1.0" encoding="UTF-8"?>
<kml xmlns="http://www.opengis.net/kml/2.2">
  <Document>
    <name>Zona 220</name>
    <description/>
    <Style id="poly-0288D1-3201-56-normal">
      <LineStyle>
        <color>ffd18802</color>
        <width>3.201</width>
      </LineStyle>
      <PolyStyle>
        <color>38d18802</color>
        <fill>1</fill>
        <outline>1</outline>
      </PolyStyle>
    </Style>
    <Style id="poly-0288D1-3201-56-highlight">
      <LineStyle>
        <color>ffd18802</color>
        <width>4.8015</width>
      </LineStyle>
      <PolyStyle>
        <color>38d18802</color>
        <fill>1</fill>
        <outline>1</outline>
      </PolyStyle>
    </Style>
    <StyleMap id="poly-0288D1-3201-56">
      <Pair>
        <key>normal</key>
        <styleUrl>#poly-0288D1-3201-56-normal</styleUrl>
      </Pair>
      <Pair>
        <key>highlight</key>
        <styleUrl>#poly-0288D1-3201-56-highlight</styleUrl>
      </Pair>
    </StyleMap>
    <Style id="poly-7CB342-3101-76-normal">
      <LineStyle>
        <color>ff42b37c</color>
        <width>3.101</width>
      </LineStyle>
      <PolyStyle>
        <color>4c42b37c</color>
        <fill>1</fill>
        <outline>1</outline>
      </PolyStyle>
    </Style>
    <Style id="poly-7CB342-3101-76-highlight">
      <LineStyle>
        <color>ff42b37c</color>
        <width>4.6515</width>
      </LineStyle>
      <PolyStyle>
        <color>4c42b37c</color>
        <fill>1</fill>
        <outline>1</outline>
      </PolyStyle>
    </Style>
    <StyleMap id="poly-7CB342-3101-76">
      <Pair>
        <key>normal</key>
        <styleUrl>#poly-7CB342-3101-76-normal</styleUrl>
      </Pair>
      <Pair>
        <key>highlight</key>
        <styleUrl>#poly-7CB342-3101-76-highlight</styleUrl>
      </Pair>
    </StyleMap>
    <Style id="poly-9C27B0-3501-48-normal">
      <LineStyle>
        <color>ffb0279c</color>
        <width>3.501</width>
      </LineStyle>
      <PolyStyle>
        <color>30b0279c</color>
        <fill>1</fill>
        <outline>1</outline>
      </PolyStyle>
    </Style>
    <Style id="poly-9C27B0-3501-48-highlight">
      <LineStyle>
        <color>ffb0279c</color>
        <width>5.2515</width>
      </LineStyle>
      <PolyStyle>
        <color>30b0279c</color>
        <fill>1</fill>
        <outline>1</outline>
      </PolyStyle>
    </Style>
    <StyleMap id="poly-9C27B0-3501-48">
      <Pair>
        <key>normal</key>
        <styleUrl>#poly-9C27B0-3501-48-normal</styleUrl>
      </Pair>
      <Pair>
        <key>highlight</key>
        <styleUrl>#poly-9C27B0-3501-48-highlight</styleUrl>
      </Pair>
    </StyleMap>
    <Style id="poly-FF5252-3601-76-normal">
      <LineStyle>
        <color>ff5252ff</color>
        <width>3.601</width>
      </LineStyle>
      <PolyStyle>
        <color>4c5252ff</color>
        <fill>1</fill>
        <outline>1</outline>
      </PolyStyle>
    </Style>
    <Style id="poly-FF5252-3601-76-highlight">
      <LineStyle>
        <color>ff5252ff</color>
        <width>5.4015</width>
      </LineStyle>
      <PolyStyle>
        <color>4c5252ff</color>
        <fill>1</fill>
        <outline>1</outline>
      </PolyStyle>
    </Style>
    <StyleMap id="poly-FF5252-3601-76">
      <Pair>
        <key>normal</key>
        <styleUrl>#poly-FF5252-3601-76-normal</styleUrl>
      </Pair>
      <Pair>
        <key>highlight</key>
        <styleUrl>#poly-FF5252-3601-76-highlight</styleUrl>
      </Pair>
    </StyleMap>
    <Style id="poly-FFEA00-1200-76-normal">
      <LineStyle>
        <color>ff00eaff</color>
        <width>1.2</width>
      </LineStyle>
      <PolyStyle>
        <color>4c00eaff</color>
        <fill>1</fill>
        <outline>1</outline>
      </PolyStyle>
    </Style>
    <Style id="poly-FFEA00-1200-76-highlight">
      <LineStyle>
        <color>ff00eaff</color>
        <width>1.8</width>
      </LineStyle>
      <PolyStyle>
        <color>4c00eaff</color>
        <fill>1</fill>
        <outline>1</outline>
      </PolyStyle>
    </Style>
    <StyleMap id="poly-FFEA00-1200-76">
      <Pair>
        <key>normal</key>
        <styleUrl>#poly-FFEA00-1200-76-normal</styleUrl>
      </Pair>
      <Pair>
        <key>highlight</key>
        <styleUrl>#poly-FFEA00-1200-76-highlight</styleUrl>
      </Pair>
    </StyleMap>
    <Folder>
      <name>VD220</name>
      <Placemark>
        <name/>
        <description><![CDATA[Descripción: <br>Reg_Nom: Bogota 150<br>Dominio: Bogota<br>Region: 150<br>Zona: 220<br>Seccion: E<br>Zsec: 220E]]></description>
        <styleUrl>#poly-9C27B0-3501-48</styleUrl>
        <ExtendedData>
          <Data name="Descripción">
            <value/>
          </Data>
          <Data name="Reg_Nom">
            <value>Bogota 150</value>
          </Data>
          <Data name="Dominio">
            <value>Bogota</value>
          </Data>
          <Data name="Region">
            <value>150</value>
          </Data>
          <Data name="Zona">
            <value>220</value>
          </Data>
          <Data name="Seccion">
            <value>E</value>
          </Data>
          <Data name="Zsec">
            <value>220E</value>
          </Data>
        </ExtendedData>
        <Polygon>
          <outerBoundaryIs>
            <LinearRing>
              <tessellate>1</tessellate>
              <coordinates>
                -74.151432,4.557647,0
                -74.152305,4.556496,0
                -74.153393,4.555613,0
                -74.158145,4.555091,0
                -74.158991,4.555813,0
                -74.162051,4.553846,0
                -74.166562,4.550273,0
                -74.167972,4.548989,0
                -74.168898,4.547543,0
                -74.172482,4.544251,0
                -74.172281,4.54389,0
                -74.171999,4.543248,0
                -74.171717,4.542123,0
                -74.171234,4.541401,0
                -74.17063,4.540598,0
                -74.160743,4.538771,0
                -74.160551,4.538962,0
                -74.16036,4.539383,0
                -74.160279,4.539715,0
                -74.160048,4.540477,0
                -74.159736,4.541371,0
                -74.159303,4.542003,0
                -74.15883,4.542485,0
                -74.158588,4.542826,0
                -74.158225,4.543428,0
                -74.158185,4.544532,0
                -74.158387,4.545877,0
                -74.158145,4.54656,0
                -74.157662,4.547322,0
                -74.156937,4.548206,0
                -74.156373,4.548788,0
                -74.155567,4.549029,0
                -74.155124,4.548948,0
                -74.154883,4.548406,0
                -74.154399,4.547403,0
                -74.151903,4.549149,0
                -74.151135,4.549691,0
                -74.15108,4.549609,0
                -74.14707,4.551655,0
                -74.144096,4.553202,0
                -74.143406,4.552988,0
                -74.143192,4.55275,0
                -74.141859,4.552821,0
                -74.141288,4.553369,0
                -74.140646,4.553678,0
                -74.140218,4.553726,0
                -74.13967,4.554059,0
                -74.138742,4.554392,0
                -74.138148,4.554582,0
                -74.137823,4.555059,0
                -74.137791,4.555106,0
                -74.138742,4.557985,0
                -74.139086,4.559788,0
                -74.139123,4.559984,0
                -74.139118,4.560033,0
                -74.139034,4.560938,0
                -74.139009,4.560942,0
                -74.139008,4.560946,0
                -74.138981,4.561231,0
                -74.138952,4.561535,0
                -74.138928,4.56179,0
                -74.138898,4.562039,0
                -74.138863,4.562324,0
                -74.13883,4.562592,0
                -74.138794,4.56288,0
                -74.138445,4.56409,0
                -74.138197,4.565494,0
                -74.138126,4.565984,0
                -74.137992,4.56692,0
                -74.137988,4.566943,0
                -74.139119,4.567307,0
                -74.141,4.566796,0
                -74.142368,4.566625,0
                -74.143565,4.566966,0
                -74.151285,4.572251,0
                -74.151285,4.57225,0
                -74.152187,4.570759,0
                -74.152387,4.570844,0
                -74.152985,4.569964,0
                -74.15327,4.569935,0
                -74.15347,4.570191,0
                -74.153783,4.570645,0
                -74.154125,4.571271,0
                -74.15441,4.571583,0
                -74.154724,4.571413,0
                -74.154695,4.571157,0
                -74.154581,4.570901,0
                -74.154268,4.570674,0
                -74.154268,4.570134,0
                -74.154154,4.569708,0
                -74.154097,4.569083,0
                -74.15421,4.56894,0
                -74.154119,4.56899,0
                -74.152735,4.568874,0
                -74.152699,4.568559,0
                -74.152699,4.567869,0
                -74.151818,4.568107,0
                -74.151152,4.56825,0
                -74.151057,4.566156,0
                -74.152223,4.565799,0
                -74.151961,4.565204,0
                -74.151628,4.564776,0
                -74.151438,4.563753,0
                -74.15089,4.562301,0
                -74.150724,4.561921,0
                -74.149939,4.562063,0
                -74.149796,4.561968,0
                -74.150105,4.561468,0
                -74.150724,4.561231,0
                -74.151676,4.561302,0
                -74.151438,4.560207,0
                -74.151533,4.559684,0
                -74.152128,4.558732,0
                -74.15208,4.557661,0
                -74.151432,4.557647,0
              </coordinates>
            </LinearRing>
          </outerBoundaryIs>
        </Polygon>
      </Placemark>
      <Placemark>
        <name/>
        <description><![CDATA[Descripción: <br>Reg_Nom: Bogota 150<br>Dominio: Bogota<br>Region: 150<br>Zona: 220<br>Seccion: D<br>Zsec: 220D]]></description>
        <styleUrl>#poly-7CB342-3101-76</styleUrl>
        <ExtendedData>
          <Data name="Descripción">
            <value/>
          </Data>
          <Data name="Reg_Nom">
            <value>Bogota 150</value>
          </Data>
          <Data name="Dominio">
            <value>Bogota</value>
          </Data>
          <Data name="Region">
            <value>150</value>
          </Data>
          <Data name="Zona">
            <value>220</value>
          </Data>
          <Data name="Seccion">
            <value>D</value>
          </Data>
          <Data name="Zsec">
            <value>220D</value>
          </Data>
        </ExtendedData>
        <Polygon>
          <outerBoundaryIs>
            <LinearRing>
              <tessellate>1</tessellate>
              <coordinates>
                -74.148125,4.579382,0
                -74.1528,4.580916,0
                -74.154795,4.580859,0
                -74.157364,4.580493,0
                -74.157365,4.580493,0
                -74.157189,4.580149,0
                -74.155308,4.576399,0
                -74.153997,4.574467,0
                -74.152116,4.572819,0
                -74.151285,4.57225,0
                -74.143565,4.566966,0
                -74.142368,4.566625,0
                -74.141,4.566796,0
                -74.139119,4.567307,0
                -74.137988,4.566943,0
                -74.137988,4.566945,0
                -74.137995,4.567739,0
                -74.138505,4.569792,0
                -74.139199,4.572595,0
                -74.139376,4.573308,0
                -74.139499,4.57372,0
                -74.139723,4.574477,0
                -74.139993,4.575383,0
                -74.140103,4.575679,0
                -74.140169,4.575918,0
                -74.140518,4.576675,0
                -74.140809,4.577236,0
                -74.141284,4.578111,0
                -74.141299,4.578138,0
                -74.141648,4.579019,0
                -74.14182,4.579455,0
                -74.14193,4.579732,0
                -74.142033,4.579992,0
                -74.142157,4.580305,0
                -74.144648,4.578416,0
                -74.148125,4.579382,0
              </coordinates>
            </LinearRing>
          </outerBoundaryIs>
        </Polygon>
      </Placemark>
      <Placemark>
        <name/>
        <description><![CDATA[Descripción: <br>Reg_Nom: Bogota 150<br>Dominio: Bogota<br>Region: 150<br>Zona: 220<br>Seccion: B<br>Zsec: 220B]]></description>
        <styleUrl>#poly-0288D1-3201-56</styleUrl>
        <ExtendedData>
          <Data name="Descripción">
            <value/>
          </Data>
          <Data name="Reg_Nom">
            <value>Bogota 150</value>
          </Data>
          <Data name="Dominio">
            <value>Bogota</value>
          </Data>
          <Data name="Region">
            <value>150</value>
          </Data>
          <Data name="Zona">
            <value>220</value>
          </Data>
          <Data name="Seccion">
            <value>B</value>
          </Data>
          <Data name="Zsec">
            <value>220B</value>
          </Data>
        </ExtendedData>
        <Polygon>
          <outerBoundaryIs>
            <LinearRing>
              <tessellate>1</tessellate>
              <coordinates>
                -74.147436,4.595056,0
                -74.147771,4.595104,0
                -74.148301,4.595176,0
                -74.149737,4.595385,0
                -74.150738,4.595543,0
                -74.151004,4.595586,0
                -74.151286,4.595631,0
                -74.151571,4.595678,0
                -74.151729,4.595703,0
                -74.151836,4.595742,0
                -74.152204,4.595887,0
                -74.152464,4.595894,0
                -74.153119,4.596097,0
                -74.153546,4.596209,0
                -74.154001,4.596271,0
                -74.154416,4.596334,0
                -74.154931,4.596385,0
                -74.155849,4.596298,0
                -74.156037,4.596281,0
                -74.156456,4.596241,0
                -74.156816,4.596207,0
                -74.15721,4.59617,0
                -74.157239,4.596167,0
                -74.158108,4.596085,0
                -74.158615,4.596038,0
                -74.159167,4.596005,0
                -74.160234,4.595941,0
                -74.161562,4.595863,0
                -74.161603,4.59586,0
                -74.161806,4.594979,0
                -74.161122,4.588729,0
                -74.160837,4.587309,0
                -74.157365,4.580493,0
                -74.157364,4.580493,0
                -74.154795,4.580859,0
                -74.1528,4.580916,0
                -74.148125,4.579382,0
                -74.144648,4.578416,0
                -74.142157,4.580305,0
                -74.142213,4.580446,0
                -74.142247,4.580532,0
                -74.142407,4.580928,0
                -74.142712,4.581661,0
                -74.142763,4.581806,0
                -74.142871,4.58224,0
                -74.143303,4.584292,0
                -74.14351,4.584771,0
                -74.143961,4.585811,0
                -74.144372,4.58676,0
                -74.144485,4.587049,0
                -74.144564,4.587248,0
                -74.144761,4.587748,0
                -74.144832,4.587929,0
                -74.144947,4.588222,0
                -74.145143,4.588719,0
                -74.145163,4.588849,0
                -74.145225,4.589267,0
                -74.145313,4.589874,0
                -74.145313,4.590174,0
                -74.145317,4.590356,0
                -74.145322,4.59095,0
                -74.145326,4.59149,0
                -74.145327,4.591554,0
                -74.145332,4.592196,0
                -74.145335,4.592556,0
                -74.145337,4.592824,0
                -74.145339,4.593085,0
                -74.145343,4.593502,0
                -74.145382,4.594023,0
                -74.145422,4.594568,0
                -74.145466,4.595232,0
                -74.145841,4.595167,0
                -74.146326,4.595071,0
                -74.146499,4.595023,0
                -74.147436,4.595056,0
              </coordinates>
            </LinearRing>
          </outerBoundaryIs>
        </Polygon>
      </Placemark>
      <Placemark>
        <name/>
        <description><![CDATA[Descripción: <br>Reg_Nom: Bogota 150<br>Dominio: Bogota<br>Region: 150<br>Zona: 220<br>Seccion: A<br>Zsec: 220A]]></description>
        <styleUrl>#poly-FFEA00-1200-76</styleUrl>
        <ExtendedData>
          <Data name="Descripción">
            <value/>
          </Data>
          <Data name="Reg_Nom">
            <value>Bogota 150</value>
          </Data>
          <Data name="Dominio">
            <value>Bogota</value>
          </Data>
          <Data name="Region">
            <value>150</value>
          </Data>
          <Data name="Zona">
            <value>220</value>
          </Data>
          <Data name="Seccion">
            <value>A</value>
          </Data>
          <Data name="Zsec">
            <value>220A</value>
          </Data>
        </ExtendedData>
        <Polygon>
          <outerBoundaryIs>
            <LinearRing>
              <tessellate>1</tessellate>
              <coordinates>
                -74.176671,4.584781,0
                -74.176671,4.584791,0
                -74.176671,4.585119,0
                -74.176308,4.585179,0
                -74.176026,4.58526,0
                -74.175334,4.585305,0
                -74.17496,4.585329,0
                -74.174949,4.58533,0
                -74.175129,4.58571,0
                -74.17513,4.585711,0
                -74.174234,4.585711,0
                -74.174194,4.58548,0
                -74.172879,4.585559,0
                -74.172855,4.585561,0
                -74.172714,4.586043,0
                -74.172376,4.586003,0
                -74.172371,4.586002,0
                -74.172744,4.584306,0
                -74.171273,4.582563,0
                -74.171254,4.58254,0
                -74.171133,4.582731,0
                -74.170909,4.582514,0
                -74.170821,4.58243,0
                -74.170389,4.58193,0
                -74.170378,4.581918,0
                -74.16972,4.582323,0
                -74.169637,4.582374,0
                -74.169644,4.582479,0
                -74.169873,4.583246,0
                -74.169359,4.584524,0
                -74.169331,4.584752,0
                -74.16839,4.585007,0
                -74.168932,4.58728,0
                -74.161203,4.589469,0
                -74.161806,4.594979,0
                -74.161603,4.59586,0
                -74.162044,4.595834,0
                -74.162535,4.595792,0
                -74.163517,4.59571,0
                -74.164013,4.595668,0
                -74.164443,4.595632,0
                -74.164827,4.5956,0
                -74.165215,4.59561,0
                -74.167275,4.595665,0
                -74.167663,4.595676,0
                -74.168838,4.595707,0
                -74.169081,4.595714,0
                -74.169433,4.595755,0
                -74.16968,4.595785,0
                -74.169749,4.595793,0
                -74.170354,4.595865,0
                -74.171346,4.595982,0
                -74.171929,4.595974,0
                -74.172888,4.596147,0
                -74.174247,4.596392,0
                -74.174636,4.596457,0
                -74.175085,4.59654,0
                -74.175331,4.596585,0
                -74.17543,4.596603,0
                -74.175611,4.596632,0
                -74.176066,4.596703,0
                -74.17654,4.596749,0
                -74.177698,4.59697,0
                -74.178229,4.59691,0
                -74.178711,4.596821,0
                -74.180249,4.596755,0
                -74.181194,4.596742,0
                -74.181684,4.596717,0
                -74.181978,4.596693,0
                -74.182309,4.596652,0
                -74.183037,4.596443,0
                -74.18366,4.596269,0
                -74.183562,4.595971,0
                -74.183557,4.595718,0
                -74.183396,4.595202,0
                -74.183303,4.594809,0
                -74.183199,4.594308,0
                -74.183101,4.593818,0
                -74.183073,4.593705,0
                -74.183017,4.593473,0
                -74.182942,4.593126,0
                -74.182896,4.592799,0
                -74.182814,4.592442,0
                -74.182764,4.592184,0
                -74.182666,4.591766,0
                -74.182735,4.591635,0
                -74.182482,4.591139,0
                -74.182411,4.591,0
                -74.181843,4.589886,0
                -74.181316,4.588677,0
                -74.181236,4.588494,0
                -74.181089,4.587961,0
                -74.180786,4.586864,0
                -74.180665,4.586424,0
                -74.180415,4.583926,0
                -74.177703,4.584568,0
                -74.176671,4.584781,0
              </coordinates>
            </LinearRing>
          </outerBoundaryIs>
        </Polygon>
      </Placemark>
      <Placemark>
        <name/>
        <description><![CDATA[Descripción: <br>Reg_Nom: Bogota 150<br>Dominio: Bogota<br>Region: 150<br>Zona: 220<br>Seccion: C<br>Zsec: 220C]]></description>
        <styleUrl>#poly-FF5252-3601-76</styleUrl>
        <ExtendedData>
          <Data name="Descripción">
            <value/>
          </Data>
          <Data name="Reg_Nom">
            <value>Bogota 150</value>
          </Data>
          <Data name="Dominio">
            <value>Bogota</value>
          </Data>
          <Data name="Region">
            <value>150</value>
          </Data>
          <Data name="Zona">
            <value>220</value>
          </Data>
          <Data name="Seccion">
            <value>C</value>
          </Data>
          <Data name="Zsec">
            <value>220C</value>
          </Data>
        </ExtendedData>
        <Polygon>
          <outerBoundaryIs>
            <LinearRing>
              <tessellate>1</tessellate>
              <coordinates>
                -74.169637,4.582374,0
                -74.170378,4.581918,0
                -74.170821,4.58243,0
                -74.171133,4.582731,0
                -74.171254,4.58254,0
                -74.172744,4.584306,0
                -74.172371,4.586002,0
                -74.172714,4.586043,0
                -74.172855,4.585561,0
                -74.174194,4.58548,0
                -74.174234,4.585711,0
                -74.17513,4.585711,0
                -74.174949,4.58533,0
                -74.176026,4.58526,0
                -74.176308,4.585179,0
                -74.176671,4.585119,0
                -74.176671,4.584778,0
                -74.17808,4.584437,0
                -74.17804,4.583995,0
                -74.177436,4.581225,0
                -74.175986,4.578616,0
                -74.175019,4.577652,0
                -74.175382,4.575485,0
                -74.1751,4.574922,0
                -74.175503,4.571751,0
                -74.174818,4.571912,0
                -74.173932,4.57155,0
                -74.173126,4.570747,0
                -74.17224,4.569142,0
                -74.17212,4.568539,0
                -74.171435,4.566893,0
                -74.171153,4.56581,0
                -74.169059,4.563883,0
                -74.167488,4.562919,0
                -74.16624,4.562959,0
                -74.165313,4.562678,0
                -74.165313,4.561996,0
                -74.163864,4.561634,0
                -74.162937,4.561394,0
                -74.162172,4.565007,0
                -74.162374,4.565288,0
                -74.162817,4.56585,0
                -74.16185,4.566372,0
                -74.16044,4.566612,0
                -74.159756,4.566331,0
                -74.158387,4.565689,0
                -74.156172,4.565689,0
                -74.155527,4.565609,0
                -74.155487,4.566372,0
                -74.155326,4.567335,0
                -74.154963,4.568419,0
                -74.154764,4.568667,0
                -74.154714,4.568663,0
                -74.15421,4.56894,0
                -74.154097,4.569083,0
                -74.154154,4.569708,0
                -74.154268,4.570134,0
                -74.154268,4.570674,0
                -74.154581,4.570901,0
                -74.154695,4.571157,0
                -74.154724,4.571413,0
                -74.15441,4.571583,0
                -74.154125,4.571271,0
                -74.153783,4.570645,0
                -74.15347,4.570191,0
                -74.15327,4.569935,0
                -74.152985,4.569964,0
                -74.152387,4.570844,0
                -74.152187,4.570759,0
                -74.151285,4.57225,0
                -74.151285,4.572251,0
                -74.152116,4.572819,0
                -74.153997,4.574467,0
                -74.155308,4.576399,0
                -74.157189,4.580149,0
                -74.157364,4.580493,0
                -74.160837,4.587309,0
                -74.161122,4.588729,0
                -74.161203,4.589469,0
                -74.168932,4.58728,0
                -74.16839,4.585007,0
                -74.169331,4.584752,0
                -74.169359,4.584524,0
                -74.169873,4.583246,0
                -74.169644,4.582479,0
                -74.169637,4.582374,0
              </coordinates>
            </LinearRing>
          </outerBoundaryIs>
        </Polygon>
      </Placemark>
    </Folder>
  </Document>
</kml>
