<?xml version="1.0" encoding="UTF-8"?>
<kml xmlns="http://www.opengis.net/kml/2.2">
  <Document>
    <name>Zona 228 (Nueva)</name>
    <description/>
    <Style id="poly-0288D1-3101-76-normal">
      <LineStyle>
        <color>ffd18802</color>
        <width>3.101</width>
      </LineStyle>
      <PolyStyle>
        <color>4cd18802</color>
        <fill>1</fill>
        <outline>1</outline>
      </PolyStyle>
    </Style>
    <Style id="poly-0288D1-3101-76-highlight">
      <LineStyle>
        <color>ffd18802</color>
        <width>4.6515</width>
      </LineStyle>
      <PolyStyle>
        <color>4cd18802</color>
        <fill>1</fill>
        <outline>1</outline>
      </PolyStyle>
    </Style>
    <StyleMap id="poly-0288D1-3101-76">
      <Pair>
        <key>normal</key>
        <styleUrl>#poly-0288D1-3101-76-normal</styleUrl>
      </Pair>
      <Pair>
        <key>highlight</key>
        <styleUrl>#poly-0288D1-3101-76-highlight</styleUrl>
      </Pair>
    </StyleMap>
    <Style id="poly-7CB342-3801-76-normal">
      <LineStyle>
        <color>ff42b37c</color>
        <width>3.801</width>
      </LineStyle>
      <PolyStyle>
        <color>4c42b37c</color>
        <fill>1</fill>
        <outline>1</outline>
      </PolyStyle>
    </Style>
    <Style id="poly-7CB342-3801-76-highlight">
      <LineStyle>
        <color>ff42b37c</color>
        <width>5.7015</width>
      </LineStyle>
      <PolyStyle>
        <color>4c42b37c</color>
        <fill>1</fill>
        <outline>1</outline>
      </PolyStyle>
    </Style>
    <StyleMap id="poly-7CB342-3801-76">
      <Pair>
        <key>normal</key>
        <styleUrl>#poly-7CB342-3801-76-normal</styleUrl>
      </Pair>
      <Pair>
        <key>highlight</key>
        <styleUrl>#poly-7CB342-3801-76-highlight</styleUrl>
      </Pair>
    </StyleMap>
    <Style id="poly-9C27B0-3701-38-normal">
      <LineStyle>
        <color>ffb0279c</color>
        <width>3.701</width>
      </LineStyle>
      <PolyStyle>
        <color>26b0279c</color>
        <fill>1</fill>
        <outline>1</outline>
      </PolyStyle>
    </Style>
    <Style id="poly-9C27B0-3701-38-highlight">
      <LineStyle>
        <color>ffb0279c</color>
        <width>5.5515</width>
      </LineStyle>
      <PolyStyle>
        <color>26b0279c</color>
        <fill>1</fill>
        <outline>1</outline>
      </PolyStyle>
    </Style>
    <StyleMap id="poly-9C27B0-3701-38">
      <Pair>
        <key>normal</key>
        <styleUrl>#poly-9C27B0-3701-38-normal</styleUrl>
      </Pair>
      <Pair>
        <key>highlight</key>
        <styleUrl>#poly-9C27B0-3701-38-highlight</styleUrl>
      </Pair>
    </StyleMap>
    <Style id="poly-FF5252-3401-76-normal">
      <LineStyle>
        <color>ff5252ff</color>
        <width>3.401</width>
      </LineStyle>
      <PolyStyle>
        <color>4c5252ff</color>
        <fill>1</fill>
        <outline>1</outline>
      </PolyStyle>
    </Style>
    <Style id="poly-FF5252-3401-76-highlight">
      <LineStyle>
        <color>ff5252ff</color>
        <width>5.1015</width>
      </LineStyle>
      <PolyStyle>
        <color>4c5252ff</color>
        <fill>1</fill>
        <outline>1</outline>
      </PolyStyle>
    </Style>
    <StyleMap id="poly-FF5252-3401-76">
      <Pair>
        <key>normal</key>
        <styleUrl>#poly-FF5252-3401-76-normal</styleUrl>
      </Pair>
      <Pair>
        <key>highlight</key>
        <styleUrl>#poly-FF5252-3401-76-highlight</styleUrl>
      </Pair>
    </StyleMap>
    <Style id="poly-FFEA00-3501-54-normal">
      <LineStyle>
        <color>ff00eaff</color>
        <width>3.501</width>
      </LineStyle>
      <PolyStyle>
        <color>3600eaff</color>
        <fill>1</fill>
        <outline>1</outline>
      </PolyStyle>
    </Style>
    <Style id="poly-FFEA00-3501-54-highlight">
      <LineStyle>
        <color>ff00eaff</color>
        <width>5.2515</width>
      </LineStyle>
      <PolyStyle>
        <color>3600eaff</color>
        <fill>1</fill>
        <outline>1</outline>
      </PolyStyle>
    </Style>
    <StyleMap id="poly-FFEA00-3501-54">
      <Pair>
        <key>normal</key>
        <styleUrl>#poly-FFEA00-3501-54-normal</styleUrl>
      </Pair>
      <Pair>
        <key>highlight</key>
        <styleUrl>#poly-FFEA00-3501-54-highlight</styleUrl>
      </Pair>
    </StyleMap>
    <Folder>
      <name>228</name>
      <Placemark>
        <name>228E</name>
        <description><![CDATA[Nombre: <br>Zona: 228<br>Seccion: E]]></description>
        <styleUrl>#poly-9C27B0-3701-38</styleUrl>
        <ExtendedData>
          <Data name="Nombre">
            <value/>
          </Data>
          <Data name="Zona">
            <value>228</value>
          </Data>
          <Data name="Seccion">
            <value>E</value>
          </Data>
        </ExtendedData>
        <Polygon>
          <outerBoundaryIs>
            <LinearRing>
              <tessellate>1</tessellate>
              <coordinates>
                -74.1709041,4.6284209,0
                -74.1710331,4.6286939,0
                -74.1711591,4.6289699,0
                -74.1712801,4.6292029,0
                -74.1714061,4.6294559,0
                -74.1715211,4.6296919,0
                -74.1716471,4.6299309,0
                -74.1717671,4.6301639,0
                -74.1718931,4.6304199,0
                -74.1720111,4.6306559,0
                -74.1721201,4.6308669,0
                -74.1722581,4.6311509,0
                -74.1723951,4.6313979,0
                -74.1725151,4.6316449,0
                -74.1726251,4.6318729,0
                -74.1727591,4.6321179,0
                -74.1728911,4.6323619,0
                -74.1730871,4.6327329,0
                -74.1731931,4.6329049,0
                -74.1732971,4.6331179,0
                -74.1734511,4.6333689,0
                -74.1735751,4.6335809,0
                -74.1737611,4.6339069,0
                -74.1741311,4.6346289,0
                -74.1742651,4.6348679,0
                -74.1743921,4.6350969,0
                -74.1745241,4.6353549,0
                -74.1746731,4.6356309,0
                -74.1748461,4.6359579,0
                -74.1750511,4.6363449,0
                -74.1753351,4.6368839,0
                -74.1754211,4.6370559,0
                -74.1755481,4.6373069,0
                -74.1756821,4.6375509,0
                -74.1758011,4.6377919,0
                -74.1759301,4.6380359,0
                -74.1759551,4.6384009,0
                -74.1759551,4.6384049,0
                -74.1760291,4.6387009,0
                -74.1761581,4.6389369,0
                -74.1762831,4.6391829,0
                -74.1764161,4.6394139,0
                -74.1764601,4.6395139,0
                -74.1765461,4.6396779,0
                -74.1766631,4.6398969,0
                -74.1767991,4.6401539,0
                -74.1769341,4.6404079,0
                -74.1770671,4.6406599,0
                -74.1772061,4.6409319,0
                -74.1773361,4.6411849,0
                -74.1774701,4.6414419,0
                -74.1776081,4.6417079,0
                -74.1777311,4.6419439,0
                -74.1778501,4.6421739,0
                -74.1779921,4.6424479,0
                -74.1781251,4.6427019,0
                -74.1781851,4.6428199,0
                -74.1782591,4.6429599,0
                -74.1783941,4.6432199,0
                -74.1785201,4.6434619,0
                -74.1786481,4.6437089,0
                -74.1787821,4.6439669,0
                -74.1789071,4.6442079,0
                -74.1790441,4.6444709,0
                -74.1791831,4.6447359,0
                -74.1793091,4.6449769,0
                -74.1794361,4.6452209,0
                -74.1795681,4.6454719,0
                -74.1797051,4.6457309,0
                -74.1798001,4.6459109,0
                -74.1798301,4.6459669,0
                -74.1799681,4.6462249,0
                -74.1801021,4.6464789,0
                -74.1802331,4.6467249,0
                -74.1803641,4.6469729,0
                -74.1804161,4.6470689,0
                -74.1804931,4.6472159,0
                -74.1806261,4.6474649,0
                -74.1807631,4.6477229,0
                -74.1808931,4.6479689,0
                -74.1817471,4.6496299,0
                -74.1817501,4.6496349,0
                -74.1819141,4.6497399,0
                -74.1819961,4.6495909,0
                -74.1822011,4.6493159,0
                -74.1824161,4.6490639,0
                -74.1825431,4.6489169,0
                -74.1827711,4.6486979,0
                -74.1829861,4.6485149,0
                -74.1831581,4.6484139,0
                -74.1833051,4.6483319,0
                -74.1835001,4.6482399,0
                -74.1836921,4.6481259,0
                -74.1838881,4.6480009,0
                -74.1840571,4.6478509,0
                -74.1842161,4.6476809,0
                -74.1843761,4.6475299,0
                -74.1845131,4.6474159,0
                -74.1846491,4.6473009,0
                -74.1848221,4.6471999,0
                -74.1850041,4.6471309,0
                -74.1852191,4.6470949,0
                -74.1854601,4.6470849,0
                -74.1854681,4.6470879,0
                -74.1897931,4.6451009,0
                -74.1901501,4.6461719,0
                -74.1932431,4.6454579,0
                -74.1938381,4.6462909,0
                -74.1952651,4.6458149,0
                -74.1956221,4.6465289,0
                -74.1969311,4.6462909,0
                -74.1970711,4.6464949,0
                -74.1971391,4.6453869,0
                -74.1970071,4.6451659,0
                -74.1968561,4.6449119,0
                -74.1967381,4.6447139,0
                -74.1962361,4.6438719,0
                -74.1960961,4.6436309,0
                -74.1960371,4.6435269,0
                -74.1959551,4.6433869,0
                -74.1958121,4.6431389,0
                -74.1956601,4.6428759,0
                -74.1955151,4.6426259,0
                -74.1953811,4.6423929,0
                -74.1952261,4.6421249,0
                -74.1950831,4.6418779,0
                -74.1949401,4.6416299,0
                -74.1947991,4.6413879,0
                -74.1946591,4.6411449,0
                -74.1945131,4.6408929,0
                -74.1943731,4.6406499,0
                -74.1942271,4.6403979,0
                -74.1939631,4.6399409,0
                -74.1938761,4.6397919,0
                -74.1938121,4.6396819,0
                -74.1933481,4.6388779,0
                -74.1932261,4.6386669,0
                -74.1930801,4.6384149,0
                -74.1929341,4.6381629,0
                -74.1927481,4.6378409,0
                -74.1926041,4.6375859,0
                -74.1924121,4.6372479,0
                -74.1922651,4.6369849,0
                -74.1922261,4.6369159,0
                -74.1921351,4.6367529,0
                -74.1919961,4.6365039,0
                -74.1918741,4.6362879,0
                -74.1917231,4.6360179,0
                -74.1915891,4.6357779,0
                -74.1914521,4.6355349,0
                -74.1913181,4.6352949,0
                -74.1912151,4.6351109,0
                -74.1910381,4.6348659,0
                -74.1907281,4.6342999,0
                -74.1905301,4.6339259,0
                -74.1903811,4.6336689,0
                -74.1902261,4.6334009,0
                -74.1901011,4.6332079,0
                -74.1898861,4.6329169,0
                -74.1897791,4.6327409,0
                -74.1897291,4.6328299,0
                -74.1893391,4.6330069,0
                -74.1887591,4.6319889,0
                -74.1883311,4.6312589,0
                -74.1881881,4.6309969,0
                -74.1880651,4.6307729,0
                -74.1880081,4.6306679,0
                -74.1879721,4.6305739,0
                -74.1878441,4.6303439,0
                -74.1876831,4.6300739,0
                -74.1876471,4.6300429,0
                -74.1874081,4.6295819,0
                -74.1872111,4.6292359,0
                -74.1868551,4.6285179,0
                -74.1867271,4.6282619,0
                -74.1865511,4.6279329,0
                -74.1861991,4.6277339,0
                -74.1861151,4.6276959,0
                -74.1859391,4.6275609,0
                -74.1858891,4.6275219,0
                -74.1857831,4.6273269,0
                -74.1856131,4.6271139,0
                -74.1855061,4.6269819,0
                -74.1853961,4.6268469,0
                -74.1853401,4.6267779,0
                -74.1851961,4.6266079,0
                -74.1850011,4.6263749,0
                -74.1848211,4.6261519,0
                -74.1847541,4.6260609,0
                -74.1846261,4.6258769,0
                -74.1844621,4.6256949,0
                -74.1839121,4.6251849,0
                -74.1836821,4.6249269,0
                -74.1834711,4.6246379,0
                -74.1834181,4.6245779,0
                -74.1833011,4.6243949,0
                -74.1830681,4.6240899,0
                -74.1830321,4.6240429,0
                -74.1823411,4.6231469,0
                -74.1822831,4.6230529,0
                -74.1820041,4.6227209,0
                -74.1815111,4.6221459,0
                -74.1813411,4.6219469,0
                -74.1812121,4.6220909,0
                -74.1799331,4.6234299,0
                -74.1771071,4.6257789,0
                -74.1709041,4.6284209,0
              </coordinates>
            </LinearRing>
          </outerBoundaryIs>
        </Polygon>
      </Placemark>
      <Placemark>
        <name>228A</name>
        <description><![CDATA[Nombre: <br>Zona: 228<br>Seccion: A]]></description>
        <styleUrl>#poly-FFEA00-3501-54</styleUrl>
        <ExtendedData>
          <Data name="Nombre">
            <value/>
          </Data>
          <Data name="Zona">
            <value>228</value>
          </Data>
          <Data name="Seccion">
            <value>A</value>
          </Data>
        </ExtendedData>
        <Polygon>
          <outerBoundaryIs>
            <LinearRing>
              <tessellate>1</tessellate>
              <coordinates>
                -74.167567,4.640568,0
                -74.170414,4.644443,0
                -74.177466,4.654042,0
                -74.177602,4.653985,0
                -74.17793,4.653693,0
                -74.178345,4.653408,0
                -74.179212,4.65291,0
                -74.179577,4.652779,0
                -74.180262,4.652216,0
                -74.180589,4.651645,0
                -74.181027,4.650819,0
                -74.18175,4.64972,0
                -74.181761,4.649704,0
                -74.18179,4.649662,0
                -74.180936,4.648001,0
                -74.180806,4.647755,0
                -74.180669,4.647497,0
                -74.180536,4.647248,0
                -74.180459,4.647101,0
                -74.180407,4.647005,0
                -74.180276,4.646757,0
                -74.180145,4.646511,0
                -74.180011,4.646257,0
                -74.179873,4.645999,0
                -74.179843,4.645943,0
                -74.179748,4.645763,0
                -74.179611,4.645504,0
                -74.179479,4.645253,0
                -74.179352,4.645009,0
                -74.179226,4.644768,0
                -74.179087,4.644503,0
                -74.17895,4.64424,0
                -74.178825,4.643999,0
                -74.178691,4.643741,0
                -74.178563,4.643494,0
                -74.178437,4.643252,0
                -74.178302,4.642992,0
                -74.178228,4.642852,0
                -74.178168,4.642734,0
                -74.178035,4.64248,0
                -74.177893,4.642206,0
                -74.177774,4.641976,0
                -74.177651,4.64174,0
                -74.177513,4.641474,0
                -74.177379,4.641217,0
                -74.177249,4.640964,0
                -74.17711,4.640692,0
                -74.176977,4.64044,0
                -74.176842,4.640186,0
                -74.176706,4.639929,0
                -74.176589,4.63971,0
                -74.176503,4.639546,0
                -74.176459,4.639446,0
                -74.176326,4.639215,0
                -74.176201,4.638969,0
                -74.176072,4.638733,0
                -74.175998,4.638437,0
                -74.175998,4.638433,0
                -74.174643,4.639246,0
                -74.173477,4.637272,0
                -74.173262,4.637295,0
                -74.169336,4.639294,0
                -74.168337,4.640008,0
                -74.167567,4.640568,0
              </coordinates>
            </LinearRing>
          </outerBoundaryIs>
        </Polygon>
      </Placemark>
      <Placemark>
        <name>228B</name>
        <description><![CDATA[Nombre: <br>Zona: 228<br>Seccion: B]]></description>
        <styleUrl>#poly-0288D1-3101-76</styleUrl>
        <ExtendedData>
          <Data name="Nombre">
            <value/>
          </Data>
          <Data name="Zona">
            <value>228</value>
          </Data>
          <Data name="Seccion">
            <value>B</value>
          </Data>
        </ExtendedData>
        <Polygon>
          <outerBoundaryIs>
            <LinearRing>
              <tessellate>1</tessellate>
              <coordinates>
                -74.163067,4.634547,0
                -74.166131,4.638613,0
                -74.167567,4.640568,0
                -74.168337,4.640008,0
                -74.169336,4.639294,0
                -74.173262,4.637295,0
                -74.173477,4.637272,0
                -74.174643,4.639246,0
                -74.175998,4.638433,0
                -74.175973,4.638068,0
                -74.175844,4.637824,0
                -74.175725,4.637583,0
                -74.175591,4.637339,0
                -74.175464,4.637088,0
                -74.175378,4.636916,0
                -74.175094,4.636377,0
                -74.174889,4.63599,0
                -74.174716,4.635663,0
                -74.174567,4.635387,0
                -74.174435,4.635129,0
                -74.174308,4.6349,0
                -74.174174,4.634661,0
                -74.173804,4.633939,0
                -74.173618,4.633613,0
                -74.173494,4.633401,0
                -74.17334,4.63315,0
                -74.173236,4.632937,0
                -74.17313,4.632765,0
                -74.172934,4.632394,0
                -74.172802,4.63215,0
                -74.172668,4.631905,0
                -74.172558,4.631677,0
                -74.172438,4.63143,0
                -74.172301,4.631183,0
                -74.172163,4.630899,0
                -74.172054,4.630688,0
                -74.171936,4.630452,0
                -74.17181,4.630196,0
                -74.17169,4.629963,0
                -74.171564,4.629724,0
                -74.171449,4.629488,0
                -74.171323,4.629235,0
                -74.171202,4.629002,0
                -74.171076,4.628726,0
                -74.170947,4.628453,0
                -74.170934,4.628459,0
                -74.17093,4.628417,0
                -74.17092,4.628396,0
                -74.170832,4.628246,0
                -74.170611,4.627937,0
                -74.17027,4.627596,0
                -74.170233,4.627554,0
                -74.169839,4.627888,0
                -74.167959,4.630207,0
                -74.164331,4.63336,0
                -74.163069,4.634538,0
                -74.163067,4.634547,0
              </coordinates>
            </LinearRing>
          </outerBoundaryIs>
        </Polygon>
      </Placemark>
      <Placemark>
        <name>228C</name>
        <description><![CDATA[Nombre: <br>Zona: 228<br>Seccion: C]]></description>
        <styleUrl>#poly-FF5252-3401-76</styleUrl>
        <ExtendedData>
          <Data name="Nombre">
            <value/>
          </Data>
          <Data name="Zona">
            <value>228</value>
          </Data>
          <Data name="Seccion">
            <value>C</value>
          </Data>
        </ExtendedData>
        <Polygon>
          <outerBoundaryIs>
            <LinearRing>
              <tessellate>1</tessellate>
              <coordinates>
                -74.170233,4.627554,0
                -74.170228,4.627549,0
                -74.170102,4.627309,0
                -74.170067,4.627208,0
                -74.169996,4.627026,0
                -74.169913,4.626822,0
                -74.169755,4.626476,0
                -74.169654,4.626256,0
                -74.169525,4.625989,0
                -74.169408,4.625729,0
                -74.169125,4.625215,0
                -74.16907,4.625115,0
                -74.16875,4.624758,0
                -74.168455,4.624521,0
                -74.168183,4.62432,0
                -74.167957,4.624146,0
                -74.167747,4.624002,0
                -74.167701,4.623965,0
                -74.167522,4.623746,0
                -74.167372,4.623474,0
                -74.167279,4.623216,0
                -74.167148,4.622949,0
                -74.167002,4.6227,0
                -74.16684,4.622448,0
                -74.166689,4.622169,0
                -74.166683,4.622159,0
                -74.166559,4.621931,0
                -74.166485,4.621797,0
                -74.166346,4.621539,0
                -74.166189,4.621236,0
                -74.16602,4.620967,0
                -74.166007,4.620973,0
                -74.165422,4.621267,0
                -74.165256,4.621347,0
                -74.164663,4.621684,0
                -74.16464,4.621696,0
                -74.1642,4.621941,0
                -74.163897,4.622109,0
                -74.163778,4.622175,0
                -74.163376,4.6224,0
                -74.162921,4.622653,0
                -74.162574,4.622846,0
                -74.162095,4.62322,0
                -74.161812,4.623511,0
                -74.161437,4.623899,0
                -74.161094,4.62426,0
                -74.160817,4.624555,0
                -74.160486,4.624909,0
                -74.159839,4.6256,0
                -74.159523,4.625937,0
                -74.158824,4.626683,0
                -74.158096,4.627573,0
                -74.157858,4.627874,0
                -74.157745,4.628027,0
                -74.157331,4.628489,0
                -74.157098,4.628737,0
                -74.156393,4.629514,0
                -74.155728,4.630209,0
                -74.155358,4.630667,0
                -74.15501,4.631068,0
                -74.154724,4.631366,0
                -74.154712,4.631362,0
                -74.154695,4.631358,0
                -74.154685,4.631354,0
                -74.154799,4.63144,0
                -74.155067,4.632005,0
                -74.155305,4.632927,0
                -74.162354,4.634295,0
                -74.163038,4.634509,0
                -74.163067,4.634547,0
                -74.163069,4.634538,0
                -74.164331,4.63336,0
                -74.167959,4.630207,0
                -74.169839,4.627888,0
                -74.170233,4.627554,0
              </coordinates>
            </LinearRing>
          </outerBoundaryIs>
        </Polygon>
      </Placemark>
      <Placemark>
        <name>228D</name>
        <description><![CDATA[Nombre: <br>Zona: 228<br>Seccion: D]]></description>
        <styleUrl>#poly-7CB342-3801-76</styleUrl>
        <ExtendedData>
          <Data name="Nombre">
            <value/>
          </Data>
          <Data name="Zona">
            <value>228</value>
          </Data>
          <Data name="Seccion">
            <value>D</value>
          </Data>
        </ExtendedData>
        <Polygon>
          <outerBoundaryIs>
            <LinearRing>
              <tessellate>1</tessellate>
              <coordinates>
                -74.166189,4.621236,0
                -74.166346,4.621539,0
                -74.166485,4.621797,0
                -74.166559,4.621931,0
                -74.166683,4.622159,0
                -74.166689,4.622169,0
                -74.16684,4.622448,0
                -74.167002,4.6227,0
                -74.167148,4.622949,0
                -74.167279,4.623216,0
                -74.167372,4.623474,0
                -74.167522,4.623746,0
                -74.167701,4.623965,0
                -74.167747,4.624002,0
                -74.167957,4.624146,0
                -74.168183,4.62432,0
                -74.168455,4.624521,0
                -74.16875,4.624758,0
                -74.16907,4.625115,0
                -74.169125,4.625215,0
                -74.169408,4.625729,0
                -74.169525,4.625989,0
                -74.169654,4.626256,0
                -74.169755,4.626476,0
                -74.169913,4.626822,0
                -74.169996,4.627026,0
                -74.170067,4.627208,0
                -74.170102,4.627309,0
                -74.170228,4.627549,0
                -74.170233,4.627554,0
                -74.17027,4.627596,0
                -74.170611,4.627937,0
                -74.170832,4.628246,0
                -74.17092,4.628396,0
                -74.17093,4.628417,0
                -74.170947,4.628453,0
                -74.17715,4.625811,0
                -74.179976,4.623462,0
                -74.181255,4.622123,0
                -74.181384,4.621979,0
                -74.181192,4.621755,0
                -74.180969,4.621467,0
                -74.180458,4.620859,0
                -74.179947,4.620249,0
                -74.179773,4.62004,0
                -74.179459,4.619658,0
                -74.179295,4.619459,0
                -74.179117,4.619241,0
                -74.179508,4.618942,0
                -74.179196,4.618822,0
                -74.178898,4.618683,0
                -74.178616,4.618545,0
                -74.178352,4.618421,0
                -74.17793,4.618235,0
                -74.177334,4.617971,0
                -74.177463,4.617882,0
                -74.177152,4.617432,0
                -74.1768,4.616921,0
                -74.176469,4.616561,0
                -74.176634,4.616389,0
                -74.176213,4.615821,0
                -74.176128,4.615921,0
                -74.176088,4.616057,0
                -74.175952,4.615901,0
                -74.175724,4.615641,0
                -74.175649,4.615554,0
                -74.175421,4.615294,0
                -74.175341,4.615202,0
                -74.175107,4.614934,0
                -74.174703,4.614472,0
                -74.174535,4.614247,0
                -74.174373,4.614136,0
                -74.174268,4.614065,0
                -74.174188,4.61401,0
                -74.173904,4.613817,0
                -74.173582,4.613597,0
                -74.17338,4.61348,0
                -74.173214,4.613416,0
                -74.17317,4.613404,0
                -74.173127,4.613391,0
                -74.173079,4.613378,0
                -74.173035,4.613367,0
                -74.172987,4.613356,0
                -74.172939,4.613345,0
                -74.172894,4.613337,0
                -74.172846,4.613328,0
                -74.172801,4.613321,0
                -74.172752,4.613313,0
                -74.172703,4.613306,0
                -74.172658,4.613301,0
                -74.172613,4.613296,0
                -74.172564,4.613292,0
                -74.172515,4.613289,0
                -74.172465,4.613286,0
                -74.17242,4.613284,0
                -74.171514,4.613404,0
                -74.171214,4.613445,0
                -74.170886,4.61349,0
                -74.17035,4.61356,0
                -74.169883,4.613621,0
                -74.169507,4.61367,0
                -74.168272,4.613868,0
                -74.167934,4.613926,0
                -74.167635,4.613975,0
                -74.167162,4.614052,0
                -74.166755,4.614118,0
                -74.166144,4.614218,0
                -74.165781,4.614281,0
                -74.165541,4.614316,0
                -74.165179,4.614376,0
                -74.164478,4.614481,0
                -74.164161,4.614612,0
                -74.163796,4.614762,0
                -74.163496,4.614886,0
                -74.163182,4.615016,0
                -74.162929,4.615116,0
                -74.162616,4.615199,0
                -74.162995,4.61588,0
                -74.163136,4.616146,0
                -74.163354,4.616542,0
                -74.163476,4.616765,0
                -74.163561,4.61692,0
                -74.163796,4.617348,0
                -74.163996,4.61771,0
                -74.164137,4.617968,0
                -74.164243,4.618135,0
                -74.164506,4.618555,0
                -74.164616,4.618731,0
                -74.16473,4.618912,0
                -74.164962,4.619281,0
                -74.164995,4.619335,0
                -74.165123,4.619537,0
                -74.165199,4.619658,0
                -74.165419,4.620009,0
                -74.165491,4.620124,0
                -74.166007,4.620973,0
                -74.16602,4.620967,0
                -74.166189,4.621236,0
              </coordinates>
            </LinearRing>
          </outerBoundaryIs>
        </Polygon>
      </Placemark>
    </Folder>
  </Document>
</kml>
