<?xml version="1.0" encoding="UTF-8"?>
<kml xmlns="http://www.opengis.net/kml/2.2">
  <Document>
    <name>Zona 227</name>
    <description/>
    <Style id="poly-0097A7-1401-76-normal">
      <LineStyle>
        <color>ffa79700</color>
        <width>1.401</width>
      </LineStyle>
      <PolyStyle>
        <color>4ca79700</color>
        <fill>1</fill>
        <outline>1</outline>
      </PolyStyle>
    </Style>
    <Style id="poly-0097A7-1401-76-highlight">
      <LineStyle>
        <color>ffa79700</color>
        <width>2.1015</width>
      </LineStyle>
      <PolyStyle>
        <color>4ca79700</color>
        <fill>1</fill>
        <outline>1</outline>
      </PolyStyle>
    </Style>
    <StyleMap id="poly-0097A7-1401-76">
      <Pair>
        <key>normal</key>
        <styleUrl>#poly-0097A7-1401-76-normal</styleUrl>
      </Pair>
      <Pair>
        <key>highlight</key>
        <styleUrl>#poly-0097A7-1401-76-highlight</styleUrl>
      </Pair>
    </StyleMap>
    <Style id="poly-0288D1-3201-76-normal">
      <LineStyle>
        <color>ffd18802</color>
        <width>3.201</width>
      </LineStyle>
      <PolyStyle>
        <color>4cd18802</color>
        <fill>1</fill>
        <outline>1</outline>
      </PolyStyle>
    </Style>
    <Style id="poly-0288D1-3201-76-highlight">
      <LineStyle>
        <color>ffd18802</color>
        <width>4.8015</width>
      </LineStyle>
      <PolyStyle>
        <color>4cd18802</color>
        <fill>1</fill>
        <outline>1</outline>
      </PolyStyle>
    </Style>
    <StyleMap id="poly-0288D1-3201-76">
      <Pair>
        <key>normal</key>
        <styleUrl>#poly-0288D1-3201-76-normal</styleUrl>
      </Pair>
      <Pair>
        <key>highlight</key>
        <styleUrl>#poly-0288D1-3201-76-highlight</styleUrl>
      </Pair>
    </StyleMap>
    <Style id="poly-7CB342-3401-76-normal">
      <LineStyle>
        <color>ff42b37c</color>
        <width>3.401</width>
      </LineStyle>
      <PolyStyle>
        <color>4c42b37c</color>
        <fill>1</fill>
        <outline>1</outline>
      </PolyStyle>
    </Style>
    <Style id="poly-7CB342-3401-76-highlight">
      <LineStyle>
        <color>ff42b37c</color>
        <width>5.1015</width>
      </LineStyle>
      <PolyStyle>
        <color>4c42b37c</color>
        <fill>1</fill>
        <outline>1</outline>
      </PolyStyle>
    </Style>
    <StyleMap id="poly-7CB342-3401-76">
      <Pair>
        <key>normal</key>
        <styleUrl>#poly-7CB342-3401-76-normal</styleUrl>
      </Pair>
      <Pair>
        <key>highlight</key>
        <styleUrl>#poly-7CB342-3401-76-highlight</styleUrl>
      </Pair>
    </StyleMap>
    <Style id="poly-7CB342-3701-76-normal">
      <LineStyle>
        <color>ff42b37c</color>
        <width>3.701</width>
      </LineStyle>
      <PolyStyle>
        <color>4c42b37c</color>
        <fill>1</fill>
        <outline>1</outline>
      </PolyStyle>
    </Style>
    <Style id="poly-7CB342-3701-76-highlight">
      <LineStyle>
        <color>ff42b37c</color>
        <width>5.5515</width>
      </LineStyle>
      <PolyStyle>
        <color>4c42b37c</color>
        <fill>1</fill>
        <outline>1</outline>
      </PolyStyle>
    </Style>
    <StyleMap id="poly-7CB342-3701-76">
      <Pair>
        <key>normal</key>
        <styleUrl>#poly-7CB342-3701-76-normal</styleUrl>
      </Pair>
      <Pair>
        <key>highlight</key>
        <styleUrl>#poly-7CB342-3701-76-highlight</styleUrl>
      </Pair>
    </StyleMap>
    <Style id="poly-9C27B0-3201-54-normal">
      <LineStyle>
        <color>ffb0279c</color>
        <width>3.201</width>
      </LineStyle>
      <PolyStyle>
        <color>36b0279c</color>
        <fill>1</fill>
        <outline>1</outline>
      </PolyStyle>
    </Style>
    <Style id="poly-9C27B0-3201-54-highlight">
      <LineStyle>
        <color>ffb0279c</color>
        <width>4.8015</width>
      </LineStyle>
      <PolyStyle>
        <color>36b0279c</color>
        <fill>1</fill>
        <outline>1</outline>
      </PolyStyle>
    </Style>
    <StyleMap id="poly-9C27B0-3201-54">
      <Pair>
        <key>normal</key>
        <styleUrl>#poly-9C27B0-3201-54-normal</styleUrl>
      </Pair>
      <Pair>
        <key>highlight</key>
        <styleUrl>#poly-9C27B0-3201-54-highlight</styleUrl>
      </Pair>
    </StyleMap>
    <Style id="poly-9C27B0-3201-76-normal">
      <LineStyle>
        <color>ffb0279c</color>
        <width>3.201</width>
      </LineStyle>
      <PolyStyle>
        <color>4cb0279c</color>
        <fill>1</fill>
        <outline>1</outline>
      </PolyStyle>
    </Style>
    <Style id="poly-9C27B0-3201-76-highlight">
      <LineStyle>
        <color>ffb0279c</color>
        <width>4.8015</width>
      </LineStyle>
      <PolyStyle>
        <color>4cb0279c</color>
        <fill>1</fill>
        <outline>1</outline>
      </PolyStyle>
    </Style>
    <StyleMap id="poly-9C27B0-3201-76">
      <Pair>
        <key>normal</key>
        <styleUrl>#poly-9C27B0-3201-76-normal</styleUrl>
      </Pair>
      <Pair>
        <key>highlight</key>
        <styleUrl>#poly-9C27B0-3201-76-highlight</styleUrl>
      </Pair>
    </StyleMap>
    <Style id="poly-FF5252-1200-76-normal">
      <LineStyle>
        <color>ff5252ff</color>
        <width>1.2</width>
      </LineStyle>
      <PolyStyle>
        <color>4c5252ff</color>
        <fill>1</fill>
        <outline>1</outline>
      </PolyStyle>
    </Style>
    <Style id="poly-FF5252-1200-76-highlight">
      <LineStyle>
        <color>ff5252ff</color>
        <width>1.8</width>
      </LineStyle>
      <PolyStyle>
        <color>4c5252ff</color>
        <fill>1</fill>
        <outline>1</outline>
      </PolyStyle>
    </Style>
    <StyleMap id="poly-FF5252-1200-76">
      <Pair>
        <key>normal</key>
        <styleUrl>#poly-FF5252-1200-76-normal</styleUrl>
      </Pair>
      <Pair>
        <key>highlight</key>
        <styleUrl>#poly-FF5252-1200-76-highlight</styleUrl>
      </Pair>
    </StyleMap>
    <Style id="poly-FF5252-2801-76-normal">
      <LineStyle>
        <color>ff5252ff</color>
        <width>2.801</width>
      </LineStyle>
      <PolyStyle>
        <color>4c5252ff</color>
        <fill>1</fill>
        <outline>1</outline>
      </PolyStyle>
    </Style>
    <Style id="poly-FF5252-2801-76-highlight">
      <LineStyle>
        <color>ff5252ff</color>
        <width>4.2015</width>
      </LineStyle>
      <PolyStyle>
        <color>4c5252ff</color>
        <fill>1</fill>
        <outline>1</outline>
      </PolyStyle>
    </Style>
    <StyleMap id="poly-FF5252-2801-76">
      <Pair>
        <key>normal</key>
        <styleUrl>#poly-FF5252-2801-76-normal</styleUrl>
      </Pair>
      <Pair>
        <key>highlight</key>
        <styleUrl>#poly-FF5252-2801-76-highlight</styleUrl>
      </Pair>
    </StyleMap>
    <Style id="poly-FFEA00-2901-76-normal">
      <LineStyle>
        <color>ff00eaff</color>
        <width>2.901</width>
      </LineStyle>
      <PolyStyle>
        <color>4c00eaff</color>
        <fill>1</fill>
        <outline>1</outline>
      </PolyStyle>
    </Style>
    <Style id="poly-FFEA00-2901-76-highlight">
      <LineStyle>
        <color>ff00eaff</color>
        <width>4.3515</width>
      </LineStyle>
      <PolyStyle>
        <color>4c00eaff</color>
        <fill>1</fill>
        <outline>1</outline>
      </PolyStyle>
    </Style>
    <StyleMap id="poly-FFEA00-2901-76">
      <Pair>
        <key>normal</key>
        <styleUrl>#poly-FFEA00-2901-76-normal</styleUrl>
      </Pair>
      <Pair>
        <key>highlight</key>
        <styleUrl>#poly-FFEA00-2901-76-highlight</styleUrl>
      </Pair>
    </StyleMap>
    <Style id="poly-FFEA00-3801-64-normal">
      <LineStyle>
        <color>ff00eaff</color>
        <width>3.801</width>
      </LineStyle>
      <PolyStyle>
        <color>4000eaff</color>
        <fill>1</fill>
        <outline>1</outline>
      </PolyStyle>
    </Style>
    <Style id="poly-FFEA00-3801-64-highlight">
      <LineStyle>
        <color>ff00eaff</color>
        <width>5.7015</width>
      </LineStyle>
      <PolyStyle>
        <color>4000eaff</color>
        <fill>1</fill>
        <outline>1</outline>
      </PolyStyle>
    </Style>
    <StyleMap id="poly-FFEA00-3801-64">
      <Pair>
        <key>normal</key>
        <styleUrl>#poly-FFEA00-3801-64-normal</styleUrl>
      </Pair>
      <Pair>
        <key>highlight</key>
        <styleUrl>#poly-FFEA00-3801-64-highlight</styleUrl>
      </Pair>
    </StyleMap>
    <Folder>
      <name>VD227</name>
      <Placemark>
        <name/>
        <description><![CDATA[Descripción: <br>Reg_Nom: Bogota 150<br>Dominio: Bogota<br>Region: 150<br>Zona: 227<br>Seccion: D<br>Zsec: 227D]]></description>
        <styleUrl>#poly-7CB342-3401-76</styleUrl>
        <ExtendedData>
          <Data name="Descripción">
            <value/>
          </Data>
          <Data name="Reg_Nom">
            <value>Bogota 150</value>
          </Data>
          <Data name="Dominio">
            <value>Bogota</value>
          </Data>
          <Data name="Region">
            <value>150</value>
          </Data>
          <Data name="Zona">
            <value>227</value>
          </Data>
          <Data name="Seccion">
            <value>D</value>
          </Data>
          <Data name="Zsec">
            <value>227D</value>
          </Data>
        </ExtendedData>
        <Polygon>
          <outerBoundaryIs>
            <LinearRing>
              <tessellate>1</tessellate>
              <coordinates>
                -74.107192,4.598493,0
                -74.107384,4.598709,0
                -74.107455,4.598789,0
                -74.107488,4.598817,0
                -74.108145,4.599363,0
                -74.108461,4.599665,0
                -74.108617,4.599816,0
                -74.108762,4.599954,0
                -74.109112,4.60029,0
                -74.109334,4.600503,0
                -74.109646,4.600802,0
                -74.10997,4.601112,0
                -74.110145,4.60129,0
                -74.110468,4.601589,0
                -74.110968,4.602069,0
                -74.111378,4.602463,0
                -74.111471,4.602551,0
                -74.111682,4.602735,0
                -74.112619,4.60355,0
                -74.113281,4.604125,0
                -74.113463,4.604283,0
                -74.113929,4.604689,0
                -74.114408,4.605105,0
                -74.114613,4.605284,0
                -74.115252,4.605833,0
                -74.115645,4.606055,0
                -74.115802,4.606145,0
                -74.116235,4.606389,0
                -74.116623,4.606609,0
                -74.116957,4.606798,0
                -74.117293,4.606988,0
                -74.117776,4.607261,0
                -74.117918,4.607341,0
                -74.118518,4.607505,0
                -74.118594,4.607371,0
                -74.118756,4.607089,0
                -74.119126,4.606443,0
                -74.119167,4.606372,0
                -74.119214,4.606288,0
                -74.11923,4.606261,0
                -74.119458,4.60585,0
                -74.119739,4.605346,0
                -74.120058,4.604773,0
                -74.120376,4.6042,0
                -74.120544,4.603898,0
                -74.120712,4.603597,0
                -74.121091,4.602928,0
                -74.121285,4.602588,0
                -74.121328,4.602529,0
                -74.121582,4.602135,0
                -74.121732,4.60191,0
                -74.121915,4.601777,0
                -74.12212,4.601433,0
                -74.122425,4.601058,0
                -74.122707,4.600712,0
                -74.122936,4.60043,0
                -74.123012,4.600337,0
                -74.123215,4.600088,0
                -74.12355,4.599677,0
                -74.123849,4.599309,0
                -74.124143,4.598949,0
                -74.12437,4.59867,0
                -74.124633,4.598347,0
                -74.124919,4.597996,0
                -74.125236,4.597607,0
                -74.125258,4.597579,0
                -74.125309,4.59752,0
                -74.125396,4.597417,0
                -74.125776,4.596972,0
                -74.12592,4.596576,0
                -74.125929,4.59655,0
                -74.126024,4.596289,0
                -74.126109,4.596052,0
                -74.126277,4.595514,0
                -74.126665,4.593829,0
                -74.126233,4.593762,0
                -74.126214,4.593759,0
                -74.125853,4.593767,0
                -74.125296,4.593767,0
                -74.125148,4.593767,0
                -74.12396,4.593845,0
                -74.123143,4.593883,0
                -74.122499,4.593989,0
                -74.121931,4.594081,0
                -74.121822,4.594099,0
                -74.121088,4.594219,0
                -74.120658,4.594289,0
                -74.1206,4.594299,0
                -74.119925,4.594445,0
                -74.119082,4.594628,0
                -74.117894,4.594886,0
                -74.117888,4.594887,0
                -74.116986,4.595083,0
                -74.116874,4.595107,0
                -74.116795,4.595124,0
                -74.11576,4.595349,0
                -74.115557,4.595415,0
                -74.115174,4.59554,0
                -74.114536,4.595747,0
                -74.114306,4.595822,0
                -74.114105,4.59589,0
                -74.113629,4.59605,0
                -74.113439,4.596114,0
                -74.113178,4.596229,0
                -74.11242,4.596563,0
                -74.111444,4.596993,0
                -74.110623,4.597372,0
                -74.110141,4.597594,0
                -74.110035,4.597643,0
                -74.110032,4.597644,0
                -74.109628,4.597834,0
                -74.108852,4.598223,0
                -74.107878,4.598426,0
                -74.107864,4.598429,0
                -74.107266,4.598416,0
                -74.107121,4.598413,0
                -74.107192,4.598493,0
              </coordinates>
            </LinearRing>
          </outerBoundaryIs>
        </Polygon>
      </Placemark>
      <Placemark>
        <name/>
        <description><![CDATA[Descripción: <br>Reg_Nom: Bogota 150<br>Dominio: Bogota<br>Region: 150<br>Zona: 227<br>Seccion: A<br>Zsec: 227A]]></description>
        <styleUrl>#poly-FFEA00-3801-64</styleUrl>
        <ExtendedData>
          <Data name="Descripción">
            <value/>
          </Data>
          <Data name="Reg_Nom">
            <value>Bogota 150</value>
          </Data>
          <Data name="Dominio">
            <value>Bogota</value>
          </Data>
          <Data name="Region">
            <value>150</value>
          </Data>
          <Data name="Zona">
            <value>227</value>
          </Data>
          <Data name="Seccion">
            <value>A</value>
          </Data>
          <Data name="Zsec">
            <value>227A</value>
          </Data>
        </ExtendedData>
        <Polygon>
          <outerBoundaryIs>
            <LinearRing>
              <tessellate>1</tessellate>
              <coordinates>
                -74.097891,4.606737,0
                -74.097877,4.606722,0
                -74.089424,4.617177,0
                -74.083007,4.624632,0
                -74.083361,4.624765,0
                -74.083739,4.624825,0
                -74.08367,4.624853,0
                -74.083597,4.624853,0
                -74.083625,4.62487,0
                -74.083742,4.624944,0
                -74.084428,4.625012,0
                -74.085643,4.625135,0
                -74.086831,4.625269,0
                -74.087318,4.625311,0
                -74.087805,4.625354,0
                -74.088773,4.625451,0
                -74.089073,4.625482,0
                -74.089792,4.625554,0
                -74.090461,4.625622,0
                -74.090998,4.625676,0
                -74.091096,4.625686,0
                -74.091716,4.625749,0
                -74.091724,4.625764,0
                -74.098652,4.626475,0
                -74.107389,4.627371,0
                -74.107816,4.62696,0
                -74.10763,4.626711,0
                -74.107523,4.626589,0
                -74.10738,4.62659,0
                -74.107354,4.626537,0
                -74.107626,4.626112,0
                -74.108547,4.624905,0
                -74.108608,4.624825,0
                -74.108974,4.624345,0
                -74.109273,4.623953,0
                -74.109489,4.62367,0
                -74.10954,4.623603,0
                -74.110013,4.622857,0
                -74.110701,4.621772,0
                -74.110689,4.621708,0
                -74.111037,4.621296,0
                -74.111556,4.620683,0
                -74.111609,4.620615,0
                -74.112173,4.619883,0
                -74.112744,4.619144,0
                -74.112781,4.619096,0
                -74.112837,4.618983,0
                -74.11303,4.618597,0
                -74.11322,4.618215,0
                -74.113342,4.617969,0
                -74.113629,4.617281,0
                -74.11369,4.617135,0
                -74.114185,4.61497,0
                -74.114332,4.614894,0
                -74.114374,4.614872,0
                -74.114466,4.614824,0
                -74.114041,4.614468,0
                -74.114011,4.614443,0
                -74.113762,4.6143,0
                -74.113648,4.614238,0
                -74.113479,4.614146,0
                -74.113096,4.613939,0
                -74.112741,4.613563,0
                -74.112687,4.613506,0
                -74.112598,4.613437,0
                -74.112357,4.613319,0
                -74.112181,4.613117,0
                -74.11206,4.612978,0
                -74.111962,4.6129,0
                -74.111758,4.612736,0
                -74.111481,4.61252,0
                -74.111344,4.612416,0
                -74.111304,4.612388,0
                -74.111304,4.612387,0
                -74.111223,4.612333,0
                -74.11116,4.612291,0
                -74.111117,4.61226,0
                -74.111103,4.612251,0
                -74.111095,4.612244,0
                -74.11064,4.612144,0
                -74.110105,4.61206,0
                -74.109957,4.612036,0
                -74.109526,4.611919,0
                -74.109369,4.611895,0
                -74.109236,4.611881,0
                -74.109126,4.61188,0
                -74.109036,4.611885,0
                -74.108911,4.611902,0
                -74.108734,4.611949,0
                -74.108413,4.612042,0
                -74.10812,4.612127,0
                -74.107827,4.612214,0
                -74.107504,4.612304,0
                -74.107233,4.612379,0
                -74.107073,4.612427,0
                -74.106848,4.612491,0
                -74.106397,4.61262,0
                -74.106181,4.612683,0
                -74.105972,4.612779,0
                -74.105676,4.612863,0
                -74.105539,4.612901,0
                -74.105451,4.612927,0
                -74.105404,4.61294,0
                -74.105241,4.612988,0
                -74.105199,4.613,0
                -74.105123,4.613022,0
                -74.105076,4.613034,0
                -74.10501,4.613042,0
                -74.104952,4.61305,0
                -74.104878,4.613048,0
                -74.104707,4.613013,0
                -74.10468,4.613009,0
                -74.104646,4.613003,0
                -74.104617,4.612995,0
                -74.104575,4.612984,0
                -74.104465,4.612978,0
                -74.104412,4.612939,0
                -74.104376,4.612913,0
                -74.104339,4.612881,0
                -74.104299,4.612839,0
                -74.104262,4.612805,0
                -74.104253,4.612796,0
                -74.104193,4.612708,0
                -74.103993,4.612415,0
                -74.103792,4.612121,0
                -74.103757,4.612071,0
                -74.103304,4.611407,0
                -74.103242,4.611347,0
                -74.103189,4.611296,0
                -74.103102,4.61116,0
                -74.102832,4.610737,0
                -74.102602,4.610378,0
                -74.102389,4.610204,0
                -74.102331,4.610163,0
                -74.10214,4.609955,0
                -74.101958,4.609765,0
                -74.10181,4.609628,0
                -74.101756,4.609577,0
                -74.101649,4.609475,0
                -74.101516,4.609344,0
                -74.101371,4.609212,0
                -74.101229,4.609089,0
                -74.101035,4.608923,0
                -74.100839,4.608771,0
                -74.100751,4.608706,0
                -74.100731,4.608694,0
                -74.100229,4.608313,0
                -74.100219,4.608305,0
                -74.100166,4.608264,0
                -74.100029,4.608162,0
                -74.09978,4.607977,0
                -74.099498,4.607764,0
                -74.099217,4.607553,0
                -74.098883,4.607304,0
                -74.098517,4.607028,0
                -74.098378,4.606927,0
                -74.098375,4.606924,0
                -74.098081,4.606685,0
                -74.097991,4.606611,0
                -74.09805,4.606724,0
                -74.09796,4.606651,0
                -74.097891,4.606737,0
              </coordinates>
            </LinearRing>
          </outerBoundaryIs>
        </Polygon>
      </Placemark>
      <Placemark>
        <name/>
        <description><![CDATA[Descripción: <br>Reg_Nom: Bogota 150<br>Dominio: Bogota<br>Region: 150<br>Zona: 227<br>Seccion: B<br>Zsec: 227B]]></description>
        <styleUrl>#poly-0288D1-3201-76</styleUrl>
        <ExtendedData>
          <Data name="Descripción">
            <value/>
          </Data>
          <Data name="Reg_Nom">
            <value>Bogota 150</value>
          </Data>
          <Data name="Dominio">
            <value>Bogota</value>
          </Data>
          <Data name="Region">
            <value>150</value>
          </Data>
          <Data name="Zona">
            <value>227</value>
          </Data>
          <Data name="Seccion">
            <value>B</value>
          </Data>
          <Data name="Zsec">
            <value>227B</value>
          </Data>
        </ExtendedData>
        <Polygon>
          <outerBoundaryIs>
            <LinearRing>
              <tessellate>1</tessellate>
              <coordinates>
                -74.103757,4.612071,0
                -74.103792,4.612121,0
                -74.103993,4.612415,0
                -74.104193,4.612708,0
                -74.104253,4.612796,0
                -74.104262,4.612805,0
                -74.104299,4.612839,0
                -74.104339,4.612881,0
                -74.104376,4.612913,0
                -74.104412,4.612939,0
                -74.104465,4.612978,0
                -74.104575,4.612984,0
                -74.104617,4.612995,0
                -74.104646,4.613003,0
                -74.10468,4.613009,0
                -74.104707,4.613013,0
                -74.104878,4.613048,0
                -74.104952,4.61305,0
                -74.10501,4.613042,0
                -74.105076,4.613034,0
                -74.105123,4.613022,0
                -74.105199,4.613,0
                -74.105241,4.612988,0
                -74.105404,4.61294,0
                -74.105451,4.612927,0
                -74.105539,4.612901,0
                -74.105676,4.612863,0
                -74.105972,4.612779,0
                -74.106181,4.612683,0
                -74.106397,4.61262,0
                -74.106848,4.612491,0
                -74.107073,4.612427,0
                -74.107233,4.612379,0
                -74.107504,4.612304,0
                -74.107827,4.612214,0
                -74.10812,4.612127,0
                -74.108413,4.612042,0
                -74.108734,4.611949,0
                -74.108911,4.611902,0
                -74.109036,4.611885,0
                -74.109126,4.61188,0
                -74.109236,4.611881,0
                -74.109369,4.611895,0
                -74.109526,4.611919,0
                -74.109957,4.612036,0
                -74.110105,4.61206,0
                -74.11064,4.612144,0
                -74.111095,4.612244,0
                -74.111103,4.612251,0
                -74.111117,4.61226,0
                -74.11116,4.612291,0
                -74.111223,4.612333,0
                -74.111304,4.612387,0
                -74.111304,4.612388,0
                -74.111344,4.612416,0
                -74.111481,4.61252,0
                -74.111758,4.612736,0
                -74.111962,4.6129,0
                -74.11206,4.612978,0
                -74.111991,4.612899,0
                -74.111659,4.612613,0
                -74.111305,4.612309,0
                -74.111069,4.612105,0
                -74.110367,4.611502,0
                -74.110307,4.61145,0
                -74.110082,4.611158,0
                -74.110019,4.611076,0
                -74.10985,4.610857,0
                -74.109588,4.610517,0
                -74.109402,4.610275,0
                -74.109325,4.610175,0
                -74.109249,4.610076,0
                -74.109053,4.609821,0
                -74.108937,4.609672,0
                -74.108889,4.609609,0
                -74.108753,4.609491,0
                -74.108701,4.609445,0
                -74.107555,4.608444,0
                -74.106812,4.607802,0
                -74.107443,4.607282,0
                -74.107877,4.606924,0
                -74.108077,4.606734,0
                -74.10822,4.606551,0
                -74.108846,4.60574,0
                -74.10938,4.605048,0
                -74.109708,4.604624,0
                -74.109714,4.604617,0
                -74.110182,4.60401,0
                -74.110417,4.603707,0
                -74.110681,4.603367,0
                -74.110816,4.603192,0
                -74.110918,4.603058,0
                -74.111378,4.602463,0
                -74.110968,4.602069,0
                -74.110468,4.601589,0
                -74.110145,4.60129,0
                -74.10997,4.601112,0
                -74.109646,4.600802,0
                -74.109334,4.600503,0
                -74.109112,4.60029,0
                -74.108762,4.599954,0
                -74.108617,4.599816,0
                -74.108461,4.599665,0
                -74.108145,4.599363,0
                -74.107488,4.598817,0
                -74.107455,4.598789,0
                -74.107384,4.598709,0
                -74.107192,4.598493,0
                -74.107121,4.598413,0
                -74.106884,4.598658,0
                -74.106698,4.598809,0
                -74.106484,4.598958,0
                -74.10627,4.599107,0
                -74.10604,4.599273,0
                -74.10586,4.599403,0
                -74.105497,4.599666,0
                -74.105359,4.599765,0
                -74.105298,4.59981,0
                -74.105116,4.599941,0
                -74.104856,4.600046,0
                -74.104597,4.600151,0
                -74.104544,4.600165,0
                -74.104402,4.6002,0
                -74.103995,4.600534,0
                -74.103662,4.600807,0
                -74.103204,4.601183,0
                -74.102968,4.601377,0
                -74.102828,4.601491,0
                -74.102582,4.601715,0
                -74.102121,4.60207,0
                -74.101157,4.602861,0
                -74.100881,4.603087,0
                -74.100664,4.603265,0
                -74.100596,4.60335,0
                -74.100051,4.604032,0
                -74.099894,4.604228,0
                -74.0994,4.604846,0
                -74.099192,4.605108,0
                -74.099106,4.605215,0
                -74.099062,4.60527,0
                -74.098928,4.605437,0
                -74.098436,4.606055,0
                -74.097995,4.606606,0
                -74.097991,4.606611,0
                -74.098081,4.606685,0
                -74.098375,4.606924,0
                -74.098378,4.606927,0
                -74.098517,4.607028,0
                -74.098883,4.607304,0
                -74.099217,4.607553,0
                -74.099498,4.607764,0
                -74.09978,4.607977,0
                -74.100029,4.608162,0
                -74.100166,4.608264,0
                -74.100219,4.608305,0
                -74.100229,4.608313,0
                -74.100731,4.608694,0
                -74.100751,4.608706,0
                -74.100839,4.608771,0
                -74.101035,4.608923,0
                -74.101229,4.609089,0
                -74.101371,4.609212,0
                -74.101516,4.609344,0
                -74.101649,4.609475,0
                -74.101756,4.609577,0
                -74.10181,4.609628,0
                -74.101958,4.609765,0
                -74.10214,4.609955,0
                -74.102331,4.610163,0
                -74.102389,4.610204,0
                -74.102602,4.610378,0
                -74.102832,4.610737,0
                -74.103102,4.61116,0
                -74.103189,4.611296,0
                -74.103242,4.611347,0
                -74.103304,4.611407,0
                -74.103757,4.612071,0
              </coordinates>
            </LinearRing>
          </outerBoundaryIs>
        </Polygon>
      </Placemark>
      <Placemark>
        <name/>
        <description><![CDATA[Descripción: <br>Reg_Nom: Bogota 150<br>Dominio: Bogota<br>Region: 150<br>Zona: 227<br>Seccion: C<br>Zsec: 227C]]></description>
        <styleUrl>#poly-FF5252-2801-76</styleUrl>
        <ExtendedData>
          <Data name="Descripción">
            <value/>
          </Data>
          <Data name="Reg_Nom">
            <value>Bogota 150</value>
          </Data>
          <Data name="Dominio">
            <value>Bogota</value>
          </Data>
          <Data name="Region">
            <value>150</value>
          </Data>
          <Data name="Zona">
            <value>227</value>
          </Data>
          <Data name="Seccion">
            <value>C</value>
          </Data>
          <Data name="Zsec">
            <value>227C</value>
          </Data>
        </ExtendedData>
        <Polygon>
          <outerBoundaryIs>
            <LinearRing>
              <tessellate>1</tessellate>
              <coordinates>
                -74.112598,4.613437,0
                -74.112687,4.613506,0
                -74.112741,4.613563,0
                -74.113096,4.613939,0
                -74.113479,4.614146,0
                -74.113648,4.614238,0
                -74.113762,4.6143,0
                -74.114011,4.614443,0
                -74.114041,4.614468,0
                -74.114466,4.614824,0
                -74.114749,4.614754,0
                -74.114842,4.614724,0
                -74.115922,4.614376,0
                -74.116103,4.614297,0
                -74.11637,4.614198,0
                -74.116815,4.614026,0
                -74.118103,4.613487,0
                -74.118361,4.613382,0
                -74.119118,4.61306,0
                -74.119641,4.612836,0
                -74.11974,4.612799,0
                -74.120231,4.612613,0
                -74.120891,4.612362,0
                -74.12152,4.612125,0
                -74.121901,4.61198,0
                -74.12204,4.611928,0
                -74.122195,4.611869,0
                -74.122234,4.611854,0
                -74.12253,4.611742,0
                -74.122973,4.611574,0
                -74.123715,4.611293,0
                -74.124448,4.611015,0
                -74.124875,4.610853,0
                -74.125443,4.610638,0
                -74.1258,4.610503,0
                -74.128707,4.609301,0
                -74.128939,4.609213,0
                -74.129238,4.609117,0
                -74.128778,4.60879,0
                -74.128698,4.608734,0
                -74.128326,4.608475,0
                -74.128251,4.608422,0
                -74.12798,4.608232,0
                -74.127878,4.60816,0
                -74.127514,4.607795,0
                -74.127319,4.6076,0
                -74.127173,4.607444,0
                -74.127113,4.607379,0
                -74.126884,4.607134,0
                -74.126252,4.606458,0
                -74.125901,4.606081,0
                -74.125825,4.606,0
                -74.1257,4.605868,0
                -74.125646,4.605809,0
                -74.125112,4.605238,0
                -74.124817,4.604922,0
                -74.124548,4.604746,0
                -74.124172,4.604499,0
                -74.123795,4.604252,0
                -74.123324,4.603944,0
                -74.123153,4.603831,0
                -74.122774,4.603583,0
                -74.122679,4.603505,0
                -74.122672,4.603495,0
                -74.1226,4.603399,0
                -74.122567,4.603354,0
                -74.121888,4.602851,0
                -74.121745,4.602789,0
                -74.121285,4.602588,0
                -74.121091,4.602928,0
                -74.120712,4.603597,0
                -74.120544,4.603898,0
                -74.120376,4.6042,0
                -74.120058,4.604773,0
                -74.119739,4.605346,0
                -74.119458,4.60585,0
                -74.11923,4.606261,0
                -74.119214,4.606288,0
                -74.119167,4.606372,0
                -74.119126,4.606443,0
                -74.118756,4.607089,0
                -74.118594,4.607371,0
                -74.118518,4.607505,0
                -74.117918,4.607341,0
                -74.117776,4.607261,0
                -74.117293,4.606988,0
                -74.116957,4.606798,0
                -74.116623,4.606609,0
                -74.116235,4.606389,0
                -74.115802,4.606145,0
                -74.115645,4.606055,0
                -74.115252,4.605833,0
                -74.114613,4.605284,0
                -74.114408,4.605105,0
                -74.113929,4.604689,0
                -74.113463,4.604283,0
                -74.113281,4.604125,0
                -74.112619,4.60355,0
                -74.111682,4.602735,0
                -74.111471,4.602551,0
                -74.111424,4.602507,0
                -74.111378,4.602463,0
                -74.110918,4.603058,0
                -74.110816,4.603192,0
                -74.110681,4.603367,0
                -74.110417,4.603707,0
                -74.110182,4.60401,0
                -74.109714,4.604617,0
                -74.109708,4.604624,0
                -74.10938,4.605048,0
                -74.108846,4.60574,0
                -74.10822,4.606551,0
                -74.108077,4.606734,0
                -74.107877,4.606924,0
                -74.107443,4.607282,0
                -74.106812,4.607802,0
                -74.107555,4.608444,0
                -74.108701,4.609445,0
                -74.108753,4.609491,0
                -74.108889,4.609609,0
                -74.108937,4.609672,0
                -74.109053,4.609821,0
                -74.109249,4.610076,0
                -74.109325,4.610175,0
                -74.109402,4.610275,0
                -74.109588,4.610517,0
                -74.10985,4.610857,0
                -74.110019,4.611076,0
                -74.110082,4.611158,0
                -74.110307,4.61145,0
                -74.110367,4.611502,0
                -74.111069,4.612105,0
                -74.111305,4.612309,0
                -74.111659,4.612613,0
                -74.111991,4.612899,0
                -74.11206,4.612978,0
                -74.112181,4.613117,0
                -74.112471,4.61334,0
                -74.112484,4.613349,0
                -74.112566,4.613412,0
                -74.112598,4.613437,0
              </coordinates>
            </LinearRing>
          </outerBoundaryIs>
        </Polygon>
      </Placemark>
      <Placemark>
        <name/>
        <description><![CDATA[Descripción: <br>Reg_Nom: Bogota 150<br>Dominio: Bogota<br>Region: 150<br>Zona: 227<br>Seccion: E<br>Zsec: 227E]]></description>
        <styleUrl>#poly-9C27B0-3201-76</styleUrl>
        <ExtendedData>
          <Data name="Descripción">
            <value/>
          </Data>
          <Data name="Reg_Nom">
            <value>Bogota 150</value>
          </Data>
          <Data name="Dominio">
            <value>Bogota</value>
          </Data>
          <Data name="Region">
            <value>150</value>
          </Data>
          <Data name="Zona">
            <value>227</value>
          </Data>
          <Data name="Seccion">
            <value>E</value>
          </Data>
          <Data name="Zsec">
            <value>227E</value>
          </Data>
        </ExtendedData>
        <Polygon>
          <outerBoundaryIs>
            <LinearRing>
              <tessellate>1</tessellate>
              <coordinates>
                -74.126277,4.595514,0
                -74.126109,4.596052,0
                -74.126024,4.596289,0
                -74.125929,4.59655,0
                -74.12592,4.596576,0
                -74.125776,4.596972,0
                -74.125396,4.597417,0
                -74.125309,4.59752,0
                -74.125258,4.597579,0
                -74.125236,4.597607,0
                -74.124919,4.597996,0
                -74.124633,4.598347,0
                -74.12437,4.59867,0
                -74.124143,4.598949,0
                -74.123849,4.599309,0
                -74.12355,4.599677,0
                -74.123215,4.600088,0
                -74.123012,4.600337,0
                -74.122936,4.60043,0
                -74.122707,4.600712,0
                -74.122425,4.601058,0
                -74.12212,4.601433,0
                -74.121915,4.601777,0
                -74.121732,4.60191,0
                -74.121582,4.602135,0
                -74.121328,4.602529,0
                -74.121285,4.602588,0
                -74.121745,4.602789,0
                -74.121888,4.602851,0
                -74.122567,4.603354,0
                -74.1226,4.603399,0
                -74.122672,4.603495,0
                -74.122679,4.603505,0
                -74.122774,4.603583,0
                -74.123153,4.603831,0
                -74.123324,4.603944,0
                -74.123795,4.604252,0
                -74.124172,4.604499,0
                -74.124548,4.604746,0
                -74.124817,4.604922,0
                -74.125112,4.605238,0
                -74.125646,4.605809,0
                -74.1257,4.605868,0
                -74.125825,4.606,0
                -74.125901,4.606081,0
                -74.126252,4.606458,0
                -74.126884,4.607134,0
                -74.127113,4.607379,0
                -74.127173,4.607444,0
                -74.127319,4.6076,0
                -74.127514,4.607795,0
                -74.127878,4.60816,0
                -74.12798,4.608232,0
                -74.128251,4.608422,0
                -74.128326,4.608475,0
                -74.128698,4.608734,0
                -74.128778,4.60879,0
                -74.129238,4.609117,0
                -74.12932,4.608875,0
                -74.129531,4.608361,0
                -74.12963,4.608122,0
                -74.129748,4.607835,0
                -74.129949,4.607512,0
                -74.130194,4.607155,0
                -74.130273,4.60704,0
                -74.130441,4.606796,0
                -74.130733,4.606371,0
                -74.13096,4.60604,0
                -74.131189,4.605707,0
                -74.131484,4.605278,0
                -74.131577,4.605084,0
                -74.13158,4.605075,0
                -74.131707,4.604753,0
                -74.132298,4.6039,0
                -74.132511,4.603592,0
                -74.132853,4.603098,0
                -74.133123,4.602708,0
                -74.13338,4.602337,0
                -74.133659,4.601934,0
                -74.134038,4.601388,0
                -74.134474,4.600758,0
                -74.134713,4.600412,0
                -74.134978,4.600029,0
                -74.135231,4.599665,0
                -74.135774,4.598881,0
                -74.136018,4.598528,0
                -74.136283,4.598146,0
                -74.136601,4.597687,0
                -74.136611,4.597673,0
                -74.136722,4.597513,0
                -74.136748,4.59746,0
                -74.136978,4.597091,0
                -74.137741,4.595629,0
                -74.138068,4.594999,0
                -74.13775,4.594953,0
                -74.136547,4.594716,0
                -74.135383,4.594454,0
                -74.135318,4.59444,0
                -74.13508,4.59439,0
                -74.134627,4.594294,0
                -74.134184,4.594201,0
                -74.133749,4.594109,0
                -74.133281,4.59401,0
                -74.132906,4.59393,0
                -74.132668,4.59388,0
                -74.132234,4.593788,0
                -74.131728,4.593634,0
                -74.131682,4.59362,0
                -74.131074,4.593704,0
                -74.130323,4.59378,0
                -74.130284,4.593784,0
                -74.129707,4.593763,0
                -74.129215,4.59375,0
                -74.129115,4.593747,0
                -74.128406,4.593786,0
                -74.128355,4.593789,0
                -74.128252,4.593786,0
                -74.128169,4.593785,0
                -74.128086,4.593785,0
                -74.128003,4.593784,0
                -74.12792,4.593783,0
                -74.127837,4.593782,0
                -74.127819,4.593782,0
                -74.127754,4.593782,0
                -74.127671,4.593781,0
                -74.127551,4.593942,0
                -74.127536,4.593963,0
                -74.126665,4.593829,0
                -74.126277,4.595514,0
              </coordinates>
            </LinearRing>
          </outerBoundaryIs>
        </Polygon>
      </Placemark>
      <Placemark>
        <name/>
        <description><![CDATA[Descripción: <br>Reg_Nom: Bogota 150<br>Dominio: Bogota<br>Region: 150<br>Zona: 227<br>Seccion: K<br>Zsec: 227K]]></description>
        <styleUrl>#poly-9C27B0-3201-54</styleUrl>
        <ExtendedData>
          <Data name="Descripción">
            <value/>
          </Data>
          <Data name="Reg_Nom">
            <value>Bogota 150</value>
          </Data>
          <Data name="Dominio">
            <value>Bogota</value>
          </Data>
          <Data name="Region">
            <value>150</value>
          </Data>
          <Data name="Zona">
            <value>227</value>
          </Data>
          <Data name="Seccion">
            <value>K</value>
          </Data>
          <Data name="Zsec">
            <value>227K</value>
          </Data>
        </ExtendedData>
        <Polygon>
          <outerBoundaryIs>
            <LinearRing>
              <tessellate>1</tessellate>
              <coordinates>
                -74.137741,4.595629,0
                -74.136978,4.597091,0
                -74.136748,4.59746,0
                -74.136722,4.597513,0
                -74.136611,4.597673,0
                -74.136601,4.597687,0
                -74.136283,4.598146,0
                -74.136018,4.598528,0
                -74.135774,4.598881,0
                -74.135231,4.599665,0
                -74.134978,4.600029,0
                -74.134713,4.600412,0
                -74.134474,4.600758,0
                -74.134038,4.601388,0
                -74.133659,4.601934,0
                -74.13338,4.602337,0
                -74.133123,4.602708,0
                -74.132853,4.603098,0
                -74.132511,4.603592,0
                -74.132298,4.6039,0
                -74.131707,4.604753,0
                -74.13158,4.605075,0
                -74.131577,4.605084,0
                -74.131484,4.605278,0
                -74.131189,4.605707,0
                -74.13096,4.60604,0
                -74.130733,4.606371,0
                -74.130441,4.606796,0
                -74.130273,4.60704,0
                -74.130194,4.607155,0
                -74.129949,4.607512,0
                -74.129748,4.607835,0
                -74.129639,4.608098,0
                -74.12963,4.608122,0
                -74.129531,4.608374,0
                -74.129238,4.609117,0
                -74.129069,4.609186,0
                -74.133428,4.61187,0
                -74.139094,4.61837,0
                -74.139477,4.618566,0
                -74.139493,4.618491,0
                -74.139517,4.618394,0
                -74.13962,4.61798,0
                -74.139777,4.61735,0
                -74.139871,4.616973,0
                -74.139933,4.616724,0
                -74.139987,4.616508,0
                -74.140127,4.616016,0
                -74.140304,4.615394,0
                -74.140328,4.615257,0
                -74.140628,4.614284,0
                -74.14065,4.614124,0
                -74.140655,4.614084,0
                -74.140828,4.612803,0
                -74.140835,4.612749,0
                -74.140899,4.61227,0
                -74.140941,4.611964,0
                -74.140964,4.61179,0
                -74.141051,4.611142,0
                -74.141061,4.61107,0
                -74.14113,4.610558,0
                -74.141169,4.610271,0
                -74.141273,4.609497,0
                -74.141356,4.608886,0
                -74.141388,4.608647,0
                -74.141408,4.608496,0
                -74.141468,4.607951,0
                -74.142026,4.606438,0
                -74.142062,4.606366,0
                -74.142209,4.605981,0
                -74.142322,4.60564,0
                -74.142431,4.605343,0
                -74.142571,4.604964,0
                -74.142804,4.604354,0
                -74.142935,4.603978,0
                -74.143001,4.603801,0
                -74.143099,4.603536,0
                -74.143159,4.60337,0
                -74.143358,4.602834,0
                -74.143763,4.601737,0
                -74.143958,4.601209,0
                -74.144175,4.600659,0
                -74.144542,4.599613,0
                -74.144758,4.598921,0
                -74.14485,4.598625,0
                -74.144978,4.598218,0
                -74.145068,4.597931,0
                -74.145272,4.59728,0
                -74.145318,4.597129,0
                -74.145326,4.597046,0
                -74.14538,4.596428,0
                -74.145407,4.596121,0
                -74.145428,4.595875,0
                -74.145488,4.595716,0
                -74.145519,4.59565,0
                -74.145518,4.59565,0
                -74.14525,4.595448,0
                -74.144018,4.595353,0
                -74.143942,4.595347,0
                -74.143855,4.595354,0
                -74.143682,4.595367,0
                -74.143303,4.595396,0
                -74.142778,4.595436,0
                -74.142567,4.595451,0
                -74.141937,4.595499,0
                -74.141726,4.595502,0
                -74.141592,4.595504,0
                -74.141271,4.595458,0
                -74.141077,4.59543,0
                -74.140615,4.595364,0
                -74.140136,4.595296,0
                -74.139811,4.595249,0
                -74.138983,4.59513,0
                -74.138068,4.594999,0
                -74.137741,4.595629,0
              </coordinates>
            </LinearRing>
          </outerBoundaryIs>
        </Polygon>
      </Placemark>
      <Placemark>
        <name/>
        <description><![CDATA[Descripción: <br>Reg_Nom: Bogota 150<br>Dominio: Bogota<br>Region: 150<br>Zona: 227<br>Seccion: G<br>Zsec: 227G]]></description>
        <styleUrl>#poly-FFEA00-2901-76</styleUrl>
        <ExtendedData>
          <Data name="Descripción">
            <value/>
          </Data>
          <Data name="Reg_Nom">
            <value>Bogota 150</value>
          </Data>
          <Data name="Dominio">
            <value>Bogota</value>
          </Data>
          <Data name="Region">
            <value>150</value>
          </Data>
          <Data name="Zona">
            <value>227</value>
          </Data>
          <Data name="Seccion">
            <value>G</value>
          </Data>
          <Data name="Zsec">
            <value>227G</value>
          </Data>
        </ExtendedData>
        <Polygon>
          <outerBoundaryIs>
            <LinearRing>
              <tessellate>1</tessellate>
              <coordinates>
                -74.083597,4.624853,0
                -74.08314,4.624853,0
                -74.081333,4.627061,0
                -74.084694,4.632601,0
                -74.090119,4.634505,0
                -74.091547,4.635266,0
                -74.104586,4.655444,0
                -74.104556,4.655746,0
                -74.104845,4.655724,0
                -74.105146,4.656195,0
                -74.10534,4.6565,0
                -74.10582,4.657251,0
                -74.10616,4.657784,0
                -74.10629,4.657987,0
                -74.106784,4.658761,0
                -74.107256,4.6595,0
                -74.107741,4.660258,0
                -74.108232,4.661028,0
                -74.108757,4.66185,0
                -74.109059,4.662322,0
                -74.109499,4.663012,0
                -74.109863,4.663582,0
                -74.111055,4.665449,0
                -74.111334,4.665885,0
                -74.111678,4.666424,0
                -74.111745,4.666366,0
                -74.112277,4.665732,0
                -74.112355,4.665641,0
                -74.11349,4.664309,0
                -74.113752,4.664,0
                -74.114462,4.663163,0
                -74.114627,4.662969,0
                -74.115127,4.66238,0
                -74.115505,4.661926,0
                -74.115859,4.661518,0
                -74.116554,4.660699,0
                -74.117276,4.659849,0
                -74.117608,4.659474,0
                -74.117998,4.659032,0
                -74.118484,4.658491,0
                -74.118941,4.657982,0
                -74.119695,4.657095,0
                -74.120253,4.65644,0
                -74.120406,4.656249,0
                -74.120547,4.656068,0
                -74.120644,4.655956,0
                -74.12075,4.655833,0
                -74.122262,4.653875,0
                -74.12339,4.652551,0
                -74.123566,4.652344,0
                -74.123884,4.651971,0
                -74.12462,4.651213,0
                -74.125587,4.650283,0
                -74.125836,4.650031,0
                -74.126437,4.64939,0
                -74.12663,4.649208,0
                -74.124535,4.646408,0
                -74.123613,4.64168,0
                -74.122756,4.640367,0
                -74.115114,4.634589,0
                -74.110437,4.630518,0
                -74.108197,4.62776,0
                -74.107168,4.627583,0
                -74.107374,4.627385,0
                -74.107389,4.627371,0
                -74.098652,4.626475,0
                -74.091724,4.625764,0
                -74.091716,4.625749,0
                -74.091096,4.625686,0
                -74.090998,4.625676,0
                -74.090461,4.625622,0
                -74.089792,4.625554,0
                -74.089073,4.625482,0
                -74.088773,4.625451,0
                -74.087805,4.625354,0
                -74.087318,4.625311,0
                -74.086831,4.625269,0
                -74.085643,4.625135,0
                -74.084428,4.625012,0
                -74.083742,4.624944,0
                -74.083625,4.62487,0
                -74.083597,4.624853,0
              </coordinates>
            </LinearRing>
          </outerBoundaryIs>
        </Polygon>
      </Placemark>
      <Placemark>
        <name/>
        <description><![CDATA[Descripción: <br>Reg_Nom: Bogota 150<br>Dominio: Bogota<br>Region: 150<br>Zona: 227<br>Seccion: H<br>Zsec: 227H]]></description>
        <styleUrl>#poly-0097A7-1401-76</styleUrl>
        <ExtendedData>
          <Data name="Descripción">
            <value/>
          </Data>
          <Data name="Reg_Nom">
            <value>Bogota 150</value>
          </Data>
          <Data name="Dominio">
            <value>Bogota</value>
          </Data>
          <Data name="Region">
            <value>150</value>
          </Data>
          <Data name="Zona">
            <value>227</value>
          </Data>
          <Data name="Seccion">
            <value>H</value>
          </Data>
          <Data name="Zsec">
            <value>227H</value>
          </Data>
        </ExtendedData>
        <Polygon>
          <outerBoundaryIs>
            <LinearRing>
              <tessellate>1</tessellate>
              <coordinates>
                -74.115114,4.634589,0
                -74.122756,4.640367,0
                -74.123613,4.64168,0
                -74.124535,4.646408,0
                -74.12663,4.649208,0
                -74.126656,4.649183,0
                -74.126772,4.649095,0
                -74.127327,4.648675,0
                -74.127468,4.648585,0
                -74.128365,4.647929,0
                -74.128577,4.647758,0
                -74.130463,4.646346,0
                -74.130848,4.646058,0
                -74.131288,4.645646,0
                -74.131583,4.645356,0
                -74.131597,4.645343,0
                -74.131806,4.645129,0
                -74.132398,4.644474,0
                -74.132523,4.644326,0
                -74.132812,4.643981,0
                -74.133114,4.643593,0
                -74.133349,4.64326,0
                -74.133409,4.643174,0
                -74.133556,4.642965,0
                -74.133766,4.642666,0
                -74.133949,4.642404,0
                -74.134355,4.641821,0
                -74.134506,4.641592,0
                -74.134754,4.641217,0
                -74.134855,4.641063,0
                -74.135268,4.640337,0
                -74.13556,4.639798,0
                -74.135787,4.639354,0
                -74.135795,4.639339,0
                -74.135999,4.638874,0
                -74.13624,4.638326,0
                -74.136499,4.637784,0
                -74.136636,4.637391,0
                -74.13667,4.637295,0
                -74.136889,4.636668,0
                -74.136911,4.636509,0
                -74.137032,4.636037,0
                -74.137184,4.635448,0
                -74.137391,4.634644,0
                -74.137411,4.634568,0
                -74.137436,4.634318,0
                -74.13744,4.634267,0
                -74.137455,4.634125,0
                -74.137462,4.634053,0
                -74.137488,4.633675,0
                -74.137567,4.63299,0
                -74.137641,4.632232,0
                -74.137648,4.632158,0
                -74.13767,4.631836,0
                -74.137678,4.631535,0
                -74.137731,4.630702,0
                -74.137734,4.630605,0
                -74.137315,4.630649,0
                -74.107337,4.627421,0
                -74.107168,4.627583,0
                -74.108197,4.62776,0
                -74.110437,4.630518,0
                -74.115114,4.634589,0
              </coordinates>
            </LinearRing>
          </outerBoundaryIs>
        </Polygon>
      </Placemark>
      <Placemark>
        <name/>
        <description><![CDATA[Descripción: <br>Reg_Nom: Bogota 150<br>Dominio: Bogota<br>Region: 150<br>Zona: 227<br>Seccion: I<br>Zsec: 227I]]></description>
        <styleUrl>#poly-FF5252-1200-76</styleUrl>
        <ExtendedData>
          <Data name="Descripción">
            <value/>
          </Data>
          <Data name="Reg_Nom">
            <value>Bogota 150</value>
          </Data>
          <Data name="Dominio">
            <value>Bogota</value>
          </Data>
          <Data name="Region">
            <value>150</value>
          </Data>
          <Data name="Zona">
            <value>227</value>
          </Data>
          <Data name="Seccion">
            <value>I</value>
          </Data>
          <Data name="Zsec">
            <value>227I</value>
          </Data>
        </ExtendedData>
        <Polygon>
          <outerBoundaryIs>
            <LinearRing>
              <tessellate>1</tessellate>
              <coordinates>
                -74.10763,4.626711,0
                -74.107816,4.62696,0
                -74.107389,4.627371,0
                -74.107374,4.627385,0
                -74.107337,4.627421,0
                -74.122607,4.629065,0
                -74.124205,4.624346,0
                -74.128619,4.60944,0
                -74.128642,4.60936,0
                -74.126182,4.610358,0
                -74.126157,4.610368,0
                -74.1258,4.610503,0
                -74.125443,4.610638,0
                -74.124875,4.610853,0
                -74.124448,4.611015,0
                -74.123715,4.611293,0
                -74.122973,4.611574,0
                -74.12253,4.611742,0
                -74.122234,4.611854,0
                -74.122195,4.611869,0
                -74.12204,4.611928,0
                -74.121901,4.61198,0
                -74.12152,4.612125,0
                -74.120891,4.612362,0
                -74.120231,4.612613,0
                -74.11974,4.612799,0
                -74.119641,4.612836,0
                -74.119118,4.61306,0
                -74.118361,4.613382,0
                -74.118103,4.613487,0
                -74.116815,4.614026,0
                -74.11637,4.614198,0
                -74.116103,4.614297,0
                -74.115922,4.614376,0
                -74.114749,4.614754,0
                -74.114444,4.614935,0
                -74.114466,4.614824,0
                -74.114374,4.614872,0
                -74.114332,4.614894,0
                -74.114185,4.61497,0
                -74.11369,4.617135,0
                -74.113629,4.617281,0
                -74.113342,4.617969,0
                -74.11322,4.618215,0
                -74.11303,4.618597,0
                -74.112837,4.618983,0
                -74.112781,4.619096,0
                -74.112744,4.619144,0
                -74.112173,4.619883,0
                -74.111609,4.620615,0
                -74.111556,4.620683,0
                -74.111037,4.621296,0
                -74.110689,4.621708,0
                -74.110701,4.621772,0
                -74.110013,4.622857,0
                -74.10954,4.623603,0
                -74.109489,4.62367,0
                -74.109273,4.623953,0
                -74.108974,4.624345,0
                -74.108608,4.624825,0
                -74.108547,4.624905,0
                -74.107626,4.626112,0
                -74.107354,4.626537,0
                -74.10738,4.62659,0
                -74.107523,4.626589,0
                -74.10763,4.626711,0
              </coordinates>
            </LinearRing>
          </outerBoundaryIs>
        </Polygon>
      </Placemark>
      <Placemark>
        <name/>
        <description><![CDATA[Descripción: <br>Reg_Nom: Bogota 150<br>Dominio: Bogota<br>Region: 150<br>Zona: 227<br>Seccion: J<br>Zsec: 227J]]></description>
        <styleUrl>#poly-7CB342-3701-76</styleUrl>
        <ExtendedData>
          <Data name="Descripción">
            <value/>
          </Data>
          <Data name="Reg_Nom">
            <value>Bogota 150</value>
          </Data>
          <Data name="Dominio">
            <value>Bogota</value>
          </Data>
          <Data name="Region">
            <value>150</value>
          </Data>
          <Data name="Zona">
            <value>227</value>
          </Data>
          <Data name="Seccion">
            <value>J</value>
          </Data>
          <Data name="Zsec">
            <value>227J</value>
          </Data>
        </ExtendedData>
        <Polygon>
          <outerBoundaryIs>
            <LinearRing>
              <tessellate>1</tessellate>
              <coordinates>
                -74.122607,4.629065,0
                -74.137315,4.630649,0
                -74.137734,4.630605,0
                -74.137735,4.630556,0
                -74.137742,4.63036,0
                -74.137823,4.629792,0
                -74.137905,4.629306,0
                -74.137967,4.628905,0
                -74.138043,4.628379,0
                -74.138076,4.627852,0
                -74.138125,4.627085,0
                -74.138154,4.626676,0
                -74.138184,4.626225,0
                -74.138214,4.625769,0
                -74.13828,4.6253,0
                -74.13833,4.624857,0
                -74.138384,4.624388,0
                -74.138434,4.623945,0
                -74.138464,4.623683,0
                -74.138486,4.623497,0
                -74.138515,4.623238,0
                -74.138542,4.622998,0
                -74.138615,4.622544,0
                -74.138712,4.622096,0
                -74.13881,4.621646,0
                -74.138913,4.621174,0
                -74.139011,4.620721,0
                -74.139117,4.620232,0
                -74.139214,4.619789,0
                -74.139302,4.619348,0
                -74.139329,4.619218,0
                -74.139397,4.618947,0
                -74.139407,4.618896,0
                -74.139421,4.618834,0
                -74.139443,4.618735,0
                -74.139477,4.618566,0
                -74.139094,4.61837,0
                -74.133428,4.61187,0
                -74.129069,4.609186,0
                -74.128642,4.60936,0
                -74.128619,4.60944,0
                -74.124205,4.624346,0
                -74.122607,4.629065,0
              </coordinates>
            </LinearRing>
          </outerBoundaryIs>
        </Polygon>
      </Placemark>
    </Folder>
  </Document>
</kml>
