<?xml version="1.0" encoding="UTF-8"?>
<kml xmlns="http://www.opengis.net/kml/2.2">
  <Document>
    <name>Zona 236</name>
    <description/>
    <Style id="poly-0288D1-2901-76-normal">
      <LineStyle>
        <color>ffd18802</color>
        <width>2.901</width>
      </LineStyle>
      <PolyStyle>
        <color>4cd18802</color>
        <fill>1</fill>
        <outline>1</outline>
      </PolyStyle>
    </Style>
    <Style id="poly-0288D1-2901-76-highlight">
      <LineStyle>
        <color>ffd18802</color>
        <width>4.3515</width>
      </LineStyle>
      <PolyStyle>
        <color>4cd18802</color>
        <fill>1</fill>
        <outline>1</outline>
      </PolyStyle>
    </Style>
    <StyleMap id="poly-0288D1-2901-76">
      <Pair>
        <key>normal</key>
        <styleUrl>#poly-0288D1-2901-76-normal</styleUrl>
      </Pair>
      <Pair>
        <key>highlight</key>
        <styleUrl>#poly-0288D1-2901-76-highlight</styleUrl>
      </Pair>
    </StyleMap>
    <Style id="poly-7CB342-2801-76-normal">
      <LineStyle>
        <color>ff42b37c</color>
        <width>2.801</width>
      </LineStyle>
      <PolyStyle>
        <color>4c42b37c</color>
        <fill>1</fill>
        <outline>1</outline>
      </PolyStyle>
    </Style>
    <Style id="poly-7CB342-2801-76-highlight">
      <LineStyle>
        <color>ff42b37c</color>
        <width>4.2015</width>
      </LineStyle>
      <PolyStyle>
        <color>4c42b37c</color>
        <fill>1</fill>
        <outline>1</outline>
      </PolyStyle>
    </Style>
    <StyleMap id="poly-7CB342-2801-76">
      <Pair>
        <key>normal</key>
        <styleUrl>#poly-7CB342-2801-76-normal</styleUrl>
      </Pair>
      <Pair>
        <key>highlight</key>
        <styleUrl>#poly-7CB342-2801-76-highlight</styleUrl>
      </Pair>
    </StyleMap>
    <Style id="poly-9C27B0-2801-76-normal">
      <LineStyle>
        <color>ffb0279c</color>
        <width>2.801</width>
      </LineStyle>
      <PolyStyle>
        <color>4cb0279c</color>
        <fill>1</fill>
        <outline>1</outline>
      </PolyStyle>
    </Style>
    <Style id="poly-9C27B0-2801-76-highlight">
      <LineStyle>
        <color>ffb0279c</color>
        <width>4.2015</width>
      </LineStyle>
      <PolyStyle>
        <color>4cb0279c</color>
        <fill>1</fill>
        <outline>1</outline>
      </PolyStyle>
    </Style>
    <StyleMap id="poly-9C27B0-2801-76">
      <Pair>
        <key>normal</key>
        <styleUrl>#poly-9C27B0-2801-76-normal</styleUrl>
      </Pair>
      <Pair>
        <key>highlight</key>
        <styleUrl>#poly-9C27B0-2801-76-highlight</styleUrl>
      </Pair>
    </StyleMap>
    <Style id="poly-FF5252-3001-76-normal">
      <LineStyle>
        <color>ff5252ff</color>
        <width>3.001</width>
      </LineStyle>
      <PolyStyle>
        <color>4c5252ff</color>
        <fill>1</fill>
        <outline>1</outline>
      </PolyStyle>
    </Style>
    <Style id="poly-FF5252-3001-76-highlight">
      <LineStyle>
        <color>ff5252ff</color>
        <width>4.5015</width>
      </LineStyle>
      <PolyStyle>
        <color>4c5252ff</color>
        <fill>1</fill>
        <outline>1</outline>
      </PolyStyle>
    </Style>
    <StyleMap id="poly-FF5252-3001-76">
      <Pair>
        <key>normal</key>
        <styleUrl>#poly-FF5252-3001-76-normal</styleUrl>
      </Pair>
      <Pair>
        <key>highlight</key>
        <styleUrl>#poly-FF5252-3001-76-highlight</styleUrl>
      </Pair>
    </StyleMap>
    <Style id="poly-FFEA00-3001-61-normal">
      <LineStyle>
        <color>ff00eaff</color>
        <width>3.001</width>
      </LineStyle>
      <PolyStyle>
        <color>3d00eaff</color>
        <fill>1</fill>
        <outline>1</outline>
      </PolyStyle>
    </Style>
    <Style id="poly-FFEA00-3001-61-highlight">
      <LineStyle>
        <color>ff00eaff</color>
        <width>4.5015</width>
      </LineStyle>
      <PolyStyle>
        <color>3d00eaff</color>
        <fill>1</fill>
        <outline>1</outline>
      </PolyStyle>
    </Style>
    <StyleMap id="poly-FFEA00-3001-61">
      <Pair>
        <key>normal</key>
        <styleUrl>#poly-FFEA00-3001-61-normal</styleUrl>
      </Pair>
      <Pair>
        <key>highlight</key>
        <styleUrl>#poly-FFEA00-3001-61-highlight</styleUrl>
      </Pair>
    </StyleMap>
    <Style id="poly-FFEA00-3501-76-normal">
      <LineStyle>
        <color>ff00eaff</color>
        <width>3.501</width>
      </LineStyle>
      <PolyStyle>
        <color>4c00eaff</color>
        <fill>1</fill>
        <outline>1</outline>
      </PolyStyle>
    </Style>
    <Style id="poly-FFEA00-3501-76-highlight">
      <LineStyle>
        <color>ff00eaff</color>
        <width>5.2515</width>
      </LineStyle>
      <PolyStyle>
        <color>4c00eaff</color>
        <fill>1</fill>
        <outline>1</outline>
      </PolyStyle>
    </Style>
    <StyleMap id="poly-FFEA00-3501-76">
      <Pair>
        <key>normal</key>
        <styleUrl>#poly-FFEA00-3501-76-normal</styleUrl>
      </Pair>
      <Pair>
        <key>highlight</key>
        <styleUrl>#poly-FFEA00-3501-76-highlight</styleUrl>
      </Pair>
    </StyleMap>
    <Folder>
      <name>VD236</name>
      <Placemark>
        <name/>
        <description><![CDATA[Descripción: <br>Reg_Nom: Santander 250<br>Dominio: Tibasosa<br>Region: 250<br>Zona: 236<br>Seccion: G<br>Zsec: 236G]]></description>
        <styleUrl>#poly-FFEA00-3501-76</styleUrl>
        <ExtendedData>
          <Data name="Descripción">
            <value/>
          </Data>
          <Data name="Reg_Nom">
            <value>Santander 250</value>
          </Data>
          <Data name="Dominio">
            <value>Tibasosa</value>
          </Data>
          <Data name="Region">
            <value>250</value>
          </Data>
          <Data name="Zona">
            <value>236</value>
          </Data>
          <Data name="Seccion">
            <value>G</value>
          </Data>
          <Data name="Zsec">
            <value>236G</value>
          </Data>
        </ExtendedData>
        <Polygon>
          <outerBoundaryIs>
            <LinearRing>
              <tessellate>1</tessellate>
              <coordinates>
                -72.995773,5.751234,0
                -72.994734,5.751838,0
                -72.994809,5.751994,0
                -72.994915,5.75225,0
                -72.994997,5.752356,0
                -72.995028,5.75263,0
                -72.995078,5.752761,0
                -72.995272,5.752773,0
                -72.996738,5.75187,0
                -72.99811,5.751028,0
                -72.998235,5.751253,0
                -72.998498,5.751091,0
                -72.998837,5.750854,0
                -72.998574,5.750424,0
                -72.999438,5.749838,0
                -73.000791,5.748947,0
                -73.002107,5.74808,0
                -73.002933,5.747606,0
                -73.003384,5.748323,0
                -73.003447,5.748417,0
                -73.004174,5.747974,0
                -73.004168,5.747912,0
                -73.003735,5.747145,0
                -73.004625,5.746659,0
                -73.004806,5.747039,0
                -73.004994,5.74732,0
                -73.005207,5.747681,0
                -73.005408,5.747893,0
                -73.005571,5.748037,0
                -73.005633,5.748061,0
                -73.005821,5.748379,0
                -73.006053,5.748766,0
                -73.006535,5.749613,0
                -73.006761,5.749863,0
                -73.006855,5.749956,0
                -73.007105,5.750349,0
                -73.007275,5.750648,0
                -73.007381,5.750773,0
                -73.007632,5.750872,0
                -73.007625,5.750791,0
                -73.007112,5.749869,0
                -73.006755,5.749283,0
                -73.006623,5.748435,0
                -73.006573,5.747825,0
                -73.00641,5.747575,0
                -73.006134,5.747201,0
                -73.006047,5.747052,0
                -73.006072,5.746915,0
                -73.006185,5.746765,0
                -73.00641,5.746578,0
                -73.00651,5.746429,0
                -73.006473,5.746154,0
                -73.006448,5.745942,0
                -73.006347,5.745818,0
                -73.006385,5.745749,0
                -73.006435,5.745637,0
                -73.006435,5.745519,0
                -73.006385,5.745413,0
                -73.006297,5.745369,0
                -73.006059,5.74535,0
                -73.005558,5.744384,0
                -73.005433,5.744097,0
                -73.005452,5.743842,0
                -73.005533,5.743537,0
                -73.005496,5.743418,0
                -73.005257,5.743163,0
                -73.005264,5.742857,0
                -73.005195,5.742651,0
                -73.005038,5.742521,0
                -73.004932,5.742396,0
                -73.004888,5.742265,0
                -73.004894,5.742159,0
                -73.005113,5.741985,0
                -73.00532,5.74176,0
                -73.005433,5.741492,0
                -73.005308,5.741318,0
                -73.005289,5.741249,0
                -73.005408,5.740856,0
                -73.005433,5.740707,0
                -73.005414,5.740607,0
                -73.005289,5.740688,0
                -73.005113,5.740869,0
                -73.0048,5.7411,0
                -73.004681,5.741162,0
                -73.004437,5.741237,0
                -73.004261,5.741318,0
                -73.004155,5.741424,0
                -73.00403,5.741723,0
                -73.003892,5.742128,0
                -73.003804,5.742421,0
                -73.003936,5.742683,0
                -73.004117,5.742907,0
                -73.004355,5.742882,0
                -73.004543,5.742857,0
                -73.004675,5.742882,0
                -73.004744,5.742976,0
                -73.004925,5.743293,0
                -73.004951,5.743325,0
                -73.00418,5.74373,0
                -73.003284,5.74416,0
                -73.002457,5.744596,0
                -73.002082,5.74373,0
                -73.001887,5.743231,0
                -73.001662,5.742857,0
                -73.001236,5.742196,0
                -73.00106,5.742327,0
                -73.00091,5.742371,0
                -73.00066,5.742502,0
                -73.000127,5.74287,0
                -73.000071,5.742976,0
                -72.999851,5.743094,0
                -72.999632,5.743275,0
                -72.999451,5.743381,0
                -72.999106,5.74353,0
                -72.998962,5.743624,0
                -72.998812,5.74358,0
                -72.99873,5.743599,0
                -72.998592,5.743674,0
                -72.997985,5.744054,0
                -72.997415,5.74439,0
                -72.997208,5.744552,0
                -72.997145,5.744646,0
                -72.997152,5.744752,0
                -72.997628,5.745375,0
                -72.996813,5.745543,0
                -72.995867,5.745743,0
                -72.995454,5.745855,0
                -72.995166,5.745113,0
                -72.995041,5.744839,0
                -72.99494,5.744627,0
                -72.994815,5.744552,0
                -72.994602,5.744216,0
                -72.994577,5.744016,0
                -72.994301,5.743418,0
                -72.994226,5.743256,0
                -72.994189,5.743106,0
                -72.994189,5.743019,0
                -72.994088,5.742907,0
                -72.993775,5.74282,0
                -72.993462,5.74282,0
                -72.993224,5.74287,0
                -72.993061,5.742919,0
                -72.992898,5.743256,0
                -72.992497,5.743505,0
                -72.992284,5.74363,0
                -72.992222,5.743717,0
                -72.992297,5.743805,0
                -72.992422,5.743805,0
                -72.992598,5.743829,0
                -72.992698,5.743817,0
                -72.992811,5.743829,0
                -72.992861,5.743929,0
                -72.992923,5.744216,0
                -72.992911,5.74439,0
                -72.992911,5.744478,0
                -72.992685,5.74464,0
                -72.99266,5.744764,0
                -72.992673,5.744951,0
                -72.992623,5.745475,0
                -72.992572,5.745575,0
                -72.992572,5.745949,0
                -72.9936,5.746098,0
                -72.993688,5.746161,0
                -72.993738,5.746198,0
                -72.993625,5.746372,0
                -72.993324,5.74651,0
                -72.992886,5.746697,0
                -72.992453,5.746946,0
                -72.991376,5.74765,0
                -72.992328,5.748784,0
                -72.992917,5.749732,0
                -72.993506,5.749402,0
                -72.994132,5.74909,0
                -72.994734,5.748753,0
                -72.99541,5.748354,0
                -72.995924,5.749314,0
                -72.996625,5.750735,0
                -72.996149,5.751022,0
                -72.995773,5.751234,0
              </coordinates>
            </LinearRing>
          </outerBoundaryIs>
        </Polygon>
      </Placemark>
      <Placemark>
        <name/>
        <description><![CDATA[Descripción: <br>Reg_Nom: Santander 250<br>Dominio: Sogamoso<br>Region: 250<br>Zona: 236<br>Seccion: D<br>Zsec: 236D]]></description>
        <styleUrl>#poly-7CB342-2801-76</styleUrl>
        <ExtendedData>
          <Data name="Descripción">
            <value/>
          </Data>
          <Data name="Reg_Nom">
            <value>Santander 250</value>
          </Data>
          <Data name="Dominio">
            <value>Sogamoso</value>
          </Data>
          <Data name="Region">
            <value>250</value>
          </Data>
          <Data name="Zona">
            <value>236</value>
          </Data>
          <Data name="Seccion">
            <value>D</value>
          </Data>
          <Data name="Zsec">
            <value>236D</value>
          </Data>
        </ExtendedData>
        <Polygon>
          <outerBoundaryIs>
            <LinearRing>
              <tessellate>1</tessellate>
              <coordinates>
                -72.909703,5.753622,0
                -72.910102,5.753201,0
                -72.910596,5.752645,0
                -72.911341,5.751885,0
                -72.912173,5.752804,0
                -72.913166,5.751724,0
                -72.913097,5.751563,0
                -72.912496,5.750919,0
                -72.912958,5.750529,0
                -72.913628,5.749311,0
                -72.914806,5.750299,0
                -72.91573,5.751195,0
                -72.918063,5.753471,0
                -72.91908,5.754551,0
                -72.919472,5.754206,0
                -72.921297,5.752574,0
                -72.921829,5.752,0
                -72.921551,5.751586,0
                -72.920789,5.751057,0
                -72.919634,5.750253,0
                -72.918641,5.74954,0
                -72.918987,5.74892,0
                -72.919403,5.748253,0
                -72.917232,5.746346,0
                -72.915268,5.744806,0
                -72.914714,5.744392,0
                -72.914686,5.742889,0
                -72.914713,5.741599,0
                -72.914812,5.740643,0
                -72.914977,5.740241,0
                -72.915384,5.739822,0
                -72.916392,5.738747,0
                -72.91717,5.737752,0
                -72.917613,5.737076,0
                -72.917936,5.736386,0
                -72.918398,5.73549,0
                -72.918883,5.73395,0
                -72.919484,5.731973,0
                -72.920085,5.730479,0
                -72.92103,5.728438,0
                -72.921032,5.728434,0
                -72.921678,5.727078,0
                -72.92318,5.724228,0
                -72.923457,5.723607,0
                -72.92445,5.724136,0
                -72.925236,5.723952,0
                -72.926114,5.72363,0
                -72.928816,5.722872,0
                -72.930017,5.722527,0
                -72.930595,5.722366,0
                -72.931842,5.720596,0
                -72.933182,5.718643,0
                -72.933819,5.71765,0
                -72.933208,5.71725,0
                -72.932533,5.716837,0
                -72.931177,5.716065,0
                -72.931632,5.715443,0
                -72.930913,5.71495,0
                -72.930531,5.71476,0
                -72.930217,5.713817,0
                -72.930072,5.713643,0
                -72.929552,5.712976,0
                -72.929365,5.713095,0
                -72.927695,5.712042,0
                -72.926857,5.711489,0
                -72.925769,5.710815,0
                -72.92575,5.710652,0
                -72.925693,5.710456,0
                -72.925621,5.710343,0
                -72.925555,5.710304,0
                -72.925465,5.710302,0
                -72.9254,5.710302,0
                -72.925307,5.710335,0
                -72.924027,5.710681,0
                -72.924194,5.71136,0
                -72.924439,5.712095,0
                -72.924135,5.71255,0
                -72.923815,5.712855,0
                -72.923831,5.713137,0
                -72.923733,5.713428,0
                -72.923316,5.713721,0
                -72.922989,5.71362,0
                -72.922428,5.713786,0
                -72.921818,5.71409,0
                -72.921454,5.714154,0
                -72.920917,5.714117,0
                -72.920833,5.714268,0
                -72.920788,5.714592,0
                -72.920404,5.7151,0
                -72.9199,5.715893,0
                -72.91998,5.716687,0
                -72.920063,5.717432,0
                -72.919835,5.718115,0
                -72.919653,5.719056,0
                -72.919355,5.719395,0
                -72.918895,5.720058,0
                -72.918374,5.720523,0
                -72.918384,5.720895,0
                -72.918315,5.721148,0
                -72.918156,5.721494,0
                -72.917976,5.721704,0
                -72.917603,5.722248,0
                -72.917294,5.722726,0
                -72.91671,5.723401,0
                -72.916004,5.723745,0
                -72.915337,5.723942,0
                -72.914676,5.724097,0
                -72.914809,5.724597,0
                -72.915017,5.725131,0
                -72.914784,5.725428,0
                -72.914175,5.725777,0
                -72.913566,5.72659,0
                -72.913288,5.726865,0
                -72.912844,5.727418,0
                -72.912294,5.727986,0
                -72.911918,5.728465,0
                -72.911484,5.728841,0
                -72.911178,5.729531,0
                -72.91077,5.729802,0
                -72.910332,5.730263,0
                -72.909702,5.730911,0
                -72.909505,5.731337,0
                -72.909418,5.73151,0
                -72.909162,5.731827,0
                -72.909159,5.731831,0
                -72.909035,5.731882,0
                -72.908777,5.731892,0
                -72.908546,5.731912,0
                -72.908153,5.732006,0
                -72.907969,5.731935,0
                -72.907697,5.731849,0
                -72.907646,5.731912,0
                -72.907617,5.732079,0
                -72.907634,5.732251,0
                -72.907634,5.732458,0
                -72.907501,5.732722,0
                -72.907348,5.732955,0
                -72.907357,5.733133,0
                -72.907365,5.733394,0
                -72.907293,5.733613,0
                -72.906987,5.733871,0
                -72.906144,5.734245,0
                -72.905861,5.734302,0
                -72.905653,5.734503,0
                -72.905191,5.73471,0
                -72.904175,5.735474,0
                -72.903395,5.736152,0
                -72.90321,5.736267,0
                -72.902939,5.7364,0
                -72.902823,5.736532,0
                -72.902558,5.736767,0
                -72.902454,5.736899,0
                -72.902494,5.73706,0
                -72.902633,5.737066,0
                -72.902795,5.737072,0
                -72.902881,5.737112,0
                -72.902887,5.737399,0
                -72.902887,5.737784,0
                -72.902968,5.738014,0
                -72.90328,5.738255,0
                -72.903649,5.738508,0
                -72.904481,5.738888,0
                -72.9047,5.739048,0
                -72.904747,5.73929,0
                -72.904643,5.73968,0
                -72.904585,5.740106,0
                -72.904562,5.740393,0
                -72.904689,5.740738,0
                -72.904989,5.741243,0
                -72.904516,5.741519,0
                -72.904365,5.741692,0
                -72.903511,5.742726,0
                -72.902795,5.743553,0
                -72.90265,5.743743,0
                -72.902039,5.744739,0
                -72.901396,5.745518,0
                -72.902185,5.746326,0
                -72.903252,5.747402,0
                -72.90626,5.750426,0
                -72.908246,5.752288,0
                -72.908824,5.752817,0
                -72.909412,5.753367,0
                -72.909703,5.753622,0
              </coordinates>
            </LinearRing>
          </outerBoundaryIs>
        </Polygon>
      </Placemark>
      <Placemark>
        <name/>
        <description><![CDATA[Descripción: <br>Reg_Nom: Santander 250<br>Dominio: Sogamoso<br>Region: 250<br>Zona: 236<br>Seccion: B<br>Zsec: 236B]]></description>
        <styleUrl>#poly-0288D1-2901-76</styleUrl>
        <ExtendedData>
          <Data name="Descripción">
            <value/>
          </Data>
          <Data name="Reg_Nom">
            <value>Santander 250</value>
          </Data>
          <Data name="Dominio">
            <value>Sogamoso</value>
          </Data>
          <Data name="Region">
            <value>250</value>
          </Data>
          <Data name="Zona">
            <value>236</value>
          </Data>
          <Data name="Seccion">
            <value>B</value>
          </Data>
          <Data name="Zsec">
            <value>236B</value>
          </Data>
        </ExtendedData>
        <Polygon>
          <outerBoundaryIs>
            <LinearRing>
              <tessellate>1</tessellate>
              <coordinates>
                -72.947014,5.70282,0
                -72.946998,5.702767,0
                -72.947001,5.702693,0
                -72.947094,5.702331,0
                -72.947192,5.701974,0
                -72.947284,5.701653,0
                -72.947359,5.701595,0
                -72.947527,5.70148,0
                -72.947706,5.70136,0
                -72.947873,5.701262,0
                -72.948243,5.701044,0
                -72.948358,5.700957,0
                -72.948491,5.700664,0
                -72.948682,5.700245,0
                -72.94882,5.699923,0
                -72.949063,5.69944,0
                -72.949306,5.698946,0
                -72.948498,5.698051,0
                -72.946718,5.69691,0
                -72.94396,5.695321,0
                -72.943008,5.694641,0
                -72.942763,5.694319,0
                -72.941998,5.695338,0
                -72.940525,5.696524,0
                -72.940443,5.698399,0
                -72.93987,5.699229,0
                -72.939128,5.699745,0
                -72.938548,5.701425,0
                -72.938197,5.701801,0
                -72.937035,5.700764,0
                -72.936422,5.700154,0
                -72.935808,5.7005,0
                -72.936482,5.701591,0
                -72.935647,5.702047,0
                -72.936175,5.702678,0
                -72.935546,5.703576,0
                -72.93489,5.703208,0
                -72.934475,5.70374,0
                -72.935111,5.704137,0
                -72.934704,5.70471,0
                -72.934014,5.704255,0
                -72.933352,5.705257,0
                -72.932683,5.704884,0
                -72.932143,5.704313,0
                -72.931885,5.704216,0
                -72.931546,5.704253,0
                -72.930937,5.704883,0
                -72.931256,5.705209,0
                -72.931069,5.705459,0
                -72.93067,5.70539,0
                -72.929894,5.705526,0
                -72.92944,5.705646,0
                -72.929082,5.705331,0
                -72.928631,5.705056,0
                -72.928864,5.704808,0
                -72.928865,5.704054,0
                -72.929347,5.702885,0
                -72.92952,5.702461,0
                -72.929468,5.702328,0
                -72.928363,5.702142,0
                -72.927809,5.703678,0
                -72.927131,5.704615,0
                -72.925996,5.703333,0
                -72.925243,5.703861,0
                -72.92499,5.703871,0
                -72.924804,5.704004,0
                -72.924291,5.70449,0
                -72.92394,5.704057,0
                -72.922409,5.703851,0
                -72.922229,5.704715,0
                -72.921645,5.706439,0
                -72.920625,5.706206,0
                -72.919785,5.705976,0
                -72.919667,5.705992,0
                -72.919133,5.707712,0
                -72.917995,5.707461,0
                -72.917658,5.708622,0
                -72.918544,5.708871,0
                -72.918665,5.709039,0
                -72.918766,5.709077,0
                -72.918851,5.709034,0
                -72.918922,5.708617,0
                -72.919776,5.708935,0
                -72.920339,5.709171,0
                -72.920733,5.708139,0
                -72.921015,5.708173,0
                -72.921858,5.708364,0
                -72.922368,5.708597,0
                -72.922718,5.708662,0
                -72.922951,5.708864,0
                -72.923124,5.709164,0
                -72.923559,5.709619,0
                -72.92394,5.709897,0
                -72.924163,5.710012,0
                -72.924384,5.710077,0
                -72.924751,5.710171,0
                -72.925242,5.710289,0
                -72.925307,5.710335,0
                -72.9254,5.710302,0
                -72.925465,5.710302,0
                -72.925555,5.710304,0
                -72.925621,5.710343,0
                -72.925693,5.710456,0
                -72.92575,5.710652,0
                -72.925769,5.710815,0
                -72.926857,5.711489,0
                -72.927695,5.712042,0
                -72.929365,5.713095,0
                -72.929552,5.712976,0
                -72.930072,5.713643,0
                -72.930217,5.713817,0
                -72.930531,5.71476,0
                -72.930913,5.71495,0
                -72.931632,5.715443,0
                -72.931841,5.715171,0
                -72.933298,5.713226,0
                -72.933931,5.712313,0
                -72.935474,5.71033,0
                -72.937402,5.707739,0
                -72.938051,5.706896,0
                -72.938206,5.706693,0
                -72.9391,5.705514,0
                -72.939472,5.705026,0
                -72.939775,5.704621,0
                -72.940133,5.704146,0
                -72.940682,5.703416,0
                -72.941054,5.702869,0
                -72.941313,5.702467,0
                -72.941361,5.70245,0
                -72.942087,5.702865,0
                -72.942762,5.702018,0
                -72.943062,5.702176,0
                -72.943547,5.701375,0
                -72.945252,5.702608,0
                -72.945903,5.70311,0
                -72.946014,5.703139,0
                -72.946269,5.703063,0
                -72.946661,5.702937,0
                -72.946912,5.70286,0
                -72.947014,5.70282,0
              </coordinates>
            </LinearRing>
          </outerBoundaryIs>
        </Polygon>
      </Placemark>
      <Placemark>
        <name/>
        <description><![CDATA[Descripción: <br>Reg_Nom: Santander 250<br>Dominio: Sogamoso<br>Region: 250<br>Zona: 236<br>Seccion: A<br>Zsec: 236A]]></description>
        <styleUrl>#poly-FFEA00-3001-61</styleUrl>
        <ExtendedData>
          <Data name="Descripción">
            <value/>
          </Data>
          <Data name="Reg_Nom">
            <value>Santander 250</value>
          </Data>
          <Data name="Dominio">
            <value>Sogamoso</value>
          </Data>
          <Data name="Region">
            <value>250</value>
          </Data>
          <Data name="Zona">
            <value>236</value>
          </Data>
          <Data name="Seccion">
            <value>A</value>
          </Data>
          <Data name="Zsec">
            <value>236A</value>
          </Data>
        </ExtendedData>
        <Polygon>
          <outerBoundaryIs>
            <LinearRing>
              <tessellate>1</tessellate>
              <coordinates>
                -72.931632,5.715443,0
                -72.931177,5.716065,0
                -72.932533,5.716837,0
                -72.933208,5.71725,0
                -72.933819,5.71765,0
                -72.936863,5.719707,0
                -72.937759,5.720314,0
                -72.939009,5.721161,0
                -72.939731,5.721695,0
                -72.940557,5.722313,0
                -72.940845,5.722529,0
                -72.941061,5.722691,0
                -72.941556,5.723063,0
                -72.941917,5.723342,0
                -72.942554,5.723857,0
                -72.943135,5.724316,0
                -72.943332,5.72379,0
                -72.94375,5.722236,0
                -72.943981,5.721477,0
                -72.944443,5.720006,0
                -72.94442,5.719822,0
                -72.944143,5.719707,0
                -72.944443,5.719133,0
                -72.945136,5.717685,0
                -72.945344,5.717317,0
                -72.945898,5.716329,0
                -72.946291,5.715639,0
                -72.946753,5.71488,0
                -72.946984,5.71426,0
                -72.947146,5.713915,0
                -72.9477,5.71295,0
                -72.948093,5.712191,0
                -72.947331,5.711984,0
                -72.946753,5.711732,0
                -72.94636,5.711571,0
                -72.946453,5.710215,0
                -72.946522,5.709065,0
                -72.946661,5.70741,0
                -72.946661,5.706997,0
                -72.946892,5.704859,0
                -72.947053,5.703066,0
                -72.947043,5.702925,0
                -72.947014,5.70282,0
                -72.946912,5.70286,0
                -72.946661,5.702937,0
                -72.946269,5.703063,0
                -72.946014,5.703139,0
                -72.945903,5.70311,0
                -72.945252,5.702608,0
                -72.943547,5.701375,0
                -72.943062,5.702176,0
                -72.942762,5.702018,0
                -72.942087,5.702865,0
                -72.941361,5.70245,0
                -72.941313,5.702467,0
                -72.941054,5.702869,0
                -72.940682,5.703416,0
                -72.940133,5.704146,0
                -72.939775,5.704621,0
                -72.939472,5.705026,0
                -72.9391,5.705514,0
                -72.938206,5.706693,0
                -72.938051,5.706896,0
                -72.937402,5.707739,0
                -72.935474,5.71033,0
                -72.933931,5.712313,0
                -72.933298,5.713226,0
                -72.931841,5.715171,0
                -72.931632,5.715443,0
              </coordinates>
            </LinearRing>
          </outerBoundaryIs>
        </Polygon>
      </Placemark>
      <Placemark>
        <name/>
        <description><![CDATA[Descripción: <br>Reg_Nom: Santander 250<br>Dominio: Sogamoso<br>Region: 250<br>Zona: 236<br>Seccion: C<br>Zsec: 236C]]></description>
        <styleUrl>#poly-FF5252-3001-76</styleUrl>
        <ExtendedData>
          <Data name="Descripción">
            <value/>
          </Data>
          <Data name="Reg_Nom">
            <value>Santander 250</value>
          </Data>
          <Data name="Dominio">
            <value>Sogamoso</value>
          </Data>
          <Data name="Region">
            <value>250</value>
          </Data>
          <Data name="Zona">
            <value>236</value>
          </Data>
          <Data name="Seccion">
            <value>C</value>
          </Data>
          <Data name="Zsec">
            <value>236C</value>
          </Data>
        </ExtendedData>
        <Polygon>
          <outerBoundaryIs>
            <LinearRing>
              <tessellate>1</tessellate>
              <coordinates>
                -72.914686,5.742889,0
                -72.914924,5.742642,0
                -72.915139,5.742376,0
                -72.917809,5.74476,0
                -72.920627,5.747564,0
                -72.920604,5.745702,0
                -72.920627,5.743036,0
                -72.920627,5.740094,0
                -72.921066,5.739887,0
                -72.922406,5.742094,0
                -72.923238,5.741634,0
                -72.923261,5.741427,0
                -72.92303,5.741082,0
                -72.923908,5.740508,0
                -72.923723,5.740071,0
                -72.923053,5.738669,0
                -72.922614,5.737589,0
                -72.922822,5.737474,0
                -72.923399,5.737175,0
                -72.923353,5.73706,0
                -72.923238,5.736716,0
                -72.923168,5.736394,0
                -72.923515,5.736394,0
                -72.925363,5.736118,0
                -72.926079,5.736164,0
                -72.926911,5.735888,0
                -72.927095,5.736026,0
                -72.927373,5.735934,0
                -72.92765,5.735658,0
                -72.92825,5.735566,0
                -72.928758,5.735337,0
                -72.929174,5.735199,0
                -72.929636,5.735199,0
                -72.930144,5.735061,0
                -72.930375,5.735796,0
                -72.931068,5.735658,0
                -72.933332,5.734739,0
                -72.933286,5.734509,0
                -72.935226,5.733544,0
                -72.935504,5.733406,0
                -72.935688,5.733291,0
                -72.935711,5.733199,0
                -72.93585,5.732739,0
                -72.936127,5.732395,0
                -72.936635,5.732096,0
                -72.937074,5.731774,0
                -72.937305,5.731521,0
                -72.937352,5.73113,0
                -72.937352,5.730763,0
                -72.937375,5.73051,0
                -72.937467,5.730326,0
                -72.937559,5.730303,0
                -72.937929,5.730372,0
                -72.938252,5.730487,0
                -72.938553,5.730832,0
                -72.938714,5.731061,0
                -72.938945,5.731337,0
                -72.939153,5.731544,0
                -72.939592,5.731889,0
                -72.939916,5.731843,0
                -72.940193,5.731636,0
                -72.940331,5.73136,0
                -72.940655,5.730487,0
                -72.940747,5.730234,0
                -72.941163,5.729131,0
                -72.941186,5.72897,0
                -72.941094,5.728855,0
                -72.940863,5.728717,0
                -72.940308,5.728395,0
                -72.940308,5.728234,0
                -72.94047,5.727959,0
                -72.940632,5.727729,0
                -72.940863,5.727269,0
                -72.941071,5.726878,0
                -72.941302,5.726442,0
                -72.941971,5.725338,0
                -72.942364,5.724626,0
                -72.942491,5.724083,0
                -72.942554,5.723857,0
                -72.941917,5.723342,0
                -72.941556,5.723063,0
                -72.941061,5.722691,0
                -72.940845,5.722529,0
                -72.940557,5.722313,0
                -72.939731,5.721695,0
                -72.939009,5.721161,0
                -72.937759,5.720314,0
                -72.936863,5.719707,0
                -72.933819,5.71765,0
                -72.933182,5.718643,0
                -72.931842,5.720596,0
                -72.930595,5.722366,0
                -72.930017,5.722527,0
                -72.928816,5.722872,0
                -72.926114,5.72363,0
                -72.925236,5.723952,0
                -72.92445,5.724136,0
                -72.923457,5.723607,0
                -72.92318,5.724228,0
                -72.921678,5.727078,0
                -72.921032,5.728434,0
                -72.92103,5.728438,0
                -72.920085,5.730479,0
                -72.919484,5.731973,0
                -72.918883,5.73395,0
                -72.918398,5.73549,0
                -72.917936,5.736386,0
                -72.917613,5.737076,0
                -72.91717,5.737752,0
                -72.916392,5.738747,0
                -72.915384,5.739822,0
                -72.914977,5.740241,0
                -72.914812,5.740643,0
                -72.914713,5.741599,0
                -72.914686,5.742889,0
              </coordinates>
            </LinearRing>
          </outerBoundaryIs>
        </Polygon>
      </Placemark>
      <Placemark>
        <name/>
        <description><![CDATA[Descripción: <br>Reg_Nom: Santander 250<br>Dominio: Sogamoso<br>Region: 250<br>Zona: 236<br>Seccion: E<br>Zsec: 236E]]></description>
        <styleUrl>#poly-9C27B0-2801-76</styleUrl>
        <ExtendedData>
          <Data name="Descripción">
            <value/>
          </Data>
          <Data name="Reg_Nom">
            <value>Santander 250</value>
          </Data>
          <Data name="Dominio">
            <value>Sogamoso</value>
          </Data>
          <Data name="Region">
            <value>250</value>
          </Data>
          <Data name="Zona">
            <value>236</value>
          </Data>
          <Data name="Seccion">
            <value>E</value>
          </Data>
          <Data name="Zsec">
            <value>236E</value>
          </Data>
        </ExtendedData>
        <Polygon>
          <outerBoundaryIs>
            <LinearRing>
              <tessellate>1</tessellate>
              <coordinates>
                -72.889988,5.772073,0
                -72.889654,5.772305,0
                -72.885791,5.772821,0
                -72.886489,5.774771,0
                -72.886248,5.775546,0
                -72.886382,5.776134,0
                -72.886785,5.776508,0
                -72.887268,5.776534,0
                -72.887751,5.776668,0
                -72.887993,5.776775,0
                -72.888225,5.776621,0
                -72.888427,5.776873,0
                -72.890235,5.778872,0
                -72.893757,5.781727,0
                -72.896231,5.781252,0
                -72.895946,5.779729,0
                -72.894709,5.777064,0
                -72.893566,5.773923,0
                -72.894328,5.773161,0
                -72.896136,5.771163,0
                -72.902418,5.766404,0
                -72.906796,5.764881,0
                -72.907177,5.762882,0
                -72.907177,5.761359,0
                -72.906415,5.759551,0
                -72.906448,5.757992,0
                -72.906791,5.757355,0
                -72.907923,5.755608,0
                -72.90887,5.754597,0
                -72.909493,5.753815,0
                -72.909703,5.753622,0
                -72.909412,5.753367,0
                -72.908824,5.752817,0
                -72.908246,5.752288,0
                -72.90626,5.750426,0
                -72.903252,5.747402,0
                -72.902185,5.746326,0
                -72.901396,5.745518,0
                -72.899838,5.746779,0
                -72.898866,5.747645,0
                -72.898209,5.748357,0
                -72.895507,5.750896,0
                -72.893959,5.751885,0
                -72.892273,5.753126,0
                -72.891141,5.753907,0
                -72.890887,5.754252,0
                -72.890148,5.754505,0
                -72.890009,5.754643,0
                -72.889824,5.755102,0
                -72.888993,5.756114,0
                -72.8883,5.756849,0
                -72.887387,5.757607,0
                -72.887329,5.757527,0
                -72.887202,5.757389,0
                -72.887029,5.757228,0
                -72.886902,5.757079,0
                -72.886683,5.756929,0
                -72.886475,5.756688,0
                -72.88629,5.756447,0
                -72.886151,5.756343,0
                -72.885955,5.756493,0
                -72.885736,5.75678,0
                -72.885585,5.756952,0
                -72.886221,5.757607,0
                -72.88674,5.758182,0
                -72.88666,5.758297,0
                -72.886348,5.758389,0
                -72.885955,5.758389,0
                -72.885955,5.758653,0
                -72.886047,5.758998,0
                -72.886209,5.759423,0
                -72.886163,5.759687,0
                -72.886094,5.759952,0
                -72.887214,5.759285,0
                -72.888854,5.758389,0
                -72.891626,5.757975,0
                -72.892042,5.757883,0
                -72.893428,5.757745,0
                -72.893446,5.757744,0
                -72.893376,5.758123,0
                -72.891948,5.759932,0
                -72.891948,5.762026,0
                -72.891853,5.764215,0
                -72.891092,5.765262,0
                -72.890045,5.766499,0
                -72.889664,5.768403,0
                -72.889854,5.770592,0
                -72.890063,5.770967,0
                -72.890087,5.771112,0
                -72.890087,5.771566,0
                -72.890087,5.77186,0
                -72.889988,5.772073,0
              </coordinates>
            </LinearRing>
          </outerBoundaryIs>
        </Polygon>
      </Placemark>
      <Placemark>
        <name/>
        <description><![CDATA[Descripción: <br>Reg_Nom: Santander 250<br>Dominio: Nobsa<br>Region: 250<br>Zona: 236<br>Seccion: E<br>Zsec: 236E]]></description>
        <styleUrl>#poly-9C27B0-2801-76</styleUrl>
        <ExtendedData>
          <Data name="Descripción">
            <value/>
          </Data>
          <Data name="Reg_Nom">
            <value>Santander 250</value>
          </Data>
          <Data name="Dominio">
            <value>Nobsa</value>
          </Data>
          <Data name="Region">
            <value>250</value>
          </Data>
          <Data name="Zona">
            <value>236</value>
          </Data>
          <Data name="Seccion">
            <value>E</value>
          </Data>
          <Data name="Zsec">
            <value>236E</value>
          </Data>
        </ExtendedData>
        <Polygon>
          <outerBoundaryIs>
            <LinearRing>
              <tessellate>1</tessellate>
              <coordinates>
                -72.935469,5.773697,0
                -72.935192,5.774225,0
                -72.935146,5.774421,0
                -72.935122,5.774811,0
                -72.935122,5.775133,0
                -72.935284,5.775179,0
                -72.935192,5.775294,0
                -72.935215,5.775616,0
                -72.935538,5.775753,0
                -72.935538,5.776052,0
                -72.936023,5.776351,0
                -72.936093,5.776236,0
                -72.936254,5.775937,0
                -72.936254,5.775616,0
                -72.9363,5.775294,0
                -72.936485,5.774834,0
                -72.936624,5.774558,0
                -72.936578,5.774145,0
                -72.936508,5.773616,0
                -72.936462,5.773432,0
                -72.936751,5.773559,0
                -72.937178,5.773524,0
                -72.93734,5.773444,0
                -72.93749,5.77334,0
                -72.937675,5.773122,0
                -72.937837,5.773202,0
                -72.938229,5.773421,0
                -72.938368,5.773421,0
                -72.938622,5.773363,0
                -72.93883,5.773363,0
                -72.939558,5.773156,0
                -72.940193,5.773019,0
                -72.940689,5.774484,0
                -72.940707,5.774696,0
                -72.940713,5.775041,0
                -72.940764,5.775363,0
                -72.940834,5.775616,0
                -72.940984,5.77588,0
                -72.9414,5.776087,0
                -72.941608,5.776087,0
                -72.941746,5.776179,0
                -72.942093,5.776294,0
                -72.942763,5.776041,0
                -72.943063,5.77588,0
                -72.942786,5.775259,0
                -72.942393,5.77411,0
                -72.942046,5.772892,0
                -72.942924,5.773191,0
                -72.943663,5.77388,0
                -72.944218,5.773788,0
                -72.945165,5.77349,0
                -72.945997,5.77326,0
                -72.945997,5.773375,0
                -72.947036,5.773283,0
                -72.946874,5.772731,0
                -72.945535,5.771674,0
                -72.944957,5.771789,0
                -72.944564,5.770962,0
                -72.943848,5.771214,0
                -72.94371,5.770732,0
                -72.941608,5.771306,0
                -72.941354,5.770479,0
                -72.943132,5.769927,0
                -72.943617,5.76979,0
                -72.943779,5.769583,0
                -72.943594,5.768985,0
                -72.943432,5.768411,0
                -72.943294,5.76802,0
                -72.943063,5.767951,0
                -72.942947,5.767744,0
                -72.94267,5.767537,0
                -72.942532,5.767147,0
                -72.942324,5.766434,0
                -72.942116,5.766204,0
                -72.941769,5.766273,0
                -72.941654,5.765791,0
                -72.941631,5.765423,0
                -72.9414,5.765285,0
                -72.941215,5.765997,0
                -72.940915,5.766848,0
                -72.940545,5.767193,0
                -72.939482,5.767675,0
                -72.938189,5.767951,0
                -72.937773,5.767445,0
                -72.937265,5.766664,0
                -72.936942,5.766158,0
                -72.937496,5.765997,0
                -72.937981,5.765768,0
                -72.937819,5.765239,0
                -72.937496,5.765331,0
                -72.936526,5.765584,0
                -72.936878,5.766296,0
                -72.936809,5.766561,0
                -72.93689,5.766928,0
                -72.937236,5.767296,0
                -72.937502,5.767767,0
                -72.937606,5.768238,0
                -72.937917,5.768755,0
                -72.937987,5.768985,0
                -72.937929,5.769169,0
                -72.937998,5.769456,0
                -72.938079,5.769778,0
                -72.937756,5.769859,0
                -72.937005,5.7701,0
                -72.936451,5.770284,0
                -72.936035,5.770422,0
                -72.93585,5.770697,0
                -72.935457,5.771513,0
                -72.935215,5.771984,0
                -72.93518,5.772329,0
                -72.935273,5.772628,0
                -72.935423,5.772881,0
                -72.935723,5.773065,0
                -72.9357,5.773225,0
                -72.935469,5.773697,0
              </coordinates>
            </LinearRing>
          </outerBoundaryIs>
        </Polygon>
      </Placemark>
    </Folder>
  </Document>
</kml>
