<?xml version="1.0" encoding="UTF-8"?>
<kml xmlns="http://www.opengis.net/kml/2.2">
  <Document>
    <name>Zona 307</name>
    <description/>
    <Style id="poly-0288D1-3501-46-normal">
      <LineStyle>
        <color>ffd18802</color>
        <width>3.501</width>
      </LineStyle>
      <PolyStyle>
        <color>2ed18802</color>
        <fill>1</fill>
        <outline>1</outline>
      </PolyStyle>
    </Style>
    <Style id="poly-0288D1-3501-46-highlight">
      <LineStyle>
        <color>ffd18802</color>
        <width>5.2515</width>
      </LineStyle>
      <PolyStyle>
        <color>2ed18802</color>
        <fill>1</fill>
        <outline>1</outline>
      </PolyStyle>
    </Style>
    <StyleMap id="poly-0288D1-3501-46">
      <Pair>
        <key>normal</key>
        <styleUrl>#poly-0288D1-3501-46-normal</styleUrl>
      </Pair>
      <Pair>
        <key>highlight</key>
        <styleUrl>#poly-0288D1-3501-46-highlight</styleUrl>
      </Pair>
    </StyleMap>
    <Style id="poly-9C27B0-3101-76-normal">
      <LineStyle>
        <color>ffb0279c</color>
        <width>3.101</width>
      </LineStyle>
      <PolyStyle>
        <color>4cb0279c</color>
        <fill>1</fill>
        <outline>1</outline>
      </PolyStyle>
    </Style>
    <Style id="poly-9C27B0-3101-76-highlight">
      <LineStyle>
        <color>ffb0279c</color>
        <width>4.6515</width>
      </LineStyle>
      <PolyStyle>
        <color>4cb0279c</color>
        <fill>1</fill>
        <outline>1</outline>
      </PolyStyle>
    </Style>
    <StyleMap id="poly-9C27B0-3101-76">
      <Pair>
        <key>normal</key>
        <styleUrl>#poly-9C27B0-3101-76-normal</styleUrl>
      </Pair>
      <Pair>
        <key>highlight</key>
        <styleUrl>#poly-9C27B0-3101-76-highlight</styleUrl>
      </Pair>
    </StyleMap>
    <Style id="poly-FF5252-2901-76-normal">
      <LineStyle>
        <color>ff5252ff</color>
        <width>2.901</width>
      </LineStyle>
      <PolyStyle>
        <color>4c5252ff</color>
        <fill>1</fill>
        <outline>1</outline>
      </PolyStyle>
    </Style>
    <Style id="poly-FF5252-2901-76-highlight">
      <LineStyle>
        <color>ff5252ff</color>
        <width>4.3515</width>
      </LineStyle>
      <PolyStyle>
        <color>4c5252ff</color>
        <fill>1</fill>
        <outline>1</outline>
      </PolyStyle>
    </Style>
    <StyleMap id="poly-FF5252-2901-76">
      <Pair>
        <key>normal</key>
        <styleUrl>#poly-FF5252-2901-76-normal</styleUrl>
      </Pair>
      <Pair>
        <key>highlight</key>
        <styleUrl>#poly-FF5252-2901-76-highlight</styleUrl>
      </Pair>
    </StyleMap>
    <Style id="poly-FFEA00-1200-76-normal">
      <LineStyle>
        <color>ff00eaff</color>
        <width>1.2</width>
      </LineStyle>
      <PolyStyle>
        <color>4c00eaff</color>
        <fill>1</fill>
        <outline>1</outline>
      </PolyStyle>
    </Style>
    <Style id="poly-FFEA00-1200-76-highlight">
      <LineStyle>
        <color>ff00eaff</color>
        <width>1.8</width>
      </LineStyle>
      <PolyStyle>
        <color>4c00eaff</color>
        <fill>1</fill>
        <outline>1</outline>
      </PolyStyle>
    </Style>
    <StyleMap id="poly-FFEA00-1200-76">
      <Pair>
        <key>normal</key>
        <styleUrl>#poly-FFEA00-1200-76-normal</styleUrl>
      </Pair>
      <Pair>
        <key>highlight</key>
        <styleUrl>#poly-FFEA00-1200-76-highlight</styleUrl>
      </Pair>
    </StyleMap>
    <Style id="poly-FFEA00-3201-69-normal">
      <LineStyle>
        <color>ff00eaff</color>
        <width>3.201</width>
      </LineStyle>
      <PolyStyle>
        <color>4500eaff</color>
        <fill>1</fill>
        <outline>1</outline>
      </PolyStyle>
    </Style>
    <Style id="poly-FFEA00-3201-69-highlight">
      <LineStyle>
        <color>ff00eaff</color>
        <width>4.8015</width>
      </LineStyle>
      <PolyStyle>
        <color>4500eaff</color>
        <fill>1</fill>
        <outline>1</outline>
      </PolyStyle>
    </Style>
    <StyleMap id="poly-FFEA00-3201-69">
      <Pair>
        <key>normal</key>
        <styleUrl>#poly-FFEA00-3201-69-normal</styleUrl>
      </Pair>
      <Pair>
        <key>highlight</key>
        <styleUrl>#poly-FFEA00-3201-69-highlight</styleUrl>
      </Pair>
    </StyleMap>
    <Folder>
      <name>VD307</name>
      <Placemark>
        <name/>
        <description><![CDATA[Descripción: <br>Reg_Nom: Santander 250<br>Dominio: Floridablanca<br>Region: 250<br>Zona: 307<br>Seccion: A<br>Zsec: 307A]]></description>
        <styleUrl>#poly-FFEA00-3201-69</styleUrl>
        <ExtendedData>
          <Data name="Descripción">
            <value/>
          </Data>
          <Data name="Reg_Nom">
            <value>Santander 250</value>
          </Data>
          <Data name="Dominio">
            <value>Floridablanca</value>
          </Data>
          <Data name="Region">
            <value>250</value>
          </Data>
          <Data name="Zona">
            <value>307</value>
          </Data>
          <Data name="Seccion">
            <value>A</value>
          </Data>
          <Data name="Zsec">
            <value>307A</value>
          </Data>
        </ExtendedData>
        <Polygon>
          <outerBoundaryIs>
            <LinearRing>
              <tessellate>1</tessellate>
              <coordinates>
                -73.102685,7.08001,0
                -73.102553,7.080425,0
                -73.102407,7.080835,0
                -73.102255,7.081249,0
                -73.102136,7.081651,0
                -73.101994,7.082035,0
                -73.101871,7.082404,0
                -73.101749,7.082796,0
                -73.101591,7.083175,0
                -73.101509,7.083533,0
                -73.102831,7.083722,0
                -73.10316,7.083371,0
                -73.103481,7.083165,0
                -73.103737,7.083016,0
                -73.104434,7.082898,0
                -73.105176,7.082813,0
                -73.10514,7.082444,0
                -73.105114,7.082042,0
                -73.105179,7.081637,0
                -73.10516,7.081204,0
                -73.105118,7.080872,0
                -73.105077,7.080775,0
                -73.104823,7.080381,0
                -73.104728,7.080189,0
                -73.104675,7.079927,0
                -73.105164,7.079796,0
                -73.105092,7.079936,0
                -73.104971,7.080136,0
                -73.105211,7.080382,0
                -73.105618,7.080801,0
                -73.105906,7.081093,0
                -73.105845,7.081195,0
                -73.106125,7.081369,0
                -73.106211,7.081382,0
                -73.106523,7.081581,0
                -73.106645,7.081355,0
                -73.10667,7.081361,0
                -73.107184,7.081011,0
                -73.107632,7.08053,0
                -73.10784,7.080355,0
                -73.107884,7.079852,0
                -73.107829,7.07959,0
                -73.107823,7.079563,0
                -73.108135,7.07957,0
                -73.108113,7.080352,0
                -73.108309,7.080368,0
                -73.108659,7.080103,0
                -73.109564,7.079444,0
                -73.109701,7.079371,0
                -73.109908,7.079305,0
                -73.110197,7.079192,0
                -73.110559,7.079051,0
                -73.110805,7.078915,0
                -73.11092,7.078824,0
                -73.110964,7.078743,0
                -73.110995,7.078641,0
                -73.111014,7.078527,0
                -73.111082,7.078126,0
                -73.111121,7.077934,0
                -73.111174,7.077752,0
                -73.111227,7.077545,0
                -73.111282,7.077354,0
                -73.111334,7.077144,0
                -73.111399,7.076918,0
                -73.111456,7.076692,0
                -73.111511,7.076451,0
                -73.111547,7.076282,0
                -73.111593,7.076064,0
                -73.111633,7.075836,0
                -73.111671,7.075605,0
                -73.1119,7.075542,0
                -73.111977,7.075405,0
                -73.112382,7.074534,0
                -73.112518,7.074224,0
                -73.112579,7.074086,0
                -73.112844,7.07378,0
                -73.113689,7.073371,0
                -73.11382,7.073414,0
                -73.113923,7.073445,0
                -73.114032,7.073458,0
                -73.114122,7.073456,0
                -73.114196,7.073442,0
                -73.114264,7.073422,0
                -73.114317,7.073393,0
                -73.11437,7.073354,0
                -73.114416,7.073305,0
                -73.114441,7.07327,0
                -73.114468,7.073222,0
                -73.114498,7.073146,0
                -73.11453,7.073023,0
                -73.114556,7.072882,0
                -73.114563,7.072706,0
                -73.114194,7.072364,0
                -73.113816,7.071995,0
                -73.113994,7.071809,0
                -73.113945,7.071653,0
                -73.113915,7.071545,0
                -73.113885,7.071448,0
                -73.113844,7.071266,0
                -73.113682,7.071119,0
                -73.113279,7.070945,0
                -73.112758,7.070718,0
                -73.112026,7.070386,0
                -73.111523,7.070185,0
                -73.11073,7.070072,0
                -73.110309,7.070126,0
                -73.109962,7.070256,0
                -73.109753,7.070356,0
                -73.109767,7.070409,0
                -73.109772,7.070448,0
                -73.10978,7.070496,0
                -73.109791,7.07054,0
                -73.109804,7.070587,0
                -73.109821,7.070636,0
                -73.109842,7.070687,0
                -73.10986,7.070728,0
                -73.109869,7.070775,0
                -73.109853,7.070826,0
                -73.109824,7.070869,0
                -73.109786,7.070904,0
                -73.109745,7.07093,0
                -73.109705,7.070956,0
                -73.109664,7.070978,0
                -73.109614,7.070997,0
                -73.109569,7.071007,0
                -73.109513,7.071011,0
                -73.109466,7.071011,0
                -73.109415,7.07101,0
                -73.109361,7.071016,0
                -73.109307,7.071026,0
                -73.109262,7.071038,0
                -73.109209,7.07106,0
                -73.10916,7.07108,0
                -73.109117,7.071101,0
                -73.109075,7.071128,0
                -73.109033,7.071153,0
                -73.108994,7.071179,0
                -73.108953,7.071205,0
                -73.108916,7.071233,0
                -73.108885,7.071266,0
                -73.108846,7.071301,0
                -73.108797,7.07132,0
                -73.108751,7.071328,0
                -73.108705,7.071332,0
                -73.108656,7.071339,0
                -73.108604,7.071347,0
                -73.108548,7.071348,0
                -73.108488,7.071344,0
                -73.10843,7.071342,0
                -73.10838,7.071338,0
                -73.108336,7.071339,0
                -73.108289,7.071349,0
                -73.108246,7.071366,0
                -73.108199,7.071389,0
                -73.10815,7.071397,0
                -73.108095,7.071392,0
                -73.108044,7.071388,0
                -73.107998,7.071385,0
                -73.107945,7.071386,0
                -73.107892,7.071398,0
                -73.107849,7.071415,0
                -73.107804,7.07144,0
                -73.107763,7.071468,0
                -73.107725,7.071499,0
                -73.107686,7.07153,0
                -73.107652,7.071561,0
                -73.10761,7.071597,0
                -73.107573,7.071628,0
                -73.107537,7.07166,0
                -73.107496,7.071695,0
                -73.107461,7.071726,0
                -73.107446,7.071741,0
                -73.10742,7.071763,0
                -73.107258,7.071756,0
                -73.10736,7.071923,0
                -73.106923,7.072263,0
                -73.10671,7.072575,0
                -73.106663,7.07282,0
                -73.106659,7.072822,0
                -73.106654,7.072825,0
                -73.10665,7.072829,0
                -73.106645,7.072832,0
                -73.106642,7.072835,0
                -73.106638,7.07284,0
                -73.106635,7.072845,0
                -73.106631,7.072849,0
                -73.106629,7.072854,0
                -73.106626,7.072858,0
                -73.106625,7.072863,0
                -73.106622,7.072868,0
                -73.106621,7.072874,0
                -73.106619,7.072878,0
                -73.106619,7.072884,0
                -73.106618,7.07289,0
                -73.106618,7.072894,0
                -73.106618,7.0729,0
                -73.106619,7.072905,0
                -73.106619,7.07291,0
                -73.106621,7.072916,0
                -73.106194,7.072998,0
                -73.105925,7.073066,0
                -73.105404,7.073219,0
                -73.105225,7.073307,0
                -73.105036,7.073449,0
                -73.104837,7.07365,0
                -73.104672,7.074047,0
                -73.104483,7.074022,0
                -73.103863,7.073962,0
                -73.103725,7.073948,0
                -73.103579,7.074357,0
                -73.103508,7.074549,0
                -73.103439,7.074783,0
                -73.102867,7.074721,0
                -73.102455,7.074663,0
                -73.102522,7.075098,0
                -73.102554,7.075343,0
                -73.102577,7.075553,0
                -73.102587,7.075642,0
                -73.10263,7.075984,0
                -73.102666,7.076291,0
                -73.102681,7.076413,0
                -73.102693,7.076518,0
                -73.10272,7.076877,0
                -73.102777,7.077331,0
                -73.102822,7.077762,0
                -73.102888,7.078164,0
                -73.102938,7.078583,0
                -73.102995,7.079015,0
                -73.102973,7.079079,0
                -73.102837,7.079544,0
                -73.102685,7.08001,0
              </coordinates>
            </LinearRing>
          </outerBoundaryIs>
        </Polygon>
      </Placemark>
      <Placemark>
        <name/>
        <description><![CDATA[Descripción: <br>Reg_Nom: Santander 250<br>Dominio: Floridablanca<br>Region: 250<br>Zona: 307<br>Seccion: C<br>Zsec: 307C]]></description>
        <styleUrl>#poly-FF5252-2901-76</styleUrl>
        <ExtendedData>
          <Data name="Descripción">
            <value/>
          </Data>
          <Data name="Reg_Nom">
            <value>Santander 250</value>
          </Data>
          <Data name="Dominio">
            <value>Floridablanca</value>
          </Data>
          <Data name="Region">
            <value>250</value>
          </Data>
          <Data name="Zona">
            <value>307</value>
          </Data>
          <Data name="Seccion">
            <value>C</value>
          </Data>
          <Data name="Zsec">
            <value>307C</value>
          </Data>
        </ExtendedData>
        <MultiGeometry>
          <Polygon>
            <outerBoundaryIs>
              <LinearRing>
                <tessellate>1</tessellate>
                <coordinates>
                  -73.084334,7.066276,0
                  -73.084596,7.065923,0
                  -73.084495,7.06593,0
                  -73.0845,7.065947,0
                  -73.084334,7.066276,0
                </coordinates>
              </LinearRing>
            </outerBoundaryIs>
          </Polygon>
          <Polygon>
            <outerBoundaryIs>
              <LinearRing>
                <tessellate>1</tessellate>
                <coordinates>
                  -73.084334,7.066276,0
                  -73.084101,7.066738,0
                  -73.08284,7.06677,0
                  -73.081346,7.068121,0
                  -73.082727,7.069398,0
                  -73.083504,7.069735,0
                  -73.083832,7.070061,0
                  -73.084035,7.070262,0
                  -73.084068,7.070723,0
                  -73.084057,7.070785,0
                  -73.083918,7.071531,0
                  -73.083404,7.072041,0
                  -73.083139,7.073029,0
                  -73.083205,7.075071,0
                  -73.082939,7.076652,0
                  -73.082475,7.078431,0
                  -73.082674,7.081132,0
                  -73.083338,7.082911,0
                  -73.084599,7.084031,0
                  -73.086391,7.084887,0
                  -73.087786,7.085678,0
                  -73.08898,7.086666,0
                  -73.089644,7.086666,0
                  -73.089581,7.086432,0
                  -73.090026,7.085612,0
                  -73.090889,7.083767,0
                  -73.09215,7.082186,0
                  -73.093213,7.080078,0
                  -73.093677,7.077311,0
                  -73.093213,7.076389,0
                  -73.093118,7.07606,0
                  -73.093694,7.075203,0
                  -73.094392,7.07504,0
                  -73.094408,7.075118,0
                  -73.094655,7.075467,0
                  -73.095224,7.075365,0
                  -73.096128,7.074957,0
                  -73.096987,7.074724,0
                  -73.097753,7.074759,0
                  -73.097844,7.074845,0
                  -73.097972,7.0749,0
                  -73.098295,7.074866,0
                  -73.098295,7.074786,0
                  -73.098323,7.074717,0
                  -73.099107,7.074118,0
                  -73.099512,7.074127,0
                  -73.099594,7.074109,0
                  -73.099652,7.074089,0
                  -73.099707,7.07406,0
                  -73.099768,7.073999,0
                  -73.099788,7.07396,0
                  -73.099796,7.073904,0
                  -73.099786,7.073863,0
                  -73.099754,7.073801,0
                  -73.099636,7.073685,0
                  -73.100476,7.073799,0
                  -73.100514,7.07351,0
                  -73.100531,7.073441,0
                  -73.100763,7.073472,0
                  -73.100942,7.073556,0
                  -73.101852,7.073692,0
                  -73.101889,7.073379,0
                  -73.10191,7.073309,0
                  -73.102511,7.07334,0
                  -73.10267,7.073383,0
                  -73.10344,7.073405,0
                  -73.103442,7.073333,0
                  -73.104075,7.07334,0
                  -73.104236,7.07328,0
                  -73.104783,7.07329,0
                  -73.104795,7.073096,0
                  -73.104793,7.073034,0
                  -73.105272,7.073036,0
                  -73.105291,7.072737,0
                  -73.105459,7.072737,0
                  -73.10547,7.072372,0
                  -73.105698,7.072342,0
                  -73.106033,7.072302,0
                  -73.106587,7.072247,0
                  -73.106742,7.072098,0
                  -73.107106,7.071513,0
                  -73.107258,7.071756,0
                  -73.107327,7.071715,0
                  -73.10735,7.071693,0
                  -73.107387,7.071658,0
                  -73.107427,7.071619,0
                  -73.107462,7.071584,0
                  -73.107497,7.071549,0
                  -73.107534,7.071516,0
                  -73.107572,7.07148,0
                  -73.10761,7.071446,0
                  -73.107647,7.071415,0
                  -73.107689,7.071384,0
                  -73.107727,7.071358,0
                  -73.107776,7.071333,0
                  -73.107824,7.071312,0
                  -73.107876,7.071295,0
                  -73.10793,7.071281,0
                  -73.107982,7.071266,0
                  -73.108036,7.071252,0
                  -73.108086,7.071237,0
                  -73.108138,7.071225,0
                  -73.108189,7.071217,0
                  -73.108236,7.071214,0
                  -73.108287,7.071213,0
                  -73.108339,7.071214,0
                  -73.108386,7.071216,0
                  -73.10844,7.071219,0
                  -73.108495,7.071221,0
                  -73.108551,7.071224,0
                  -73.10861,7.071226,0
                  -73.10866,7.071225,0
                  -73.108713,7.071217,0
                  -73.108755,7.071202,0
                  -73.108809,7.071176,0
                  -73.10885,7.071149,0
                  -73.108889,7.071122,0
                  -73.108925,7.071086,0
                  -73.108959,7.071054,0
                  -73.108993,7.071024,0
                  -73.10904,7.070993,0
                  -73.109082,7.07097,0
                  -73.109129,7.070949,0
                  -73.109177,7.070932,0
                  -73.109226,7.07092,0
                  -73.109269,7.07091,0
                  -73.109327,7.070902,0
                  -73.109381,7.070894,0
                  -73.109435,7.070887,0
                  -73.109482,7.070882,0
                  -73.109536,7.070876,0
                  -73.109591,7.070865,0
                  -73.109635,7.070844,0
                  -73.109663,7.070803,0
                  -73.109682,7.070751,0
                  -73.109694,7.070702,0
                  -73.109694,7.070638,0
                  -73.109694,7.070588,0
                  -73.109692,7.070531,0
                  -73.109692,7.070479,0
                  -73.109688,7.070462,0
                  -73.109675,7.070388,0
                  -73.10961,7.070385,0
                  -73.109517,7.0703,0
                  -73.109475,7.070199,0
                  -73.109479,7.070064,0
                  -73.109627,7.069647,0
                  -73.109703,7.069508,0
                  -73.109752,7.069374,0
                  -73.109759,7.069256,0
                  -73.109735,7.06917,0
                  -73.109675,7.069066,0
                  -73.108766,7.068976,0
                  -73.108626,7.069053,0
                  -73.108411,7.068852,0
                  -73.108311,7.068848,0
                  -73.108091,7.068659,0
                  -73.108179,7.068466,0
                  -73.108207,7.068368,0
                  -73.108892,7.068352,0
                  -73.10901,7.067779,0
                  -73.10912,7.067627,0
                  -73.109242,7.067599,0
                  -73.109806,7.06757,0
                  -73.109784,7.06693,0
                  -73.110081,7.066852,0
                  -73.110632,7.066628,0
                  -73.110878,7.066553,0
                  -73.110835,7.065618,0
                  -73.110735,7.064149,0
                  -73.110708,7.063727,0
                  -73.110584,7.062263,0
                  -73.110565,7.062271,0
                  -73.110534,7.06228,0
                  -73.110484,7.062291,0
                  -73.110435,7.062301,0
                  -73.110387,7.062307,0
                  -73.110338,7.062311,0
                  -73.110293,7.062306,0
                  -73.110246,7.062288,0
                  -73.110208,7.062258,0
                  -73.110179,7.062224,0
                  -73.110141,7.06219,0
                  -73.110102,7.062165,0
                  -73.110058,7.062145,0
                  -73.110034,7.062136,0
                  -73.110007,7.062125,0
                  -73.109982,7.062116,0
                  -73.109967,7.062111,0
                  -73.109921,7.062097,0
                  -73.109873,7.062089,0
                  -73.109826,7.062091,0
                  -73.109781,7.062108,0
                  -73.10974,7.062134,0
                  -73.109696,7.062154,0
                  -73.109647,7.062162,0
                  -73.1096,7.062172,0
                  -73.109554,7.062184,0
                  -73.109507,7.062193,0
                  -73.10948,7.062198,0
                  -73.109415,7.062245,0
                  -73.109339,7.062327,0
                  -73.109007,7.062587,0
                  -73.108736,7.062747,0
                  -73.108697,7.062748,0
                  -73.108656,7.062736,0
                  -73.108396,7.062826,0
                  -73.108086,7.062885,0
                  -73.108045,7.062856,0
                  -73.108005,7.062836,0
                  -73.107744,7.062864,0
                  -73.107473,7.062944,0
                  -73.107415,7.062957,0
                  -73.107364,7.062964,0
                  -73.107273,7.062984,0
                  -73.106972,7.063023,0
                  -73.106772,7.063103,0
                  -73.10672,7.063107,0
                  -73.106662,7.063132,0
                  -73.106401,7.063272,0
                  -73.106051,7.063351,0
                  -73.105991,7.063356,0
                  -73.105874,7.063397,0
                  -73.105859,7.0634,0
                  -73.105814,7.063401,0
                  -73.105762,7.063399,0
                  -73.105711,7.063404,0
                  -73.105669,7.063418,0
                  -73.105627,7.063442,0
                  -73.10559,7.063467,0
                  -73.105546,7.063493,0
                  -73.105504,7.06352,0
                  -73.105461,7.063547,0
                  -73.105415,7.063573,0
                  -73.105374,7.063597,0
                  -73.105333,7.06362,0
                  -73.10529,7.063641,0
                  -73.105241,7.06366,0
                  -73.105192,7.063677,0
                  -73.105143,7.063694,0
                  -73.105096,7.063711,0
                  -73.105052,7.063728,0
                  -73.105003,7.063744,0
                  -73.104957,7.063756,0
                  -73.104907,7.063763,0
                  -73.10486,7.063764,0
                  -73.104809,7.063765,0
                  -73.104761,7.063761,0
                  -73.104713,7.063755,0
                  -73.104698,7.063753,0
                  -73.104663,7.063746,0
                  -73.104614,7.063739,0
                  -73.104563,7.063731,0
                  -73.104535,7.063727,0
                  -73.104528,7.063727,0
                  -73.104519,7.063726,0
                  -73.104475,7.063721,0
                  -73.104423,7.063717,0
                  -73.10439,7.063719,0
                  -73.104369,7.063718,0
                  -73.104321,7.06372,0
                  -73.104273,7.063724,0
                  -73.104223,7.063729,0
                  -73.104175,7.063734,0
                  -73.104123,7.063736,0
                  -73.104069,7.063742,0
                  -73.104017,7.063746,0
                  -73.103965,7.063754,0
                  -73.103916,7.063765,0
                  -73.103869,7.063776,0
                  -73.103837,7.063787,0
                  -73.103819,7.063794,0
                  -73.103778,7.063822,0
                  -73.103745,7.063853,0
                  -73.103739,7.063858,0
                  -73.103704,7.06388,0
                  -73.103655,7.06391,0
                  -73.103622,7.063926,0
                  -73.103612,7.063932,0
                  -73.103565,7.063952,0
                  -73.103524,7.063979,0
                  -73.103485,7.064005,0
                  -73.103442,7.064036,0
                  -73.103402,7.064065,0
                  -73.103363,7.064093,0
                  -73.103325,7.064127,0
                  -73.103293,7.064164,0
                  -73.103265,7.064202,0
                  -73.103241,7.064246,0
                  -73.103217,7.064286,0
                  -73.103198,7.064331,0
                  -73.103182,7.064374,0
                  -73.10317,7.064421,0
                  -73.103162,7.064464,0
                  -73.10315,7.064507,0
                  -73.103136,7.064556,0
                  -73.103121,7.064602,0
                  -73.103108,7.064647,0
                  -73.103095,7.064692,0
                  -73.103084,7.064737,0
                  -73.103069,7.064778,0
                  -73.103055,7.064826,0
                  -73.103052,7.064836,0
                  -73.103041,7.06487,0
                  -73.103026,7.064918,0
                  -73.103025,7.064922,0
                  -73.10301,7.064967,0
                  -73.102992,7.065007,0
                  -73.10297,7.065056,0
                  -73.102946,7.0651,0
                  -73.102917,7.065146,0
                  -73.102891,7.065192,0
                  -73.10286,7.065233,0
                  -73.102819,7.065267,0
                  -73.102789,7.065282,0
                  -73.102749,7.065305,0
                  -73.102708,7.065328,0
                  -73.102667,7.065349,0
                  -73.102624,7.06537,0
                  -73.102579,7.065388,0
                  -73.102535,7.065403,0
                  -73.102486,7.065415,0
                  -73.102442,7.065421,0
                  -73.102392,7.065427,0
                  -73.102345,7.065433,0
                  -73.102298,7.065439,0
                  -73.102251,7.065447,0
                  -73.102201,7.065457,0
                  -73.102153,7.065466,0
                  -73.102105,7.065479,0
                  -73.102062,7.065499,0
                  -73.102015,7.065527,0
                  -73.101975,7.065552,0
                  -73.101932,7.065578,0
                  -73.101893,7.065601,0
                  -73.101852,7.065625,0
                  -73.101813,7.065649,0
                  -73.101773,7.065673,0
                  -73.101734,7.065696,0
                  -73.101693,7.065721,0
                  -73.101653,7.065746,0
                  -73.101614,7.065775,0
                  -73.101574,7.065802,0
                  -73.101534,7.065832,0
                  -73.101493,7.065859,0
                  -73.101453,7.065885,0
                  -73.101416,7.065912,0
                  -73.101373,7.065936,0
                  -73.101336,7.065962,0
                  -73.101297,7.065987,0
                  -73.101257,7.066016,0
                  -73.101221,7.066046,0
                  -73.101185,7.066073,0
                  -73.101146,7.066103,0
                  -73.101107,7.066134,0
                  -73.101068,7.066165,0
                  -73.101026,7.066198,0
                  -73.100986,7.066229,0
                  -73.100946,7.06626,0
                  -73.100906,7.066287,0
                  -73.100867,7.066317,0
                  -73.100828,7.06635,0
                  -73.100793,7.066382,0
                  -73.100758,7.066415,0
                  -73.100735,7.066435,0
                  -73.100721,7.066447,0
                  -73.10069,7.06648,0
                  -73.100682,7.066489,0
                  -73.100657,7.066518,0
                  -73.100633,7.066559,0
                  -73.100609,7.066597,0
                  -73.100579,7.066636,0
                  -73.100562,7.066677,0
                  -73.100534,7.066714,0
                  -73.1005,7.066753,0
                  -73.10047,7.066792,0
                  -73.100442,7.066831,0
                  -73.100416,7.066871,0
                  -73.100373,7.06692,0
                  -73.100318,7.066983,0
                  -73.10024,7.066951,0
                  -73.100299,7.066873,0
                  -73.100364,7.066816,0
                  -73.100372,7.066804,0
                  -73.1004,7.066765,0
                  -73.100425,7.066728,0
                  -73.100455,7.06668,0
                  -73.100466,7.066666,0
                  -73.100514,7.066598,0
                  -73.100555,7.066544,0
                  -73.100567,7.066529,0
                  -73.100628,7.066459,0
                  -73.100634,7.066451,0
                  -73.100664,7.066417,0
                  -73.100679,7.066402,0
                  -73.100689,7.06639,0
                  -73.100711,7.066367,0
                  -73.10075,7.066328,0
                  -73.10081,7.066262,0
                  -73.100849,7.066223,0
                  -73.100888,7.066191,0
                  -73.100931,7.066152,0
                  -73.100971,7.066121,0
                  -73.10101,7.066088,0
                  -73.101048,7.06606,0
                  -73.101086,7.066033,0
                  -73.10113,7.066001,0
                  -73.101168,7.065978,0
                  -73.101209,7.065948,0
                  -73.101257,7.065916,0
                  -73.101302,7.065883,0
                  -73.101354,7.06585,0
                  -73.101405,7.065817,0
                  -73.101445,7.065792,0
                  -73.101492,7.065761,0
                  -73.101535,7.065733,0
                  -73.101577,7.065705,0
                  -73.101616,7.065675,0
                  -73.10165,7.065645,0
                  -73.101692,7.065616,0
                  -73.101728,7.06559,0
                  -73.101765,7.065565,0
                  -73.101803,7.065538,0
                  -73.101848,7.065502,0
                  -73.101885,7.065472,0
                  -73.101922,7.06544,0
                  -73.101961,7.065404,0
                  -73.101994,7.065365,0
                  -73.101995,7.065362,0
                  -73.10196,7.065333,0
                  -73.101916,7.065315,0
                  -73.101866,7.065302,0
                  -73.101854,7.0653,0
                  -73.101782,7.065296,0
                  -73.101718,7.065296,0
                  -73.101671,7.0653,0
                  -73.101621,7.065306,0
                  -73.10153,7.065314,0
                  -73.101481,7.065319,0
                  -73.101429,7.065328,0
                  -73.10138,7.065342,0
                  -73.101331,7.06536,0
                  -73.101314,7.065367,0
                  -73.101271,7.065385,0
                  -73.101184,7.065418,0
                  -73.101132,7.065436,0
                  -73.101073,7.065449,0
                  -73.101057,7.065452,0
                  -73.100974,7.065471,0
                  -73.10092,7.06548,0
                  -73.100858,7.065492,0
                  -73.1008,7.065503,0
                  -73.100753,7.065511,0
                  -73.100737,7.065515,0
                  -73.100691,7.065524,0
                  -73.100609,7.065545,0
                  -73.100558,7.065562,0
                  -73.100508,7.065585,0
                  -73.100461,7.065615,0
                  -73.100412,7.065643,0
                  -73.100367,7.065665,0
                  -73.100318,7.065687,0
                  -73.100269,7.0657,0
                  -73.100215,7.065711,0
                  -73.100174,7.065718,0
                  -73.100118,7.06573,0
                  -73.100069,7.065749,0
                  -73.100022,7.065771,0
                  -73.099978,7.065791,0
                  -73.099939,7.065807,0
                  -73.099888,7.065826,0
                  -73.099835,7.065843,0
                  -73.099791,7.065857,0
                  -73.099743,7.065874,0
                  -73.099697,7.065888,0
                  -73.09965,7.065895,0
                  -73.099594,7.065898,0
                  -73.099546,7.065894,0
                  -73.099495,7.065883,0
                  -73.099442,7.065862,0
                  -73.099397,7.065836,0
                  -73.099361,7.065809,0
                  -73.099318,7.065773,0
                  -73.099277,7.065736,0
                  -73.099238,7.065689,0
                  -73.099205,7.065646,0
                  -73.099172,7.065602,0
                  -73.099142,7.065554,0
                  -73.09911,7.065513,0
                  -73.099076,7.065476,0
                  -73.099049,7.065443,0
                  -73.099014,7.065408,0
                  -73.098978,7.065376,0
                  -73.098936,7.065348,0
                  -73.098895,7.065322,0
                  -73.098841,7.065291,0
                  -73.098791,7.065269,0
                  -73.098735,7.065255,0
                  -73.098684,7.065253,0
                  -73.09863,7.065259,0
                  -73.098577,7.065269,0
                  -73.098534,7.065285,0
                  -73.098487,7.065301,0
                  -73.098443,7.065318,0
                  -73.098399,7.065331,0
                  -73.098352,7.065348,0
                  -73.098302,7.065366,0
                  -73.098262,7.065386,0
                  -73.098221,7.065412,0
                  -73.098184,7.065439,0
                  -73.098168,7.06545,0
                  -73.098084,7.065489,0
                  -73.097931,7.065376,0
                  -73.097928,7.065478,0
                  -73.097926,7.065479,0
                  -73.097868,7.065514,0
                  -73.097822,7.065528,0
                  -73.097776,7.06554,0
                  -73.097729,7.065561,0
                  -73.097699,7.065583,0
                  -73.097693,7.065587,0
                  -73.097655,7.065613,0
                  -73.097629,7.065658,0
                  -73.097624,7.06571,0
                  -73.097623,7.065757,0
                  -73.097624,7.065806,0
                  -73.097628,7.065855,0
                  -73.097638,7.065901,0
                  -73.09765,7.065948,0
                  -73.097661,7.065992,0
                  -73.097674,7.066043,0
                  -73.097677,7.066096,0
                  -73.097664,7.066151,0
                  -73.097656,7.066195,0
                  -73.097645,7.066242,0
                  -73.097623,7.066286,0
                  -73.097595,7.066325,0
                  -73.09756,7.06636,0
                  -73.097524,7.066389,0
                  -73.09748,7.06642,0
                  -73.09746,7.066432,0
                  -73.097437,7.066446,0
                  -73.09739,7.066464,0
                  -73.097338,7.066468,0
                  -73.097288,7.066459,0
                  -73.097241,7.066441,0
                  -73.097203,7.066415,0
                  -73.097177,7.066374,0
                  -73.097151,7.066333,0
                  -73.097115,7.066299,0
                  -73.09707,7.066275,0
                  -73.097021,7.066266,0
                  -73.096971,7.066267,0
                  -73.096921,7.066258,0
                  -73.096874,7.066248,0
                  -73.096826,7.066241,0
                  -73.096779,7.066236,0
                  -73.096732,7.066233,0
                  -73.096683,7.066235,0
                  -73.096632,7.066242,0
                  -73.096584,7.066259,0
                  -73.09654,7.066282,0
                  -73.096498,7.066306,0
                  -73.096458,7.066332,0
                  -73.096417,7.066355,0
                  -73.096376,7.066377,0
                  -73.096335,7.066402,0
                  -73.096288,7.066424,0
                  -73.096242,7.066444,0
                  -73.096195,7.066457,0
                  -73.096144,7.066469,0
                  -73.0961,7.066478,0
                  -73.096048,7.066494,0
                  -73.096004,7.066504,0
                  -73.095955,7.066508,0
                  -73.095907,7.066511,0
                  -73.095863,7.066511,0
                  -73.095813,7.066507,0
                  -73.095761,7.066501,0
                  -73.09571,7.066495,0
                  -73.095662,7.066491,0
                  -73.095614,7.06649,0
                  -73.095567,7.066494,0
                  -73.095523,7.066499,0
                  -73.095514,7.0665,0
                  -73.095472,7.066507,0
                  -73.095427,7.066524,0
                  -73.095385,7.066544,0
                  -73.095338,7.066568,0
                  -73.095298,7.066587,0
                  -73.095254,7.066609,0
                  -73.095208,7.066635,0
                  -73.095164,7.066664,0
                  -73.095128,7.066689,0
                  -73.095094,7.066729,0
                  -73.095066,7.066771,0
                  -73.095043,7.066812,0
                  -73.095019,7.066863,0
                  -73.095003,7.066903,0
                  -73.094985,7.06695,0
                  -73.094964,7.066996,0
                  -73.094937,7.067035,0
                  -73.094885,7.067063,0
                  -73.094843,7.067083,0
                  -73.094793,7.067092,0
                  -73.094744,7.067088,0
                  -73.094694,7.067076,0
                  -73.094646,7.067062,0
                  -73.094598,7.067047,0
                  -73.094551,7.067031,0
                  -73.094507,7.067018,0
                  -73.094454,7.067012,0
                  -73.094409,7.067021,0
                  -73.094361,7.067035,0
                  -73.09431,7.06705,0
                  -73.094261,7.067059,0
                  -73.094212,7.067062,0
                  -73.094158,7.067056,0
                  -73.094103,7.067046,0
                  -73.094055,7.067034,0
                  -73.094007,7.067018,0
                  -73.093962,7.067007,0
                  -73.093913,7.066995,0
                  -73.093861,7.066996,0
                  -73.093816,7.067008,0
                  -73.093779,7.067021,0
                  -73.093771,7.067023,0
                  -73.093767,7.067024,0
                  -73.093738,7.067038,0
                  -73.093711,7.06705,0
                  -73.093706,7.067053,0
                  -73.093677,7.067072,0
                  -73.093647,7.067111,0
                  -73.09361,7.067148,0
                  -73.09357,7.067183,0
                  -73.093544,7.067218,0
                  -73.093515,7.067264,0
                  -73.093482,7.067302,0
                  -73.093477,7.067305,0
                  -73.093446,7.06733,0
                  -73.093404,7.067353,0
                  -73.093355,7.067365,0
                  -73.093312,7.067377,0
                  -73.093306,7.067378,0
                  -73.093281,7.067387,0
                  -73.093276,7.06739,0
                  -73.093264,7.067395,0
                  -73.093261,7.067397,0
                  -73.093213,7.067421,0
                  -73.093169,7.067444,0
                  -73.093133,7.067462,0
                  -73.093085,7.067483,0
                  -73.09305,7.067508,0
                  -73.093037,7.067517,0
                  -73.093012,7.06754,0
                  -73.09301,7.067542,0
                  -73.093004,7.067547,0
                  -73.09298,7.06757,0
                  -73.092968,7.067581,0
                  -73.09293,7.067615,0
                  -73.092892,7.06765,0
                  -73.092854,7.067681,0
                  -73.092816,7.067705,0
                  -73.092772,7.067732,0
                  -73.092729,7.067755,0
                  -73.092688,7.067781,0
                  -73.092683,7.067783,0
                  -73.092656,7.067806,0
                  -73.092642,7.067813,0
                  -73.092619,7.067822,0
                  -73.092599,7.067829,0
                  -73.092579,7.067827,0
                  -73.092529,7.067815,0
                  -73.092477,7.067803,0
                  -73.092432,7.067797,0
                  -73.09239,7.067813,0
                  -73.092351,7.067837,0
                  -73.092308,7.067863,0
                  -73.092269,7.067888,0
                  -73.092228,7.067919,0
                  -73.09219,7.067942,0
                  -73.092141,7.067957,0
                  -73.092092,7.067954,0
                  -73.092045,7.067937,0
                  -73.09201,7.067914,0
                  -73.091966,7.067884,0
                  -73.091924,7.067853,0
                  -73.091889,7.067821,0
                  -73.091849,7.06779,0
                  -73.091811,7.067767,0
                  -73.09177,7.06774,0
                  -73.091732,7.067713,0
                  -73.091692,7.067686,0
                  -73.091664,7.067673,0
                  -73.091647,7.067668,0
                  -73.091598,7.067656,0
                  -73.091544,7.06765,0
                  -73.091499,7.06765,0
                  -73.09145,7.067665,0
                  -73.091404,7.067679,0
                  -73.091361,7.067699,0
                  -73.091318,7.067713,0
                  -73.091252,7.067723,0
                  -73.091206,7.067737,0
                  -73.091165,7.06775,0
                  -73.091115,7.067761,0
                  -73.09106,7.067765,0
                  -73.091012,7.067768,0
                  -73.090969,7.067771,0
                  -73.09092,7.06778,0
                  -73.09087,7.067788,0
                  -73.090813,7.067792,0
                  -73.090769,7.06779,0
                  -73.090722,7.067789,0
                  -73.09067,7.067792,0
                  -73.090627,7.067801,0
                  -73.09058,7.067819,0
                  -73.090537,7.067842,0
                  -73.090495,7.067865,0
                  -73.090451,7.067888,0
                  -73.090408,7.067909,0
                  -73.090365,7.067927,0
                  -73.090319,7.067944,0
                  -73.090273,7.067964,0
                  -73.090231,7.067984,0
                  -73.090191,7.068002,0
                  -73.09017,7.068011,0
                  -73.090128,7.068023,0
                  -73.090156,7.068146,0
                  -73.090105,7.068132,0
                  -73.090109,7.068154,0
                  -73.090209,7.068582,0
                  -73.089578,7.068846,0
                  -73.086989,7.068813,0
                  -73.084798,7.06677,0
                  -73.084168,7.066738,0
                  -73.084334,7.066276,0
                </coordinates>
              </LinearRing>
            </outerBoundaryIs>
          </Polygon>
        </MultiGeometry>
      </Placemark>
      <Placemark>
        <name/>
        <description><![CDATA[Descripción: <br>Reg_Nom: Santander 250<br>Dominio: Floridablanca<br>Region: 250<br>Zona: 307<br>Seccion: E<br>Zsec: 307E]]></description>
        <styleUrl>#poly-9C27B0-3101-76</styleUrl>
        <ExtendedData>
          <Data name="Descripción">
            <value/>
          </Data>
          <Data name="Reg_Nom">
            <value>Santander 250</value>
          </Data>
          <Data name="Dominio">
            <value>Floridablanca</value>
          </Data>
          <Data name="Region">
            <value>250</value>
          </Data>
          <Data name="Zona">
            <value>307</value>
          </Data>
          <Data name="Seccion">
            <value>E</value>
          </Data>
          <Data name="Zsec">
            <value>307E</value>
          </Data>
        </ExtendedData>
        <Polygon>
          <outerBoundaryIs>
            <LinearRing>
              <tessellate>1</tessellate>
              <coordinates>
                -73.084495,7.06593,0
                -73.084522,7.065928,0
                -73.084816,7.065553,0
                -73.08488,7.065405,0
                -73.084873,7.06516,0
                -73.084831,7.064963,0
                -73.084145,7.065242,0
                -73.083692,7.064603,0
                -73.083488,7.064303,0
                -73.083361,7.064123,0
                -73.083231,7.06397,0
                -73.083155,7.06385,0
                -73.083023,7.063623,0
                -73.082845,7.063314,0
                -73.082674,7.062971,0
                -73.082515,7.062627,0
                -73.082396,7.062341,0
                -73.082273,7.062069,0
                -73.082165,7.061915,0
                -73.081953,7.061636,0
                -73.081706,7.061242,0
                -73.081382,7.060762,0
                -73.081257,7.060292,0
                -73.08088,7.060535,0
                -73.080143,7.060918,0
                -73.079607,7.060928,0
                -73.079456,7.06094,0
                -73.078971,7.061177,0
                -73.078419,7.061447,0
                -73.0772,7.062419,0
                -73.077267,7.062514,0
                -73.077254,7.062521,0
                -73.077117,7.062604,0
                -73.077272,7.062957,0
                -73.077195,7.063025,0
                -73.077301,7.063182,0
                -73.077168,7.063311,0
                -73.077218,7.063358,0
                -73.077123,7.063454,0
                -73.077148,7.063489,0
                -73.077021,7.063587,0
                -73.077196,7.063794,0
                -73.077604,7.064134,0
                -73.077962,7.06448,0
                -73.077953,7.064563,0
                -73.078025,7.064742,0
                -73.077718,7.064877,0
                -73.077411,7.065011,0
                -73.077397,7.064954,0
                -73.077296,7.064698,0
                -73.077158,7.064661,0
                -73.077029,7.06467,0
                -73.076901,7.064714,0
                -73.076766,7.064824,0
                -73.076719,7.064861,0
                -73.07665,7.065088,0
                -73.076669,7.065209,0
                -73.076709,7.065374,0
                -73.076729,7.06547,0
                -73.076724,7.065555,0
                -73.076708,7.065746,0
                -73.076673,7.065942,0
                -73.076557,7.066202,0
                -73.076159,7.066814,0
                -73.076078,7.066934,0
                -73.076053,7.067049,0
                -73.076053,7.067125,0
                -73.076082,7.067281,0
                -73.075996,7.067632,0
                -73.075829,7.068002,0
                -73.075814,7.068068,0
                -73.075794,7.06816,0
                -73.075783,7.068201,0
                -73.075734,7.068255,0
                -73.075683,7.068306,0
                -73.075623,7.068331,0
                -73.075573,7.068331,0
                -73.075503,7.068326,0
                -73.075457,7.0683,0
                -73.075357,7.06823,0
                -73.075111,7.068054,0
                -73.07501,7.068023,0
                -73.07492,7.068033,0
                -73.07482,7.068063,0
                -73.074795,7.068089,0
                -73.074775,7.068113,0
                -73.074623,7.068228,0
                -73.074503,7.068293,0
                -73.074291,7.068398,0
                -73.074226,7.068468,0
                -73.074146,7.068578,0
                -73.07413,7.068638,0
                -73.0741,7.068739,0
                -73.0741,7.068835,0
                -73.074135,7.06893,0
                -73.074174,7.06896,0
                -73.074244,7.06897,0
                -73.074316,7.06897,0
                -73.074405,7.068951,0
                -73.074456,7.068951,0
                -73.074546,7.068956,0
                -73.074582,7.068961,0
                -73.074606,7.068976,0
                -73.074627,7.069042,0
                -73.074626,7.069231,0
                -73.074641,7.069322,0
                -73.074676,7.069373,0
                -73.074751,7.069413,0
                -73.074832,7.069408,0
                -73.074912,7.069398,0
                -73.074957,7.069343,0
                -73.074988,7.069263,0
                -73.074988,7.069203,0
                -73.074988,7.069137,0
                -73.074993,7.069047,0
                -73.075008,7.068977,0
                -73.075039,7.068942,0
                -73.075084,7.068922,0
                -73.075125,7.068922,0
                -73.075164,7.068932,0
                -73.075209,7.068977,0
                -73.075294,7.069068,0
                -73.075335,7.069088,0
                -73.075425,7.069098,0
                -73.075481,7.069098,0
                -73.075541,7.069089,0
                -73.075631,7.069023,0
                -73.075782,7.068919,0
                -73.075883,7.068874,0
                -73.075928,7.068858,0
                -73.075953,7.068858,0
                -73.075988,7.068858,0
                -73.076043,7.068874,0
                -73.076076,7.068884,0
                -73.076121,7.068943,0
                -73.076129,7.068989,0
                -73.076084,7.069074,0
                -73.076022,7.069154,0
                -73.075932,7.069215,0
                -73.075781,7.069289,0
                -73.075484,7.06941,0
                -73.075384,7.069479,0
                -73.075313,7.06956,0
                -73.075268,7.069617,0
                -73.075248,7.069778,0
                -73.075272,7.070205,0
                -73.075282,7.070247,0
                -73.075302,7.070292,0
                -73.075332,7.070327,0
                -73.075382,7.070341,0
                -73.075458,7.070341,0
                -73.075588,7.07029,0
                -73.075754,7.070206,0
                -73.075824,7.070175,0
                -73.07589,7.070171,0
                -73.075981,7.070206,0
                -73.0761,7.070415,0
                -73.076241,7.070658,0
                -73.076251,7.070744,0
                -73.076245,7.070824,0
                -73.07622,7.070871,0
                -73.076179,7.070914,0
                -73.076109,7.070919,0
                -73.075964,7.070869,0
                -73.075903,7.070853,0
                -73.075823,7.070868,0
                -73.075763,7.070885,0
                -73.075703,7.070923,0
                -73.075642,7.070981,0
                -73.075592,7.071059,0
                -73.075561,7.071131,0
                -73.075531,7.071224,0
                -73.075521,7.071452,0
                -73.075531,7.071612,0
                -73.075576,7.071713,0
                -73.07563,7.071758,0
                -73.075691,7.071783,0
                -73.075726,7.071808,0
                -73.075796,7.071819,0
                -73.075947,7.071794,0
                -73.07606,7.071765,0
                -73.076082,7.071759,0
                -73.076313,7.071694,0
                -73.076409,7.07169,0
                -73.076474,7.071735,0
                -73.076514,7.071795,0
                -73.076513,7.072071,0
                -73.076538,7.072081,0
                -73.076567,7.07209,0
                -73.076608,7.072104,0
                -73.076654,7.072094,0
                -73.076698,7.072099,0
                -73.076746,7.072086,0
                -73.07679,7.07207,0
                -73.076833,7.072059,0
                -73.076878,7.072048,0
                -73.076927,7.072037,0
                -73.076969,7.07203,0
                -73.077017,7.07202,0
                -73.077064,7.07201,0
                -73.077111,7.072004,0
                -73.077158,7.072003,0
                -73.077205,7.072007,0
                -73.077258,7.072013,0
                -73.0773,7.07202,0
                -73.077348,7.072013,0
                -73.077386,7.071977,0
                -73.077412,7.071937,0
                -73.077435,7.071903,0
                -73.077458,7.071856,0
                -73.0775,7.071836,0
                -73.077546,7.071825,0
                -73.077591,7.071808,0
                -73.077637,7.071781,0
                -73.077675,7.071759,0
                -73.077714,7.071733,0
                -73.077753,7.071715,0
                -73.077801,7.0717,0
                -73.077847,7.07169,0
                -73.077886,7.071719,0
                -73.077917,7.071753,0
                -73.077953,7.071778,0
                -73.078002,7.071782,0
                -73.078048,7.071785,0
                -73.078096,7.071777,0
                -73.078142,7.071771,0
                -73.078189,7.071759,0
                -73.078336,7.071737,0
                -73.078355,7.071734,0
                -73.078404,7.071728,0
                -73.078454,7.071727,0
                -73.078507,7.071727,0
                -73.078551,7.071733,0
                -73.0786,7.071738,0
                -73.07865,7.071738,0
                -73.078701,7.071739,0
                -73.078736,7.071767,0
                -73.078744,7.071811,0
                -73.078791,7.071807,0
                -73.07884,7.071803,0
                -73.078884,7.071792,0
                -73.078917,7.071782,0
                -73.078975,7.071759,0
                -73.07901,7.071725,0
                -73.079033,7.071701,0
                -73.079053,7.071705,0
                -73.079194,7.071781,0
                -73.079168,7.071827,0
                -73.079294,7.071894,0
                -73.07933,7.071827,0
                -73.079418,7.071875,0
                -73.079618,7.071518,0
                -73.079605,7.071344,0
                -73.080065,7.071399,0
                -73.080096,7.071201,0
                -73.080107,7.071132,0
                -73.080274,7.071138,0
                -73.080307,7.070899,0
                -73.080422,7.070911,0
                -73.080731,7.070951,0
                -73.080972,7.070985,0
                -73.081024,7.070973,0
                -73.08121,7.071002,0
                -73.081528,7.071091,0
                -73.082375,7.071185,0
                -73.082398,7.070917,0
                -73.082629,7.07094,0
                -73.082648,7.070785,0
                -73.082923,7.070807,0
                -73.082901,7.070985,0
                -73.08305,7.070959,0
                -73.083143,7.070919,0
                -73.083228,7.070849,0
                -73.083293,7.070429,0
                -73.083137,7.070054,0
                -73.083108,7.069868,0
                -73.083082,7.069764,0
                -73.082966,7.069608,0
                -73.08284,7.069472,0
                -73.082794,7.069427,0
                -73.082727,7.069398,0
                -73.081346,7.068121,0
                -73.08284,7.06677,0
                -73.084101,7.066738,0
                -73.0845,7.065947,0
                -73.084495,7.06593,0
              </coordinates>
            </LinearRing>
          </outerBoundaryIs>
        </Polygon>
      </Placemark>
      <Placemark>
        <name/>
        <description><![CDATA[Descripción: <br>Reg_Nom: Santander 250<br>Dominio: Bucaramanga, Floridablanca<br>Region: 250<br>Zona: 307<br>Seccion: G<br>Zsec: 307G]]></description>
        <styleUrl>#poly-FFEA00-1200-76</styleUrl>
        <ExtendedData>
          <Data name="Descripción">
            <value/>
          </Data>
          <Data name="Reg_Nom">
            <value>Santander 250</value>
          </Data>
          <Data name="Dominio">
            <value>Bucaramanga, Floridablanca</value>
          </Data>
          <Data name="Region">
            <value>250</value>
          </Data>
          <Data name="Zona">
            <value>307</value>
          </Data>
          <Data name="Seccion">
            <value>G</value>
          </Data>
          <Data name="Zsec">
            <value>307G</value>
          </Data>
        </ExtendedData>
        <Polygon>
          <outerBoundaryIs>
            <LinearRing>
              <tessellate>1</tessellate>
              <coordinates>
                -73.099982,7.086223,0
                -73.099934,7.086271,0
                -73.098805,7.086666,0
                -73.098402,7.086737,0
                -73.098407,7.086798,0
                -73.098474,7.088576,0
                -73.099005,7.090092,0
                -73.098805,7.091277,0
                -73.098805,7.092331,0
                -73.099469,7.093715,0
                -73.099403,7.094703,0
                -73.098606,7.097404,0
                -73.097677,7.09938,0
                -73.096681,7.100434,0
                -73.096482,7.101818,0
                -73.096216,7.102674,0
                -73.096748,7.103662,0
                -73.09749,7.105731,0
                -73.097843,7.10554,0
                -73.098507,7.105144,0
                -73.101162,7.10498,0
                -73.101959,7.104881,0
                -73.102921,7.104519,0
                -73.103021,7.104189,0
                -73.102656,7.1033,0
                -73.102789,7.102806,0
                -73.10322,7.102015,0
                -73.103386,7.101093,0
                -73.103552,7.100665,0
                -73.103983,7.100665,0
                -73.104813,7.10106,0
                -73.106686,7.101158,0
                -73.107242,7.100986,0
                -73.107834,7.100105,0
                -73.108232,7.098656,0
                -73.108251,7.098009,0
                -73.108263,7.098011,0
                -73.108294,7.098008,0
                -73.108328,7.09799,0
                -73.108354,7.097961,0
                -73.108418,7.097842,0
                -73.108522,7.097697,0
                -73.108667,7.097225,0
                -73.108697,7.097133,0
                -73.10885,7.096672,0
                -73.108894,7.096694,0
                -73.109068,7.09678,0
                -73.109179,7.09683,0
                -73.109293,7.096886,0
                -73.109345,7.096942,0
                -73.109347,7.097024,0
                -73.109357,7.097592,0
                -73.109648,7.097508,0
                -73.109785,7.098082,0
                -73.109781,7.098303,0
                -73.109872,7.098136,0
                -73.110064,7.097863,0
                -73.110078,7.097837,0
                -73.110276,7.097492,0
                -73.110429,7.097277,0
                -73.110644,7.097218,0
                -73.110661,7.097187,0
                -73.110751,7.097212,0
                -73.11082,7.097226,0
                -73.110876,7.097237,0
                -73.110911,7.097241,0
                -73.110971,7.097251,0
                -73.110955,7.097183,0
                -73.110888,7.096897,0
                -73.11077,7.096372,0
                -73.110636,7.095789,0
                -73.110487,7.095084,0
                -73.110386,7.094662,0
                -73.110257,7.094213,0
                -73.110221,7.094081,0
                -73.110068,7.093578,0
                -73.10986,7.092947,0
                -73.109672,7.092329,0
                -73.10946,7.091711,0
                -73.109257,7.091177,0
                -73.109099,7.0907,0
                -73.108955,7.090327,0
                -73.108811,7.089909,0
                -73.108411,7.088766,0
                -73.108308,7.088462,0
                -73.108282,7.088369,0
                -73.108255,7.088274,0
                -73.108051,7.087595,0
                -73.107988,7.087298,0
                -73.107981,7.087313,0
                -73.107969,7.087174,0
                -73.107981,7.087142,0
                -73.107971,7.08714,0
                -73.107952,7.08689,0
                -73.107939,7.086628,0
                -73.107891,7.085615,0
                -73.107919,7.085057,0
                -73.107948,7.084301,0
                -73.107966,7.083795,0
                -73.107687,7.083699,0
                -73.106991,7.08362,0
                -73.106835,7.083785,0
                -73.106802,7.08386,0
                -73.106896,7.084115,0
                -73.10711,7.084719,0
                -73.1069,7.084789,0
                -73.106742,7.084909,0
                -73.106526,7.084856,0
                -73.106231,7.084965,0
                -73.106214,7.084843,0
                -73.106179,7.084651,0
                -73.106126,7.084543,0
                -73.105917,7.084543,0
                -73.105094,7.084548,0
                -73.105094,7.084648,0
                -73.105099,7.084857,0
                -73.105132,7.085178,0
                -73.105137,7.085251,0
                -73.104855,7.085265,0
                -73.104882,7.085885,0
                -73.105155,7.085873,0
                -73.105158,7.086029,0
                -73.105165,7.086306,0
                -73.105179,7.086634,0
                -73.105197,7.086984,0
                -73.105307,7.087275,0
                -73.105346,7.087458,0
                -73.105162,7.087448,0
                -73.105102,7.087446,0
                -73.105009,7.087442,0
                -73.104798,7.087431,0
                -73.104601,7.08742,0
                -73.104495,7.087388,0
                -73.10444,7.087364,0
                -73.104395,7.087307,0
                -73.104365,7.087238,0
                -73.10435,7.087139,0
                -73.104357,7.08701,0
                -73.104356,7.086928,0
                -73.104327,7.086813,0
                -73.1042,7.086485,0
                -73.103897,7.085283,0
                -73.103866,7.085236,0
                -73.103772,7.085163,0
                -73.103672,7.085148,0
                -73.103521,7.085173,0
                -73.103078,7.085274,0
                -73.102909,7.085326,0
                -73.102781,7.085409,0
                -73.102636,7.085502,0
                -73.102506,7.085542,0
                -73.102331,7.085519,0
                -73.102119,7.085506,0
                -73.102059,7.085552,0
                -73.10199,7.085624,0
                -73.101967,7.085691,0
                -73.101959,7.085709,0
                -73.1019,7.085999,0
                -73.101889,7.086054,0
                -73.10171,7.086172,0
                -73.101577,7.086699,0
                -73.101146,7.086633,0
                -73.100548,7.086304,0
                -73.099982,7.086223,0
              </coordinates>
            </LinearRing>
          </outerBoundaryIs>
          <innerBoundaryIs>
            <LinearRing>
              <tessellate>1</tessellate>
              <coordinates>
                -73.105266,7.090742,0
                -73.105242,7.090697,0
                -73.105307,7.090828,0
                -73.105266,7.090742,0
              </coordinates>
            </LinearRing>
          </innerBoundaryIs>
        </Polygon>
      </Placemark>
      <Placemark>
        <name/>
        <description><![CDATA[Descripción: <br>Reg_Nom: Santander 250<br>Dominio: Bucaramanga, Floridablanca<br>Region: 250<br>Zona: 307<br>Seccion: B<br>Zsec: 307B]]></description>
        <styleUrl>#poly-0288D1-3501-46</styleUrl>
        <ExtendedData>
          <Data name="Descripción">
            <value/>
          </Data>
          <Data name="Reg_Nom">
            <value>Santander 250</value>
          </Data>
          <Data name="Dominio">
            <value>Bucaramanga, Floridablanca</value>
          </Data>
          <Data name="Region">
            <value>250</value>
          </Data>
          <Data name="Zona">
            <value>307</value>
          </Data>
          <Data name="Seccion">
            <value>B</value>
          </Data>
          <Data name="Zsec">
            <value>307B</value>
          </Data>
        </ExtendedData>
        <Polygon>
          <outerBoundaryIs>
            <LinearRing>
              <tessellate>1</tessellate>
              <coordinates>
                -73.1012354,7.0837436,0
                -73.101355,7.083631,0
                -73.101509,7.083533,0
                -73.101591,7.083175,0
                -73.101749,7.082796,0
                -73.101871,7.082404,0
                -73.101994,7.082035,0
                -73.102136,7.081651,0
                -73.102255,7.081249,0
                -73.102407,7.080835,0
                -73.102553,7.080425,0
                -73.102685,7.08001,0
                -73.102837,7.079544,0
                -73.102973,7.079079,0
                -73.102995,7.079015,0
                -73.102938,7.078583,0
                -73.102888,7.078164,0
                -73.102822,7.077762,0
                -73.102777,7.077331,0
                -73.10272,7.076877,0
                -73.102693,7.076518,0
                -73.102681,7.076413,0
                -73.102666,7.076291,0
                -73.10263,7.075984,0
                -73.102587,7.075642,0
                -73.102577,7.075553,0
                -73.102554,7.075343,0
                -73.102522,7.075098,0
                -73.102455,7.074663,0
                -73.102424,7.074433,0
                -73.102112,7.074469,0
                -73.101832,7.074506,0
                -73.101479,7.074545,0
                -73.101429,7.074225,0
                -73.10115,7.07425,0
                -73.100932,7.074271,0
                -73.100886,7.074434,0
                -73.100848,7.074967,0
                -73.100835,7.075261,0
                -73.100826,7.075407,0
                -73.100843,7.075547,0
                -73.100875,7.075837,0
                -73.100921,7.076159,0
                -73.10113,7.076136,0
                -73.101161,7.076601,0
                -73.101142,7.076765,0
                -73.101091,7.076874,0
                -73.100919,7.077048,0
                -73.100736,7.077093,0
                -73.099818,7.077351,0
                -73.099455,7.07746,0
                -73.099324,7.077459,0
                -73.099161,7.077417,0
                -73.099073,7.077329,0
                -73.099026,7.077189,0
                -73.09905,7.077065,0
                -73.099139,7.076965,0
                -73.099429,7.076727,0
                -73.099955,7.076436,0
                -73.100033,7.076337,0
                -73.10008,7.075606,0
                -73.100053,7.075523,0
                -73.099979,7.07541,0
                -73.099862,7.075323,0
                -73.099358,7.075119,0
                -73.099078,7.075018,0
                -73.098887,7.074999,0
                -73.098516,7.07502,0
                -73.098425,7.074995,0
                -73.098295,7.074866,0
                -73.097972,7.0749,0
                -73.097888,7.074949,0
                -73.097722,7.075106,0
                -73.097688,7.075145,0
                -73.097654,7.075294,0
                -73.0976,7.075172,0
                -73.097547,7.075095,0
                -73.097453,7.075028,0
                -73.097385,7.074995,0
                -73.097304,7.074974,0
                -73.097159,7.074971,0
                -73.097035,7.074949,0
                -73.096939,7.074966,0
                -73.096775,7.075021,0
                -73.096705,7.075074,0
                -73.096611,7.075188,0
                -73.096584,7.075289,0
                -73.096603,7.075488,0
                -73.096598,7.075769,0
                -73.096525,7.075942,0
                -73.096511,7.076093,0
                -73.096533,7.076183,0
                -73.096507,7.076315,0
                -73.096506,7.076362,0
                -73.096499,7.076413,0
                -73.096473,7.076445,0
                -73.096411,7.076491,0
                -73.096262,7.076578,0
                -73.09617,7.076642,0
                -73.096149,7.076673,0
                -73.096146,7.076719,0
                -73.096374,7.077029,0
                -73.096451,7.077066,0
                -73.096505,7.077051,0
                -73.096602,7.076976,0
                -73.096739,7.076865,0
                -73.096886,7.0767,0
                -73.096911,7.07673,0
                -73.096991,7.076803,0
                -73.097126,7.076905,0
                -73.097261,7.076961,0
                -73.097306,7.077159,0
                -73.097223,7.077306,0
                -73.097159,7.077544,0
                -73.096579,7.077765,0
                -73.096773,7.078181,0
                -73.096276,7.078379,0
                -73.096071,7.078241,0
                -73.095865,7.078104,0
                -73.095694,7.077981,0
                -73.095292,7.07762,0
                -73.094936,7.077104,0
                -73.094731,7.07681,0
                -73.094551,7.076648,0
                -73.094234,7.076389,0
                -73.094084,7.076282,0
                -73.093931,7.076217,0
                -73.093714,7.076207,0
                -73.093145,7.076142,0
                -73.09315,7.076149,0
                -73.093143,7.076146,0
                -73.093213,7.076389,0
                -73.093677,7.077311,0
                -73.093213,7.080078,0
                -73.09215,7.082186,0
                -73.090889,7.083767,0
                -73.090026,7.085612,0
                -73.089581,7.086432,0
                -73.089644,7.086666,0
                -73.08898,7.086666,0
                -73.087906,7.085778,0
                -73.08664,7.087061,0
                -73.087105,7.089136,0
                -73.087769,7.089729,0
                -73.088101,7.09019,0
                -73.088234,7.091113,0
                -73.088532,7.092068,0
                -73.088931,7.09355,0
                -73.08903,7.093978,0
                -73.089595,7.093188,0
                -73.089827,7.093089,0
                -73.090192,7.093748,0
                -73.090756,7.095164,0
                -73.090258,7.095362,0
                -73.089628,7.096284,0
                -73.088267,7.099117,0
                -73.087669,7.099512,0
                -73.087172,7.09971,0
                -73.087039,7.099973,0
                -73.087304,7.100105,0
                -73.087769,7.100237,0
                -73.088532,7.100467,0
                -73.088831,7.100764,0
                -73.088964,7.101159,0
                -73.088798,7.101422,0
                -73.088698,7.102114,0
                -73.089097,7.102147,0
                -73.089429,7.102015,0
                -73.089893,7.102048,0
                -73.090059,7.101554,0
                -73.090192,7.101192,0
                -73.090657,7.101093,0
                -73.091022,7.101192,0
                -73.091221,7.101554,0
                -73.091188,7.101982,0
                -73.090856,7.102213,0
                -73.09069,7.102443,0
                -73.090989,7.102608,0
                -73.091487,7.102905,0
                -73.092449,7.10386,0
                -73.093478,7.104716,0
                -73.094208,7.105111,0
                -73.094673,7.105013,0
                -73.095105,7.104617,0
                -73.095403,7.104453,0
                -73.095636,7.104584,0
                -73.096167,7.105111,0
                -73.096665,7.105342,0
                -73.09703,7.105507,0
                -73.09744,7.105757,0
                -73.09749,7.105731,0
                -73.096748,7.103662,0
                -73.096216,7.102674,0
                -73.096482,7.101818,0
                -73.096681,7.100434,0
                -73.097677,7.09938,0
                -73.098606,7.097404,0
                -73.099403,7.094703,0
                -73.099469,7.093715,0
                -73.098805,7.092331,0
                -73.098805,7.091277,0
                -73.099005,7.090092,0
                -73.098474,7.088576,0
                -73.098407,7.086798,0
                -73.098402,7.086737,0
                -73.098805,7.086666,0
                -73.099934,7.086271,0
                -73.100399,7.08581,0
                -73.100731,7.084821,0
                -73.101262,7.084031,0
                -73.1012354,7.0837436,0
              </coordinates>
            </LinearRing>
          </outerBoundaryIs>
        </Polygon>
      </Placemark>
    </Folder>
  </Document>
</kml>
