<?xml version="1.0" encoding="UTF-8"?>
<kml xmlns="http://www.opengis.net/kml/2.2">
  <Document>
    <name>Zona 311</name>
    <description/>
    <Style id="poly-0288D1-3501-76-normal">
      <LineStyle>
        <color>ffd18802</color>
        <width>3.501</width>
      </LineStyle>
      <PolyStyle>
        <color>4cd18802</color>
        <fill>1</fill>
        <outline>1</outline>
      </PolyStyle>
    </Style>
    <Style id="poly-0288D1-3501-76-highlight">
      <LineStyle>
        <color>ffd18802</color>
        <width>5.2515</width>
      </LineStyle>
      <PolyStyle>
        <color>4cd18802</color>
        <fill>1</fill>
        <outline>1</outline>
      </PolyStyle>
    </Style>
    <StyleMap id="poly-0288D1-3501-76">
      <Pair>
        <key>normal</key>
        <styleUrl>#poly-0288D1-3501-76-normal</styleUrl>
      </Pair>
      <Pair>
        <key>highlight</key>
        <styleUrl>#poly-0288D1-3501-76-highlight</styleUrl>
      </Pair>
    </StyleMap>
    <Style id="poly-7CB342-3001-56-normal">
      <LineStyle>
        <color>ff42b37c</color>
        <width>3.001</width>
      </LineStyle>
      <PolyStyle>
        <color>3842b37c</color>
        <fill>1</fill>
        <outline>1</outline>
      </PolyStyle>
    </Style>
    <Style id="poly-7CB342-3001-56-highlight">
      <LineStyle>
        <color>ff42b37c</color>
        <width>4.5015</width>
      </LineStyle>
      <PolyStyle>
        <color>3842b37c</color>
        <fill>1</fill>
        <outline>1</outline>
      </PolyStyle>
    </Style>
    <StyleMap id="poly-7CB342-3001-56">
      <Pair>
        <key>normal</key>
        <styleUrl>#poly-7CB342-3001-56-normal</styleUrl>
      </Pair>
      <Pair>
        <key>highlight</key>
        <styleUrl>#poly-7CB342-3001-56-highlight</styleUrl>
      </Pair>
    </StyleMap>
    <Style id="poly-9C27B0-3001-64-normal">
      <LineStyle>
        <color>ffb0279c</color>
        <width>3.001</width>
      </LineStyle>
      <PolyStyle>
        <color>40b0279c</color>
        <fill>1</fill>
        <outline>1</outline>
      </PolyStyle>
    </Style>
    <Style id="poly-9C27B0-3001-64-highlight">
      <LineStyle>
        <color>ffb0279c</color>
        <width>4.5015</width>
      </LineStyle>
      <PolyStyle>
        <color>40b0279c</color>
        <fill>1</fill>
        <outline>1</outline>
      </PolyStyle>
    </Style>
    <StyleMap id="poly-9C27B0-3001-64">
      <Pair>
        <key>normal</key>
        <styleUrl>#poly-9C27B0-3001-64-normal</styleUrl>
      </Pair>
      <Pair>
        <key>highlight</key>
        <styleUrl>#poly-9C27B0-3001-64-highlight</styleUrl>
      </Pair>
    </StyleMap>
    <Style id="poly-FF5252-3201-76-normal">
      <LineStyle>
        <color>ff5252ff</color>
        <width>3.201</width>
      </LineStyle>
      <PolyStyle>
        <color>4c5252ff</color>
        <fill>1</fill>
        <outline>1</outline>
      </PolyStyle>
    </Style>
    <Style id="poly-FF5252-3201-76-highlight">
      <LineStyle>
        <color>ff5252ff</color>
        <width>4.8015</width>
      </LineStyle>
      <PolyStyle>
        <color>4c5252ff</color>
        <fill>1</fill>
        <outline>1</outline>
      </PolyStyle>
    </Style>
    <StyleMap id="poly-FF5252-3201-76">
      <Pair>
        <key>normal</key>
        <styleUrl>#poly-FF5252-3201-76-normal</styleUrl>
      </Pair>
      <Pair>
        <key>highlight</key>
        <styleUrl>#poly-FF5252-3201-76-highlight</styleUrl>
      </Pair>
    </StyleMap>
    <Style id="poly-FFEA00-3401-76-normal">
      <LineStyle>
        <color>ff00eaff</color>
        <width>3.401</width>
      </LineStyle>
      <PolyStyle>
        <color>4c00eaff</color>
        <fill>1</fill>
        <outline>1</outline>
      </PolyStyle>
    </Style>
    <Style id="poly-FFEA00-3401-76-highlight">
      <LineStyle>
        <color>ff00eaff</color>
        <width>5.1015</width>
      </LineStyle>
      <PolyStyle>
        <color>4c00eaff</color>
        <fill>1</fill>
        <outline>1</outline>
      </PolyStyle>
    </Style>
    <StyleMap id="poly-FFEA00-3401-76">
      <Pair>
        <key>normal</key>
        <styleUrl>#poly-FFEA00-3401-76-normal</styleUrl>
      </Pair>
      <Pair>
        <key>highlight</key>
        <styleUrl>#poly-FFEA00-3401-76-highlight</styleUrl>
      </Pair>
    </StyleMap>
    <Folder>
      <name>VD311</name>
      <Placemark>
        <name/>
        <description><![CDATA[Descripción: <br>Reg_Nom: Santander 250<br>Dominio: Barrancabermeja<br>Region: 250<br>Zona: 311<br>Seccion: D<br>Zsec: 311D]]></description>
        <styleUrl>#poly-7CB342-3001-56</styleUrl>
        <ExtendedData>
          <Data name="Descripción">
            <value/>
          </Data>
          <Data name="Reg_Nom">
            <value>Santander 250</value>
          </Data>
          <Data name="Dominio">
            <value>Barrancabermeja</value>
          </Data>
          <Data name="Region">
            <value>250</value>
          </Data>
          <Data name="Zona">
            <value>311</value>
          </Data>
          <Data name="Seccion">
            <value>D</value>
          </Data>
          <Data name="Zsec">
            <value>311D</value>
          </Data>
        </ExtendedData>
        <Polygon>
          <outerBoundaryIs>
            <LinearRing>
              <tessellate>1</tessellate>
              <coordinates>
                -73.8211,7.063515,0
                -73.821766,7.06453,0
                -73.822788,7.064618,0
                -73.823721,7.064133,0
                -73.824521,7.063604,0
                -73.826076,7.063075,0
                -73.827631,7.062773,0
                -73.827646,7.062795,0
                -73.827731,7.062794,0
                -73.827775,7.062794,0
                -73.827988,7.062784,0
                -73.82841,7.062772,0
                -73.828303,7.062635,0
                -73.828197,7.062466,0
                -73.828064,7.062315,0
                -73.828022,7.062268,0
                -73.827957,7.062198,0
                -73.827894,7.062127,0
                -73.827879,7.062088,0
                -73.827906,7.061755,0
                -73.827943,7.061501,0
                -73.827954,7.061388,0
                -73.827989,7.061242,0
                -73.828014,7.061007,0
                -73.827988,7.060886,0
                -73.827896,7.060727,0
                -73.827881,7.060691,0
                -73.827915,7.06023,0
                -73.827909,7.060169,0
                -73.827908,7.060155,0
                -73.827906,7.060132,0
                -73.827909,7.060132,0
                -73.828128,7.059947,0
                -73.828539,7.059498,0
                -73.828658,7.059364,0
                -73.829151,7.058831,0
                -73.829344,7.058624,0
                -73.829596,7.058623,0
                -73.829705,7.058618,0
                -73.829739,7.058732,0
                -73.829833,7.058786,0
                -73.830117,7.058863,0
                -73.830566,7.058945,0
                -73.830951,7.05939,0
                -73.831069,7.059515,0
                -73.831308,7.059746,0
                -73.831718,7.059999,0
                -73.831689,7.059717,0
                -73.831551,7.059463,0
                -73.831268,7.058851,0
                -73.831231,7.058756,0
                -73.831135,7.058411,0
                -73.831085,7.058242,0
                -73.831062,7.058068,0
                -73.831065,7.057886,0
                -73.831075,7.057851,0
                -73.831322,7.057837,0
                -73.831847,7.057832,0
                -73.831847,7.057705,0
                -73.831753,7.057678,0
                -73.831582,7.057672,0
                -73.831372,7.057683,0
                -73.831065,7.057678,0
                -73.831001,7.057555,0
                -73.830835,7.057529,0
                -73.830224,7.057535,0
                -73.830148,7.05775,0
                -73.830098,7.057875,0
                -73.829294,7.057911,0
                -73.829096,7.057953,0
                -73.829042,7.05797,0
                -73.829048,7.058166,0
                -73.829042,7.058271,0
                -73.828951,7.058266,0
                -73.828733,7.058154,0
                -73.828658,7.058103,0
                -73.828512,7.05795,0
                -73.828409,7.058067,0
                -73.8279,7.058285,0
                -73.827745,7.057954,0
                -73.827661,7.057811,0
                -73.827627,7.057803,0
                -73.827565,7.057832,0
                -73.827538,7.057845,0
                -73.827514,7.057836,0
                -73.827489,7.057817,0
                -73.827432,7.057763,0
                -73.827398,7.057747,0
                -73.827288,7.05776,0
                -73.827155,7.057801,0
                -73.827043,7.057814,0
                -73.827007,7.057819,0
                -73.826972,7.057815,0
                -73.826874,7.057787,0
                -73.826826,7.057736,0
                -73.826771,7.057642,0
                -73.826702,7.057587,0
                -73.826611,7.057527,0
                -73.826386,7.057522,0
                -73.826252,7.057497,0
                -73.826169,7.057473,0
                -73.826039,7.057482,0
                -73.825983,7.057479,0
                -73.825901,7.057488,0
                -73.825805,7.057498,0
                -73.82558,7.0575,0
                -73.825513,7.057517,0
                -73.825483,7.057532,0
                -73.825432,7.057568,0
                -73.825385,7.057614,0
                -73.825283,7.057714,0
                -73.825188,7.057806,0
                -73.82514,7.057854,0
                -73.825108,7.057886,0
                -73.824986,7.057867,0
                -73.824936,7.057861,0
                -73.824897,7.057835,0
                -73.824881,7.057668,0
                -73.824883,7.057621,0
                -73.824893,7.057507,0
                -73.824843,7.057228,0
                -73.824847,7.057217,0
                -73.824971,7.056816,0
                -73.825051,7.05673,0
                -73.825156,7.056608,0
                -73.82523,7.056616,0
                -73.825364,7.056658,0
                -73.825392,7.056647,0
                -73.825411,7.056615,0
                -73.825407,7.056584,0
                -73.825384,7.056555,0
                -73.825269,7.056479,0
                -73.825233,7.056434,0
                -73.825291,7.056262,0
                -73.825303,7.056223,0
                -73.825472,7.055793,0
                -73.825328,7.055613,0
                -73.825488,7.055203,0
                -73.825699,7.05522,0
                -73.825751,7.055421,0
                -73.825886,7.055484,0
                -73.825869,7.055681,0
                -73.826181,7.055696,0
                -73.826193,7.055638,0
                -73.826195,7.0556,0
                -73.826229,7.055498,0
                -73.826247,7.055442,0
                -73.826274,7.055322,0
                -73.826274,7.055247,0
                -73.826298,7.055238,0
                -73.826483,7.054607,0
                -73.826468,7.054584,0
                -73.826504,7.054549,0
                -73.826559,7.054268,0
                -73.826686,7.054275,0
                -73.826714,7.054052,0
                -73.826484,7.054018,0
                -73.826475,7.054047,0
                -73.826131,7.053889,0
                -73.825867,7.053787,0
                -73.825889,7.053777,0
                -73.826288,7.053829,0
                -73.826264,7.053355,0
                -73.826071,7.053307,0
                -73.826002,7.0534,0
                -73.825999,7.053238,0
                -73.825818,7.053185,0
                -73.825845,7.053144,0
                -73.826024,7.053148,0
                -73.826008,7.053034,0
                -73.8259,7.052981,0
                -73.826013,7.052721,0
                -73.826185,7.052751,0
                -73.82621,7.05265,0
                -73.825959,7.052556,0
                -73.825905,7.052576,0
                -73.825889,7.052534,0
                -73.825435,7.05234,0
                -73.825435,7.052338,0
                -73.825975,7.05133,0
                -73.826104,7.051388,0
                -73.826155,7.051344,0
                -73.827,7.052403,0
                -73.826995,7.052406,0
                -73.826956,7.052439,0
                -73.82692,7.052569,0
                -73.826993,7.05277,0
                -73.827158,7.052909,0
                -73.827521,7.053464,0
                -73.827386,7.053579,0
                -73.827371,7.053619,0
                -73.827411,7.053698,0
                -73.827321,7.053856,0
                -73.827429,7.054021,0
                -73.827521,7.054236,0
                -73.827692,7.054674,0
                -73.827869,7.054949,0
                -73.827943,7.055042,0
                -73.828038,7.05495,0
                -73.827802,7.054267,0
                -73.828374,7.053868,0
                -73.828454,7.053972,0
                -73.828473,7.054017,0
                -73.828509,7.054043,0
                -73.828562,7.054053,0
                -73.828575,7.054052,0
                -73.828627,7.054018,0
                -73.82869,7.053982,0
                -73.828747,7.053987,0
                -73.82879,7.053999,0
                -73.828915,7.053919,0
                -73.828834,7.053785,0
                -73.828745,7.05385,0
                -73.828591,7.053662,0
                -73.828761,7.053505,0
                -73.828213,7.052744,0
                -73.828174,7.052691,0
                -73.82831,7.052587,0
                -73.828634,7.052334,0
                -73.828715,7.052338,0
                -73.828859,7.052227,0
                -73.828262,7.051393,0
                -73.828464,7.051191,0
                -73.828589,7.051096,0
                -73.828687,7.051187,0
                -73.828739,7.051239,0
                -73.828883,7.05122,0
                -73.828919,7.051256,0
                -73.828969,7.051442,0
                -73.830428,7.051145,0
                -73.830408,7.050958,0
                -73.830316,7.050967,0
                -73.830297,7.050791,0
                -73.83025,7.050746,0
                -73.830204,7.050643,0
                -73.830034,7.05067,0
                -73.82983,7.050755,0
                -73.829658,7.050856,0
                -73.829504,7.050915,0
                -73.829291,7.050913,0
                -73.828966,7.050577,0
                -73.829054,7.050515,0
                -73.829074,7.050499,0
                -73.829337,7.0503,0
                -73.829364,7.050279,0
                -73.829604,7.050064,0
                -73.829628,7.050039,0
                -73.829678,7.050012,0
                -73.829983,7.049741,0
                -73.829245,7.048514,0
                -73.829116,7.048371,0
                -73.828875,7.048387,0
                -73.828522,7.048578,0
                -73.828312,7.048731,0
                -73.828284,7.0487,0
                -73.828186,7.048759,0
                -73.827437,7.047907,0
                -73.827486,7.047463,0
                -73.82765,7.047489,0
                -73.827633,7.047599,0
                -73.82794,7.047669,0
                -73.827979,7.047797,0
                -73.828059,7.047804,0
                -73.828081,7.047696,0
                -73.828263,7.047696,0
                -73.828263,7.047684,0
                -73.829148,7.047813,0
                -73.829245,7.047494,0
                -73.828939,7.047399,0
                -73.828731,7.046841,0
                -73.826817,7.046481,0
                -73.827002,7.045577,0
                -73.826465,7.045566,0
                -73.826116,7.045556,0
                -73.826097,7.045166,0
                -73.826405,7.045076,0
                -73.826513,7.045122,0
                -73.827264,7.045281,0
                -73.82778,7.045435,0
                -73.827974,7.045427,0
                -73.828116,7.045337,0
                -73.828218,7.045198,0
                -73.828311,7.044978,0
                -73.828832,7.045177,0
                -73.829214,7.045345,0
                -73.829899,7.045614,0
                -73.830382,7.046114,0
                -73.830486,7.04604,0
                -73.830201,7.045766,0
                -73.830497,7.04577,0
                -73.830513,7.045844,0
                -73.830631,7.045862,0
                -73.83077,7.045827,0
                -73.830794,7.04579,0
                -73.830855,7.045791,0
                -73.830892,7.045897,0
                -73.831005,7.045904,0
                -73.831055,7.045785,0
                -73.831129,7.045796,0
                -73.831136,7.04571,0
                -73.831557,7.04571,0
                -73.831573,7.043702,0
                -73.830754,7.043638,0
                -73.830678,7.044448,0
                -73.830313,7.044605,0
                -73.829889,7.044286,0
                -73.829737,7.043971,0
                -73.829806,7.043543,0
                -73.829219,7.043305,0
                -73.829149,7.043276,0
                -73.829351,7.042771,0
                -73.8295,7.0424,0
                -73.829464,7.042347,0
                -73.829378,7.042279,0
                -73.82926,7.042244,0
                -73.829191,7.042226,0
                -73.829114,7.042191,0
                -73.829047,7.042092,0
                -73.829018,7.041995,0
                -73.828955,7.041934,0
                -73.828901,7.041866,0
                -73.82885,7.041801,0
                -73.828828,7.041739,0
                -73.828802,7.041658,0
                -73.8288,7.041571,0
                -73.828784,7.041507,0
                -73.8288,7.04143,0
                -73.828754,7.041378,0
                -73.828665,7.041378,0
                -73.8286,7.041393,0
                -73.828578,7.041484,0
                -73.828465,7.041505,0
                -73.82847,7.041563,0
                -73.828378,7.041588,0
                -73.82837,7.041691,0
                -73.828307,7.041742,0
                -73.828298,7.041802,0
                -73.828367,7.04184,0
                -73.828424,7.041862,0
                -73.828492,7.041917,0
                -73.828551,7.042001,0
                -73.828793,7.042006,0
                -73.828833,7.042082,0
                -73.828627,7.042257,0
                -73.828208,7.042342,0
                -73.828037,7.042363,0
                -73.827905,7.042365,0
                -73.827863,7.042365,0
                -73.827774,7.042177,0
                -73.827765,7.042158,0
                -73.827749,7.042079,0
                -73.827683,7.041981,0
                -73.827623,7.041953,0
                -73.827525,7.041923,0
                -73.827415,7.041898,0
                -73.827346,7.041878,0
                -73.827292,7.041877,0
                -73.827172,7.041834,0
                -73.827081,7.041726,0
                -73.827063,7.041658,0
                -73.827093,7.041585,0
                -73.827143,7.041465,0
                -73.827095,7.041408,0
                -73.827086,7.041397,0
                -73.827098,7.041236,0
                -73.82692,7.041066,0
                -73.826803,7.041123,0
                -73.826584,7.040504,0
                -73.826585,7.040502,0
                -73.826614,7.040423,0
                -73.826621,7.040318,0
                -73.826585,7.040169,0
                -73.826481,7.040083,0
                -73.826348,7.040084,0
                -73.826191,7.040085,0
                -73.826135,7.040199,0
                -73.826118,7.04031,0
                -73.826073,7.040314,0
                -73.826035,7.040303,0
                -73.825931,7.040316,0
                -73.826123,7.04121,0
                -73.826129,7.041344,0
                -73.826153,7.041498,0
                -73.82618,7.041658,0
                -73.826198,7.041759,0
                -73.82632,7.041924,0
                -73.826441,7.042018,0
                -73.826549,7.042099,0
                -73.826657,7.042167,0
                -73.826695,7.042462,0
                -73.8267,7.042514,0
                -73.826704,7.042558,0
                -73.826286,7.042583,0
                -73.826155,7.042591,0
                -73.826111,7.042674,0
                -73.8261,7.0428,0
                -73.826105,7.042898,0
                -73.826109,7.042956,0
                -73.826276,7.042939,0
                -73.826523,7.04291,0
                -73.826531,7.042912,0
                -73.826162,7.043591,0
                -73.825873,7.044419,0
                -73.825736,7.045259,0
                -73.825729,7.045273,0
                -73.825731,7.045291,0
                -73.825728,7.045311,0
                -73.825734,7.04531,0
                -73.825775,7.045598,0
                -73.82576,7.045598,0
                -73.825858,7.046252,0
                -73.825825,7.046269,0
                -73.825603,7.046416,0
                -73.825589,7.04653,0
                -73.825416,7.046611,0
                -73.8254,7.046726,0
                -73.825208,7.046719,0
                -73.825074,7.046713,0
                -73.825017,7.046728,0
                -73.824798,7.047524,0
                -73.824944,7.047599,0
                -73.825029,7.047439,0
                -73.825101,7.047413,0
                -73.825165,7.047323,0
                -73.825176,7.047282,0
                -73.825208,7.047048,0
                -73.825264,7.04698,0
                -73.82551,7.046959,0
                -73.825694,7.046925,0
                -73.825879,7.047656,0
                -73.826069,7.047664,0
                -73.826294,7.047633,0
                -73.826295,7.047633,0
                -73.826356,7.047759,0
                -73.82631,7.047753,0
                -73.826411,7.048369,0
                -73.826483,7.048565,0
                -73.82647,7.048716,0
                -73.826468,7.048779,0
                -73.826479,7.04896,0
                -73.826407,7.049349,0
                -73.826393,7.049389,0
                -73.826322,7.049587,0
                -73.826232,7.049903,0
                -73.826164,7.050056,0
                -73.826071,7.050299,0
                -73.826049,7.050399,0
                -73.825923,7.050835,0
                -73.825946,7.05086,0
                -73.825255,7.052263,0
                -73.825255,7.052264,0
                -73.825218,7.052248,0
                -73.824936,7.052714,0
                -73.824887,7.052813,0
                -73.824578,7.053407,0
                -73.82439,7.053703,0
                -73.824271,7.053963,0
                -73.824128,7.054346,0
                -73.824073,7.054587,0
                -73.824001,7.055024,0
                -73.823993,7.055122,0
                -73.82398,7.055245,0
                -73.823888,7.055867,0
                -73.823771,7.056463,0
                -73.823771,7.056488,0
                -73.823774,7.056685,0
                -73.823843,7.056954,0
                -73.823886,7.057133,0
                -73.823881,7.057151,0
                -73.82381,7.057428,0
                -73.823321,7.058004,0
                -73.82261,7.059723,0
                -73.822255,7.060693,0
                -73.822122,7.061223,0
                -73.821233,7.062149,0
                -73.820878,7.062501,0
                -73.8211,7.063515,0
              </coordinates>
            </LinearRing>
          </outerBoundaryIs>
        </Polygon>
      </Placemark>
      <Placemark>
        <name/>
        <description><![CDATA[Descripción: <br>Reg_Nom: Santander 250<br>Dominio: Barrancabermeja<br>Region: 250<br>Zona: 311<br>Seccion: C<br>Zsec: 311C]]></description>
        <styleUrl>#poly-FF5252-3201-76</styleUrl>
        <ExtendedData>
          <Data name="Descripción">
            <value/>
          </Data>
          <Data name="Reg_Nom">
            <value>Santander 250</value>
          </Data>
          <Data name="Dominio">
            <value>Barrancabermeja</value>
          </Data>
          <Data name="Region">
            <value>250</value>
          </Data>
          <Data name="Zona">
            <value>311</value>
          </Data>
          <Data name="Seccion">
            <value>C</value>
          </Data>
          <Data name="Zsec">
            <value>311C</value>
          </Data>
        </ExtendedData>
        <Polygon>
          <outerBoundaryIs>
            <LinearRing>
              <tessellate>1</tessellate>
              <coordinates>
                -73.846163,7.062306,0
                -73.846101,7.061753,0
                -73.846081,7.061164,0
                -73.846233,7.060037,0
                -73.846199,7.060037,0
                -73.846162,7.059956,0
                -73.846105,7.059914,0
                -73.84603,7.059884,0
                -73.846019,7.05988,0
                -73.845884,7.059915,0
                -73.845831,7.059934,0
                -73.845632,7.060005,0
                -73.845013,7.060188,0
                -73.844927,7.060203,0
                -73.844778,7.060135,0
                -73.844657,7.060131,0
                -73.844548,7.060104,0
                -73.844471,7.060085,0
                -73.84444,7.06008,0
                -73.844438,7.06007,0
                -73.844393,7.059974,0
                -73.844326,7.059877,0
                -73.844434,7.059417,0
                -73.844527,7.059065,0
                -73.84453,7.059024,0
                -73.844627,7.059072,0
                -73.844798,7.058412,0
                -73.844835,7.058326,0
                -73.844898,7.057719,0
                -73.844742,7.0571,0
                -73.844349,7.05619,0
                -73.844335,7.056191,0
                -73.844291,7.056288,0
                -73.844203,7.056402,0
                -73.844071,7.056481,0
                -73.843849,7.056647,0
                -73.843631,7.056798,0
                -73.843095,7.056939,0
                -73.843068,7.057053,0
                -73.843095,7.057282,0
                -73.843132,7.057434,0
                -73.843139,7.057642,0
                -73.842963,7.057933,0
                -73.842956,7.057942,0
                -73.84295,7.057908,0
                -73.842871,7.057844,0
                -73.842764,7.057797,0
                -73.842683,7.057761,0
                -73.842513,7.057671,0
                -73.842429,7.057627,0
                -73.842172,7.057517,0
                -73.842029,7.057483,0
                -73.841933,7.057476,0
                -73.841893,7.057588,0
                -73.841883,7.057845,0
                -73.841868,7.05849,0
                -73.841864,7.058627,0
                -73.841656,7.058844,0
                -73.841552,7.058998,0
                -73.841423,7.059225,0
                -73.841314,7.059413,0
                -73.841146,7.059581,0
                -73.840997,7.059691,0
                -73.84093,7.059752,0
                -73.840666,7.059933,0
                -73.840567,7.060046,0
                -73.840399,7.060145,0
                -73.840194,7.06025,0
                -73.840052,7.060325,0
                -73.840001,7.060352,0
                -73.839984,7.06032,0
                -73.839911,7.060184,0
                -73.839777,7.059839,0
                -73.839778,7.059749,0
                -73.839826,7.059545,0
                -73.839914,7.059458,0
                -73.840019,7.059261,0
                -73.840031,7.058707,0
                -73.839924,7.058692,0
                -73.839707,7.058638,0
                -73.839709,7.058644,0
                -73.839135,7.058675,0
                -73.839135,7.058688,0
                -73.838369,7.058743,0
                -73.838268,7.058557,0
                -73.837891,7.058794,0
                -73.837747,7.058788,0
                -73.837383,7.059125,0
                -73.837201,7.058975,0
                -73.837094,7.059212,0
                -73.837426,7.059456,0
                -73.837205,7.059766,0
                -73.837207,7.059825,0
                -73.837208,7.059839,0
                -73.837046,7.060215,0
                -73.836991,7.060339,0
                -73.836955,7.060356,0
                -73.836898,7.060408,0
                -73.836839,7.060497,0
                -73.836819,7.060551,0
                -73.836787,7.060624,0
                -73.836765,7.060756,0
                -73.83675,7.060847,0
                -73.836752,7.060906,0
                -73.836786,7.061111,0
                -73.836796,7.061183,0
                -73.836806,7.061272,0
                -73.836806,7.061386,0
                -73.83682,7.061417,0
                -73.836837,7.061629,0
                -73.836855,7.061656,0
                -73.836806,7.061711,0
                -73.836803,7.061713,0
                -73.836623,7.061813,0
                -73.836359,7.061961,0
                -73.836257,7.06202,0
                -73.836101,7.062111,0
                -73.836053,7.06214,0
                -73.835926,7.062217,0
                -73.835825,7.062279,0
                -73.835643,7.062332,0
                -73.83553,7.062342,0
                -73.835439,7.062331,0
                -73.835347,7.062298,0
                -73.83519,7.062241,0
                -73.834979,7.062105,0
                -73.834826,7.061953,0
                -73.834704,7.061797,0
                -73.834676,7.061761,0
                -73.834569,7.06163,0
                -73.834536,7.061589,0
                -73.834407,7.061446,0
                -73.834405,7.061447,0
                -73.834406,7.061442,0
                -73.834175,7.061198,0
                -73.833988,7.061036,0
                -73.833951,7.061012,0
                -73.833786,7.060947,0
                -73.833564,7.060926,0
                -73.833255,7.060968,0
                -73.833036,7.061025,0
                -73.832727,7.061125,0
                -73.831896,7.061371,0
                -73.831481,7.061498,0
                -73.831356,7.061549,0
                -73.83135,7.061552,0
                -73.831158,7.061649,0
                -73.831055,7.06172,0
                -73.830969,7.0618,0
                -73.830633,7.062121,0
                -73.830389,7.062371,0
                -73.830333,7.062429,0
                -73.830161,7.06259,0
                -73.830053,7.062663,0
                -73.829728,7.062791,0
                -73.829671,7.062794,0
                -73.829595,7.062798,0
                -73.829264,7.062794,0
                -73.828974,7.06279,0
                -73.828822,7.062788,0
                -73.828696,7.062783,0
                -73.82841,7.062772,0
                -73.828739,7.063181,0
                -73.828829,7.063283,0
                -73.82893,7.063431,0
                -73.828957,7.063509,0
                -73.828938,7.063577,0
                -73.828841,7.063655,0
                -73.828733,7.063702,0
                -73.828634,7.063767,0
                -73.828724,7.064363,0
                -73.829061,7.064941,0
                -73.829509,7.065854,0
                -73.829509,7.066121,0
                -73.829285,7.066677,0
                -73.828769,7.066944,0
                -73.834263,7.07135,0
                -73.834328,7.071451,0
                -73.834329,7.071449,0
                -73.834343,7.071451,0
                -73.834393,7.071459,0
                -73.834397,7.071417,0
                -73.834622,7.069948,0
                -73.834935,7.067767,0
                -73.835474,7.066254,0
                -73.837357,7.064607,0
                -73.838837,7.062872,0
                -73.840003,7.06256,0
                -73.841617,7.062471,0
                -73.844173,7.063539,0
                -73.845519,7.062338,0
                -73.846163,7.062306,0
              </coordinates>
            </LinearRing>
          </outerBoundaryIs>
        </Polygon>
      </Placemark>
      <Placemark>
        <name/>
        <description><![CDATA[Descripción: <br>Reg_Nom: Santander 250<br>Dominio: Barrancabermeja<br>Region: 250<br>Zona: 311<br>Seccion: B<br>Zsec: 311B]]></description>
        <styleUrl>#poly-0288D1-3501-76</styleUrl>
        <ExtendedData>
          <Data name="Descripción">
            <value/>
          </Data>
          <Data name="Reg_Nom">
            <value>Santander 250</value>
          </Data>
          <Data name="Dominio">
            <value>Barrancabermeja</value>
          </Data>
          <Data name="Region">
            <value>250</value>
          </Data>
          <Data name="Zona">
            <value>311</value>
          </Data>
          <Data name="Seccion">
            <value>B</value>
          </Data>
          <Data name="Zsec">
            <value>311B</value>
          </Data>
        </ExtendedData>
        <Polygon>
          <outerBoundaryIs>
            <LinearRing>
              <tessellate>1</tessellate>
              <coordinates>
                -73.828634,7.063767,0
                -73.828628,7.063771,0
                -73.828605,7.063826,0
                -73.828607,7.063839,0
                -73.828468,7.063871,0
                -73.828388,7.063936,0
                -73.828285,7.064019,0
                -73.828165,7.064026,0
                -73.828104,7.064036,0
                -73.827848,7.064036,0
                -73.827712,7.064104,0
                -73.827649,7.064314,0
                -73.827609,7.06457,0
                -73.827591,7.064678,0
                -73.82758,7.06475,0
                -73.827591,7.064751,0
                -73.827539,7.06539,0
                -73.827512,7.066058,0
                -73.827486,7.066656,0
                -73.827327,7.067263,0
                -73.827018,7.068006,0
                -73.827003,7.068041,0
                -73.826765,7.068574,0
                -73.826756,7.068582,0
                -73.826767,7.068591,0
                -73.826701,7.068836,0
                -73.826589,7.069198,0
                -73.826547,7.069274,0
                -73.826477,7.069355,0
                -73.826406,7.069393,0
                -73.826428,7.069456,0
                -73.826441,7.069507,0
                -73.826441,7.069565,0
                -73.826354,7.069758,0
                -73.8263,7.069933,0
                -73.826226,7.070125,0
                -73.826063,7.07041,0
                -73.826116,7.070471,0
                -73.826172,7.070518,0
                -73.826151,7.070538,0
                -73.825216,7.071435,0
                -73.825028,7.071338,0
                -73.824915,7.07123,0
                -73.824795,7.071129,0
                -73.824652,7.070993,0
                -73.824652,7.070922,0
                -73.823723,7.070158,0
                -73.823219,7.070811,0
                -73.82273,7.071442,0
                -73.822158,7.072178,0
                -73.821924,7.072479,0
                -73.82211,7.072614,0
                -73.822536,7.072932,0
                -73.822633,7.073006,0
                -73.823054,7.073341,0
                -73.823249,7.073474,0
                -73.823475,7.073567,0
                -73.82388,7.073671,0
                -73.824132,7.073731,0
                -73.824166,7.073739,0
                -73.824165,7.073743,0
                -73.823971,7.074221,0
                -73.823685,7.074778,0
                -73.823533,7.075083,0
                -73.823486,7.075235,0
                -73.823768,7.07538,0
                -73.824152,7.075551,0
                -73.824408,7.075642,0
                -73.824597,7.075431,0
                -73.824884,7.075131,0
                -73.8252,7.075286,0
                -73.825199,7.07529,0
                -73.825187,7.075444,0
                -73.825101,7.075596,0
                -73.825011,7.075662,0
                -73.824949,7.075793,0
                -73.824976,7.076216,0
                -73.824955,7.076575,0
                -73.824929,7.076796,0
                -73.824817,7.077034,0
                -73.824555,7.077348,0
                -73.824362,7.077575,0
                -73.824345,7.077581,0
                -73.824417,7.07766,0
                -73.824584,7.077909,0
                -73.824658,7.077961,0
                -73.824771,7.078041,0
                -73.824902,7.078112,0
                -73.825101,7.078186,0
                -73.825136,7.078192,0
                -73.825167,7.078197,0
                -73.825216,7.078124,0
                -73.825277,7.078043,0
                -73.825393,7.077915,0
                -73.825458,7.077858,0
                -73.825731,7.077621,0
                -73.825875,7.077446,0
                -73.825966,7.077301,0
                -73.825983,7.077206,0
                -73.825984,7.0772,0
                -73.826336,7.077371,0
                -73.826681,7.077421,0
                -73.826919,7.077546,0
                -73.826922,7.077547,0
                -73.827213,7.077629,0
                -73.827222,7.077653,0
                -73.827346,7.07732,0
                -73.827703,7.077515,0
                -73.82794,7.077091,0
                -73.827955,7.077095,0
                -73.8286,7.077359,0
                -73.828657,7.077017,0
                -73.828698,7.077021,0
                -73.828759,7.077022,0
                -73.828826,7.076997,0
                -73.828839,7.07699,0
                -73.828875,7.076961,0
                -73.828914,7.076923,0
                -73.828917,7.076921,0
                -73.829071,7.076792,0
                -73.829165,7.076723,0
                -73.829209,7.076681,0
                -73.829235,7.076615,0
                -73.82926,7.076444,0
                -73.82927,7.076379,0
                -73.82929,7.076384,0
                -73.82938,7.076384,0
                -73.829505,7.076368,0
                -73.829639,7.076343,0
                -73.829746,7.076318,0
                -73.829954,7.076268,0
                -73.83005,7.076234,0
                -73.830103,7.076217,0
                -73.830149,7.076214,0
                -73.830184,7.076222,0
                -73.830218,7.076246,0
                -73.83028,7.076339,0
                -73.830316,7.076394,0
                -73.830371,7.076461,0
                -73.830455,7.07654,0
                -73.830533,7.076616,0
                -73.830556,7.076632,0
                -73.831107,7.076044,0
                -73.83069,7.075685,0
                -73.831562,7.074685,0
                -73.831782,7.074421,0
                -73.831784,7.074418,0
                -73.832007,7.074154,0
                -73.833049,7.072983,0
                -73.833554,7.072417,0
                -73.833873,7.072072,0
                -73.834067,7.071845,0
                -73.834322,7.071464,0
                -73.834328,7.071451,0
                -73.834263,7.07135,0
                -73.828769,7.066944,0
                -73.829285,7.066677,0
                -73.829509,7.066121,0
                -73.829509,7.065854,0
                -73.829061,7.064941,0
                -73.828724,7.064363,0
                -73.828634,7.063767,0
              </coordinates>
            </LinearRing>
          </outerBoundaryIs>
        </Polygon>
      </Placemark>
      <Placemark>
        <name/>
        <description><![CDATA[Descripción: <br>Reg_Nom: Santander 250<br>Dominio: Barrancabermeja<br>Region: 250<br>Zona: 311<br>Seccion: A<br>Zsec: 311A]]></description>
        <styleUrl>#poly-FFEA00-3401-76</styleUrl>
        <ExtendedData>
          <Data name="Descripción">
            <value/>
          </Data>
          <Data name="Reg_Nom">
            <value>Santander 250</value>
          </Data>
          <Data name="Dominio">
            <value>Barrancabermeja</value>
          </Data>
          <Data name="Region">
            <value>250</value>
          </Data>
          <Data name="Zona">
            <value>311</value>
          </Data>
          <Data name="Seccion">
            <value>A</value>
          </Data>
          <Data name="Zsec">
            <value>311A</value>
          </Data>
        </ExtendedData>
        <Polygon>
          <outerBoundaryIs>
            <LinearRing>
              <tessellate>1</tessellate>
              <coordinates>
                -73.834393,7.071459,0
                -73.837756,7.071981,0
                -73.838733,7.072555,0
                -73.8394,7.072819,0
                -73.841044,7.07229,0
                -73.842696,7.072004,0
                -73.843709,7.071828,0
                -73.843799,7.072057,0
                -73.844115,7.07143,0
                -73.844493,7.070791,0
                -73.844693,7.070548,0
                -73.845426,7.069865,0
                -73.846514,7.068983,0
                -73.846648,7.068939,0
                -73.847711,7.069352,0
                -73.847707,7.06878,0
                -73.847676,7.068202,0
                -73.847671,7.068046,0
                -73.84768,7.068027,0
                -73.847675,7.068025,0
                -73.847634,7.067525,0
                -73.847573,7.066189,0
                -73.847547,7.064968,0
                -73.847479,7.06232,0
                -73.84717,7.062382,0
                -73.847169,7.062348,0
                -73.847065,7.062334,0
                -73.846551,7.062396,0
                -73.846178,7.062438,0
                -73.846163,7.062306,0
                -73.845519,7.062338,0
                -73.844173,7.063539,0
                -73.841617,7.062471,0
                -73.840003,7.06256,0
                -73.838837,7.062872,0
                -73.837357,7.064607,0
                -73.835474,7.066254,0
                -73.834935,7.067767,0
                -73.834622,7.069948,0
                -73.834397,7.071417,0
                -73.834393,7.071459,0
              </coordinates>
            </LinearRing>
          </outerBoundaryIs>
        </Polygon>
      </Placemark>
      <Placemark>
        <name/>
        <description><![CDATA[Descripción: <br>Reg_Nom: Santander 250<br>Dominio: Barrancabermeja<br>Region: 250<br>Zona: 311<br>Seccion: E<br>Zsec: 311E]]></description>
        <styleUrl>#poly-9C27B0-3001-64</styleUrl>
        <ExtendedData>
          <Data name="Descripción">
            <value/>
          </Data>
          <Data name="Reg_Nom">
            <value>Santander 250</value>
          </Data>
          <Data name="Dominio">
            <value>Barrancabermeja</value>
          </Data>
          <Data name="Region">
            <value>250</value>
          </Data>
          <Data name="Zona">
            <value>311</value>
          </Data>
          <Data name="Seccion">
            <value>E</value>
          </Data>
          <Data name="Zsec">
            <value>311E</value>
          </Data>
        </ExtendedData>
        <Polygon>
          <outerBoundaryIs>
            <LinearRing>
              <tessellate>1</tessellate>
              <coordinates>
                -73.837593,7.043706,0
                -73.838298,7.044253,0
                -73.839636,7.045127,0
                -73.84117,7.046228,0
                -73.841334,7.045942,0
                -73.841401,7.045825,0
                -73.841501,7.045653,0
                -73.841807,7.045157,0
                -73.843021,7.045692,0
                -73.843258,7.046455,0
                -73.845444,7.047005,0
                -73.845587,7.047038,0
                -73.845675,7.047058,0
                -73.847636,7.04751,0
                -73.847844,7.047558,0
                -73.84887,7.047795,0
                -73.848985,7.047893,0
                -73.849027,7.0479,0
                -73.849324,7.047949,0
                -73.849503,7.047006,0
                -73.849513,7.046956,0
                -73.849695,7.046989,0
                -73.849706,7.046872,0
                -73.849801,7.046875,0
                -73.849904,7.046784,0
                -73.85073,7.046715,0
                -73.851929,7.046804,0
                -73.852773,7.04676,0
                -73.852996,7.04601,0
                -73.85224,7.045437,0
                -73.851614,7.044888,0
                -73.851901,7.041932,0
                -73.851946,7.04194,0
                -73.852009,7.04177,0
                -73.852037,7.041688,0
                -73.85213,7.041716,0
                -73.852111,7.041807,0
                -73.852323,7.041891,0
                -73.852378,7.041731,0
                -73.852501,7.041741,0
                -73.852649,7.041754,0
                -73.852727,7.041558,0
                -73.852783,7.041215,0
                -73.852849,7.040917,0
                -73.85284,7.040894,0
                -73.852249,7.040771,0
                -73.852207,7.041001,0
                -73.852152,7.041018,0
                -73.852061,7.041011,0
                -73.851976,7.040976,0
                -73.851908,7.040916,0
                -73.851817,7.04081,0
                -73.851765,7.040769,0
                -73.851711,7.040726,0
                -73.851714,7.040648,0
                -73.851714,7.040613,0
                -73.851741,7.040479,0
                -73.851485,7.040422,0
                -73.851361,7.040395,0
                -73.851448,7.039837,0
                -73.851455,7.039746,0
                -73.851403,7.03972,0
                -73.851422,7.039532,0
                -73.851209,7.039458,0
                -73.851186,7.039433,0
                -73.851209,7.039383,0
                -73.851223,7.039318,0
                -73.851227,7.039269,0
                -73.851239,7.039192,0
                -73.851241,7.039148,0
                -73.851232,7.039054,0
                -73.851216,7.039001,0
                -73.851096,7.038972,0
                -73.851166,7.038818,0
                -73.85122,7.038734,0
                -73.851278,7.038645,0
                -73.851305,7.0386,0
                -73.851328,7.038562,0
                -73.851511,7.038355,0
                -73.851827,7.038245,0
                -73.851973,7.038201,0
                -73.852239,7.038093,0
                -73.85236,7.038101,0
                -73.852406,7.038119,0
                -73.852465,7.038157,0
                -73.852537,7.038255,0
                -73.852658,7.038437,0
                -73.852699,7.038536,0
                -73.852736,7.038657,0
                -73.852773,7.038788,0
                -73.852782,7.038859,0
                -73.852735,7.0391,0
                -73.852736,7.03915,0
                -73.85284,7.039178,0
                -73.852923,7.039188,0
                -73.85298,7.039169,0
                -73.853019,7.039126,0
                -73.853086,7.038966,0
                -73.85303,7.03885,0
                -73.852961,7.038749,0
                -73.852916,7.038666,0
                -73.852825,7.038527,0
                -73.852636,7.038189,0
                -73.852566,7.038092,0
                -73.85251,7.038071,0
                -73.852416,7.038042,0
                -73.852281,7.038034,0
                -73.852152,7.038045,0
                -73.852128,7.038076,0
                -73.852189,7.037802,0
                -73.852281,7.037325,0
                -73.85175,7.037171,0
                -73.851684,7.037324,0
                -73.851182,7.037178,0
                -73.851126,7.03717,0
                -73.851241,7.036986,0
                -73.850849,7.03677,0
                -73.850797,7.036746,0
                -73.850397,7.036519,0
                -73.8503,7.036716,0
                -73.850276,7.036728,0
                -73.850138,7.036674,0
                -73.850017,7.037087,0
                -73.849729,7.037113,0
                -73.849749,7.037249,0
                -73.849572,7.037268,0
                -73.849597,7.037607,0
                -73.849641,7.037876,0
                -73.849639,7.037929,0
                -73.849648,7.037971,0
                -73.849308,7.038249,0
                -73.848553,7.038514,0
                -73.848775,7.039704,0
                -73.848464,7.040586,0
                -73.848819,7.041821,0
                -73.848819,7.042262,0
                -73.848686,7.043144,0
                -73.848674,7.043219,0
                -73.848464,7.043003,0
                -73.848331,7.042885,0
                -73.848267,7.042786,0
                -73.848234,7.042696,0
                -73.848206,7.042639,0
                -73.848136,7.042553,0
                -73.848077,7.042498,0
                -73.847934,7.042439,0
                -73.847826,7.042421,0
                -73.847736,7.042394,0
                -73.847745,7.042447,0
                -73.84774,7.042485,0
                -73.84773,7.042514,0
                -73.847709,7.042545,0
                -73.847675,7.042581,0
                -73.847595,7.042656,0
                -73.847565,7.042707,0
                -73.847537,7.042759,0
                -73.847533,7.042773,0
                -73.847509,7.042822,0
                -73.847485,7.042858,0
                -73.847461,7.042887,0
                -73.847451,7.042926,0
                -73.847465,7.043009,0
                -73.847493,7.043097,0
                -73.847501,7.043119,0
                -73.847508,7.043146,0
                -73.847505,7.043168,0
                -73.847498,7.043187,0
                -73.847485,7.043206,0
                -73.847466,7.043226,0
                -73.847416,7.043278,0
                -73.847365,7.043328,0
                -73.84731,7.043401,0
                -73.847282,7.043446,0
                -73.847269,7.043477,0
                -73.847148,7.043389,0
                -73.847009,7.043307,0
                -73.846992,7.043283,0
                -73.847,7.043264,0
                -73.847187,7.043042,0
                -73.847262,7.04292,0
                -73.84732,7.042825,0
                -73.84733,7.042794,0
                -73.847301,7.042739,0
                -73.84733,7.042676,0
                -73.847321,7.04263,0
                -73.847284,7.042677,0
                -73.847286,7.042625,0
                -73.847203,7.04256,0
                -73.847052,7.042713,0
                -73.846927,7.042843,0
                -73.84667,7.043041,0
                -73.846631,7.0431,0
                -73.846386,7.042948,0
                -73.845809,7.0421,0
                -73.845709,7.042158,0
                -73.845696,7.042136,0
                -73.845425,7.041684,0
                -73.845472,7.041577,0
                -73.84548,7.04131,0
                -73.845522,7.04128,0
                -73.846033,7.041135,0
                -73.846111,7.041098,0
                -73.846415,7.040906,0
                -73.846682,7.040689,0
                -73.846795,7.040584,0
                -73.846874,7.040434,0
                -73.846974,7.04014,0
                -73.846985,7.040104,0
                -73.846976,7.040002,0
                -73.846944,7.039872,0
                -73.846807,7.039642,0
                -73.846693,7.03955,0
                -73.846639,7.039646,0
                -73.84635,7.039356,0
                -73.846259,7.039157,0
                -73.846212,7.038984,0
                -73.846205,7.038796,0
                -73.846284,7.038586,0
                -73.846484,7.038099,0
                -73.846597,7.037985,0
                -73.846448,7.037891,0
                -73.845907,7.037766,0
                -73.845846,7.03789,0
                -73.845803,7.037941,0
                -73.845769,7.037985,0
                -73.845742,7.038031,0
                -73.84572,7.038078,0
                -73.845701,7.038134,0
                -73.845692,7.03819,0
                -73.845685,7.038278,0
                -73.845685,7.038445,0
                -73.845684,7.038583,0
                -73.845657,7.038684,0
                -73.84562,7.038768,0
                -73.84562,7.038849,0
                -73.845633,7.038933,0
                -73.845638,7.039028,0
                -73.845626,7.039082,0
                -73.845583,7.039138,0
                -73.845571,7.039202,0
                -73.845578,7.039254,0
                -73.845586,7.03928,0
                -73.845603,7.039389,0
                -73.845601,7.039496,0
                -73.845607,7.039573,0
                -73.845626,7.039653,0
                -73.845641,7.03969,0
                -73.845663,7.039725,0
                -73.845685,7.039761,0
                -73.845751,7.039852,0
                -73.845784,7.039905,0
                -73.845813,7.039955,0
                -73.845832,7.040005,0
                -73.845838,7.040026,0
                -73.845844,7.04006,0
                -73.845844,7.040096,0
                -73.845838,7.040138,0
                -73.845828,7.040182,0
                -73.845805,7.040243,0
                -73.845797,7.040254,0
                -73.845778,7.040272,0
                -73.845757,7.040301,0
                -73.845742,7.040316,0
                -73.845718,7.04035,0
                -73.84567,7.040398,0
                -73.845633,7.040437,0
                -73.845609,7.04046,0
                -73.845585,7.040489,0
                -73.845532,7.04054,0
                -73.845476,7.040591,0
                -73.845423,7.040625,0
                -73.845369,7.040647,0
                -73.845316,7.040659,0
                -73.845289,7.040667,0
                -73.845168,7.040687,0
                -73.845107,7.040696,0
                -73.845062,7.0407,0
                -73.844996,7.040697,0
                -73.844887,7.040685,0
                -73.844804,7.040667,0
                -73.844694,7.04061,0
                -73.844611,7.040556,0
                -73.844599,7.04055,0
                -73.844731,7.040101,0
                -73.844776,7.039351,0
                -73.842331,7.037896,0
                -73.842409,7.037592,0
                -73.843142,7.037583,0
                -73.843249,7.037655,0
                -73.843493,7.037869,0
                -73.843864,7.038105,0
                -73.844121,7.037806,0
                -73.844213,7.037628,0
                -73.844466,7.037651,0
                -73.844486,7.037472,0
                -73.843997,7.037413,0
                -73.843943,7.037565,0
                -73.843932,7.037599,0
                -73.843733,7.037751,0
                -73.843679,7.037714,0
                -73.84365,7.037761,0
                -73.84359,7.037714,0
                -73.843635,7.037602,0
                -73.843571,7.037552,0
                -73.843538,7.037595,0
                -73.843353,7.037451,0
                -73.843314,7.037495,0
                -73.84321,7.037419,0
                -73.843097,7.037406,0
                -73.843057,7.037407,0
                -73.843056,7.037377,0
                -73.842943,7.037373,0
                -73.842943,7.037302,0
                -73.842841,7.03731,0
                -73.842846,7.037351,0
                -73.842699,7.037359,0
                -73.842693,7.037333,0
                -73.842538,7.037332,0
                -73.842554,7.037405,0
                -73.842394,7.037416,0
                -73.842389,7.03738,0
                -73.842242,7.037405,0
                -73.842267,7.037262,0
                -73.84224,7.037259,0
                -73.842307,7.037086,0
                -73.842348,7.037093,0
                -73.842382,7.037012,0
                -73.84236,7.037002,0
                -73.842398,7.036927,0
                -73.842367,7.036916,0
                -73.8424,7.036872,0
                -73.842478,7.036905,0
                -73.842597,7.036596,0
                -73.842367,7.036482,0
                -73.842349,7.036377,0
                -73.842931,7.034914,0
                -73.843188,7.034473,0
                -73.843562,7.034551,0
                -73.843567,7.034479,0
                -73.843567,7.03441,0
                -73.843576,7.034358,0
                -73.843404,7.034313,0
                -73.843404,7.034273,0
                -73.843146,7.034228,0
                -73.843168,7.034176,0
                -73.843189,7.034125,0
                -73.842835,7.033842,0
                -73.842519,7.033607,0
                -73.842472,7.033577,0
                -73.842341,7.033496,0
                -73.842123,7.033393,0
                -73.842173,7.033296,0
                -73.842033,7.033242,0
                -73.842069,7.033139,0
                -73.842077,7.033097,0
                -73.84197,7.033055,0
                -73.842008,7.032961,0
                -73.841935,7.03292,0
                -73.841988,7.032802,0
                -73.841789,7.032729,0
                -73.841758,7.032718,0
                -73.84185,7.032513,0
                -73.841636,7.032431,0
                -73.841483,7.032806,0
                -73.841581,7.032847,0
                -73.841477,7.033106,0
                -73.841581,7.033132,0
                -73.841555,7.033192,0
                -73.841542,7.033224,0
                -73.841269,7.033116,0
                -73.841241,7.033169,0
                -73.841227,7.033166,0
                -73.841151,7.033071,0
                -73.841095,7.033104,0
                -73.841016,7.033003,0
                -73.840486,7.033382,0
                -73.840474,7.033362,0
                -73.840457,7.033372,0
                -73.840282,7.03348,0
                -73.840175,7.033332,0
                -73.839808,7.033581,0
                -73.839854,7.033657,0
                -73.83945,7.03394,0
                -73.839498,7.034013,0
                -73.839478,7.034025,0
                -73.839506,7.034069,0
                -73.838974,7.034422,0
                -73.838951,7.034399,0
                -73.838852,7.034307,0
                -73.838831,7.034294,0
                -73.838787,7.034298,0
                -73.838766,7.034318,0
                -73.838693,7.034218,0
                -73.838766,7.034163,0
                -73.838632,7.033981,0
                -73.838673,7.033952,0
                -73.838641,7.033906,0
                -73.838519,7.033733,0
                -73.83863,7.033644,0
                -73.83851,7.033475,0
                -73.838393,7.033554,0
                -73.838386,7.033545,0
                -73.83836,7.033563,0
                -73.838308,7.033488,0
                -73.838261,7.033521,0
                -73.838237,7.033489,0
                -73.838177,7.033527,0
                -73.83813,7.033472,0
                -73.838098,7.033502,0
                -73.838069,7.033467,0
                -73.838028,7.033508,0
                -73.837845,7.033394,0
                -73.837795,7.033416,0
                -73.837697,7.033303,0
                -73.837603,7.033374,0
                -73.837795,7.033647,0
                -73.837813,7.033668,0
                -73.838123,7.034109,0
                -73.838193,7.034062,0
                -73.838304,7.034183,0
                -73.838433,7.034367,0
                -73.838342,7.034436,0
                -73.838535,7.034714,0
                -73.838509,7.03474,0
                -73.838494,7.034754,0
                -73.838263,7.034932,0
                -73.838328,7.035041,0
                -73.838001,7.035281,0
                -73.838061,7.035372,0
                -73.838092,7.035398,0
                -73.838068,7.035475,0
                -73.837772,7.035614,0
                -73.837758,7.03562,0
                -73.837719,7.035607,0
                -73.837613,7.03557,0
                -73.837557,7.035559,0
                -73.83754,7.035558,0
                -73.837516,7.035556,0
                -73.837468,7.035568,0
                -73.837417,7.035589,0
                -73.837313,7.035641,0
                -73.837178,7.035702,0
                -73.837126,7.035737,0
                -73.8371,7.035765,0
                -73.837073,7.035807,0
                -73.837006,7.03596,0
                -73.836827,7.036403,0
                -73.83676,7.0366,0
                -73.836742,7.036656,0
                -73.836648,7.03697,0
                -73.836632,7.037042,0
                -73.836634,7.03709,0
                -73.836646,7.037138,0
                -73.836668,7.037175,0
                -73.836689,7.037212,0
                -73.836691,7.037228,0
                -73.836693,7.037246,0
                -73.836678,7.0373,0
                -73.836661,7.037337,0
                -73.836646,7.037355,0
                -73.836582,7.037391,0
                -73.836558,7.037398,0
                -73.836519,7.03741,0
                -73.836444,7.037442,0
                -73.836404,7.037469,0
                -73.836367,7.037505,0
                -73.836337,7.037551,0
                -73.83631,7.0376,0
                -73.836299,7.037657,0
                -73.836297,7.037707,0
                -73.836304,7.037776,0
                -73.836315,7.037798,0
                -73.836337,7.03785,0
                -73.836351,7.037883,0
                -73.836374,7.037991,0
                -73.836437,7.038057,0
                -73.83652,7.038103,0
                -73.836511,7.03813,0
                -73.836507,7.038147,0
                -73.836401,7.038132,0
                -73.836374,7.038223,0
                -73.836417,7.038333,0
                -73.836455,7.038494,0
                -73.836469,7.038568,0
                -73.836459,7.038657,0
                -73.83642,7.038738,0
                -73.836373,7.038833,0
                -73.836107,7.038502,0
                -73.835656,7.038237,0
                -73.834753,7.037732,0
                -73.834037,7.037599,0
                -73.833455,7.037576,0
                -73.83332,7.037478,0
                -73.83332,7.037508,0
                -73.833316,7.037547,0
                -73.833296,7.037595,0
                -73.83327,7.03768,0
                -73.833254,7.037754,0
                -73.833257,7.037806,0
                -73.833263,7.037847,0
                -73.833251,7.037989,0
                -73.833252,7.03811,0
                -73.833241,7.03816,0
                -73.833207,7.038248,0
                -73.833173,7.038405,0
                -73.833161,7.038565,0
                -73.833156,7.038586,0
                -73.833057,7.038565,0
                -73.832948,7.03855,0
                -73.832894,7.038567,0
                -73.832874,7.038623,0
                -73.832919,7.038786,0
                -73.832923,7.038801,0
                -73.833129,7.03905,0
                -73.833423,7.039174,0
                -73.833415,7.039515,0
                -73.833416,7.039549,0
                -73.833422,7.040037,0
                -73.833438,7.040427,0
                -73.833466,7.04061,0
                -73.833502,7.040733,0
                -73.833481,7.040746,0
                -73.833441,7.040771,0
                -73.833299,7.040801,0
                -73.833091,7.040895,0
                -73.833016,7.04098,0
                -73.832949,7.041039,0
                -73.833008,7.04113,0
                -73.83292,7.041192,0
                -73.83292,7.041236,0
                -73.832916,7.041333,0
                -73.832909,7.041433,0
                -73.832883,7.041611,0
                -73.83288,7.041634,0
                -73.832807,7.041713,0
                -73.832752,7.041772,0
                -73.832718,7.041798,0
                -73.832015,7.042036,0
                -73.832296,7.042874,0
                -73.832257,7.043093,0
                -73.832894,7.04381,0
                -73.8342,7.04459,0
                -73.834194,7.044594,0
                -73.834183,7.044587,0
                -73.834194,7.044636,0
                -73.834161,7.044766,0
                -73.833929,7.045376,0
                -73.834027,7.04547,0
                -73.834495,7.045814,0
                -73.834595,7.0459,0
                -73.834838,7.045868,0
                -73.834838,7.046018,0
                -73.83474,7.046807,0
                -73.834728,7.04692,0
                -73.834827,7.047412,0
                -73.83475,7.047635,0
                -73.834689,7.047929,0
                -73.834735,7.048037,0
                -73.834761,7.048138,0
                -73.834779,7.048227,0
                -73.834936,7.048343,0
                -73.835129,7.048424,0
                -73.835234,7.048541,0
                -73.83543,7.049001,0
                -73.835534,7.04927,0
                -73.835611,7.049335,0
                -73.835768,7.049341,0
                -73.83588,7.049328,0
                -73.836339,7.049206,0
                -73.836445,7.049134,0
                -73.836506,7.049039,0
                -73.836532,7.049004,0
                -73.836549,7.048907,0
                -73.836519,7.048775,0
                -73.836444,7.048507,0
                -73.836365,7.048238,0
                -73.836296,7.047999,0
                -73.836215,7.047727,0
                -73.836145,7.047483,0
                -73.83614,7.047466,0
                -73.836041,7.047257,0
                -73.836023,7.047251,0
                -73.835922,7.047054,0
                -73.835836,7.046987,0
                -73.835677,7.046807,0
                -73.835662,7.046521,0
                -73.835687,7.046037,0
                -73.835673,7.045692,0
                -73.83567,7.044852,0
                -73.835695,7.044729,0
                -73.83584,7.044683,0
                -73.836081,7.044667,0
                -73.836319,7.044784,0
                -73.836445,7.044952,0
                -73.836722,7.045111,0
                -73.836896,7.045267,0
                -73.83705,7.04601,0
                -73.836764,7.046245,0
                -73.837235,7.046766,0
                -73.837394,7.046808,0
                -73.837554,7.046674,0
                -73.837697,7.046775,0
                -73.837848,7.046733,0
                -73.837949,7.046917,0
                -73.837806,7.046968,0
                -73.837789,7.047195,0
                -73.837875,7.047261,0
                -73.838008,7.047464,0
                -73.838117,7.047405,0
                -73.838276,7.047514,0
                -73.838495,7.047732,0
                -73.838574,7.047936,0
                -73.838663,7.048253,0
                -73.838906,7.048404,0
                -73.838965,7.04848,0
                -73.839326,7.048584,0
                -73.83941,7.048631,0
                -73.839461,7.048522,0
                -73.839274,7.048187,0
                -73.839074,7.047884,0
                -73.838696,7.047539,0
                -73.838569,7.047357,0
                -73.838523,7.04728,0
                -73.838234,7.04664,0
                -73.837842,7.046332,0
                -73.837782,7.046264,0
                -73.837688,7.046136,0
                -73.837478,7.045909,0
                -73.837411,7.045716,0
                -73.83752,7.045557,0
                -73.837546,7.045111,0
                -73.837974,7.044901,0
                -73.837688,7.044703,0
                -73.837747,7.044599,0
                -73.83768,7.044532,0
                -73.837445,7.044582,0
                -73.837008,7.044132,0
                -73.837593,7.043706,0
              </coordinates>
            </LinearRing>
          </outerBoundaryIs>
        </Polygon>
      </Placemark>
      <Placemark>
        <name/>
        <description><![CDATA[Descripción: <br>Reg_Nom: Santander 250<br>Dominio: Centro Ecopetrol<br>Region: 250<br>Zona: 311<br>Seccion: E<br>Zsec: 311E]]></description>
        <styleUrl>#poly-9C27B0-3001-64</styleUrl>
        <ExtendedData>
          <Data name="Descripción">
            <value/>
          </Data>
          <Data name="Reg_Nom">
            <value>Santander 250</value>
          </Data>
          <Data name="Dominio">
            <value>Centro Ecopetrol</value>
          </Data>
          <Data name="Region">
            <value>250</value>
          </Data>
          <Data name="Zona">
            <value>311</value>
          </Data>
          <Data name="Seccion">
            <value>E</value>
          </Data>
          <Data name="Zsec">
            <value>311E</value>
          </Data>
        </ExtendedData>
        <Polygon>
          <outerBoundaryIs>
            <LinearRing>
              <tessellate>1</tessellate>
              <coordinates>
                -73.766649,6.940336,0
                -73.766639,6.94026,0
                -73.766631,6.940211,0
                -73.763938,6.936759,0
                -73.763873,6.936731,0
                -73.763799,6.936701,0
                -73.763784,6.936696,0
                -73.75991,6.936944,0
                -73.757655,6.939915,0
                -73.757651,6.93993,0
                -73.757635,6.940008,0
                -73.75762,6.940082,0
                -73.757741,6.94225,0
                -73.75775,6.942278,0
                -73.757768,6.942335,0
                -73.760365,6.945113,0
                -73.762942,6.945354,0
                -73.765624,6.943668,0
                -73.766588,6.940946,0
                -73.766649,6.940336,0
              </coordinates>
            </LinearRing>
          </outerBoundaryIs>
        </Polygon>
      </Placemark>
    </Folder>
  </Document>
</kml>
