<?xml version="1.0" encoding="UTF-8"?>
<kml xmlns="http://www.opengis.net/kml/2.2">
  <Document>
    <name>Zona 329</name>
    <description/>
    <Style id="poly-0288D1-3401-76-normal">
      <LineStyle>
        <color>ffd18802</color>
        <width>3.401</width>
      </LineStyle>
      <PolyStyle>
        <color>4cd18802</color>
        <fill>1</fill>
        <outline>1</outline>
      </PolyStyle>
    </Style>
    <Style id="poly-0288D1-3401-76-highlight">
      <LineStyle>
        <color>ffd18802</color>
        <width>5.1015</width>
      </LineStyle>
      <PolyStyle>
        <color>4cd18802</color>
        <fill>1</fill>
        <outline>1</outline>
      </PolyStyle>
    </Style>
    <StyleMap id="poly-0288D1-3401-76">
      <Pair>
        <key>normal</key>
        <styleUrl>#poly-0288D1-3401-76-normal</styleUrl>
      </Pair>
      <Pair>
        <key>highlight</key>
        <styleUrl>#poly-0288D1-3401-76-highlight</styleUrl>
      </Pair>
    </StyleMap>
    <Style id="poly-7CB342-3301-76-normal">
      <LineStyle>
        <color>ff42b37c</color>
        <width>3.301</width>
      </LineStyle>
      <PolyStyle>
        <color>4c42b37c</color>
        <fill>1</fill>
        <outline>1</outline>
      </PolyStyle>
    </Style>
    <Style id="poly-7CB342-3301-76-highlight">
      <LineStyle>
        <color>ff42b37c</color>
        <width>4.9515</width>
      </LineStyle>
      <PolyStyle>
        <color>4c42b37c</color>
        <fill>1</fill>
        <outline>1</outline>
      </PolyStyle>
    </Style>
    <StyleMap id="poly-7CB342-3301-76">
      <Pair>
        <key>normal</key>
        <styleUrl>#poly-7CB342-3301-76-normal</styleUrl>
      </Pair>
      <Pair>
        <key>highlight</key>
        <styleUrl>#poly-7CB342-3301-76-highlight</styleUrl>
      </Pair>
    </StyleMap>
    <Style id="poly-9C27B0-2901-76-normal">
      <LineStyle>
        <color>ffb0279c</color>
        <width>2.901</width>
      </LineStyle>
      <PolyStyle>
        <color>4cb0279c</color>
        <fill>1</fill>
        <outline>1</outline>
      </PolyStyle>
    </Style>
    <Style id="poly-9C27B0-2901-76-highlight">
      <LineStyle>
        <color>ffb0279c</color>
        <width>4.3515</width>
      </LineStyle>
      <PolyStyle>
        <color>4cb0279c</color>
        <fill>1</fill>
        <outline>1</outline>
      </PolyStyle>
    </Style>
    <StyleMap id="poly-9C27B0-2901-76">
      <Pair>
        <key>normal</key>
        <styleUrl>#poly-9C27B0-2901-76-normal</styleUrl>
      </Pair>
      <Pair>
        <key>highlight</key>
        <styleUrl>#poly-9C27B0-2901-76-highlight</styleUrl>
      </Pair>
    </StyleMap>
    <Style id="poly-FF5252-3001-76-normal">
      <LineStyle>
        <color>ff5252ff</color>
        <width>3.001</width>
      </LineStyle>
      <PolyStyle>
        <color>4c5252ff</color>
        <fill>1</fill>
        <outline>1</outline>
      </PolyStyle>
    </Style>
    <Style id="poly-FF5252-3001-76-highlight">
      <LineStyle>
        <color>ff5252ff</color>
        <width>4.5015</width>
      </LineStyle>
      <PolyStyle>
        <color>4c5252ff</color>
        <fill>1</fill>
        <outline>1</outline>
      </PolyStyle>
    </Style>
    <StyleMap id="poly-FF5252-3001-76">
      <Pair>
        <key>normal</key>
        <styleUrl>#poly-FF5252-3001-76-normal</styleUrl>
      </Pair>
      <Pair>
        <key>highlight</key>
        <styleUrl>#poly-FF5252-3001-76-highlight</styleUrl>
      </Pair>
    </StyleMap>
    <Style id="poly-FFEA00-3201-61-normal">
      <LineStyle>
        <color>ff00eaff</color>
        <width>3.201</width>
      </LineStyle>
      <PolyStyle>
        <color>3d00eaff</color>
        <fill>1</fill>
        <outline>1</outline>
      </PolyStyle>
    </Style>
    <Style id="poly-FFEA00-3201-61-highlight">
      <LineStyle>
        <color>ff00eaff</color>
        <width>4.8015</width>
      </LineStyle>
      <PolyStyle>
        <color>3d00eaff</color>
        <fill>1</fill>
        <outline>1</outline>
      </PolyStyle>
    </Style>
    <StyleMap id="poly-FFEA00-3201-61">
      <Pair>
        <key>normal</key>
        <styleUrl>#poly-FFEA00-3201-61-normal</styleUrl>
      </Pair>
      <Pair>
        <key>highlight</key>
        <styleUrl>#poly-FFEA00-3201-61-highlight</styleUrl>
      </Pair>
    </StyleMap>
    <Folder>
      <name>VD329</name>
      <Placemark>
        <name/>
        <description><![CDATA[Descripción: <br>Reg_Nom: Santander 250<br>Dominio: Saravena<br>Region: 250<br>Zona: 329<br>Seccion: B<br>Zsec: 329B]]></description>
        <styleUrl>#poly-0288D1-3401-76</styleUrl>
        <ExtendedData>
          <Data name="Descripción">
            <value/>
          </Data>
          <Data name="Reg_Nom">
            <value>Santander 250</value>
          </Data>
          <Data name="Dominio">
            <value>Saravena</value>
          </Data>
          <Data name="Region">
            <value>250</value>
          </Data>
          <Data name="Zona">
            <value>329</value>
          </Data>
          <Data name="Seccion">
            <value>B</value>
          </Data>
          <Data name="Zsec">
            <value>329B</value>
          </Data>
        </ExtendedData>
        <Polygon>
          <outerBoundaryIs>
            <LinearRing>
              <tessellate>1</tessellate>
              <coordinates>
                -71.878916,6.959244,0
                -71.878946,6.95917,0
                -71.879146,6.959146,0
                -71.879104,6.959086,0
                -71.882366,6.956276,0
                -71.882422,6.956025,0
                -71.882218,6.955813,0
                -71.881833,6.955413,0
                -71.884412,6.952965,0
                -71.887692,6.950043,0
                -71.889205,6.949014,0
                -71.890158,6.94868,0
                -71.891588,6.949014,0
                -71.893224,6.950253,0
                -71.894811,6.947929,0
                -71.892933,6.946621,0
                -71.892373,6.946788,0
                -71.891896,6.94637,0
                -71.890775,6.946009,0
                -71.890383,6.94548,0
                -71.889607,6.94526,0
                -71.889598,6.945257,0
                -71.887103,6.943727,0
                -71.886234,6.943004,0
                -71.885393,6.942753,0
                -71.884861,6.942892,0
                -71.884545,6.9424,0
                -71.884468,6.94228,0
                -71.883808,6.94237,0
                -71.883655,6.942391,0
                -71.883629,6.942363,0
                -71.883347,6.942058,0
                -71.882926,6.94164,0
                -71.881889,6.941529,0
                -71.88032,6.941807,0
                -71.87907,6.942181,0
                -71.878834,6.942252,0
                -71.86992,6.944005,0
                -71.869664,6.943191,0
                -71.86964,6.943115,0
                -71.869163,6.941946,0
                -71.868491,6.941612,0
                -71.867033,6.941751,0
                -71.86687,6.941913,0
                -71.867229,6.943727,0
                -71.866613,6.944101,0
                -71.866684,6.944249,0
                -71.866737,6.944361,0
                -71.868939,6.948096,0
                -71.868875,6.948138,0
                -71.874798,6.958029,0
                -71.878386,6.958446,0
                -71.878862,6.959225,0
                -71.878916,6.959244,0
              </coordinates>
            </LinearRing>
          </outerBoundaryIs>
        </Polygon>
      </Placemark>
      <Placemark>
        <name/>
        <description><![CDATA[Descripción: <br>Reg_Nom: Santander 250<br>Dominio: Fortul<br>Region: 250<br>Zona: 329<br>Seccion: C<br>Zsec: 329C]]></description>
        <styleUrl>#poly-FF5252-3001-76</styleUrl>
        <ExtendedData>
          <Data name="Descripción">
            <value/>
          </Data>
          <Data name="Reg_Nom">
            <value>Santander 250</value>
          </Data>
          <Data name="Dominio">
            <value>Fortul</value>
          </Data>
          <Data name="Region">
            <value>250</value>
          </Data>
          <Data name="Zona">
            <value>329</value>
          </Data>
          <Data name="Seccion">
            <value>C</value>
          </Data>
          <Data name="Zsec">
            <value>329C</value>
          </Data>
        </ExtendedData>
        <Polygon>
          <outerBoundaryIs>
            <LinearRing>
              <tessellate>1</tessellate>
              <coordinates>
                -71.77009,6.79348,0
                -71.770665,6.794002,0
                -71.770193,6.794538,0
                -71.769883,6.794752,0
                -71.769681,6.794792,0
                -71.769465,6.794685,0
                -71.769263,6.794805,0
                -71.76863,6.795581,0
                -71.768435,6.795425,0
                -71.767377,6.796732,0
                -71.767225,6.796908,0
                -71.767215,6.79696,0
                -71.767255,6.79712,0
                -71.7677,6.797549,0
                -71.766754,6.798909,0
                -71.767835,6.8006,0
                -71.768603,6.80171,0
                -71.769129,6.801536,0
                -71.7696,6.801175,0
                -71.770611,6.800091,0
                -71.77084,6.799944,0
                -71.771446,6.80076,0
                -71.77181,6.800412,0
                -71.771905,6.79981,0
                -71.771487,6.799235,0
                -71.771972,6.798097,0
                -71.773333,6.798806,0
                -71.774169,6.798686,0
                -71.775961,6.798084,0
                -71.775705,6.797749,0
                -71.775732,6.797468,0
                -71.775462,6.796987,0
                -71.775274,6.796358,0
                -71.775018,6.796103,0
                -71.77495,6.795782,0
                -71.774775,6.795595,0
                -71.774519,6.795421,0
                -71.774479,6.795371,0
                -71.774411,6.795287,0
                -71.776473,6.792959,0
                -71.776945,6.79324,0
                -71.777403,6.793066,0
                -71.778697,6.794146,0
                -71.779858,6.792546,0
                -71.7791,6.792027,0
                -71.779074,6.792009,0
                -71.779059,6.792023,0
                -71.778872,6.792209,0
                -71.778575,6.792035,0
                -71.777753,6.791206,0
                -71.777686,6.790911,0
                -71.778009,6.79043,0
                -71.778535,6.789881,0
                -71.778761,6.789531,0
                -71.778778,6.789506,0
                -71.778602,6.789185,0
                -71.777934,6.788698,0
                -71.777133,6.788115,0
                -71.777282,6.787793,0
                -71.779155,6.785345,0
                -71.779101,6.785184,0
                -71.778872,6.785211,0
                -71.776473,6.786897,0
                -71.77584,6.787445,0
                -71.775408,6.786857,0
                -71.775112,6.786602,0
                -71.774744,6.786534,0
                -71.774573,6.78675,0
                -71.774506,6.786924,0
                -71.774384,6.787352,0
                -71.774142,6.787767,0
                -71.774465,6.788248,0
                -71.770274,6.793066,0
                -71.770079,6.79336,0
                -71.77009,6.79348,0
              </coordinates>
            </LinearRing>
          </outerBoundaryIs>
        </Polygon>
      </Placemark>
      <Placemark>
        <name/>
        <description><![CDATA[Descripción: <br>Reg_Nom: Santander 250<br>Dominio: Tame<br>Region: 250<br>Zona: 329<br>Seccion: D<br>Zsec: 329D]]></description>
        <styleUrl>#poly-7CB342-3301-76</styleUrl>
        <ExtendedData>
          <Data name="Descripción">
            <value/>
          </Data>
          <Data name="Reg_Nom">
            <value>Santander 250</value>
          </Data>
          <Data name="Dominio">
            <value>Tame</value>
          </Data>
          <Data name="Region">
            <value>250</value>
          </Data>
          <Data name="Zona">
            <value>329</value>
          </Data>
          <Data name="Seccion">
            <value>D</value>
          </Data>
          <Data name="Zsec">
            <value>329D</value>
          </Data>
        </ExtendedData>
        <Polygon>
          <outerBoundaryIs>
            <LinearRing>
              <tessellate>1</tessellate>
              <coordinates>
                -71.739973,6.453316,0
                -71.73971,6.453193,0
                -71.739429,6.453316,0
                -71.733173,6.455043,0
                -71.729176,6.455561,0
                -71.726569,6.456367,0
                -71.725842,6.456212,0
                -71.725667,6.456029,0
                -71.725026,6.455357,0
                -71.724947,6.455273,0
                -71.724649,6.455408,0
                -71.723991,6.455705,0
                -71.723672,6.455216,0
                -71.721847,6.45605,0
                -71.721587,6.455763,0
                -71.720109,6.456712,0
                -71.721442,6.459303,0
                -71.720615,6.459834,0
                -71.720457,6.459936,0
                -71.720605,6.460313,0
                -71.721123,6.461634,0
                -71.719878,6.462613,0
                -71.719427,6.462687,0
                -71.71899,6.463092,0
                -71.72008,6.467534,0
                -71.718227,6.468858,0
                -71.718227,6.471683,0
                -71.719832,6.472577,0
                -71.722919,6.470873,0
                -71.723893,6.469905,0
                -71.723672,6.468398,0
                -71.725758,6.467074,0
                -71.726627,6.467362,0
                -71.727785,6.466786,0
                -71.730432,6.46958,0
                -71.730678,6.469565,0
                -71.732651,6.467765,0
                -71.735085,6.46621,0
                -71.736012,6.465692,0
                -71.73746,6.466728,0
                -71.73947,6.465771,0
                -71.738503,6.464196,0
                -71.738387,6.463562,0
                -71.739198,6.462929,0
                -71.739256,6.462181,0
                -71.740936,6.461202,0
                -71.739487,6.458554,0
                -71.750089,6.455273,0
                -71.751537,6.454295,0
                -71.751016,6.453143,0
                -71.753159,6.451819,0
                -71.757156,6.449747,0
                -71.766947,6.444221,0
                -71.768279,6.443818,0
                -71.773203,6.443703,0
                -71.771118,6.4452,0
                -71.75733,6.453546,0
                -71.757794,6.454525,0
                -71.7593,6.454352,0
                -71.761038,6.454007,0
                -71.763355,6.452798,0
                -71.764456,6.453086,0
                -71.767712,6.454535,0
                -71.768816,6.454033,0
                -71.768569,6.45251,0
                -71.773551,6.450898,0
                -71.773783,6.449056,0
                -71.775463,6.44825,0
                -71.776448,6.449056,0
                -71.777606,6.448423,0
                -71.773841,6.442724,0
                -71.766425,6.443473,0
                -71.762312,6.444739,0
                -71.761501,6.444336,0
                -71.757794,6.445372,0
                -71.756374,6.445948,0
                -71.756345,6.446005,0
                -71.756316,6.447732,0
                -71.750292,6.450323,0
                -71.748698,6.451186,0
                -71.748371,6.449793,0
                -71.745976,6.450898,0
                -71.74583,6.450599,0
                -71.743482,6.451859,0
                -71.744064,6.453316,0
                -71.740617,6.454583,0
                -71.740096,6.453604,0
                -71.739973,6.453316,0
              </coordinates>
            </LinearRing>
          </outerBoundaryIs>
        </Polygon>
      </Placemark>
      <Placemark>
        <name/>
        <description><![CDATA[Descripción: <br>Reg_Nom: Santander 250<br>Dominio: Cubara<br>Region: 250<br>Zona: 329<br>Seccion: E<br>Zsec: 329E]]></description>
        <styleUrl>#poly-9C27B0-2901-76</styleUrl>
        <ExtendedData>
          <Data name="Descripción">
            <value/>
          </Data>
          <Data name="Reg_Nom">
            <value>Santander 250</value>
          </Data>
          <Data name="Dominio">
            <value>Cubara</value>
          </Data>
          <Data name="Region">
            <value>250</value>
          </Data>
          <Data name="Zona">
            <value>329</value>
          </Data>
          <Data name="Seccion">
            <value>E</value>
          </Data>
          <Data name="Zsec">
            <value>329E</value>
          </Data>
        </ExtendedData>
        <Polygon>
          <outerBoundaryIs>
            <LinearRing>
              <tessellate>1</tessellate>
              <coordinates>
                -72.111948,6.998001,0
                -72.108399,6.996664,0
                -72.108631,6.998893,0
                -72.107927,6.999153,0
                -72.107582,6.999249,0
                -72.107375,6.999441,0
                -72.107416,6.999729,0
                -72.107513,7.000195,0
                -72.104791,7.000972,0
                -72.107403,7.00421,0
                -72.107242,7.004541,0
                -72.107503,7.004665,0
                -72.108038,7.003593,0
                -72.108189,7.00336,0
                -72.108907,7.002894,0
                -72.11073,7.00162,0
                -72.11102,7.001442,0
                -72.111959,6.999702,0
                -72.112143,6.999251,0
                -72.111948,6.998001,0
              </coordinates>
            </LinearRing>
          </outerBoundaryIs>
        </Polygon>
      </Placemark>
      <Placemark>
        <name/>
        <description><![CDATA[Descripción: <br>Reg_Nom: Santander 250<br>Dominio: Saravena<br>Region: 250<br>Zona: 329<br>Seccion: A<br>Zsec: 329A]]></description>
        <styleUrl>#poly-FFEA00-3201-61</styleUrl>
        <ExtendedData>
          <Data name="Descripción">
            <value/>
          </Data>
          <Data name="Reg_Nom">
            <value>Santander 250</value>
          </Data>
          <Data name="Dominio">
            <value>Saravena</value>
          </Data>
          <Data name="Region">
            <value>250</value>
          </Data>
          <Data name="Zona">
            <value>329</value>
          </Data>
          <Data name="Seccion">
            <value>A</value>
          </Data>
          <Data name="Zsec">
            <value>329A</value>
          </Data>
        </ExtendedData>
        <Polygon>
          <outerBoundaryIs>
            <LinearRing>
              <tessellate>1</tessellate>
              <coordinates>
                -71.868875,6.948138,0
                -71.868687,6.948262,0
                -71.868555,6.948235,0
                -71.86552,6.948262,0
                -71.864847,6.948902,0
                -71.865183,6.949515,0
                -71.866027,6.951723,0
                -71.864118,6.95302,0
                -71.864146,6.953187,0
                -71.86421,6.953301,0
                -71.864174,6.953327,0
                -71.864819,6.954885,0
                -71.864426,6.955497,0
                -71.864482,6.956137,0
                -71.863093,6.956964,0
                -71.862829,6.95878,0
                -71.863417,6.96031,0
                -71.863922,6.961229,0
                -71.864314,6.962286,0
                -71.863236,6.96313,0
                -71.863188,6.96344,0
                -71.865071,6.966098,0
                -71.864849,6.966602,0
                -71.865149,6.966763,0
                -71.86566,6.967823,0
                -71.865716,6.967825,0
                -71.865716,6.968073,0
                -71.866473,6.968296,0
                -71.867454,6.96863,0
                -71.867607,6.968603,0
                -71.867706,6.968657,0
                -71.867926,6.968548,0
                -71.868117,6.968454,0
                -71.868379,6.968324,0
                -71.868766,6.966322,0
                -71.868799,6.966153,0
                -71.869276,6.966042,0
                -71.871226,6.964724,0
                -71.871294,6.964679,0
                -71.871234,6.964552,0
                -71.871098,6.964261,0
                -71.872706,6.963294,0
                -71.872941,6.963152,0
                -71.873873,6.962592,0
                -71.874601,6.962119,0
                -71.875667,6.963816,0
                -71.874155,6.964899,0
                -71.874601,6.965541,0
                -71.876928,6.964623,0
                -71.87774,6.966158,0
                -71.878105,6.966849,0
                -71.881155,6.965179,0
                -71.881297,6.965139,0
                -71.881497,6.965291,0
                -71.882226,6.96504,0
                -71.882786,6.965346,0
                -71.883655,6.96504,0
                -71.883879,6.96479,0
                -71.883719,6.964445,0
                -71.883711,6.964428,0
                -71.884384,6.964011,0
                -71.883964,6.961868,0
                -71.880908,6.961423,0
                -71.879983,6.960895,0
                -71.87889,6.959309,0
                -71.878916,6.959244,0
                -71.878862,6.959225,0
                -71.878386,6.958446,0
                -71.874798,6.958029,0
                -71.868875,6.948138,0
              </coordinates>
            </LinearRing>
          </outerBoundaryIs>
        </Polygon>
      </Placemark>
      <Placemark>
        <name/>
        <description><![CDATA[Descripción: <br>Reg_Nom: Santander 250<br>Dominio: Puerto Rondon<br>Region: 250<br>Zona: 329<br>Seccion: D<br>Zsec: 329D]]></description>
        <styleUrl>#poly-7CB342-3301-76</styleUrl>
        <ExtendedData>
          <Data name="Descripción">
            <value/>
          </Data>
          <Data name="Reg_Nom">
            <value>Santander 250</value>
          </Data>
          <Data name="Dominio">
            <value>Puerto Rondon</value>
          </Data>
          <Data name="Region">
            <value>250</value>
          </Data>
          <Data name="Zona">
            <value>329</value>
          </Data>
          <Data name="Seccion">
            <value>D</value>
          </Data>
          <Data name="Zsec">
            <value>329D</value>
          </Data>
        </ExtendedData>
        <Polygon>
          <outerBoundaryIs>
            <LinearRing>
              <tessellate>1</tessellate>
              <coordinates>
                -71.080611,6.283896,0
                -71.081801,6.287941,0
                -71.088701,6.287465,0
                -71.09465,6.289131,0
                -71.109878,6.281278,0
                -71.120824,6.287227,0
                -71.124155,6.283182,0
                -71.106309,6.272712,0
                -71.099884,6.276044,0
                -71.095601,6.279613,0
                -71.090129,6.279613,0
                -71.082514,6.277709,0
                -71.078469,6.278899,0
                -71.080611,6.283896,0
              </coordinates>
            </LinearRing>
          </outerBoundaryIs>
        </Polygon>
      </Placemark>
      <Placemark>
        <name/>
        <description><![CDATA[Descripción: <br>Reg_Nom: Santander 250<br>Dominio: V. Panama<br>Region: 250<br>Zona: 329<br>Seccion: A<br>Zsec: 329A]]></description>
        <styleUrl>#poly-FFEA00-3201-61</styleUrl>
        <ExtendedData>
          <Data name="Descripción">
            <value/>
          </Data>
          <Data name="Reg_Nom">
            <value>Santander 250</value>
          </Data>
          <Data name="Dominio">
            <value>V. Panama</value>
          </Data>
          <Data name="Region">
            <value>250</value>
          </Data>
          <Data name="Zona">
            <value>329</value>
          </Data>
          <Data name="Seccion">
            <value>A</value>
          </Data>
          <Data name="Zsec">
            <value>329A</value>
          </Data>
        </ExtendedData>
        <Polygon>
          <outerBoundaryIs>
            <LinearRing>
              <tessellate>1</tessellate>
              <coordinates>
                -71.772964,6.998599,0
                -71.764768,6.99475,0
                -71.764033,6.99354,0
                -71.7621,6.993391,0
                -71.761059,6.993986,0
                -71.761059,6.996217,0
                -71.761059,6.998438,0
                -71.75868,7.003504,0
                -71.758763,7.003543,0
                -71.761505,7.003652,0
                -71.764777,7.005586,0
                -71.765288,7.006608,0
                -71.768495,7.008114,0
                -71.772964,6.998599,0
              </coordinates>
            </LinearRing>
          </outerBoundaryIs>
        </Polygon>
      </Placemark>
    </Folder>
  </Document>
</kml>
