<?xml version="1.0" encoding="UTF-8"?>
<kml xmlns="http://www.opengis.net/kml/2.2">
  <Document>
    <name>Zona 407</name>
    <description/>
    <Style id="poly-0288D1-3201-56-normal">
      <LineStyle>
        <color>ffd18802</color>
        <width>3.201</width>
      </LineStyle>
      <PolyStyle>
        <color>38d18802</color>
        <fill>1</fill>
        <outline>1</outline>
      </PolyStyle>
    </Style>
    <Style id="poly-0288D1-3201-56-highlight">
      <LineStyle>
        <color>ffd18802</color>
        <width>4.8015</width>
      </LineStyle>
      <PolyStyle>
        <color>38d18802</color>
        <fill>1</fill>
        <outline>1</outline>
      </PolyStyle>
    </Style>
    <StyleMap id="poly-0288D1-3201-56">
      <Pair>
        <key>normal</key>
        <styleUrl>#poly-0288D1-3201-56-normal</styleUrl>
      </Pair>
      <Pair>
        <key>highlight</key>
        <styleUrl>#poly-0288D1-3201-56-highlight</styleUrl>
      </Pair>
    </StyleMap>
    <Style id="poly-0288D1-3201-76-normal">
      <LineStyle>
        <color>ffd18802</color>
        <width>3.201</width>
      </LineStyle>
      <PolyStyle>
        <color>4cd18802</color>
        <fill>1</fill>
        <outline>1</outline>
      </PolyStyle>
    </Style>
    <Style id="poly-0288D1-3201-76-highlight">
      <LineStyle>
        <color>ffd18802</color>
        <width>4.8015</width>
      </LineStyle>
      <PolyStyle>
        <color>4cd18802</color>
        <fill>1</fill>
        <outline>1</outline>
      </PolyStyle>
    </Style>
    <StyleMap id="poly-0288D1-3201-76">
      <Pair>
        <key>normal</key>
        <styleUrl>#poly-0288D1-3201-76-normal</styleUrl>
      </Pair>
      <Pair>
        <key>highlight</key>
        <styleUrl>#poly-0288D1-3201-76-highlight</styleUrl>
      </Pair>
    </StyleMap>
    <Style id="poly-7CB342-3001-76-normal">
      <LineStyle>
        <color>ff42b37c</color>
        <width>3.001</width>
      </LineStyle>
      <PolyStyle>
        <color>4c42b37c</color>
        <fill>1</fill>
        <outline>1</outline>
      </PolyStyle>
    </Style>
    <Style id="poly-7CB342-3001-76-highlight">
      <LineStyle>
        <color>ff42b37c</color>
        <width>4.5015</width>
      </LineStyle>
      <PolyStyle>
        <color>4c42b37c</color>
        <fill>1</fill>
        <outline>1</outline>
      </PolyStyle>
    </Style>
    <StyleMap id="poly-7CB342-3001-76">
      <Pair>
        <key>normal</key>
        <styleUrl>#poly-7CB342-3001-76-normal</styleUrl>
      </Pair>
      <Pair>
        <key>highlight</key>
        <styleUrl>#poly-7CB342-3001-76-highlight</styleUrl>
      </Pair>
    </StyleMap>
    <Style id="poly-9C27B0-3401-54-normal">
      <LineStyle>
        <color>ffb0279c</color>
        <width>3.401</width>
      </LineStyle>
      <PolyStyle>
        <color>36b0279c</color>
        <fill>1</fill>
        <outline>1</outline>
      </PolyStyle>
    </Style>
    <Style id="poly-9C27B0-3401-54-highlight">
      <LineStyle>
        <color>ffb0279c</color>
        <width>5.1015</width>
      </LineStyle>
      <PolyStyle>
        <color>36b0279c</color>
        <fill>1</fill>
        <outline>1</outline>
      </PolyStyle>
    </Style>
    <StyleMap id="poly-9C27B0-3401-54">
      <Pair>
        <key>normal</key>
        <styleUrl>#poly-9C27B0-3401-54-normal</styleUrl>
      </Pair>
      <Pair>
        <key>highlight</key>
        <styleUrl>#poly-9C27B0-3401-54-highlight</styleUrl>
      </Pair>
    </StyleMap>
    <Style id="poly-FF5252-1200-76-normal">
      <LineStyle>
        <color>ff5252ff</color>
        <width>1.2</width>
      </LineStyle>
      <PolyStyle>
        <color>4c5252ff</color>
        <fill>1</fill>
        <outline>1</outline>
      </PolyStyle>
    </Style>
    <Style id="poly-FF5252-1200-76-highlight">
      <LineStyle>
        <color>ff5252ff</color>
        <width>1.8</width>
      </LineStyle>
      <PolyStyle>
        <color>4c5252ff</color>
        <fill>1</fill>
        <outline>1</outline>
      </PolyStyle>
    </Style>
    <StyleMap id="poly-FF5252-1200-76">
      <Pair>
        <key>normal</key>
        <styleUrl>#poly-FF5252-1200-76-normal</styleUrl>
      </Pair>
      <Pair>
        <key>highlight</key>
        <styleUrl>#poly-FF5252-1200-76-highlight</styleUrl>
      </Pair>
    </StyleMap>
    <Style id="poly-FF5252-3401-76-normal">
      <LineStyle>
        <color>ff5252ff</color>
        <width>3.401</width>
      </LineStyle>
      <PolyStyle>
        <color>4c5252ff</color>
        <fill>1</fill>
        <outline>1</outline>
      </PolyStyle>
    </Style>
    <Style id="poly-FF5252-3401-76-highlight">
      <LineStyle>
        <color>ff5252ff</color>
        <width>5.1015</width>
      </LineStyle>
      <PolyStyle>
        <color>4c5252ff</color>
        <fill>1</fill>
        <outline>1</outline>
      </PolyStyle>
    </Style>
    <StyleMap id="poly-FF5252-3401-76">
      <Pair>
        <key>normal</key>
        <styleUrl>#poly-FF5252-3401-76-normal</styleUrl>
      </Pair>
      <Pair>
        <key>highlight</key>
        <styleUrl>#poly-FF5252-3401-76-highlight</styleUrl>
      </Pair>
    </StyleMap>
    <Style id="poly-FFEA00-2601-76-normal">
      <LineStyle>
        <color>ff00eaff</color>
        <width>2.601</width>
      </LineStyle>
      <PolyStyle>
        <color>4c00eaff</color>
        <fill>1</fill>
        <outline>1</outline>
      </PolyStyle>
    </Style>
    <Style id="poly-FFEA00-2601-76-highlight">
      <LineStyle>
        <color>ff00eaff</color>
        <width>3.9015</width>
      </LineStyle>
      <PolyStyle>
        <color>4c00eaff</color>
        <fill>1</fill>
        <outline>1</outline>
      </PolyStyle>
    </Style>
    <StyleMap id="poly-FFEA00-2601-76">
      <Pair>
        <key>normal</key>
        <styleUrl>#poly-FFEA00-2601-76-normal</styleUrl>
      </Pair>
      <Pair>
        <key>highlight</key>
        <styleUrl>#poly-FFEA00-2601-76-highlight</styleUrl>
      </Pair>
    </StyleMap>
    <Style id="poly-FFEA00-3301-76-normal">
      <LineStyle>
        <color>ff00eaff</color>
        <width>3.301</width>
      </LineStyle>
      <PolyStyle>
        <color>4c00eaff</color>
        <fill>1</fill>
        <outline>1</outline>
      </PolyStyle>
    </Style>
    <Style id="poly-FFEA00-3301-76-highlight">
      <LineStyle>
        <color>ff00eaff</color>
        <width>4.9515</width>
      </LineStyle>
      <PolyStyle>
        <color>4c00eaff</color>
        <fill>1</fill>
        <outline>1</outline>
      </PolyStyle>
    </Style>
    <StyleMap id="poly-FFEA00-3301-76">
      <Pair>
        <key>normal</key>
        <styleUrl>#poly-FFEA00-3301-76-normal</styleUrl>
      </Pair>
      <Pair>
        <key>highlight</key>
        <styleUrl>#poly-FFEA00-3301-76-highlight</styleUrl>
      </Pair>
    </StyleMap>
    <Folder>
      <name>VD407</name>
      <Placemark>
        <name/>
        <description><![CDATA[Descripción: <br>Reg_Nom: Valle 550<br>Dominio: Cali<br>Region: 550<br>Zona: 407<br>Seccion: G<br>Zsec: 407G]]></description>
        <styleUrl>#poly-FFEA00-2601-76</styleUrl>
        <ExtendedData>
          <Data name="Descripción">
            <value/>
          </Data>
          <Data name="Reg_Nom">
            <value>Valle 550</value>
          </Data>
          <Data name="Dominio">
            <value>Cali</value>
          </Data>
          <Data name="Region">
            <value>550</value>
          </Data>
          <Data name="Zona">
            <value>407</value>
          </Data>
          <Data name="Seccion">
            <value>G</value>
          </Data>
          <Data name="Zsec">
            <value>407G</value>
          </Data>
        </ExtendedData>
        <Polygon>
          <outerBoundaryIs>
            <LinearRing>
              <tessellate>1</tessellate>
              <coordinates>
                -76.52179,3.480267,0
                -76.521962,3.479798,0
                -76.522176,3.479189,0
                -76.522273,3.478962,0
                -76.522391,3.478648,0
                -76.522593,3.478044,0
                -76.522621,3.477969,0
                -76.52281,3.477457,0
                -76.523006,3.47689,0
                -76.523246,3.476234,0
                -76.523465,3.47563,0
                -76.523554,3.475384,0
                -76.523591,3.475152,0
                -76.523671,3.474619,0
                -76.523732,3.474016,0
                -76.523777,3.47345,0
                -76.523799,3.473187,0
                -76.523787,3.47285,0
                -76.523738,3.472313,0
                -76.523648,3.471613,0
                -76.523548,3.470843,0
                -76.523412,3.470209,0
                -76.523412,3.470208,0
                -76.523165,3.469442,0
                -76.523137,3.46937,0
                -76.523123,3.469333,0
                -76.523013,3.469194,0
                -76.522932,3.469123,0
                -76.522859,3.469043,0
                -76.522817,3.468959,0
                -76.522769,3.468739,0
                -76.522759,3.468713,0
                -76.522745,3.468677,0
                -76.522683,3.468529,0
                -76.522601,3.468433,0
                -76.522558,3.468404,0
                -76.522667,3.468166,0
                -76.522689,3.467897,0
                -76.52267,3.467644,0
                -76.522615,3.467432,0
                -76.522531,3.467177,0
                -76.522247,3.466248,0
                -76.521902,3.465086,0
                -76.521594,3.464121,0
                -76.521507,3.463848,0
                -76.521235,3.462962,0
                -76.521169,3.462889,0
                -76.521067,3.4628,0
                -76.521061,3.462743,0
                -76.521068,3.462729,0
                -76.520824,3.462837,0
                -76.520534,3.463045,0
                -76.520467,3.463177,0
                -76.520393,3.463324,0
                -76.519983,3.464221,0
                -76.519522,3.465214,0
                -76.519504,3.465242,0
                -76.519329,3.465685,0
                -76.519158,3.46604,0
                -76.518987,3.46641,0
                -76.518963,3.46649,0
                -76.518867,3.466508,0
                -76.518701,3.46711,0
                -76.518537,3.467752,0
                -76.518531,3.467775,0
                -76.518446,3.468135,0
                -76.518439,3.468164,0
                -76.518214,3.468939,0
                -76.518181,3.469058,0
                -76.517843,3.4696,0
                -76.517341,3.470355,0
                -76.517085,3.470768,0
                -76.516839,3.471166,0
                -76.516599,3.471571,0
                -76.516348,3.471951,0
                -76.516245,3.472117,0
                -76.516107,3.472328,0
                -76.515858,3.472759,0
                -76.515538,3.473213,0
                -76.51554,3.473214,0
                -76.515363,3.473425,0
                -76.514789,3.474208,0
                -76.514325,3.474806,0
                -76.514211,3.474964,0
                -76.514583,3.475212,0
                -76.515187,3.475882,0
                -76.516061,3.47738,0
                -76.518793,3.479146,0
                -76.521234,3.480151,0
                -76.52179,3.480267,0
              </coordinates>
            </LinearRing>
          </outerBoundaryIs>
        </Polygon>
      </Placemark>
      <Placemark>
        <name/>
        <description><![CDATA[Descripción: <br>Reg_Nom: Valle 550<br>Dominio: Cali<br>Region: 550<br>Zona: 407<br>Seccion: I<br>Zsec: 407I]]></description>
        <styleUrl>#poly-FF5252-1200-76</styleUrl>
        <ExtendedData>
          <Data name="Descripción">
            <value/>
          </Data>
          <Data name="Reg_Nom">
            <value>Valle 550</value>
          </Data>
          <Data name="Dominio">
            <value>Cali</value>
          </Data>
          <Data name="Region">
            <value>550</value>
          </Data>
          <Data name="Zona">
            <value>407</value>
          </Data>
          <Data name="Seccion">
            <value>I</value>
          </Data>
          <Data name="Zsec">
            <value>407I</value>
          </Data>
        </ExtendedData>
        <Polygon>
          <outerBoundaryIs>
            <LinearRing>
              <tessellate>1</tessellate>
              <coordinates>
                -76.509648,3.481497,0
                -76.509617,3.481539,0
                -76.509578,3.481592,0
                -76.509397,3.481727,0
                -76.509345,3.481765,0
                -76.509315,3.481787,0
                -76.50912,3.481969,0
                -76.509098,3.481986,0
                -76.508716,3.482273,0
                -76.508562,3.48237,0
                -76.508321,3.482483,0
                -76.508082,3.482577,0
                -76.508014,3.482593,0
                -76.507946,3.48261,0
                -76.507613,3.482694,0
                -76.507205,3.482794,0
                -76.506869,3.482923,0
                -76.506832,3.482939,0
                -76.506525,3.483073,0
                -76.506503,3.483085,0
                -76.506187,3.483251,0
                -76.506181,3.483256,0
                -76.50617,3.483264,0
                -76.505922,3.483451,0
                -76.505916,3.483455,0
                -76.505912,3.483458,0
                -76.505724,3.483587,0
                -76.505646,3.483654,0
                -76.505584,3.483704,0
                -76.505467,3.483844,0
                -76.505437,3.483876,0
                -76.50535,3.483967,0
                -76.505243,3.484097,0
                -76.505239,3.484101,0
                -76.505104,3.484261,0
                -76.505034,3.484353,0
                -76.504972,3.484452,0
                -76.504889,3.484594,0
                -76.504887,3.484597,0
                -76.504827,3.484684,0
                -76.504729,3.484866,0
                -76.50462,3.485095,0
                -76.50454,3.48542,0
                -76.504469,3.485702,0
                -76.504428,3.485851,0
                -76.50442,3.485967,0
                -76.504372,3.486243,0
                -76.50431,3.486724,0
                -76.504245,3.487047,0
                -76.504166,3.487388,0
                -76.504053,3.487719,0
                -76.504042,3.487744,0
                -76.503951,3.487971,0
                -76.50379,3.488271,0
                -76.503609,3.488617,0
                -76.503587,3.48861,0
                -76.503393,3.488941,0
                -76.502833,3.489895,0
                -76.502415,3.490532,0
                -76.502416,3.490534,0
                -76.50223,3.490836,0
                -76.502058,3.491115,0
                -76.50203,3.491159,0
                -76.501864,3.491428,0
                -76.501675,3.491733,0
                -76.501678,3.491736,0
                -76.50147,3.492051,0
                -76.501399,3.492159,0
                -76.50128,3.492339,0
                -76.501084,3.492636,0
                -76.501063,3.492667,0
                -76.50089,3.492946,0
                -76.500889,3.492946,0
                -76.500665,3.493218,0
                -76.500446,3.493483,0
                -76.500215,3.493763,0
                -76.500819,3.49439,0
                -76.500875,3.494447,0
                -76.500609,3.494669,0
                -76.500612,3.494704,0
                -76.500657,3.494754,0
                -76.500687,3.494785,0
                -76.500596,3.494871,0
                -76.500555,3.494925,0
                -76.50101,3.495381,0
                -76.501085,3.495461,0
                -76.501311,3.495696,0
                -76.501358,3.495739,0
                -76.501407,3.495772,0
                -76.501385,3.495881,0
                -76.501389,3.495965,0
                -76.501556,3.496367,0
                -76.502333,3.49603,0
                -76.502942,3.495766,0
                -76.503043,3.495724,0
                -76.503793,3.495413,0
                -76.504175,3.495254,0
                -76.504804,3.494993,0
                -76.505433,3.494731,0
                -76.505534,3.494689,0
                -76.505974,3.494508,0
                -76.506002,3.494496,0
                -76.508316,3.493498,0
                -76.508333,3.493442,0
                -76.508336,3.49343,0
                -76.508815,3.493576,0
                -76.509136,3.492608,0
                -76.509454,3.491653,0
                -76.509796,3.490622,0
                -76.50981,3.490625,0
                -76.509883,3.490641,0
                -76.509941,3.490654,0
                -76.510117,3.49066,0
                -76.510258,3.490664,0
                -76.510356,3.490667,0
                -76.510627,3.490629,0
                -76.51066,3.490629,0
                -76.510912,3.490626,0
                -76.511426,3.490864,0
                -76.512546,3.491245,0
                -76.513407,3.491519,0
                -76.514333,3.491813,0
                -76.514433,3.491838,0
                -76.514446,3.491842,0
                -76.514457,3.491846,0
                -76.515262,3.492092,0
                -76.515576,3.492193,0
                -76.51701,3.492627,0
                -76.517262,3.492708,0
                -76.517299,3.49272,0
                -76.517305,3.492704,0
                -76.517659,3.491773,0
                -76.517679,3.491704,0
                -76.517711,3.491593,0
                -76.517718,3.49157,0
                -76.518312,3.48997,0
                -76.518744,3.488761,0
                -76.518766,3.488689,0
                -76.518783,3.488632,0
                -76.519,3.488065,0
                -76.519088,3.487774,0
                -76.519255,3.487275,0
                -76.519218,3.487259,0
                -76.513373,3.483661,0
                -76.509648,3.481497,0
              </coordinates>
            </LinearRing>
          </outerBoundaryIs>
        </Polygon>
      </Placemark>
      <Placemark>
        <name/>
        <description><![CDATA[Descripción: <br>Reg_Nom: Valle 550<br>Dominio: Cali<br>Region: 550<br>Zona: 407<br>Seccion: H<br>Zsec: 407H]]></description>
        <styleUrl>#poly-0288D1-3201-56</styleUrl>
        <ExtendedData>
          <Data name="Descripción">
            <value/>
          </Data>
          <Data name="Reg_Nom">
            <value>Valle 550</value>
          </Data>
          <Data name="Dominio">
            <value>Cali</value>
          </Data>
          <Data name="Region">
            <value>550</value>
          </Data>
          <Data name="Zona">
            <value>407</value>
          </Data>
          <Data name="Seccion">
            <value>H</value>
          </Data>
          <Data name="Zsec">
            <value>407H</value>
          </Data>
        </ExtendedData>
        <Polygon>
          <outerBoundaryIs>
            <LinearRing>
              <tessellate>1</tessellate>
              <coordinates>
                -76.514211,3.474964,0
                -76.514207,3.47497,0
                -76.514056,3.475213,0
                -76.513768,3.47562,0
                -76.513448,3.476084,0
                -76.512896,3.47685,0
                -76.512795,3.476942,0
                -76.512779,3.476964,0
                -76.512474,3.477397,0
                -76.512168,3.477826,0
                -76.511926,3.478167,0
                -76.511648,3.478536,0
                -76.511355,3.478922,0
                -76.511358,3.478924,0
                -76.511069,3.479317,0
                -76.510817,3.479676,0
                -76.51046,3.480174,0
                -76.510119,3.480603,0
                -76.509879,3.48097,0
                -76.509733,3.481205,0
                -76.509699,3.481427,0
                -76.509679,3.481455,0
                -76.509648,3.481497,0
                -76.513373,3.483661,0
                -76.519218,3.487259,0
                -76.519255,3.487275,0
                -76.519271,3.487229,0
                -76.519309,3.487103,0
                -76.519454,3.486768,0
                -76.519638,3.486278,0
                -76.519943,3.485396,0
                -76.519977,3.48526,0
                -76.52017,3.484751,0
                -76.520349,3.484257,0
                -76.520481,3.483926,0
                -76.520543,3.483772,0
                -76.520711,3.483279,0
                -76.520827,3.482989,0
                -76.52089,3.48276,0
                -76.521249,3.481754,0
                -76.521314,3.4816,0
                -76.521479,3.481129,0
                -76.521669,3.480611,0
                -76.521729,3.480463,0
                -76.521784,3.480283,0
                -76.52179,3.480267,0
                -76.521234,3.480151,0
                -76.518793,3.479146,0
                -76.516061,3.47738,0
                -76.515187,3.475882,0
                -76.514583,3.475212,0
                -76.514211,3.474964,0
              </coordinates>
            </LinearRing>
          </outerBoundaryIs>
        </Polygon>
      </Placemark>
      <Placemark>
        <name/>
        <description><![CDATA[Descripción: <br>Reg_Nom: Valle 550<br>Dominio: Yumbo<br>Region: 550<br>Zona: 407<br>Seccion: D<br>Zsec: 407D]]></description>
        <styleUrl>#poly-7CB342-3001-76</styleUrl>
        <ExtendedData>
          <Data name="Descripción">
            <value/>
          </Data>
          <Data name="Reg_Nom">
            <value>Valle 550</value>
          </Data>
          <Data name="Dominio">
            <value>Yumbo</value>
          </Data>
          <Data name="Region">
            <value>550</value>
          </Data>
          <Data name="Zona">
            <value>407</value>
          </Data>
          <Data name="Seccion">
            <value>D</value>
          </Data>
          <Data name="Zsec">
            <value>407D</value>
          </Data>
        </ExtendedData>
        <Polygon>
          <outerBoundaryIs>
            <LinearRing>
              <tessellate>1</tessellate>
              <coordinates>
                -76.492353,3.582534,0
                -76.495324,3.583056,0
                -76.498056,3.583168,0
                -76.498235,3.583391,0
                -76.498638,3.583861,0
                -76.499355,3.58433,0
                -76.499364,3.584329,0
                -76.499344,3.584319,0
                -76.499402,3.584192,0
                -76.499525,3.584353,0
                -76.50026,3.584598,0
                -76.500341,3.58419,0
                -76.50075,3.583945,0
                -76.500695,3.583647,0
                -76.502165,3.582913,0
                -76.501485,3.581473,0
                -76.500995,3.581473,0
                -76.500586,3.580087,0
                -76.500178,3.579979,0
                -76.499525,3.580441,0
                -76.49947,3.579653,0
                -76.499824,3.579381,0
                -76.499579,3.578349,0
                -76.499361,3.577099,0
                -76.49947,3.57555,0
                -76.499525,3.575034,0
                -76.498327,3.574898,0
                -76.497265,3.57411,0
                -76.497059,3.57404,0
                -76.49749,3.572643,0
                -76.499504,3.56998,0
                -76.500267,3.56509,0
                -76.499287,3.563949,0
                -76.495911,3.562427,0
                -76.493788,3.561721,0
                -76.492427,3.562971,0
                -76.490249,3.562916,0
                -76.490303,3.565307,0
                -76.492318,3.566177,0
                -76.494114,3.565361,0
                -76.494332,3.565307,0
                -76.495965,3.567372,0
                -76.495475,3.568785,0
                -76.49553,3.570469,0
                -76.496238,3.570632,0
                -76.496891,3.570687,0
                -76.496837,3.571611,0
                -76.496022,3.573688,0
                -76.494353,3.573132,0
                -76.493264,3.573078,0
                -76.492412,3.575336,0
                -76.492512,3.575591,0
                -76.492457,3.57646,0
                -76.492702,3.576759,0
                -76.493219,3.57771,0
                -76.492353,3.582534,0
              </coordinates>
            </LinearRing>
          </outerBoundaryIs>
        </Polygon>
      </Placemark>
      <Placemark>
        <name/>
        <description><![CDATA[Descripción: <br>Reg_Nom: Valle 550<br>Dominio: Yumbo<br>Region: 550<br>Zona: 407<br>Seccion: B<br>Zsec: 407B]]></description>
        <styleUrl>#poly-0288D1-3201-76</styleUrl>
        <ExtendedData>
          <Data name="Descripción">
            <value/>
          </Data>
          <Data name="Reg_Nom">
            <value>Valle 550</value>
          </Data>
          <Data name="Dominio">
            <value>Yumbo</value>
          </Data>
          <Data name="Region">
            <value>550</value>
          </Data>
          <Data name="Zona">
            <value>407</value>
          </Data>
          <Data name="Seccion">
            <value>B</value>
          </Data>
          <Data name="Zsec">
            <value>407B</value>
          </Data>
        </ExtendedData>
        <Polygon>
          <outerBoundaryIs>
            <LinearRing>
              <tessellate>1</tessellate>
              <coordinates>
                -76.492385,3.582539,0
                -76.491383,3.582363,0
                -76.486138,3.581563,0
                -76.486132,3.58167,0
                -76.485773,3.582877,0
                -76.484989,3.584844,0
                -76.483646,3.587079,0
                -76.483198,3.588085,0
                -76.483228,3.588853,0
                -76.483209,3.588878,0
                -76.483232,3.589269,0
                -76.483288,3.59051,0
                -76.484441,3.590342,0
                -76.484989,3.590096,0
                -76.485018,3.590086,0
                -76.485669,3.591254,0
                -76.486512,3.591553,0
                -76.486404,3.591988,0
                -76.487302,3.592558,0
                -76.487982,3.591417,0
                -76.488498,3.589615,0
                -76.4885,3.589624,0
                -76.490242,3.590031,0
                -76.490265,3.59009,0
                -76.490361,3.589909,0
                -76.490633,3.589909,0
                -76.490933,3.589502,0
                -76.490905,3.587844,0
                -76.490878,3.587382,0
                -76.491096,3.586676,0
                -76.491559,3.586187,0
                -76.491559,3.585997,0
                -76.491586,3.584992,0
                -76.491885,3.5851,0
                -76.492375,3.582628,0
                -76.492385,3.582539,0
              </coordinates>
            </LinearRing>
          </outerBoundaryIs>
        </Polygon>
      </Placemark>
      <Placemark>
        <name/>
        <description><![CDATA[Descripción: <br>Reg_Nom: Valle 550<br>Dominio: Vijes<br>Region: 550<br>Zona: 407<br>Seccion: E<br>Zsec: 407E]]></description>
        <styleUrl>#poly-9C27B0-3401-54</styleUrl>
        <ExtendedData>
          <Data name="Descripción">
            <value/>
          </Data>
          <Data name="Reg_Nom">
            <value>Valle 550</value>
          </Data>
          <Data name="Dominio">
            <value>Vijes</value>
          </Data>
          <Data name="Region">
            <value>550</value>
          </Data>
          <Data name="Zona">
            <value>407</value>
          </Data>
          <Data name="Seccion">
            <value>E</value>
          </Data>
          <Data name="Zsec">
            <value>407E</value>
          </Data>
        </ExtendedData>
        <Polygon>
          <outerBoundaryIs>
            <LinearRing>
              <tessellate>1</tessellate>
              <coordinates>
                -76.444561,3.701186,0
                -76.445134,3.70116,0
                -76.445912,3.701645,0
                -76.446113,3.701079,0
                -76.446386,3.700915,0
                -76.446386,3.700182,0
                -76.446386,3.699014,0
                -76.446178,3.698848,0
                -76.445954,3.697921,0
                -76.446359,3.69646,0
                -76.446121,3.696381,0
                -76.446169,3.696107,0
                -76.444426,3.696324,0
                -76.444053,3.695755,0
                -76.443936,3.694667,0
                -76.443555,3.693662,0
                -76.443011,3.692059,0
                -76.442385,3.691761,0
                -76.441557,3.692032,0
                -76.441286,3.692032,0
                -76.440397,3.692032,0
                -76.439853,3.692575,0
                -76.437838,3.696161,0
                -76.436416,3.695739,0
                -76.435203,3.697958,0
                -76.435246,3.697973,0
                -76.43449,3.699068,0
                -76.433673,3.700019,0
                -76.436668,3.701024,0
                -76.439526,3.702491,0
                -76.439172,3.703496,0
                -76.438492,3.704121,0
                -76.438955,3.704257,0
                -76.441486,3.703306,0
                -76.441786,3.702899,0
                -76.442194,3.702545,0
                -76.443256,3.702084,0
                -76.444345,3.702111,0
                -76.444617,3.701785,0
                -76.444561,3.701186,0
              </coordinates>
            </LinearRing>
          </outerBoundaryIs>
        </Polygon>
      </Placemark>
      <Placemark>
        <name/>
        <description><![CDATA[Descripción: <br>Reg_Nom: Valle 550<br>Dominio: Yotoco<br>Region: 550<br>Zona: 407<br>Seccion: E<br>Zsec: 407E]]></description>
        <styleUrl>#poly-9C27B0-3401-54</styleUrl>
        <ExtendedData>
          <Data name="Descripción">
            <value/>
          </Data>
          <Data name="Reg_Nom">
            <value>Valle 550</value>
          </Data>
          <Data name="Dominio">
            <value>Yotoco</value>
          </Data>
          <Data name="Region">
            <value>550</value>
          </Data>
          <Data name="Zona">
            <value>407</value>
          </Data>
          <Data name="Seccion">
            <value>E</value>
          </Data>
          <Data name="Zsec">
            <value>407E</value>
          </Data>
        </ExtendedData>
        <Polygon>
          <outerBoundaryIs>
            <LinearRing>
              <tessellate>1</tessellate>
              <coordinates>
                -76.3878,3.861329,0
                -76.387273,3.860768,0
                -76.387055,3.856477,0
                -76.384523,3.855635,0
                -76.383951,3.854928,0
                -76.383543,3.854928,0
                -76.382454,3.856694,0
                -76.378408,3.855403,0
                -76.378643,3.855906,0
                -76.378589,3.857454,0
                -76.378806,3.858079,0
                -76.379187,3.858378,0
                -76.379596,3.861447,0
                -76.380385,3.866798,0
                -76.38023,3.868058,0
                -76.380358,3.867938,0
                -76.383162,3.865494,0
                -76.385285,3.8662,0
                -76.385721,3.864951,0
                -76.388886,3.866322,0
                -76.389695,3.865331,0
                -76.388035,3.864761,0
                -76.388498,3.864245,0
                -76.387409,3.863375,0
                -76.387409,3.862642,0
                -76.38749,3.862072,0
                -76.387191,3.861067,0
                -76.3878,3.861329,0
              </coordinates>
            </LinearRing>
          </outerBoundaryIs>
        </Polygon>
      </Placemark>
      <Placemark>
        <name/>
        <description><![CDATA[Descripción: <br>Reg_Nom: Valle 550<br>Dominio: Yumbo<br>Region: 550<br>Zona: 407<br>Seccion: C<br>Zsec: 407C]]></description>
        <styleUrl>#poly-FF5252-3401-76</styleUrl>
        <ExtendedData>
          <Data name="Descripción">
            <value/>
          </Data>
          <Data name="Reg_Nom">
            <value>Valle 550</value>
          </Data>
          <Data name="Dominio">
            <value>Yumbo</value>
          </Data>
          <Data name="Region">
            <value>550</value>
          </Data>
          <Data name="Zona">
            <value>407</value>
          </Data>
          <Data name="Seccion">
            <value>C</value>
          </Data>
          <Data name="Zsec">
            <value>407C</value>
          </Data>
        </ExtendedData>
        <Polygon>
          <outerBoundaryIs>
            <LinearRing>
              <tessellate>1</tessellate>
              <coordinates>
                -76.492412,3.575336,0
                -76.492392,3.575387,0
                -76.491521,3.574898,0
                -76.490051,3.573838,0
                -76.489289,3.573675,0
                -76.488881,3.57411,0
                -76.488282,3.5743,0
                -76.487875,3.574585,0
                -76.487845,3.574518,0
                -76.48771,3.573848,0
                -76.487173,3.573803,0
                -76.486738,3.572773,0
                -76.487465,3.57229,0
                -76.488119,3.571203,0
                -76.488037,3.570306,0
                -76.487656,3.569763,0
                -76.487683,3.569029,0
                -76.487084,3.567291,0
                -76.48605,3.566394,0
                -76.484335,3.566149,0
                -76.485379,3.569839,0
                -76.480186,3.570361,0
                -76.479783,3.568752,0
                -76.476424,3.569467,0
                -76.478305,3.577692,0
                -76.479962,3.577334,0
                -76.479425,3.574608,0
                -76.485247,3.57349,0
                -76.486098,3.577022,0
                -76.486277,3.578497,0
                -76.486309,3.578573,0
                -76.486311,3.578608,0
                -76.486138,3.581563,0
                -76.491383,3.582363,0
                -76.492353,3.582534,0
                -76.493219,3.57771,0
                -76.492702,3.576759,0
                -76.492457,3.57646,0
                -76.492512,3.575591,0
                -76.492412,3.575336,0
              </coordinates>
            </LinearRing>
          </outerBoundaryIs>
        </Polygon>
      </Placemark>
      <Placemark>
        <name/>
        <description><![CDATA[Descripción: <br>Reg_Nom: Valle 550<br>Dominio: Yumbo<br>Region: 550<br>Zona: 407<br>Seccion: A<br>Zsec: 407A]]></description>
        <styleUrl>#poly-FFEA00-3301-76</styleUrl>
        <ExtendedData>
          <Data name="Descripción">
            <value/>
          </Data>
          <Data name="Reg_Nom">
            <value>Valle 550</value>
          </Data>
          <Data name="Dominio">
            <value>Yumbo</value>
          </Data>
          <Data name="Region">
            <value>550</value>
          </Data>
          <Data name="Zona">
            <value>407</value>
          </Data>
          <Data name="Seccion">
            <value>A</value>
          </Data>
          <Data name="Zsec">
            <value>407A</value>
          </Data>
        </ExtendedData>
        <Polygon>
          <outerBoundaryIs>
            <LinearRing>
              <tessellate>1</tessellate>
              <coordinates>
                -76.490265,3.59009,0
                -76.490677,3.591118,0
                -76.491576,3.591825,0
                -76.49163,3.594025,0
                -76.495605,3.595221,0
                -76.496721,3.595194,0
                -76.496911,3.593319,0
                -76.496748,3.592775,0
                -76.496666,3.590412,0
                -76.496525,3.590281,0
                -76.496533,3.588822,0
                -76.496613,3.58824,0
                -76.496657,3.587917,0
                -76.49734,3.587973,0
                -76.497348,3.587983,0
                -76.497356,3.58798,0
                -76.498087,3.588228,0
                -76.499067,3.588641,0
                -76.499361,3.588759,0
                -76.499366,3.588755,0
                -76.499501,3.588163,0
                -76.499489,3.587604,0
                -76.50062,3.587828,0
                -76.500519,3.588252,0
                -76.500844,3.588353,0
                -76.501723,3.588572,0
                -76.501829,3.588599,0
                -76.502221,3.588588,0
                -76.502255,3.58842,0
                -76.5023,3.588252,0
                -76.502266,3.587928,0
                -76.502244,3.587872,0
                -76.501818,3.587705,0
                -76.50169,3.587537,0
                -76.50166,3.587481,0
                -76.501671,3.587476,0
                -76.501743,3.587446,0
                -76.501826,3.587393,0
                -76.501891,3.587357,0
                -76.501997,3.587278,0
                -76.502137,3.587142,0
                -76.502279,3.587013,0
                -76.502382,3.586855,0
                -76.502401,3.586769,0
                -76.50248,3.586687,0
                -76.502569,3.586654,0
                -76.502719,3.586642,0
                -76.502736,3.58664,0
                -76.502753,3.586641,0
                -76.502726,3.586593,0
                -76.502637,3.586539,0
                -76.502555,3.586506,0
                -76.502624,3.586464,0
                -76.502692,3.586185,0
                -76.501158,3.585235,0
                -76.500587,3.584945,0
                -76.500299,3.5848,0
                -76.499364,3.584329,0
                -76.499355,3.58433,0
                -76.498638,3.583861,0
                -76.498235,3.583391,0
                -76.498056,3.583168,0
                -76.495324,3.583056,0
                -76.492385,3.582539,0
                -76.492375,3.582628,0
                -76.491885,3.5851,0
                -76.491586,3.584992,0
                -76.491559,3.585997,0
                -76.491559,3.586187,0
                -76.491096,3.586676,0
                -76.490878,3.587382,0
                -76.490905,3.587844,0
                -76.490933,3.589502,0
                -76.490633,3.589909,0
                -76.490361,3.589909,0
                -76.490265,3.59009,0
              </coordinates>
            </LinearRing>
          </outerBoundaryIs>
        </Polygon>
      </Placemark>
    </Folder>
  </Document>
</kml>
