<?xml version="1.0" encoding="UTF-8"?>
<kml xmlns="http://www.opengis.net/kml/2.2">
  <Document>
    <name>Zona 434</name>
    <description/>
    <Style id="poly-0288D1-3001-76-normal">
      <LineStyle>
        <color>ffd18802</color>
        <width>3.001</width>
      </LineStyle>
      <PolyStyle>
        <color>4cd18802</color>
        <fill>1</fill>
        <outline>1</outline>
      </PolyStyle>
    </Style>
    <Style id="poly-0288D1-3001-76-highlight">
      <LineStyle>
        <color>ffd18802</color>
        <width>4.5015</width>
      </LineStyle>
      <PolyStyle>
        <color>4cd18802</color>
        <fill>1</fill>
        <outline>1</outline>
      </PolyStyle>
    </Style>
    <StyleMap id="poly-0288D1-3001-76">
      <Pair>
        <key>normal</key>
        <styleUrl>#poly-0288D1-3001-76-normal</styleUrl>
      </Pair>
      <Pair>
        <key>highlight</key>
        <styleUrl>#poly-0288D1-3001-76-highlight</styleUrl>
      </Pair>
    </StyleMap>
    <Style id="poly-7CB342-3001-76-normal">
      <LineStyle>
        <color>ff42b37c</color>
        <width>3.001</width>
      </LineStyle>
      <PolyStyle>
        <color>4c42b37c</color>
        <fill>1</fill>
        <outline>1</outline>
      </PolyStyle>
    </Style>
    <Style id="poly-7CB342-3001-76-highlight">
      <LineStyle>
        <color>ff42b37c</color>
        <width>4.5015</width>
      </LineStyle>
      <PolyStyle>
        <color>4c42b37c</color>
        <fill>1</fill>
        <outline>1</outline>
      </PolyStyle>
    </Style>
    <StyleMap id="poly-7CB342-3001-76">
      <Pair>
        <key>normal</key>
        <styleUrl>#poly-7CB342-3001-76-normal</styleUrl>
      </Pair>
      <Pair>
        <key>highlight</key>
        <styleUrl>#poly-7CB342-3001-76-highlight</styleUrl>
      </Pair>
    </StyleMap>
    <Style id="poly-9C27B0-3501-76-normal">
      <LineStyle>
        <color>ffb0279c</color>
        <width>3.501</width>
      </LineStyle>
      <PolyStyle>
        <color>4cb0279c</color>
        <fill>1</fill>
        <outline>1</outline>
      </PolyStyle>
    </Style>
    <Style id="poly-9C27B0-3501-76-highlight">
      <LineStyle>
        <color>ffb0279c</color>
        <width>5.2515</width>
      </LineStyle>
      <PolyStyle>
        <color>4cb0279c</color>
        <fill>1</fill>
        <outline>1</outline>
      </PolyStyle>
    </Style>
    <StyleMap id="poly-9C27B0-3501-76">
      <Pair>
        <key>normal</key>
        <styleUrl>#poly-9C27B0-3501-76-normal</styleUrl>
      </Pair>
      <Pair>
        <key>highlight</key>
        <styleUrl>#poly-9C27B0-3501-76-highlight</styleUrl>
      </Pair>
    </StyleMap>
    <Style id="poly-FF5252-3001-76-normal">
      <LineStyle>
        <color>ff5252ff</color>
        <width>3.001</width>
      </LineStyle>
      <PolyStyle>
        <color>4c5252ff</color>
        <fill>1</fill>
        <outline>1</outline>
      </PolyStyle>
    </Style>
    <Style id="poly-FF5252-3001-76-highlight">
      <LineStyle>
        <color>ff5252ff</color>
        <width>4.5015</width>
      </LineStyle>
      <PolyStyle>
        <color>4c5252ff</color>
        <fill>1</fill>
        <outline>1</outline>
      </PolyStyle>
    </Style>
    <StyleMap id="poly-FF5252-3001-76">
      <Pair>
        <key>normal</key>
        <styleUrl>#poly-FF5252-3001-76-normal</styleUrl>
      </Pair>
      <Pair>
        <key>highlight</key>
        <styleUrl>#poly-FF5252-3001-76-highlight</styleUrl>
      </Pair>
    </StyleMap>
    <Style id="poly-FFEA00-3001-61-normal">
      <LineStyle>
        <color>ff00eaff</color>
        <width>3.001</width>
      </LineStyle>
      <PolyStyle>
        <color>3d00eaff</color>
        <fill>1</fill>
        <outline>1</outline>
      </PolyStyle>
    </Style>
    <Style id="poly-FFEA00-3001-61-highlight">
      <LineStyle>
        <color>ff00eaff</color>
        <width>4.5015</width>
      </LineStyle>
      <PolyStyle>
        <color>3d00eaff</color>
        <fill>1</fill>
        <outline>1</outline>
      </PolyStyle>
    </Style>
    <StyleMap id="poly-FFEA00-3001-61">
      <Pair>
        <key>normal</key>
        <styleUrl>#poly-FFEA00-3001-61-normal</styleUrl>
      </Pair>
      <Pair>
        <key>highlight</key>
        <styleUrl>#poly-FFEA00-3001-61-highlight</styleUrl>
      </Pair>
    </StyleMap>
    <Folder>
      <name>VD434</name>
      <Placemark>
        <name/>
        <description><![CDATA[Descripción: <br>Reg_Nom: Valle 550<br>Dominio: Ipiales<br>Region: 550<br>Zona: 434<br>Seccion: E<br>Zsec: 434E]]></description>
        <styleUrl>#poly-9C27B0-3501-76</styleUrl>
        <ExtendedData>
          <Data name="Descripción">
            <value/>
          </Data>
          <Data name="Reg_Nom">
            <value>Valle 550</value>
          </Data>
          <Data name="Dominio">
            <value>Ipiales</value>
          </Data>
          <Data name="Region">
            <value>550</value>
          </Data>
          <Data name="Zona">
            <value>434</value>
          </Data>
          <Data name="Seccion">
            <value>E</value>
          </Data>
          <Data name="Zsec">
            <value>434E</value>
          </Data>
        </ExtendedData>
        <Polygon>
          <outerBoundaryIs>
            <LinearRing>
              <tessellate>1</tessellate>
              <coordinates>
                -77.634097,0.818923,0
                -77.634063,0.818911,0
                -77.633946,0.818818,0
                -77.632786,0.818413,0
                -77.631883,0.818725,0
                -77.631725,0.818813,0
                -77.630607,0.81944,0
                -77.629393,0.819876,0
                -77.628059,0.820105,0
                -77.6276,0.820184,0
                -77.627214,0.82025,0
                -77.626124,0.820374,0
                -77.625636,0.820297,0
                -77.624941,0.820188,0
                -77.624848,0.820167,0
                -77.6241,0.820001,0
                -77.62326,0.820499,0
                -77.621828,0.821931,0
                -77.621174,0.82218,0
                -77.62052,0.822367,0
                -77.617002,0.824234,0
                -77.61529,0.825511,0
                -77.614996,0.825861,0
                -77.615166,0.826444,0
                -77.615259,0.827752,0
                -77.615134,0.828997,0
                -77.622513,0.829495,0
                -77.622513,0.829713,0
                -77.622462,0.829829,0
                -77.622511,0.829823,0
                -77.623355,0.832029,0
                -77.624087,0.831791,0
                -77.624116,0.831775,0
                -77.624163,0.832098,0
                -77.625533,0.832048,0
                -77.625533,0.831705,0
                -77.626186,0.831736,0
                -77.626031,0.83046,0
                -77.62656,0.830429,0
                -77.626653,0.829682,0
                -77.630483,0.829993,0
                -77.630622,0.830243,0
                -77.630642,0.830011,0
                -77.630643,0.830007,0
                -77.630918,0.828866,0
                -77.63007,0.828599,0
                -77.630064,0.828596,0
                -77.630399,0.827387,0
                -77.630437,0.827179,0
                -77.630608,0.826469,0
                -77.630723,0.826142,0
                -77.630972,0.825621,0
                -77.631079,0.825455,0
                -77.63109,0.825432,0
                -77.631194,0.825157,0
                -77.631441,0.824528,0
                -77.631452,0.824502,0
                -77.631615,0.824182,0
                -77.631863,0.823766,0
                -77.631963,0.823596,0
                -77.632187,0.823156,0
                -77.632187,0.82315,0
                -77.632361,0.822666,0
                -77.632434,0.822518,0
                -77.632625,0.822129,0
                -77.632954,0.821464,0
                -77.633353,0.820679,0
                -77.633365,0.820656,0
                -77.633638,0.820179,0
                -77.633715,0.819964,0
                -77.633689,0.819876,0
                -77.633814,0.819316,0
                -77.633855,0.8193,0
                -77.634097,0.818923,0
              </coordinates>
            </LinearRing>
          </outerBoundaryIs>
        </Polygon>
      </Placemark>
      <Placemark>
        <name/>
        <description><![CDATA[Descripción: <br>Reg_Nom: Valle 550<br>Dominio: Ipiales<br>Region: 550<br>Zona: 434<br>Seccion: C<br>Zsec: 434C]]></description>
        <styleUrl>#poly-FF5252-3001-76</styleUrl>
        <ExtendedData>
          <Data name="Descripción">
            <value/>
          </Data>
          <Data name="Reg_Nom">
            <value>Valle 550</value>
          </Data>
          <Data name="Dominio">
            <value>Ipiales</value>
          </Data>
          <Data name="Region">
            <value>550</value>
          </Data>
          <Data name="Zona">
            <value>434</value>
          </Data>
          <Data name="Seccion">
            <value>C</value>
          </Data>
          <Data name="Zsec">
            <value>434C</value>
          </Data>
        </ExtendedData>
        <Polygon>
          <outerBoundaryIs>
            <LinearRing>
              <tessellate>1</tessellate>
              <coordinates>
                -77.642087,0.82164,0
                -77.641752,0.821402,0
                -77.64172,0.821381,0
                -77.641486,0.821228,0
                -77.64113,0.820997,0
                -77.640635,0.820415,0
                -77.639542,0.819658,0
                -77.63817,0.819396,0
                -77.638146,0.819963,0
                -77.638146,0.819967,0
                -77.638365,0.820414,0
                -77.638449,0.820965,0
                -77.638522,0.821262,0
                -77.638574,0.82138,0
                -77.638575,0.821569,0
                -77.638837,0.822466,0
                -77.638384,0.822789,0
                -77.638245,0.823005,0
                -77.637888,0.823579,0
                -77.637666,0.82397,0
                -77.637435,0.824427,0
                -77.637193,0.825038,0
                -77.637005,0.825463,0
                -77.636822,0.825825,0
                -77.636488,0.826488,0
                -77.636456,0.826584,0
                -77.636302,0.826933,0
                -77.636125,0.827337,0
                -77.63595,0.827732,0
                -77.635954,0.827737,0
                -77.635792,0.828264,0
                -77.635747,0.828374,0
                -77.6357,0.828488,0
                -77.635571,0.828807,0
                -77.635535,0.828902,0
                -77.63532,0.829525,0
                -77.635212,0.829835,0
                -77.635055,0.83029,0
                -77.636733,0.830381,0
                -77.637115,0.830433,0
                -77.637607,0.8305,0
                -77.637644,0.830503,0
                -77.638137,0.830544,0
                -77.638629,0.830585,0
                -77.63917,0.83063,0
                -77.639399,0.83062,0
                -77.640127,0.830735,0
                -77.640222,0.830768,0
                -77.640423,0.830802,0
                -77.640572,0.830825,0
                -77.64097,0.830888,0
                -77.641151,0.830904,0
                -77.641204,0.830763,0
                -77.641479,0.830137,0
                -77.641512,0.830068,0
                -77.641758,0.829538,0
                -77.642029,0.828937,0
                -77.64205,0.828892,0
                -77.642331,0.828279,0
                -77.641695,0.827661,0
                -77.642339,0.82695,0
                -77.642625,0.82637,0
                -77.643013,0.825927,0
                -77.643571,0.82539,0
                -77.64404,0.824996,0
                -77.644846,0.824195,0
                -77.644967,0.824075,0
                -77.644032,0.823319,0
                -77.643138,0.822594,0
                -77.642041,0.821668,0
                -77.642087,0.82164,0
              </coordinates>
            </LinearRing>
          </outerBoundaryIs>
        </Polygon>
      </Placemark>
      <Placemark>
        <name/>
        <description><![CDATA[Descripción: <br>Reg_Nom: Valle 550<br>Dominio: Ipiales<br>Region: 550<br>Zona: 434<br>Seccion: D<br>Zsec: 434D]]></description>
        <styleUrl>#poly-7CB342-3001-76</styleUrl>
        <ExtendedData>
          <Data name="Descripción">
            <value/>
          </Data>
          <Data name="Reg_Nom">
            <value>Valle 550</value>
          </Data>
          <Data name="Dominio">
            <value>Ipiales</value>
          </Data>
          <Data name="Region">
            <value>550</value>
          </Data>
          <Data name="Zona">
            <value>434</value>
          </Data>
          <Data name="Seccion">
            <value>D</value>
          </Data>
          <Data name="Zsec">
            <value>434D</value>
          </Data>
        </ExtendedData>
        <Polygon>
          <outerBoundaryIs>
            <LinearRing>
              <tessellate>1</tessellate>
              <coordinates>
                -77.63817,0.819396,0
                -77.638079,0.819378,0
                -77.636553,0.819254,0
                -77.635028,0.819254,0
                -77.634111,0.818928,0
                -77.633908,0.819279,0
                -77.633814,0.819316,0
                -77.633689,0.819876,0
                -77.633715,0.819964,0
                -77.633638,0.820179,0
                -77.633365,0.820656,0
                -77.633353,0.820679,0
                -77.632954,0.821464,0
                -77.632625,0.822129,0
                -77.632434,0.822518,0
                -77.632361,0.822666,0
                -77.632187,0.82315,0
                -77.632187,0.823156,0
                -77.631963,0.823596,0
                -77.631863,0.823766,0
                -77.631615,0.824182,0
                -77.631452,0.824502,0
                -77.631441,0.824528,0
                -77.631194,0.825157,0
                -77.63109,0.825432,0
                -77.631079,0.825455,0
                -77.630972,0.825621,0
                -77.630723,0.826142,0
                -77.630608,0.826469,0
                -77.630437,0.827179,0
                -77.630399,0.827387,0
                -77.630064,0.828596,0
                -77.63007,0.828599,0
                -77.630918,0.828866,0
                -77.630643,0.830007,0
                -77.630642,0.830011,0
                -77.630649,0.830008,0
                -77.632125,0.830101,0
                -77.633384,0.83018,0
                -77.633394,0.830181,0
                -77.634252,0.830246,0
                -77.634275,0.830247,0
                -77.634359,0.830252,0
                -77.634679,0.830269,0
                -77.635055,0.83029,0
                -77.635212,0.829835,0
                -77.63532,0.829525,0
                -77.635535,0.828902,0
                -77.635571,0.828807,0
                -77.6357,0.828488,0
                -77.635747,0.828374,0
                -77.635792,0.828264,0
                -77.635954,0.827737,0
                -77.63595,0.827732,0
                -77.636125,0.827337,0
                -77.636302,0.826933,0
                -77.636456,0.826584,0
                -77.636488,0.826488,0
                -77.636822,0.825825,0
                -77.637005,0.825463,0
                -77.637193,0.825038,0
                -77.637435,0.824427,0
                -77.637666,0.82397,0
                -77.637888,0.823579,0
                -77.638245,0.823005,0
                -77.638384,0.822789,0
                -77.638837,0.822466,0
                -77.638575,0.821569,0
                -77.638574,0.82138,0
                -77.638522,0.821262,0
                -77.638449,0.820965,0
                -77.638365,0.820414,0
                -77.638146,0.819967,0
                -77.638146,0.819963,0
                -77.63817,0.819396,0
              </coordinates>
            </LinearRing>
          </outerBoundaryIs>
        </Polygon>
      </Placemark>
      <Placemark>
        <name/>
        <description><![CDATA[Descripción: <br>Reg_Nom: Valle 550<br>Dominio: Ipiales<br>Region: 550<br>Zona: 434<br>Seccion: B<br>Zsec: 434B]]></description>
        <styleUrl>#poly-0288D1-3001-76</styleUrl>
        <ExtendedData>
          <Data name="Descripción">
            <value/>
          </Data>
          <Data name="Reg_Nom">
            <value>Valle 550</value>
          </Data>
          <Data name="Dominio">
            <value>Ipiales</value>
          </Data>
          <Data name="Region">
            <value>550</value>
          </Data>
          <Data name="Zona">
            <value>434</value>
          </Data>
          <Data name="Seccion">
            <value>B</value>
          </Data>
          <Data name="Zsec">
            <value>434B</value>
          </Data>
        </ExtendedData>
        <Polygon>
          <outerBoundaryIs>
            <LinearRing>
              <tessellate>1</tessellate>
              <coordinates>
                -77.645824,0.830223,0
                -77.645819,0.830254,0
                -77.644644,0.82972,0
                -77.643577,0.829178,0
                -77.642769,0.828716,0
                -77.642331,0.828279,0
                -77.64205,0.828892,0
                -77.642029,0.828937,0
                -77.641758,0.829538,0
                -77.641512,0.830068,0
                -77.641479,0.830137,0
                -77.641204,0.830763,0
                -77.641151,0.830904,0
                -77.64097,0.830888,0
                -77.640572,0.830825,0
                -77.640423,0.830802,0
                -77.640222,0.830768,0
                -77.640127,0.830735,0
                -77.639399,0.83062,0
                -77.63917,0.83063,0
                -77.638629,0.830585,0
                -77.638137,0.830544,0
                -77.637644,0.830503,0
                -77.637607,0.8305,0
                -77.637115,0.830433,0
                -77.636733,0.830381,0
                -77.635055,0.83029,0
                -77.634679,0.830269,0
                -77.634359,0.830252,0
                -77.634275,0.830247,0
                -77.634252,0.830246,0
                -77.633394,0.830181,0
                -77.633384,0.83018,0
                -77.632125,0.830101,0
                -77.630649,0.830008,0
                -77.630642,0.830011,0
                -77.630592,0.830595,0
                -77.630518,0.831578,0
                -77.630362,0.832162,0
                -77.630377,0.832166,0
                -77.630323,0.832328,0
                -77.630156,0.832789,0
                -77.630016,0.833297,0
                -77.629799,0.833878,0
                -77.629558,0.834498,0
                -77.629447,0.8348,0
                -77.629383,0.834937,0
                -77.629333,0.835122,0
                -77.629219,0.835578,0
                -77.629166,0.835958,0
                -77.629156,0.836017,0
                -77.628677,0.836063,0
                -77.628864,0.837184,0
                -77.629019,0.83717,0
                -77.629658,0.837114,0
                -77.629922,0.837091,0
                -77.629857,0.836609,0
                -77.631227,0.836632,0
                -77.631243,0.836632,0
                -77.631235,0.837821,0
                -77.632284,0.837943,0
                -77.63233,0.837948,0
                -77.632351,0.837951,0
                -77.632376,0.837938,0
                -77.633044,0.837611,0
                -77.633104,0.837035,0
                -77.633635,0.837139,0
                -77.633663,0.836957,0
                -77.633995,0.837137,0
                -77.6342,0.837126,0
                -77.634207,0.837126,0
                -77.634238,0.837124,0
                -77.634292,0.837504,0
                -77.634917,0.837551,0
                -77.634959,0.837554,0
                -77.634969,0.837555,0
                -77.634953,0.837768,0
                -77.635066,0.837768,0
                -77.635276,0.837826,0
                -77.635463,0.837876,0
                -77.635825,0.838003,0
                -77.636118,0.838149,0
                -77.636358,0.838233,0
                -77.636594,0.838306,0
                -77.636792,0.83826,0
                -77.637017,0.838165,0
                -77.637211,0.838047,0
                -77.637314,0.837874,0
                -77.637374,0.837626,0
                -77.637393,0.837361,0
                -77.637431,0.837181,0
                -77.637564,0.837016,0
                -77.637728,0.836933,0
                -77.637827,0.836937,0
                -77.638048,0.836982,0
                -77.638262,0.836982,0
                -77.638425,0.836956,0
                -77.63854,0.836875,0
                -77.638612,0.83678,0
                -77.63865,0.836707,0
                -77.6387,0.836581,0
                -77.638709,0.836576,0
                -77.638724,0.836542,0
                -77.638727,0.836533,0
                -77.638733,0.836502,0
                -77.638795,0.836417,0
                -77.63883,0.836377,0
                -77.638853,0.836354,0
                -77.638876,0.836334,0
                -77.638911,0.836308,0
                -77.638958,0.836272,0
                -77.638984,0.836254,0
                -77.639172,0.83621,0
                -77.639204,0.836196,0
                -77.639261,0.836172,0
                -77.639387,0.836134,0
                -77.63948,0.836063,0
                -77.639529,0.835939,0
                -77.639529,0.835844,0
                -77.639509,0.835683,0
                -77.639504,0.835557,0
                -77.639504,0.835461,0
                -77.639505,0.83541,0
                -77.639557,0.83535,0
                -77.639611,0.83532,0
                -77.639623,0.835313,0
                -77.639728,0.835272,0
                -77.639777,0.835256,0
                -77.639818,0.835257,0
                -77.639879,0.835269,0
                -77.639973,0.835275,0
                -77.640046,0.835268,0
                -77.640124,0.835211,0
                -77.640154,0.835168,0
                -77.640167,0.835132,0
                -77.640173,0.835098,0
                -77.640182,0.835042,0
                -77.640186,0.835,0
                -77.640191,0.834964,0
                -77.640191,0.83491,0
                -77.640192,0.83484,0
                -77.640193,0.834736,0
                -77.64019,0.83467,0
                -77.640178,0.834539,0
                -77.640138,0.834352,0
                -77.640175,0.834179,0
                -77.640203,0.834066,0
                -77.640613,0.834245,0
                -77.640637,0.834245,0
                -77.640725,0.834266,0
                -77.641042,0.834336,0
                -77.641496,0.834446,0
                -77.641802,0.834525,0
                -77.641832,0.834328,0
                -77.641835,0.834236,0
                -77.641829,0.83409,0
                -77.641823,0.833889,0
                -77.641847,0.833856,0
                -77.641878,0.833785,0
                -77.64334,0.834662,0
                -77.644492,0.834382,0
                -77.644668,0.834365,0
                -77.644748,0.834357,0
                -77.644803,0.834351,0
                -77.645354,0.834666,0
                -77.645675,0.834849,0
                -77.646324,0.834416,0
                -77.646516,0.834289,0
                -77.646599,0.834138,0
                -77.647026,0.833361,0
                -77.647201,0.833042,0
                -77.647214,0.833019,0
                -77.647427,0.832633,0
                -77.647543,0.832421,0
                -77.647616,0.832382,0
                -77.647528,0.832354,0
                -77.647957,0.831289,0
                -77.647964,0.831263,0
                -77.645824,0.830223,0
              </coordinates>
            </LinearRing>
          </outerBoundaryIs>
        </Polygon>
      </Placemark>
      <Placemark>
        <name/>
        <description><![CDATA[Descripción: <br>Reg_Nom: Valle 550<br>Dominio: Ipiales<br>Region: 550<br>Zona: 434<br>Seccion: A<br>Zsec: 434A]]></description>
        <styleUrl>#poly-FFEA00-3001-61</styleUrl>
        <ExtendedData>
          <Data name="Descripción">
            <value/>
          </Data>
          <Data name="Reg_Nom">
            <value>Valle 550</value>
          </Data>
          <Data name="Dominio">
            <value>Ipiales</value>
          </Data>
          <Data name="Region">
            <value>550</value>
          </Data>
          <Data name="Zona">
            <value>434</value>
          </Data>
          <Data name="Seccion">
            <value>A</value>
          </Data>
          <Data name="Zsec">
            <value>434A</value>
          </Data>
        </ExtendedData>
        <Polygon>
          <outerBoundaryIs>
            <LinearRing>
              <tessellate>1</tessellate>
              <coordinates>
                -77.649748,0.825144,0
                -77.649567,0.825168,0
                -77.64946,0.825147,0
                -77.649255,0.825666,0
                -77.648571,0.825593,0
                -77.648638,0.825615,0
                -77.648332,0.826543,0
                -77.648323,0.826571,0
                -77.647936,0.827695,0
                -77.647927,0.82772,0
                -77.647885,0.827751,0
                -77.647818,0.828248,0
                -77.647757,0.828401,0
                -77.647703,0.828908,0
                -77.647575,0.830051,0
                -77.647247,0.830069,0
                -77.647194,0.830071,0
                -77.646685,0.829976,0
                -77.646283,0.829946,0
                -77.645997,0.829939,0
                -77.645839,0.83012,0
                -77.645824,0.830223,0
                -77.647964,0.831263,0
                -77.647957,0.831289,0
                -77.647528,0.832354,0
                -77.647793,0.832441,0
                -77.648959,0.832789,0
                -77.648911,0.833095,0
                -77.648783,0.833924,0
                -77.648781,0.833938,0
                -77.648702,0.834395,0
                -77.649037,0.834459,0
                -77.649072,0.834464,0
                -77.649437,0.83452,0
                -77.649454,0.834523,0
                -77.649832,0.834587,0
                -77.64988,0.834597,0
                -77.650345,0.832483,0
                -77.652898,0.833355,0
                -77.653956,0.833947,0
                -77.65433,0.834196,0
                -77.655233,0.834289,0
                -77.656011,0.834569,0
                -77.656121,0.834608,0
                -77.65621,0.834482,0
                -77.656183,0.834418,0
                -77.656372,0.834532,0
                -77.656514,0.834603,0
                -77.657007,0.834849,0
                -77.657256,0.834476,0
                -77.657785,0.833573,0
                -77.658532,0.83288,0
                -77.658097,0.832328,0
                -77.657443,0.831581,0
                -77.656892,0.831164,0
                -77.656538,0.830896,0
                -77.657194,0.830896,0
                -77.657395,0.829147,0
                -77.65765,0.829146,0
                -77.657666,0.829145,0
                -77.658085,0.8291,0
                -77.6581,0.8291,0
                -77.658429,0.829092,0
                -77.6586,0.828942,0
                -77.659073,0.828576,0
                -77.659031,0.827254,0
                -77.661272,0.82688,0
                -77.664167,0.827223,0
                -77.666039,0.827728,0
                -77.666471,0.827845,0
                -77.667094,0.825978,0
                -77.666907,0.825853,0
                -77.666907,0.825851,0
                -77.666446,0.823608,0
                -77.665471,0.823832,0
                -77.665006,0.823852,0
                -77.664808,0.82381,0
                -77.664803,0.823701,0
                -77.664472,0.823667,0
                -77.664547,0.824913,0
                -77.66437,0.82491,0
                -77.664359,0.824494,0
                -77.663672,0.824525,0
                -77.66363,0.824527,0
                -77.663634,0.824593,0
                -77.662521,0.824305,0
                -77.662473,0.824293,0
                -77.662467,0.824291,0
                -77.662136,0.8242,0
                -77.662082,0.824193,0
                -77.662054,0.824189,0
                -77.662046,0.824158,0
                -77.662044,0.82414,0
                -77.662043,0.824134,0
                -77.661864,0.824265,0
                -77.661615,0.825137,0
                -77.659217,0.825262,0
                -77.657723,0.824826,0
                -77.655886,0.82439,0
                -77.654921,0.823736,0
                -77.654641,0.825511,0
                -77.652182,0.825573,0
                -77.651528,0.825293,0
                -77.649748,0.825144,0
              </coordinates>
            </LinearRing>
          </outerBoundaryIs>
        </Polygon>
      </Placemark>
    </Folder>
  </Document>
</kml>
