<?xml version="1.0" encoding="UTF-8"?>
<kml xmlns="http://www.opengis.net/kml/2.2">
  <Document>
    <name>Zona 432</name>
    <description/>
    <Style id="poly-0288D1-1200-76-normal">
      <LineStyle>
        <color>ffd18802</color>
        <width>1.2</width>
      </LineStyle>
      <PolyStyle>
        <color>4cd18802</color>
        <fill>1</fill>
        <outline>1</outline>
      </PolyStyle>
    </Style>
    <Style id="poly-0288D1-1200-76-highlight">
      <LineStyle>
        <color>ffd18802</color>
        <width>1.8</width>
      </LineStyle>
      <PolyStyle>
        <color>4cd18802</color>
        <fill>1</fill>
        <outline>1</outline>
      </PolyStyle>
    </Style>
    <StyleMap id="poly-0288D1-1200-76">
      <Pair>
        <key>normal</key>
        <styleUrl>#poly-0288D1-1200-76-normal</styleUrl>
      </Pair>
      <Pair>
        <key>highlight</key>
        <styleUrl>#poly-0288D1-1200-76-highlight</styleUrl>
      </Pair>
    </StyleMap>
    <Style id="poly-0288D1-3401-76-normal">
      <LineStyle>
        <color>ffd18802</color>
        <width>3.401</width>
      </LineStyle>
      <PolyStyle>
        <color>4cd18802</color>
        <fill>1</fill>
        <outline>1</outline>
      </PolyStyle>
    </Style>
    <Style id="poly-0288D1-3401-76-highlight">
      <LineStyle>
        <color>ffd18802</color>
        <width>5.1015</width>
      </LineStyle>
      <PolyStyle>
        <color>4cd18802</color>
        <fill>1</fill>
        <outline>1</outline>
      </PolyStyle>
    </Style>
    <StyleMap id="poly-0288D1-3401-76">
      <Pair>
        <key>normal</key>
        <styleUrl>#poly-0288D1-3401-76-normal</styleUrl>
      </Pair>
      <Pair>
        <key>highlight</key>
        <styleUrl>#poly-0288D1-3401-76-highlight</styleUrl>
      </Pair>
    </StyleMap>
    <Style id="poly-0F9D58-1200-76-normal">
      <LineStyle>
        <color>ff589d0f</color>
        <width>1.2</width>
      </LineStyle>
      <PolyStyle>
        <color>4c589d0f</color>
        <fill>1</fill>
        <outline>1</outline>
      </PolyStyle>
    </Style>
    <Style id="poly-0F9D58-1200-76-highlight">
      <LineStyle>
        <color>ff589d0f</color>
        <width>1.8</width>
      </LineStyle>
      <PolyStyle>
        <color>4c589d0f</color>
        <fill>1</fill>
        <outline>1</outline>
      </PolyStyle>
    </Style>
    <StyleMap id="poly-0F9D58-1200-76">
      <Pair>
        <key>normal</key>
        <styleUrl>#poly-0F9D58-1200-76-normal</styleUrl>
      </Pair>
      <Pair>
        <key>highlight</key>
        <styleUrl>#poly-0F9D58-1200-76-highlight</styleUrl>
      </Pair>
    </StyleMap>
    <Style id="poly-7CB342-3601-76-normal">
      <LineStyle>
        <color>ff42b37c</color>
        <width>3.601</width>
      </LineStyle>
      <PolyStyle>
        <color>4c42b37c</color>
        <fill>1</fill>
        <outline>1</outline>
      </PolyStyle>
    </Style>
    <Style id="poly-7CB342-3601-76-highlight">
      <LineStyle>
        <color>ff42b37c</color>
        <width>5.4015</width>
      </LineStyle>
      <PolyStyle>
        <color>4c42b37c</color>
        <fill>1</fill>
        <outline>1</outline>
      </PolyStyle>
    </Style>
    <StyleMap id="poly-7CB342-3601-76">
      <Pair>
        <key>normal</key>
        <styleUrl>#poly-7CB342-3601-76-normal</styleUrl>
      </Pair>
      <Pair>
        <key>highlight</key>
        <styleUrl>#poly-7CB342-3601-76-highlight</styleUrl>
      </Pair>
    </StyleMap>
    <Style id="poly-9C27B0-1200-76-normal">
      <LineStyle>
        <color>ffb0279c</color>
        <width>1.2</width>
      </LineStyle>
      <PolyStyle>
        <color>4cb0279c</color>
        <fill>1</fill>
        <outline>1</outline>
      </PolyStyle>
    </Style>
    <Style id="poly-9C27B0-1200-76-highlight">
      <LineStyle>
        <color>ffb0279c</color>
        <width>1.8</width>
      </LineStyle>
      <PolyStyle>
        <color>4cb0279c</color>
        <fill>1</fill>
        <outline>1</outline>
      </PolyStyle>
    </Style>
    <StyleMap id="poly-9C27B0-1200-76">
      <Pair>
        <key>normal</key>
        <styleUrl>#poly-9C27B0-1200-76-normal</styleUrl>
      </Pair>
      <Pair>
        <key>highlight</key>
        <styleUrl>#poly-9C27B0-1200-76-highlight</styleUrl>
      </Pair>
    </StyleMap>
    <Style id="poly-9C27B0-3301-76-normal">
      <LineStyle>
        <color>ffb0279c</color>
        <width>3.301</width>
      </LineStyle>
      <PolyStyle>
        <color>4cb0279c</color>
        <fill>1</fill>
        <outline>1</outline>
      </PolyStyle>
    </Style>
    <Style id="poly-9C27B0-3301-76-highlight">
      <LineStyle>
        <color>ffb0279c</color>
        <width>4.9515</width>
      </LineStyle>
      <PolyStyle>
        <color>4cb0279c</color>
        <fill>1</fill>
        <outline>1</outline>
      </PolyStyle>
    </Style>
    <StyleMap id="poly-9C27B0-3301-76">
      <Pair>
        <key>normal</key>
        <styleUrl>#poly-9C27B0-3301-76-normal</styleUrl>
      </Pair>
      <Pair>
        <key>highlight</key>
        <styleUrl>#poly-9C27B0-3301-76-highlight</styleUrl>
      </Pair>
    </StyleMap>
    <Style id="poly-FF5252-2201-76-normal">
      <LineStyle>
        <color>ff5252ff</color>
        <width>2.201</width>
      </LineStyle>
      <PolyStyle>
        <color>4c5252ff</color>
        <fill>1</fill>
        <outline>1</outline>
      </PolyStyle>
    </Style>
    <Style id="poly-FF5252-2201-76-highlight">
      <LineStyle>
        <color>ff5252ff</color>
        <width>3.3015</width>
      </LineStyle>
      <PolyStyle>
        <color>4c5252ff</color>
        <fill>1</fill>
        <outline>1</outline>
      </PolyStyle>
    </Style>
    <StyleMap id="poly-FF5252-2201-76">
      <Pair>
        <key>normal</key>
        <styleUrl>#poly-FF5252-2201-76-normal</styleUrl>
      </Pair>
      <Pair>
        <key>highlight</key>
        <styleUrl>#poly-FF5252-2201-76-highlight</styleUrl>
      </Pair>
    </StyleMap>
    <Style id="poly-FF5252-3201-69-normal">
      <LineStyle>
        <color>ff5252ff</color>
        <width>3.201</width>
      </LineStyle>
      <PolyStyle>
        <color>455252ff</color>
        <fill>1</fill>
        <outline>1</outline>
      </PolyStyle>
    </Style>
    <Style id="poly-FF5252-3201-69-highlight">
      <LineStyle>
        <color>ff5252ff</color>
        <width>4.8015</width>
      </LineStyle>
      <PolyStyle>
        <color>455252ff</color>
        <fill>1</fill>
        <outline>1</outline>
      </PolyStyle>
    </Style>
    <StyleMap id="poly-FF5252-3201-69">
      <Pair>
        <key>normal</key>
        <styleUrl>#poly-FF5252-3201-69-normal</styleUrl>
      </Pair>
      <Pair>
        <key>highlight</key>
        <styleUrl>#poly-FF5252-3201-69-highlight</styleUrl>
      </Pair>
    </StyleMap>
    <Style id="poly-FFEA00-1200-76-normal">
      <LineStyle>
        <color>ff00eaff</color>
        <width>1.2</width>
      </LineStyle>
      <PolyStyle>
        <color>4c00eaff</color>
        <fill>1</fill>
        <outline>1</outline>
      </PolyStyle>
    </Style>
    <Style id="poly-FFEA00-1200-76-highlight">
      <LineStyle>
        <color>ff00eaff</color>
        <width>1.8</width>
      </LineStyle>
      <PolyStyle>
        <color>4c00eaff</color>
        <fill>1</fill>
        <outline>1</outline>
      </PolyStyle>
    </Style>
    <StyleMap id="poly-FFEA00-1200-76">
      <Pair>
        <key>normal</key>
        <styleUrl>#poly-FFEA00-1200-76-normal</styleUrl>
      </Pair>
      <Pair>
        <key>highlight</key>
        <styleUrl>#poly-FFEA00-1200-76-highlight</styleUrl>
      </Pair>
    </StyleMap>
    <Style id="poly-FFEA00-3201-74-normal">
      <LineStyle>
        <color>ff00eaff</color>
        <width>3.201</width>
      </LineStyle>
      <PolyStyle>
        <color>4a00eaff</color>
        <fill>1</fill>
        <outline>1</outline>
      </PolyStyle>
    </Style>
    <Style id="poly-FFEA00-3201-74-highlight">
      <LineStyle>
        <color>ff00eaff</color>
        <width>4.8015</width>
      </LineStyle>
      <PolyStyle>
        <color>4a00eaff</color>
        <fill>1</fill>
        <outline>1</outline>
      </PolyStyle>
    </Style>
    <StyleMap id="poly-FFEA00-3201-74">
      <Pair>
        <key>normal</key>
        <styleUrl>#poly-FFEA00-3201-74-normal</styleUrl>
      </Pair>
      <Pair>
        <key>highlight</key>
        <styleUrl>#poly-FFEA00-3201-74-highlight</styleUrl>
      </Pair>
    </StyleMap>
    <Folder>
      <name>VD432</name>
      <Placemark>
        <name/>
        <description><![CDATA[Descripción: <br>Reg_Nom: Valle 550<br>Dominio: Pasto<br>Region: 550<br>Zona: 432<br>Seccion: A<br>Zsec: 432A]]></description>
        <styleUrl>#poly-FFEA00-3201-74</styleUrl>
        <ExtendedData>
          <Data name="Descripción">
            <value/>
          </Data>
          <Data name="Reg_Nom">
            <value>Valle 550</value>
          </Data>
          <Data name="Dominio">
            <value>Pasto</value>
          </Data>
          <Data name="Region">
            <value>550</value>
          </Data>
          <Data name="Zona">
            <value>432</value>
          </Data>
          <Data name="Seccion">
            <value>A</value>
          </Data>
          <Data name="Zsec">
            <value>432A</value>
          </Data>
        </ExtendedData>
        <Polygon>
          <outerBoundaryIs>
            <LinearRing>
              <tessellate>1</tessellate>
              <coordinates>
                -77.278591,1.200148,0
                -77.278563,1.199891,0
                -77.278566,1.199875,0
                -77.278441,1.199974,0
                -77.278427,1.199982,0
                -77.277664,1.199405,0
                -77.277427,1.199115,0
                -77.277269,1.198925,0
                -77.276933,1.198502,0
                -77.276434,1.197978,0
                -77.276097,1.198133,0
                -77.275622,1.198339,0
                -77.275303,1.198478,0
                -77.274778,1.198638,0
                -77.274302,1.198784,0
                -77.273844,1.198955,0
                -77.273793,1.198983,0
                -77.273449,1.199125,0
                -77.273372,1.199157,0
                -77.273189,1.199228,0
                -77.272865,1.199354,0
                -77.271595,1.200236,0
                -77.271183,1.200522,0
                -77.270662,1.200945,0
                -77.270151,1.201428,0
                -77.270045,1.201597,0
                -77.269903,1.201909,0
                -77.269818,1.202129,0
                -77.269705,1.202449,0
                -77.269533,1.202996,0
                -77.269352,1.203447,0
                -77.269315,1.20357,0
                -77.269017,1.204339,0
                -77.268777,1.205715,0
                -77.268959,1.205762,0
                -77.269046,1.205773,0
                -77.269106,1.205785,0
                -77.269165,1.205801,0
                -77.26927,1.205834,0
                -77.269361,1.205868,0
                -77.269425,1.205884,0
                -77.269515,1.205921,0
                -77.269601,1.205954,0
                -77.269679,1.205986,0
                -77.26963,1.206112,0
                -77.269608,1.206199,0
                -77.269496,1.206475,0
                -77.269437,1.206629,0
                -77.26939,1.206712,0
                -77.269341,1.206886,0
                -77.269275,1.206928,0
                -77.269329,1.206964,0
                -77.269371,1.207005,0
                -77.269423,1.207037,0
                -77.269459,1.207072,0
                -77.269499,1.207109,0
                -77.26954,1.207151,0
                -77.26957,1.207168,0
                -77.26961,1.207186,0
                -77.269657,1.207199,0
                -77.269766,1.207223,0
                -77.269858,1.207243,0
                -77.269974,1.207246,0
                -77.270056,1.207256,0
                -77.270117,1.207261,0
                -77.270168,1.207254,0
                -77.270259,1.207247,0
                -77.270315,1.20724,0
                -77.270353,1.207221,0
                -77.270404,1.207211,0
                -77.270469,1.207187,0
                -77.270492,1.207175,0
                -77.270568,1.207117,0
                -77.270605,1.207087,0
                -77.270655,1.207069,0
                -77.270718,1.207084,0
                -77.270795,1.207109,0
                -77.270877,1.207143,0
                -77.270936,1.207171,0
                -77.270979,1.207202,0
                -77.271019,1.207247,0
                -77.271078,1.207299,0
                -77.271114,1.207359,0
                -77.271148,1.207449,0
                -77.271162,1.207503,0
                -77.271181,1.207554,0
                -77.271219,1.207622,0
                -77.271232,1.207668,0
                -77.271241,1.207713,0
                -77.271243,1.207736,0
                -77.271198,1.207883,0
                -77.271156,1.208026,0
                -77.271132,1.208073,0
                -77.271106,1.208127,0
                -77.271088,1.208212,0
                -77.271087,1.208322,0
                -77.271092,1.208469,0
                -77.271103,1.208578,0
                -77.271133,1.208718,0
                -77.271123,1.20884,0
                -77.271115,1.208917,0
                -77.271095,1.209009,0
                -77.271072,1.209087,0
                -77.271064,1.209139,0
                -77.270971,1.209214,0
                -77.270957,1.209218,0
                -77.270918,1.209278,0
                -77.27085,1.209304,0
                -77.270784,1.209316,0
                -77.270772,1.209317,0
                -77.270755,1.209309,0
                -77.270752,1.209308,0
                -77.270745,1.209323,0
                -77.270715,1.209382,0
                -77.270654,1.20951,0
                -77.270547,1.209782,0
                -77.270525,1.209847,0
                -77.270484,1.210046,0
                -77.270479,1.210063,0
                -77.270493,1.210116,0
                -77.270544,1.210255,0
                -77.270609,1.210379,0
                -77.270642,1.210447,0
                -77.270674,1.210514,0
                -77.270684,1.210534,0
                -77.270759,1.210692,0
                -77.270858,1.210869,0
                -77.270975,1.211083,0
                -77.270981,1.211086,0
                -77.271109,1.211396,0
                -77.271129,1.211471,0
                -77.271168,1.211752,0
                -77.271184,1.211835,0
                -77.271184,1.211895,0
                -77.271162,1.211961,0
                -77.271142,1.212057,0
                -77.271244,1.212088,0
                -77.271243,1.212096,0
                -77.271385,1.21206,0
                -77.271761,1.211489,0
                -77.273583,1.210274,0
                -77.274851,1.209417,0
                -77.275726,1.208792,0
                -77.276244,1.208381,0
                -77.28096,1.20656,0
                -77.281121,1.206452,0
                -77.279781,1.204166,0
                -77.279317,1.203202,0
                -77.27887,1.201827,0
                -77.278804,1.201364,0
                -77.278563,1.200493,0
                -77.278556,1.200167,0
                -77.278591,1.200148,0
              </coordinates>
            </LinearRing>
          </outerBoundaryIs>
        </Polygon>
      </Placemark>
      <Placemark>
        <name/>
        <description><![CDATA[Descripción: <br>Reg_Nom: Valle 550<br>Dominio: Pasto<br>Region: 550<br>Zona: 432<br>Seccion: B<br>Zsec: 432B]]></description>
        <styleUrl>#poly-0288D1-3401-76</styleUrl>
        <ExtendedData>
          <Data name="Descripción">
            <value/>
          </Data>
          <Data name="Reg_Nom">
            <value>Valle 550</value>
          </Data>
          <Data name="Dominio">
            <value>Pasto</value>
          </Data>
          <Data name="Region">
            <value>550</value>
          </Data>
          <Data name="Zona">
            <value>432</value>
          </Data>
          <Data name="Seccion">
            <value>B</value>
          </Data>
          <Data name="Zsec">
            <value>432B</value>
          </Data>
        </ExtendedData>
        <Polygon>
          <outerBoundaryIs>
            <LinearRing>
              <tessellate>1</tessellate>
              <coordinates>
                -77.278758,1.192863,0
                -77.278589,1.192825,0
                -77.27821,1.192761,0
                -77.277807,1.192113,0
                -77.277691,1.191908,0
                -77.277717,1.191889,0
                -77.277871,1.191768,0
                -77.277948,1.191639,0
                -77.277948,1.19146,0
                -77.277871,1.191165,0
                -77.277627,1.190749,0
                -77.277493,1.190531,0
                -77.277128,1.190243,0
                -77.276858,1.190051,0
                -77.276352,1.189378,0
                -77.275711,1.188699,0
                -77.275333,1.188372,0
                -77.275045,1.188039,0
                -77.274186,1.187007,0
                -77.274071,1.186899,0
                -77.273751,1.186213,0
                -77.273687,1.186003,0
                -77.273578,1.185783,0
                -77.273545,1.185758,0
                -77.27336,1.185604,0
                -77.273212,1.185387,0
                -77.273046,1.184977,0
                -77.273052,1.184861,0
                -77.27313,1.184602,0
                -77.273135,1.184586,0
                -77.273132,1.184559,0
                -77.273116,1.184413,0
                -77.273052,1.184201,0
                -77.273001,1.184156,0
                -77.271649,1.184643,0
                -77.271617,1.184714,0
                -77.271674,1.18481,0
                -77.271835,1.185111,0
                -77.272116,1.185668,0
                -77.272206,1.185822,0
                -77.272213,1.185905,0
                -77.272373,1.186104,0
                -77.272495,1.186322,0
                -77.272975,1.187411,0
                -77.27309,1.188007,0
                -77.27277,1.188116,0
                -77.272767,1.188115,0
                -77.272475,1.188217,0
                -77.270657,1.188105,0
                -77.270651,1.188211,0
                -77.27065,1.188225,0
                -77.269755,1.188204,0
                -77.26965,1.188198,0
                -77.269707,1.188273,0
                -77.269724,1.188291,0
                -77.269754,1.188339,0
                -77.269788,1.18844,0
                -77.269919,1.188617,0
                -77.269947,1.188637,0
                -77.270233,1.188968,0
                -77.270197,1.189262,0
                -77.270099,1.189611,0
                -77.269921,1.190102,0
                -77.269947,1.190575,0
                -77.270019,1.191164,0
                -77.270062,1.191524,0
                -77.270081,1.19153,0
                -77.270087,1.191729,0
                -77.270092,1.191771,0
                -77.27018,1.19178,0
                -77.270215,1.191914,0
                -77.27001,1.192334,0
                -77.269528,1.192682,0
                -77.26934,1.192888,0
                -77.269161,1.193254,0
                -77.26917,1.193718,0
                -77.26909,1.194486,0
                -77.268965,1.194647,0
                -77.268375,1.195567,0
                -77.268322,1.195674,0
                -77.268144,1.195716,0
                -77.268134,1.195719,0
                -77.267959,1.195731,0
                -77.267741,1.195745,0
                -77.267554,1.195995,0
                -77.2675,1.196647,0
                -77.267348,1.196987,0
                -77.267071,1.197594,0
                -77.267036,1.197915,0
                -77.267152,1.198174,0
                -77.267196,1.198657,0
                -77.267144,1.198762,0
                -77.267133,1.198784,0
                -77.267027,1.198996,0
                -77.266876,1.199056,0
                -77.267266,1.199344,0
                -77.267418,1.199442,0
                -77.267674,1.199637,0
                -77.267841,1.199749,0
                -77.268051,1.199907,0
                -77.268311,1.2001,0
                -77.268406,1.20018,0
                -77.268935,1.200529,0
                -77.269075,1.200648,0
                -77.269226,1.200735,0
                -77.269733,1.201098,0
                -77.270151,1.201428,0
                -77.270662,1.200945,0
                -77.271183,1.200522,0
                -77.271595,1.200236,0
                -77.272865,1.199354,0
                -77.273189,1.199228,0
                -77.273372,1.199157,0
                -77.273449,1.199125,0
                -77.273793,1.198983,0
                -77.273844,1.198955,0
                -77.274302,1.198784,0
                -77.274778,1.198638,0
                -77.275303,1.198478,0
                -77.275622,1.198339,0
                -77.276097,1.198133,0
                -77.276434,1.197978,0
                -77.276933,1.198502,0
                -77.277269,1.198925,0
                -77.277427,1.199115,0
                -77.277664,1.199405,0
                -77.278427,1.199982,0
                -77.278441,1.199974,0
                -77.278566,1.199875,0
                -77.278619,1.19964,0
                -77.279156,1.194093,0
                -77.279244,1.193057,0
                -77.278758,1.192863,0
              </coordinates>
            </LinearRing>
          </outerBoundaryIs>
        </Polygon>
      </Placemark>
      <Placemark>
        <name/>
        <description><![CDATA[Descripción: <br>Reg_Nom: Valle 550<br>Dominio: Pasto<br>Region: 550<br>Zona: 432<br>Seccion: C<br>Zsec: 432C]]></description>
        <styleUrl>#poly-FF5252-3201-69</styleUrl>
        <ExtendedData>
          <Data name="Descripción">
            <value/>
          </Data>
          <Data name="Reg_Nom">
            <value>Valle 550</value>
          </Data>
          <Data name="Dominio">
            <value>Pasto</value>
          </Data>
          <Data name="Region">
            <value>550</value>
          </Data>
          <Data name="Zona">
            <value>432</value>
          </Data>
          <Data name="Seccion">
            <value>C</value>
          </Data>
          <Data name="Zsec">
            <value>432C</value>
          </Data>
        </ExtendedData>
        <Polygon>
          <outerBoundaryIs>
            <LinearRing>
              <tessellate>1</tessellate>
              <coordinates>
                -77.258577,1.199463,0
                -77.258624,1.199467,0
                -77.258912,1.19971,0
                -77.259034,1.199807,0
                -77.259139,1.199866,0
                -77.259386,1.200027,0
                -77.25969,1.200169,0
                -77.259954,1.200295,0
                -77.260173,1.200404,0
                -77.260257,1.200454,0
                -77.260635,1.200615,0
                -77.260883,1.200676,0
                -77.261431,1.200754,0
                -77.261947,1.200843,0
                -77.262616,1.200945,0
                -77.262723,1.200947,0
                -77.263528,1.201094,0
                -77.263981,1.201174,0
                -77.264358,1.201224,0
                -77.264719,1.20131,0
                -77.264757,1.201463,0
                -77.264859,1.201342,0
                -77.264901,1.201452,0
                -77.265062,1.201505,0
                -77.266697,1.199035,0
                -77.266848,1.199067,0
                -77.267027,1.198996,0
                -77.267133,1.198784,0
                -77.267144,1.198762,0
                -77.267196,1.198657,0
                -77.267152,1.198174,0
                -77.267036,1.197915,0
                -77.267071,1.197594,0
                -77.267348,1.196987,0
                -77.2675,1.196647,0
                -77.267554,1.195995,0
                -77.267741,1.195745,0
                -77.267959,1.195731,0
                -77.268134,1.195719,0
                -77.268144,1.195716,0
                -77.268322,1.195674,0
                -77.268375,1.195567,0
                -77.268965,1.194647,0
                -77.26909,1.194486,0
                -77.26917,1.193718,0
                -77.269161,1.193254,0
                -77.26934,1.192888,0
                -77.269528,1.192682,0
                -77.27001,1.192334,0
                -77.270215,1.191914,0
                -77.27018,1.19178,0
                -77.270088,1.19177,0
                -77.270081,1.19153,0
                -77.269867,1.191459,0
                -77.268947,1.191209,0
                -77.26884,1.191093,0
                -77.268241,1.190861,0
                -77.26591,1.189628,0
                -77.264704,1.188985,0
                -77.264508,1.189334,0
                -77.264311,1.189396,0
                -77.264177,1.189459,0
                -77.263797,1.190086,0
                -77.263714,1.190034,0
                -77.263674,1.189994,0
                -77.263549,1.189923,0
                -77.262754,1.191164,0
                -77.262283,1.192002,0
                -77.262237,1.19201,0
                -77.262105,1.192049,0
                -77.262098,1.192051,0
                -77.26206,1.192057,0
                -77.26204,1.19206,0
                -77.261941,1.192005,0
                -77.261924,1.191988,0
                -77.261896,1.19196,0
                -77.261854,1.191917,0
                -77.261796,1.191844,0
                -77.2617,1.191791,0
                -77.261643,1.191776,0
                -77.261598,1.191765,0
                -77.261523,1.191695,0
                -77.261478,1.191655,0
                -77.261431,1.191612,0
                -77.261415,1.191598,0
                -77.261409,1.191594,0
                -77.261144,1.192177,0
                -77.261003,1.192924,0
                -77.261253,1.193049,0
                -77.261316,1.193254,0
                -77.261423,1.193325,0
                -77.261524,1.19345,0
                -77.261539,1.193468,0
                -77.261593,1.193566,0
                -77.261894,1.193667,0
                -77.261828,1.194049,0
                -77.261921,1.194211,0
                -77.261916,1.194305,0
                -77.261873,1.19437,0
                -77.261221,1.195915,0
                -77.261018,1.196264,0
                -77.260328,1.195897,0
                -77.260095,1.19579,0
                -77.259985,1.195804,0
                -77.259923,1.195762,0
                -77.259649,1.196138,0
                -77.2596,1.196103,0
                -77.259559,1.196156,0
                -77.25952,1.196228,0
                -77.259235,1.196638,0
                -77.258717,1.197317,0
                -77.258709,1.197331,0
                -77.258645,1.197889,0
                -77.258441,1.197868,0
                -77.258359,1.19786,0
                -77.258262,1.19785,0
                -77.258074,1.198228,0
                -77.258467,1.198692,0
                -77.25785,1.19909,0
                -77.258004,1.199165,0
                -77.258155,1.199228,0
                -77.258353,1.199305,0
                -77.258529,1.199451,0
                -77.258551,1.199451,0
                -77.258577,1.199463,0
              </coordinates>
            </LinearRing>
          </outerBoundaryIs>
        </Polygon>
      </Placemark>
      <Placemark>
        <name/>
        <description><![CDATA[Descripción: <br>Reg_Nom: Valle 550<br>Dominio: Pasto<br>Region: 550<br>Zona: 432<br>Seccion: D<br>Zsec: 432D]]></description>
        <styleUrl>#poly-7CB342-3601-76</styleUrl>
        <ExtendedData>
          <Data name="Descripción">
            <value/>
          </Data>
          <Data name="Reg_Nom">
            <value>Valle 550</value>
          </Data>
          <Data name="Dominio">
            <value>Pasto</value>
          </Data>
          <Data name="Region">
            <value>550</value>
          </Data>
          <Data name="Zona">
            <value>432</value>
          </Data>
          <Data name="Seccion">
            <value>D</value>
          </Data>
          <Data name="Zsec">
            <value>432D</value>
          </Data>
        </ExtendedData>
        <Polygon>
          <outerBoundaryIs>
            <LinearRing>
              <tessellate>1</tessellate>
              <coordinates>
                -77.254281,1.207203,0
                -77.254415,1.207265,0
                -77.254906,1.207229,0
                -77.255415,1.207095,0
                -77.255612,1.207086,0
                -77.25588,1.207131,0
                -77.256148,1.20722,0
                -77.256389,1.207238,0
                -77.256826,1.207211,0
                -77.257184,1.207069,0
                -77.25738,1.20689,0
                -77.257523,1.206649,0
                -77.257612,1.206479,0
                -77.257729,1.206381,0
                -77.257907,1.206345,0
                -77.258122,1.206363,0
                -77.258899,1.206542,0
                -77.259426,1.206479,0
                -77.25973,1.206472,0
                -77.259783,1.20647,0
                -77.259878,1.206487,0
                -77.260095,1.206524,0
                -77.260238,1.206435,0
                -77.260471,1.206274,0
                -77.260551,1.206185,0
                -77.260542,1.206113,0
                -77.260571,1.206132,0
                -77.260635,1.206119,0
                -77.260676,1.205984,0
                -77.260344,1.205827,0
                -77.26002,1.205768,0
                -77.2596,1.205784,0
                -77.259521,1.205515,0
                -77.259584,1.205348,0
                -77.259594,1.205192,0
                -77.259697,1.205122,0
                -77.259748,1.205104,0
                -77.259596,1.205042,0
                -77.259123,1.204943,0
                -77.258659,1.20489,0
                -77.25831,1.204979,0
                -77.258328,1.204238,0
                -77.258355,1.204185,0
                -77.258453,1.202657,0
                -77.258417,1.202579,0
                -77.258453,1.202586,0
                -77.258516,1.201898,0
                -77.258703,1.199567,0
                -77.25865,1.199496,0
                -77.258551,1.199451,0
                -77.258529,1.199451,0
                -77.258353,1.199305,0
                -77.258155,1.199228,0
                -77.258004,1.199165,0
                -77.257763,1.199048,0
                -77.257717,1.199024,0
                -77.257484,1.19892,0
                -77.257306,1.198832,0
                -77.25716,1.198749,0
                -77.257072,1.198687,0
                -77.256961,1.198623,0
                -77.256787,1.198482,0
                -77.256774,1.198475,0
                -77.256639,1.198603,0
                -77.255022,1.199603,0
                -77.254826,1.199684,0
                -77.254784,1.199688,0
                -77.25457,1.199709,0
                -77.254558,1.19971,0
                -77.254352,1.199862,0
                -77.253888,1.200175,0
                -77.253513,1.200237,0
                -77.252664,1.200282,0
                -77.252571,1.200178,0
                -77.252555,1.200212,0
                -77.252521,1.200148,0
                -77.252369,1.200014,0
                -77.252303,1.200004,0
                -77.252277,1.200001,0
                -77.251941,1.199951,0
                -77.251708,1.200076,0
                -77.251679,1.200102,0
                -77.251656,1.200074,0
                -77.251592,1.200148,0
                -77.25153,1.200255,0
                -77.251673,1.200505,0
                -77.251306,1.200791,0
                -77.251276,1.200982,0
                -77.251503,1.201362,0
                -77.251771,1.201684,0
                -77.252092,1.202282,0
                -77.252117,1.202643,0
                -77.252143,1.202661,0
                -77.252075,1.202693,0
                -77.251919,1.202713,0
                -77.251814,1.202656,0
                -77.251792,1.202652,0
                -77.25178,1.202655,0
                -77.251582,1.202841,0
                -77.251571,1.202861,0
                -77.251533,1.202896,0
                -77.251487,1.202924,0
                -77.251468,1.202928,0
                -77.251284,1.203108,0
                -77.251274,1.203128,0
                -77.251246,1.203156,0
                -77.25071,1.203027,0
                -77.250667,1.20323,0
                -77.249877,1.203098,0
                -77.249999,1.204103,0
                -77.250014,1.204232,0
                -77.250949,1.204533,0
                -77.25087,1.20485,0
                -77.251052,1.204992,0
                -77.251034,1.205061,0
                -77.25105,1.205061,0
                -77.251159,1.205098,0
                -77.251271,1.205104,0
                -77.251277,1.205138,0
                -77.251306,1.205309,0
                -77.25245,1.205292,0
                -77.252461,1.205293,0
                -77.252655,1.205327,0
                -77.252682,1.205595,0
                -77.252244,1.205711,0
                -77.252066,1.205801,0
                -77.251912,1.205912,0
                -77.251807,1.205988,0
                -77.251753,1.206095,0
                -77.251833,1.20614,0
                -77.252012,1.206095,0
                -77.252316,1.205952,0
                -77.252593,1.205899,0
                -77.252626,1.205921,0
                -77.252727,1.205988,0
                -77.252762,1.206095,0
                -77.252566,1.20614,0
                -77.252494,1.206193,0
                -77.252548,1.206542,0
                -77.252655,1.206863,0
                -77.252655,1.206935,0
                -77.252771,1.207033,0
                -77.253191,1.206595,0
                -77.253334,1.206461,0
                -77.253557,1.206452,0
                -77.253782,1.206586,0
                -77.253843,1.206622,0
                -77.254134,1.206984,0
                -77.254138,1.206988,0
                -77.254281,1.207203,0
              </coordinates>
            </LinearRing>
          </outerBoundaryIs>
        </Polygon>
      </Placemark>
      <Placemark>
        <name/>
        <description><![CDATA[Descripción: <br>Reg_Nom: Valle 550<br>Dominio: Barbacoas<br>Region: 550<br>Zona: 432<br>Seccion: D<br>Zsec: 432D]]></description>
        <styleUrl>#poly-7CB342-3601-76</styleUrl>
        <ExtendedData>
          <Data name="Descripción">
            <value/>
          </Data>
          <Data name="Reg_Nom">
            <value>Valle 550</value>
          </Data>
          <Data name="Dominio">
            <value>Barbacoas</value>
          </Data>
          <Data name="Region">
            <value>550</value>
          </Data>
          <Data name="Zona">
            <value>432</value>
          </Data>
          <Data name="Seccion">
            <value>D</value>
          </Data>
          <Data name="Zsec">
            <value>432D</value>
          </Data>
        </ExtendedData>
        <Polygon>
          <outerBoundaryIs>
            <LinearRing>
              <tessellate>1</tessellate>
              <coordinates>
                -78.136462,1.670367,0
                -78.136747,1.670635,0
                -78.136778,1.671427,0
                -78.134706,1.673223,0
                -78.135529,1.674198,0
                -78.136321,1.674624,0
                -78.135864,1.67502,0
                -78.135986,1.67566,0
                -78.136195,1.676249,0
                -78.137204,1.676055,0
                -78.138141,1.675627,0
                -78.13932,1.675087,0
                -78.139733,1.674898,0
                -78.141469,1.673741,0
                -78.141798,1.673367,0
                -78.143023,1.671975,0
                -78.143045,1.671943,0
                -78.142566,1.671853,0
                -78.142231,1.671396,0
                -78.141957,1.670757,0
                -78.142018,1.669843,0
                -78.14214,1.669174,0
                -78.142247,1.668938,0
                -78.140951,1.66823,0
                -78.139154,1.669874,0
                -78.138549,1.669237,0
                -78.136462,1.670367,0
              </coordinates>
            </LinearRing>
          </outerBoundaryIs>
        </Polygon>
      </Placemark>
      <Placemark>
        <name/>
        <description><![CDATA[Descripción: <br>Reg_Nom: Valle 550<br>Dominio: Pasto<br>Region: 550<br>Zona: 432<br>Seccion: E<br>Zsec: 432E]]></description>
        <styleUrl>#poly-9C27B0-3301-76</styleUrl>
        <ExtendedData>
          <Data name="Descripción">
            <value/>
          </Data>
          <Data name="Reg_Nom">
            <value>Valle 550</value>
          </Data>
          <Data name="Dominio">
            <value>Pasto</value>
          </Data>
          <Data name="Region">
            <value>550</value>
          </Data>
          <Data name="Zona">
            <value>432</value>
          </Data>
          <Data name="Seccion">
            <value>E</value>
          </Data>
          <Data name="Zsec">
            <value>432E</value>
          </Data>
        </ExtendedData>
        <Polygon>
          <outerBoundaryIs>
            <LinearRing>
              <tessellate>1</tessellate>
              <coordinates>
                -77.262752,1.212437,0
                -77.262936,1.212578,0
                -77.263413,1.212862,0
                -77.263827,1.213112,0
                -77.264209,1.213327,0
                -77.264252,1.213056,0
                -77.264285,1.212695,0
                -77.264317,1.212398,0
                -77.264214,1.212079,0
                -77.264166,1.211935,0
                -77.264136,1.211831,0
                -77.264088,1.211735,0
                -77.26405,1.211657,0
                -77.263962,1.211653,0
                -77.264156,1.211212,0
                -77.264308,1.210801,0
                -77.264277,1.210694,0
                -77.264228,1.210632,0
                -77.264263,1.210462,0
                -77.264241,1.210324,0
                -77.264,1.210147,0
                -77.263998,1.210135,0
                -77.263997,1.210121,0
                -77.263602,1.209931,0
                -77.262982,1.209636,0
                -77.262392,1.209676,0
                -77.262381,1.209617,0
                -77.262226,1.208782,0
                -77.262125,1.207331,0
                -77.26215,1.207217,0
                -77.262151,1.20722,0
                -77.262222,1.207337,0
                -77.262266,1.207393,0
                -77.262347,1.207497,0
                -77.262571,1.207524,0
                -77.262767,1.207354,0
                -77.262865,1.206979,0
                -77.262872,1.206412,0
                -77.262874,1.20639,0
                -77.26308,1.206372,0
                -77.263616,1.206274,0
                -77.263875,1.206211,0
                -77.263918,1.206128,0
                -77.265468,1.205896,0
                -77.267154,1.205655,0
                -77.267212,1.205674,0
                -77.26729,1.205653,0
                -77.267371,1.205652,0
                -77.267519,1.205635,0
                -77.267583,1.205629,0
                -77.267684,1.205641,0
                -77.267807,1.205646,0
                -77.268025,1.205672,0
                -77.268091,1.205675,0
                -77.268185,1.205684,0
                -77.268331,1.205695,0
                -77.268409,1.205706,0
                -77.268557,1.205719,0
                -77.268646,1.205724,0
                -77.268777,1.205715,0
                -77.269017,1.204339,0
                -77.269315,1.20357,0
                -77.269352,1.203447,0
                -77.269533,1.202996,0
                -77.269705,1.202449,0
                -77.269818,1.202129,0
                -77.269903,1.201909,0
                -77.270045,1.201597,0
                -77.270151,1.201428,0
                -77.269733,1.201098,0
                -77.269226,1.200735,0
                -77.269075,1.200648,0
                -77.268935,1.200529,0
                -77.268406,1.20018,0
                -77.268311,1.2001,0
                -77.268051,1.199907,0
                -77.267841,1.199749,0
                -77.267674,1.199637,0
                -77.267418,1.199442,0
                -77.267266,1.199344,0
                -77.266876,1.199056,0
                -77.266848,1.199067,0
                -77.266697,1.199035,0
                -77.265062,1.201505,0
                -77.264901,1.201452,0
                -77.264859,1.201342,0
                -77.264757,1.201463,0
                -77.264719,1.20131,0
                -77.264358,1.201224,0
                -77.263981,1.201174,0
                -77.263528,1.201094,0
                -77.262723,1.200947,0
                -77.262616,1.200945,0
                -77.261947,1.200843,0
                -77.261431,1.200754,0
                -77.260883,1.200676,0
                -77.260635,1.200615,0
                -77.260257,1.200454,0
                -77.260173,1.200404,0
                -77.259954,1.200295,0
                -77.25969,1.200169,0
                -77.259386,1.200027,0
                -77.259139,1.199866,0
                -77.259034,1.199807,0
                -77.258912,1.19971,0
                -77.258624,1.199467,0
                -77.258577,1.199463,0
                -77.25865,1.199496,0
                -77.258703,1.199567,0
                -77.258516,1.201898,0
                -77.258453,1.202586,0
                -77.258417,1.202579,0
                -77.258453,1.202657,0
                -77.258355,1.204185,0
                -77.258328,1.204238,0
                -77.25831,1.204979,0
                -77.258659,1.20489,0
                -77.259123,1.204943,0
                -77.259596,1.205042,0
                -77.259748,1.205104,0
                -77.259697,1.205122,0
                -77.259594,1.205192,0
                -77.259584,1.205348,0
                -77.259521,1.205515,0
                -77.2596,1.205784,0
                -77.26002,1.205768,0
                -77.260344,1.205827,0
                -77.260676,1.205984,0
                -77.260635,1.206119,0
                -77.260571,1.206132,0
                -77.26059,1.206194,0
                -77.260606,1.206158,0
                -77.260677,1.206185,0
                -77.260809,1.206912,0
                -77.26059,1.207223,0
                -77.260055,1.207116,0
                -77.259698,1.207759,0
                -77.259198,1.207438,0
                -77.258627,1.207616,0
                -77.258377,1.20808,0
                -77.258734,1.208508,0
                -77.258913,1.208517,0
                -77.258894,1.20864,0
                -77.258851,1.208788,0
                -77.258837,1.208834,0
                -77.258787,1.208998,0
                -77.258755,1.209059,0
                -77.258724,1.209115,0
                -77.258596,1.209338,0
                -77.258575,1.209376,0
                -77.258502,1.209497,0
                -77.258473,1.209596,0
                -77.258468,1.209614,0
                -77.258435,1.209731,0
                -77.258418,1.209785,0
                -77.2584,1.209817,0
                -77.258484,1.209993,0
                -77.258346,1.210417,0
                -77.258201,1.210774,0
                -77.25822,1.210828,0
                -77.258529,1.210962,0
                -77.258469,1.211158,0
                -77.258892,1.211365,0
                -77.258989,1.211413,0
                -77.259096,1.211346,0
                -77.259427,1.210761,0
                -77.259605,1.210409,0
                -77.259632,1.21037,0
                -77.259639,1.21036,0
                -77.259644,1.210357,0
                -77.25967,1.210344,0
                -77.259792,1.21028,0
                -77.259822,1.210272,0
                -77.259832,1.21027,0
                -77.259868,1.210286,0
                -77.259874,1.210298,0
                -77.259908,1.21037,0
                -77.259921,1.210384,0
                -77.260037,1.210509,0
                -77.260038,1.210511,0
                -77.260124,1.210597,0
                -77.26034,1.210815,0
                -77.260381,1.210853,0
                -77.260384,1.210855,0
                -77.260691,1.211013,0
                -77.260703,1.211019,0
                -77.260707,1.211022,0
                -77.260805,1.211079,0
                -77.260806,1.211079,0
                -77.260889,1.211126,0
                -77.260975,1.211198,0
                -77.261022,1.211237,0
                -77.261092,1.2113,0
                -77.261125,1.211362,0
                -77.261132,1.211374,0
                -77.261191,1.211422,0
                -77.261218,1.211444,0
                -77.261268,1.211491,0
                -77.261331,1.211595,0
                -77.261384,1.211658,0
                -77.261417,1.211698,0
                -77.261454,1.211742,0
                -77.261466,1.211761,0
                -77.261521,1.21181,0
                -77.2617,1.212096,0
                -77.261948,1.212692,0
                -77.261977,1.212761,0
                -77.261998,1.212801,0
                -77.262041,1.21288,0
                -77.262062,1.212918,0
                -77.262508,1.213043,0
                -77.262602,1.213016,0
                -77.262557,1.212842,0
                -77.262611,1.212485,0
                -77.262675,1.212358,0
                -77.262752,1.212437,0
              </coordinates>
            </LinearRing>
          </outerBoundaryIs>
        </Polygon>
      </Placemark>
      <Placemark>
        <name/>
        <description><![CDATA[Descripción: <br>Reg_Nom: Valle 550<br>Dominio: Pasto<br>Region: 550<br>Zona: 432<br>Seccion: K<br>Zsec: 432K]]></description>
        <styleUrl>#poly-9C27B0-1200-76</styleUrl>
        <ExtendedData>
          <Data name="Descripción">
            <value/>
          </Data>
          <Data name="Reg_Nom">
            <value>Valle 550</value>
          </Data>
          <Data name="Dominio">
            <value>Pasto</value>
          </Data>
          <Data name="Region">
            <value>550</value>
          </Data>
          <Data name="Zona">
            <value>432</value>
          </Data>
          <Data name="Seccion">
            <value>K</value>
          </Data>
          <Data name="Zsec">
            <value>432K</value>
          </Data>
        </ExtendedData>
        <Polygon>
          <outerBoundaryIs>
            <LinearRing>
              <tessellate>1</tessellate>
              <coordinates>
                -77.297467,1.226595,0
                -77.297113,1.226139,0
                -77.295704,1.225684,0
                -77.29562,1.2258,0
                -77.295114,1.225633,0
                -77.295005,1.225633,0
                -77.294941,1.225517,0
                -77.294941,1.225518,0
                -77.294364,1.225383,0
                -77.29423,1.225413,0
                -77.294198,1.225428,0
                -77.291788,1.226177,0
                -77.291727,1.226091,0
                -77.291528,1.225771,0
                -77.291183,1.225217,0
                -77.290635,1.224477,0
                -77.29063,1.224475,0
                -77.290632,1.22447,0
                -77.290501,1.224291,0
                -77.290468,1.224246,0
                -77.290939,1.223887,0
                -77.29094,1.223886,0
                -77.29094,1.223882,0
                -77.29097,1.223827,0
                -77.290971,1.223827,0
                -77.290972,1.223825,0
                -77.290751,1.223661,0
                -77.290734,1.223649,0
                -77.290536,1.223549,0
                -77.290372,1.223423,0
                -77.290126,1.223234,0
                -77.289858,1.223028,0
                -77.289811,1.222991,0
                -77.289594,1.222827,0
                -77.289442,1.222711,0
                -77.289298,1.222616,0
                -77.288961,1.222397,0
                -77.288947,1.222384,0
                -77.288704,1.222158,0
                -77.288689,1.222149,0
                -77.288418,1.221989,0
                -77.288392,1.22197,0
                -77.287935,1.221625,0
                -77.287286,1.221108,0
                -77.286995,1.220922,0
                -77.286674,1.22068,0
                -77.286647,1.220652,0
                -77.284827,1.219274,0
                -77.283763,1.218467,0
                -77.282872,1.217781,0
                -77.281655,1.216609,0
                -77.281341,1.215962,0
                -77.281103,1.215421,0
                -77.28095,1.214963,0
                -77.28081,1.215039,0
                -77.280803,1.215023,0
                -77.28055,1.215132,0
                -77.27984,1.215436,0
                -77.275787,1.217214,0
                -77.275783,1.217213,0
                -77.275537,1.217336,0
                -77.274903,1.21761,0
                -77.275634,1.218427,0
                -77.276062,1.21857,0
                -77.276741,1.21891,0
                -77.277084,1.218864,0
                -77.277101,1.218939,0
                -77.277101,1.21894,0
                -77.277185,1.219012,0
                -77.277257,1.219084,0
                -77.277339,1.219193,0
                -77.277357,1.219224,0
                -77.277409,1.21931,0
                -77.277437,1.219384,0
                -77.277459,1.21949,0
                -77.277463,1.219513,0
                -77.277479,1.219591,0
                -77.277474,1.219639,0
                -77.277466,1.219704,0
                -77.277439,1.219802,0
                -77.277368,1.220004,0
                -77.277342,1.220079,0
                -77.277313,1.220233,0
                -77.27729,1.220386,0
                -77.277279,1.22046,0
                -77.277256,1.220671,0
                -77.277256,1.220792,0
                -77.277257,1.220859,0
                -77.277297,1.220944,0
                -77.277316,1.220961,0
                -77.277316,1.220969,0
                -77.277373,1.221045,0
                -77.277401,1.221092,0
                -77.277434,1.221132,0
                -77.277463,1.221192,0
                -77.277491,1.221246,0
                -77.277522,1.221297,0
                -77.277573,1.221361,0
                -77.277663,1.221481,0
                -77.277769,1.221613,0
                -77.277775,1.22162,0
                -77.277777,1.221623,0
                -77.277804,1.221678,0
                -77.277929,1.221758,0
                -77.278139,1.221765,0
                -77.27815,1.221778,0
                -77.278191,1.221831,0
                -77.278229,1.221936,0
                -77.27824,1.222012,0
                -77.278245,1.222094,0
                -77.278268,1.222222,0
                -77.278268,1.222249,0
                -77.278293,1.222327,0
                -77.278324,1.222405,0
                -77.278326,1.222414,0
                -77.278429,1.222616,0
                -77.278494,1.222937,0
                -77.278513,1.222992,0
                -77.278567,1.223116,0
                -77.278639,1.223193,0
                -77.278724,1.223306,0
                -77.278788,1.223366,0
                -77.27887,1.22343,0
                -77.278941,1.223481,0
                -77.279022,1.223506,0
                -77.279088,1.223524,0
                -77.279175,1.22358,0
                -77.279328,1.223678,0
                -77.279431,1.223728,0
                -77.279458,1.223743,0
                -77.279573,1.223785,0
                -77.279814,1.224018,0
                -77.279957,1.224312,0
                -77.279903,1.224786,0
                -77.279966,1.224991,0
                -77.280671,1.226268,0
                -77.280868,1.226634,0
                -77.280939,1.226857,0
                -77.280921,1.227009,0
                -77.280778,1.227161,0
                -77.280698,1.227286,0
                -77.281002,1.22767,0
                -77.281007,1.227683,0
                -77.281087,1.227761,0
                -77.281109,1.227759,0
                -77.281386,1.22809,0
                -77.281618,1.228608,0
                -77.28194,1.22917,0
                -77.282002,1.229795,0
                -77.282136,1.230215,0
                -77.282315,1.230599,0
                -77.282333,1.230822,0
                -77.282225,1.231072,0
                -77.281841,1.231269,0
                -77.281698,1.231385,0
                -77.281703,1.231487,0
                -77.281707,1.23159,0
                -77.282016,1.23168,0
                -77.282047,1.231688,0
                -77.282217,1.231903,0
                -77.282217,1.232197,0
                -77.282324,1.232635,0
                -77.282493,1.233108,0
                -77.282574,1.233626,0
                -77.282547,1.233939,0
                -77.28244,1.234108,0
                -77.282038,1.234305,0
                -77.28173,1.234498,0
                -77.281725,1.234501,0
                -77.281636,1.234644,0
                -77.281681,1.234787,0
                -77.28176,1.234825,0
                -77.281868,1.234876,0
                -77.282163,1.235019,0
                -77.282298,1.235177,0
                -77.282324,1.235207,0
                -77.282511,1.235359,0
                -77.282752,1.235367,0
                -77.282895,1.235144,0
                -77.282976,1.234626,0
                -77.28302,1.234305,0
                -77.283172,1.234207,0
                -77.28327,1.234212,0
                -77.283324,1.234216,0
                -77.283503,1.234457,0
                -77.283771,1.23493,0
                -77.283834,1.235203,0
                -77.283927,1.235376,0
                -77.284138,1.235712,0
                -77.284164,1.235814,0
                -77.284324,1.235876,0
                -77.284476,1.235832,0
                -77.284548,1.23568,0
                -77.284655,1.235519,0
                -77.284941,1.235421,0
                -77.285093,1.235341,0
                -77.285209,1.235135,0
                -77.285512,1.234617,0
                -77.285861,1.23418,0
                -77.285994,1.23401,0
                -77.285995,1.23401,0
                -77.286397,1.234099,0
                -77.286504,1.233867,0
                -77.286602,1.233617,0
                -77.286995,1.233376,0
                -77.288022,1.232992,0
                -77.288424,1.232992,0
                -77.288764,1.232903,0
                -77.289157,1.23268,0
                -77.289371,1.232278,0
                -77.289594,1.232028,0
                -77.289442,1.231885,0
                -77.289576,1.231822,0
                -77.289746,1.231653,0
                -77.289818,1.231295,0
                -77.289809,1.230903,0
                -77.289764,1.230001,0
                -77.289876,1.229188,0
                -77.290319,1.229385,0
                -77.291293,1.229824,0
                -77.291525,1.229934,0
                -77.291885,1.230077,0
                -77.292195,1.230235,0
                -77.292269,1.230278,0
                -77.292876,1.230562,0
                -77.293799,1.231004,0
                -77.295017,1.231578,0
                -77.295165,1.231651,0
                -77.295186,1.231528,0
                -77.294748,1.230706,0
                -77.294578,1.230331,0
                -77.294337,1.230126,0
                -77.293721,1.229643,0
                -77.293801,1.229295,0
                -77.294793,1.229313,0
                -77.295473,1.22947,0
                -77.295672,1.228836,0
                -77.295916,1.228413,0
                -77.296095,1.228311,0
                -77.296169,1.228276,0
                -77.296135,1.228266,0
                -77.296776,1.22784,0
                -77.297106,1.227482,0
                -77.297464,1.226597,0
                -77.297467,1.226595,0
              </coordinates>
            </LinearRing>
          </outerBoundaryIs>
        </Polygon>
      </Placemark>
      <Placemark>
        <name/>
        <description><![CDATA[Descripción: <br>Reg_Nom: Valle 550<br>Dominio: Pasto<br>Region: 550<br>Zona: 432<br>Seccion: J<br>Zsec: 432J]]></description>
        <styleUrl>#poly-0F9D58-1200-76</styleUrl>
        <ExtendedData>
          <Data name="Descripción">
            <value/>
          </Data>
          <Data name="Reg_Nom">
            <value>Valle 550</value>
          </Data>
          <Data name="Dominio">
            <value>Pasto</value>
          </Data>
          <Data name="Region">
            <value>550</value>
          </Data>
          <Data name="Zona">
            <value>432</value>
          </Data>
          <Data name="Seccion">
            <value>J</value>
          </Data>
          <Data name="Zsec">
            <value>432J</value>
          </Data>
        </ExtendedData>
        <Polygon>
          <outerBoundaryIs>
            <LinearRing>
              <tessellate>1</tessellate>
              <coordinates>
                -77.291239,1.223875,0
                -77.292131,1.223875,0
                -77.293185,1.22375,0
                -77.294239,1.223357,0
                -77.295525,1.223232,0
                -77.296097,1.223142,0
                -77.29584,1.222836,0
                -77.29585,1.222782,0
                -77.295847,1.222767,0
                -77.295837,1.22272,0
                -77.295779,1.222684,0
                -77.295704,1.222583,0
                -77.295594,1.222432,0
                -77.29542,1.222168,0
                -77.295381,1.222125,0
                -77.295323,1.222007,0
                -77.295216,1.22167,0
                -77.295136,1.221509,0
                -77.295078,1.22142,0
                -77.295067,1.221386,0
                -77.295061,1.221371,0
                -77.295052,1.221342,0
                -77.295057,1.221267,0
                -77.295058,1.221263,0
                -77.295129,1.221138,0
                -77.295175,1.221094,0
                -77.29525,1.221012,0
                -77.295358,1.220876,0
                -77.295445,1.220747,0
                -77.295436,1.22072,0
                -77.295425,1.220687,0
                -77.295075,1.220177,0
                -77.294862,1.220284,0
                -77.294865,1.220213,0
                -77.294852,1.220085,0
                -77.294769,1.219976,0
                -77.294769,1.219764,0
                -77.294846,1.219598,0
                -77.294814,1.219514,0
                -77.294679,1.219521,0
                -77.29467,1.219527,0
                -77.29448,1.219662,0
                -77.294346,1.2197,0
                -77.294096,1.219527,0
                -77.29407,1.219457,0
                -77.294145,1.219386,0
                -77.294173,1.219361,0
                -77.294295,1.219245,0
                -77.294288,1.219149,0
                -77.294146,1.219018,0
                -77.294115,1.218989,0
                -77.294474,1.218489,0
                -77.294512,1.218489,0
                -77.294678,1.218288,0
                -77.294954,1.217953,0
                -77.295345,1.217477,0
                -77.295416,1.217432,0
                -77.295454,1.217496,0
                -77.295485,1.21754,0
                -77.295512,1.21758,0
                -77.296012,1.217375,0
                -77.296153,1.217279,0
                -77.296147,1.217261,0
                -77.298044,1.216356,0
                -77.297508,1.214605,0
                -77.297276,1.213855,0
                -77.297138,1.213881,0
                -77.296704,1.213963,0
                -77.296293,1.213998,0
                -77.296368,1.213891,0
                -77.296418,1.21382,0
                -77.297026,1.213462,0
                -77.297204,1.213016,0
                -77.297192,1.212774,0
                -77.295793,1.213516,0
                -77.295329,1.213552,0
                -77.294257,1.213391,0
                -77.293989,1.212498,0
                -77.294167,1.212248,0
                -77.294864,1.21198,0
                -77.294852,1.211762,0
                -77.29473,1.211809,0
                -77.294472,1.211232,0
                -77.294044,1.210446,0
                -77.293945,1.210268,0
                -77.293929,1.210235,0
                -77.293769,1.209894,0
                -77.293768,1.209894,0
                -77.293766,1.209877,0
                -77.293869,1.209811,0
                -77.293907,1.209783,0
                -77.293911,1.209781,0
                -77.293915,1.209777,0
                -77.293921,1.209773,0
                -77.293984,1.209729,0
                -77.294024,1.209701,0
                -77.294201,1.209575,0
                -77.294718,1.209283,0
                -77.295009,1.209145,0
                -77.295357,1.208878,0
                -77.295668,1.20864,0
                -77.295257,1.208104,0
                -77.295253,1.208104,0
                -77.295129,1.207914,0
                -77.295126,1.20791,0
                -77.295122,1.207907,0
                -77.295119,1.207905,0
                -77.295114,1.207903,0
                -77.29511,1.207902,0
                -77.295105,1.207902,0
                -77.2951,1.207902,0
                -77.295096,1.207905,0
                -77.295091,1.207907,0
                -77.295038,1.207942,0
                -77.295014,1.207857,0
                -77.294989,1.207815,0
                -77.294962,1.207768,0
                -77.294245,1.208143,0
                -77.294074,1.208052,0
                -77.293265,1.207567,0
                -77.292943,1.207346,0
                -77.292666,1.207172,0
                -77.292613,1.206765,0
                -77.292559,1.206721,0
                -77.292558,1.206721,0
                -77.292561,1.206724,0
                -77.292273,1.206951,0
                -77.291501,1.20763,0
                -77.290482,1.208405,0
                -77.28995,1.208851,0
                -77.289943,1.208838,0
                -77.289931,1.208873,0
                -77.289783,1.20878,0
                -77.289778,1.208761,0
                -77.289763,1.208772,0
                -77.289927,1.208876,0
                -77.289787,1.209004,0
                -77.289783,1.209005,0
                -77.289785,1.209006,0
                -77.288231,1.210435,0
                -77.28648,1.212078,0
                -77.285927,1.212614,0
                -77.285158,1.21315,0
                -77.280803,1.215023,0
                -77.28081,1.215039,0
                -77.28095,1.214963,0
                -77.281103,1.215421,0
                -77.281341,1.215962,0
                -77.281655,1.216609,0
                -77.282872,1.217781,0
                -77.283763,1.218467,0
                -77.284827,1.219274,0
                -77.286647,1.220652,0
                -77.286674,1.22068,0
                -77.286995,1.220922,0
                -77.287286,1.221108,0
                -77.287935,1.221625,0
                -77.288392,1.22197,0
                -77.288418,1.221989,0
                -77.288689,1.222149,0
                -77.288704,1.222158,0
                -77.288947,1.222384,0
                -77.288961,1.222397,0
                -77.289298,1.222616,0
                -77.289442,1.222711,0
                -77.289594,1.222827,0
                -77.289811,1.222991,0
                -77.289858,1.223028,0
                -77.290126,1.223234,0
                -77.290372,1.223423,0
                -77.290536,1.223549,0
                -77.290734,1.223649,0
                -77.290751,1.223661,0
                -77.290972,1.223825,0
                -77.290971,1.223827,0
                -77.291232,1.22387,0
                -77.291239,1.223875,0
              </coordinates>
            </LinearRing>
          </outerBoundaryIs>
        </Polygon>
      </Placemark>
      <Placemark>
        <name/>
        <description><![CDATA[Descripción: <br>Reg_Nom: Valle 550<br>Dominio: Pasto<br>Region: 550<br>Zona: 432<br>Seccion: I<br>Zsec: 432I]]></description>
        <styleUrl>#poly-FF5252-2201-76</styleUrl>
        <ExtendedData>
          <Data name="Descripción">
            <value/>
          </Data>
          <Data name="Reg_Nom">
            <value>Valle 550</value>
          </Data>
          <Data name="Dominio">
            <value>Pasto</value>
          </Data>
          <Data name="Region">
            <value>550</value>
          </Data>
          <Data name="Zona">
            <value>432</value>
          </Data>
          <Data name="Seccion">
            <value>I</value>
          </Data>
          <Data name="Zsec">
            <value>432I</value>
          </Data>
        </ExtendedData>
        <Polygon>
          <outerBoundaryIs>
            <LinearRing>
              <tessellate>1</tessellate>
              <coordinates>
                -77.285992,1.205864,0
                -77.285993,1.205875,0
                -77.285991,1.205877,0
                -77.286321,1.206125,0
                -77.286825,1.206555,0
                -77.286854,1.20658,0
                -77.287023,1.206671,0
                -77.287176,1.206835,0
                -77.287194,1.206848,0
                -77.287532,1.207089,0
                -77.287907,1.207368,0
                -77.28792,1.207377,0
                -77.288302,1.207659,0
                -77.288542,1.207846,0
                -77.288992,1.208188,0
                -77.28974,1.208757,0
                -77.289763,1.208772,0
                -77.289778,1.208761,0
                -77.289783,1.20878,0
                -77.289931,1.208873,0
                -77.289943,1.208838,0
                -77.28995,1.208851,0
                -77.290482,1.208405,0
                -77.291501,1.20763,0
                -77.292273,1.206951,0
                -77.292561,1.206724,0
                -77.292558,1.206721,0
                -77.292568,1.206721,0
                -77.293679,1.20583,0
                -77.295099,1.205077,0
                -77.296637,1.2042,0
                -77.29755,1.203693,0
                -77.297809,1.203588,0
                -77.298325,1.20307,0
                -77.298325,1.203069,0
                -77.298332,1.203063,0
                -77.298388,1.203011,0
                -77.298681,1.202742,0
                -77.299142,1.202451,0
                -77.299326,1.202348,0
                -77.299384,1.201772,0
                -77.297874,1.199808,0
                -77.297778,1.199792,0
                -77.297323,1.200113,0
                -77.295239,1.196799,0
                -77.295138,1.196884,0
                -77.295118,1.196849,0
                -77.294918,1.196996,0
                -77.294721,1.197246,0
                -77.294382,1.197514,0
                -77.292453,1.199103,0
                -77.290309,1.201032,0
                -77.290299,1.201011,0
                -77.290294,1.201024,0
                -77.290345,1.201068,0
                -77.290005,1.201407,0
                -77.28913,1.202104,0
                -77.28804,1.202925,0
                -77.286825,1.204783,0
                -77.285992,1.205864,0
              </coordinates>
            </LinearRing>
          </outerBoundaryIs>
          <innerBoundaryIs>
            <LinearRing>
              <tessellate>1</tessellate>
              <coordinates>
                -77.294917,1.197089,0
                -77.295057,1.19735,0
                -77.295233,1.197336,0
                -77.295081,1.197059,0
                -77.294917,1.197089,0
              </coordinates>
            </LinearRing>
          </innerBoundaryIs>
        </Polygon>
      </Placemark>
      <Placemark>
        <name/>
        <description><![CDATA[Descripción: <br>Reg_Nom: Valle 550<br>Dominio: Pasto<br>Region: 550<br>Zona: 432<br>Seccion: G<br>Zsec: 432G]]></description>
        <styleUrl>#poly-FFEA00-1200-76</styleUrl>
        <ExtendedData>
          <Data name="Descripción">
            <value/>
          </Data>
          <Data name="Reg_Nom">
            <value>Valle 550</value>
          </Data>
          <Data name="Dominio">
            <value>Pasto</value>
          </Data>
          <Data name="Region">
            <value>550</value>
          </Data>
          <Data name="Zona">
            <value>432</value>
          </Data>
          <Data name="Seccion">
            <value>G</value>
          </Data>
          <Data name="Zsec">
            <value>432G</value>
          </Data>
        </ExtendedData>
        <Polygon>
          <outerBoundaryIs>
            <LinearRing>
              <tessellate>1</tessellate>
              <coordinates>
                -77.279254,1.200682,0
                -77.278774,1.200404,0
                -77.278595,1.200186,0
                -77.278591,1.200148,0
                -77.278556,1.200167,0
                -77.278563,1.200493,0
                -77.278804,1.201364,0
                -77.27887,1.201827,0
                -77.279317,1.203202,0
                -77.279781,1.204166,0
                -77.281121,1.206452,0
                -77.28096,1.20656,0
                -77.276244,1.208381,0
                -77.275726,1.208792,0
                -77.274851,1.209417,0
                -77.273583,1.210274,0
                -77.271761,1.211489,0
                -77.271385,1.21206,0
                -77.271243,1.212096,0
                -77.271244,1.212088,0
                -77.27123,1.212083,0
                -77.271226,1.212105,0
                -77.271302,1.212105,0
                -77.271355,1.212194,0
                -77.271266,1.212819,0
                -77.271069,1.21323,0
                -77.270712,1.213712,0
                -77.270516,1.214248,0
                -77.270158,1.214677,0
                -77.269694,1.215106,0
                -77.269265,1.215516,0
                -77.269205,1.21564,0
                -77.269015,1.216034,0
                -77.268979,1.216659,0
                -77.269004,1.21685,0
                -77.269104,1.217642,0
                -77.269229,1.218035,0
                -77.269229,1.218535,0
                -77.269158,1.218856,0
                -77.268819,1.219195,0
                -77.268015,1.219624,0
                -77.26764,1.220017,0
                -77.26689,1.220954,0
                -77.266586,1.221572,0
                -77.266578,1.221579,0
                -77.266143,1.222335,0
                -77.266418,1.222457,0
                -77.266527,1.222739,0
                -77.26686,1.223181,0
                -77.266988,1.223373,0
                -77.267264,1.223591,0
                -77.267485,1.223724,0
                -77.2677,1.223853,0
                -77.267975,1.224129,0
                -77.268052,1.224283,0
                -77.268687,1.223866,0
                -77.268757,1.223796,0
                -77.268969,1.223571,0
                -77.269174,1.223507,0
                -77.269257,1.223475,0
                -77.270936,1.224052,0
                -77.271234,1.224134,0
                -77.271372,1.223802,0
                -77.271403,1.223386,0
                -77.270891,1.223206,0
                -77.269943,1.222841,0
                -77.269513,1.222585,0
                -77.269218,1.222245,0
                -77.269379,1.222149,0
                -77.27091,1.220881,0
                -77.271141,1.220342,0
                -77.271442,1.219971,0
                -77.272288,1.219202,0
                -77.272608,1.218978,0
                -77.272698,1.218914,0
                -77.273416,1.21921,0
                -77.273429,1.219176,0
                -77.273473,1.219228,0
                -77.27364,1.219253,0
                -77.273928,1.218792,0
                -77.274187,1.218644,0
                -77.274172,1.218419,0
                -77.274146,1.217958,0
                -77.274158,1.217951,0
                -77.274158,1.21795,0
                -77.274308,1.217868,0
                -77.275537,1.217336,0
                -77.275783,1.217213,0
                -77.275787,1.217214,0
                -77.27984,1.215436,0
                -77.28055,1.215132,0
                -77.285158,1.21315,0
                -77.285927,1.212614,0
                -77.28648,1.212078,0
                -77.288231,1.210435,0
                -77.289785,1.209006,0
                -77.289783,1.209005,0
                -77.289787,1.209004,0
                -77.289927,1.208876,0
                -77.28974,1.208757,0
                -77.288992,1.208188,0
                -77.288542,1.207846,0
                -77.288302,1.207659,0
                -77.28792,1.207377,0
                -77.287907,1.207368,0
                -77.287532,1.207089,0
                -77.287194,1.206848,0
                -77.287176,1.206835,0
                -77.287023,1.206671,0
                -77.286854,1.20658,0
                -77.286825,1.206555,0
                -77.286321,1.206125,0
                -77.285991,1.205877,0
                -77.285993,1.205875,0
                -77.285987,1.205785,0
                -77.284878,1.205004,0
                -77.284876,1.205003,0
                -77.284779,1.204931,0
                -77.284201,1.204517,0
                -77.28401,1.204417,0
                -77.283879,1.204179,0
                -77.283629,1.203979,0
                -77.283091,1.203693,0
                -77.282997,1.203605,0
                -77.282721,1.203366,0
                -77.282258,1.203081,0
                -77.281232,1.20224,0
                -77.280646,1.201828,0
                -77.28046,1.201633,0
                -77.280436,1.201608,0
                -77.280161,1.201389,0
                -77.279893,1.201205,0
                -77.279673,1.201024,0
                -77.279642,1.201002,0
                -77.279254,1.200682,0
              </coordinates>
            </LinearRing>
          </outerBoundaryIs>
        </Polygon>
      </Placemark>
      <Placemark>
        <name/>
        <description><![CDATA[Descripción: <br>Reg_Nom: Valle 550<br>Dominio: Pasto<br>Region: 550<br>Zona: 432<br>Seccion: H<br>Zsec: 432H]]></description>
        <styleUrl>#poly-0288D1-1200-76</styleUrl>
        <ExtendedData>
          <Data name="Descripción">
            <value/>
          </Data>
          <Data name="Reg_Nom">
            <value>Valle 550</value>
          </Data>
          <Data name="Dominio">
            <value>Pasto</value>
          </Data>
          <Data name="Region">
            <value>550</value>
          </Data>
          <Data name="Zona">
            <value>432</value>
          </Data>
          <Data name="Seccion">
            <value>H</value>
          </Data>
          <Data name="Zsec">
            <value>432H</value>
          </Data>
        </ExtendedData>
        <Polygon>
          <outerBoundaryIs>
            <LinearRing>
              <tessellate>1</tessellate>
              <coordinates>
                -77.279254,1.200682,0
                -77.279642,1.201002,0
                -77.279673,1.201024,0
                -77.279893,1.201205,0
                -77.280161,1.201389,0
                -77.280436,1.201608,0
                -77.28046,1.201633,0
                -77.280646,1.201828,0
                -77.281232,1.20224,0
                -77.282258,1.203081,0
                -77.282721,1.203366,0
                -77.282997,1.203605,0
                -77.283091,1.203693,0
                -77.283629,1.203979,0
                -77.283879,1.204179,0
                -77.28401,1.204417,0
                -77.284201,1.204517,0
                -77.284779,1.204931,0
                -77.284876,1.205003,0
                -77.284878,1.205004,0
                -77.285987,1.205785,0
                -77.285992,1.205864,0
                -77.286825,1.204783,0
                -77.28804,1.202925,0
                -77.28913,1.202104,0
                -77.290005,1.201407,0
                -77.290345,1.201068,0
                -77.290294,1.201024,0
                -77.290345,1.200889,0
                -77.289344,1.199871,0
                -77.28888,1.200124,0
                -77.288873,1.200125,0
                -77.288705,1.200173,0
                -77.288628,1.200199,0
                -77.288563,1.200212,0
                -77.288472,1.20022,0
                -77.28846,1.200221,0
                -77.288374,1.200186,0
                -77.288333,1.200176,0
                -77.288285,1.200164,0
                -77.288219,1.200148,0
                -77.287897,1.2003,0
                -77.28645,1.201211,0
                -77.285932,1.201675,0
                -77.2862,1.200925,0
                -77.286189,1.200842,0
                -77.286129,1.200407,0
                -77.286004,1.199425,0
                -77.286039,1.199067,0
                -77.286004,1.198674,0
                -77.286022,1.198299,0
                -77.286093,1.197924,0
                -77.285718,1.197174,0
                -77.285629,1.197013,0
                -77.285682,1.19696,0
                -77.2862,1.196621,0
                -77.286626,1.196447,0
                -77.286948,1.195043,0
                -77.286415,1.19462,0
                -77.286343,1.194245,0
                -77.286325,1.194174,0
                -77.285825,1.194567,0
                -77.285692,1.194378,0
                -77.285648,1.194414,0
                -77.285644,1.194409,0
                -77.285361,1.194656,0
                -77.284056,1.195906,0
                -77.283681,1.195138,0
                -77.283444,1.194719,0
                -77.283003,1.194799,0
                -77.281288,1.195049,0
                -77.281266,1.19502,0
                -77.280898,1.195121,0
                -77.280906,1.19515,0
                -77.280908,1.195173,0
                -77.280936,1.195932,0
                -77.28093,1.195978,0
                -77.280925,1.195994,0
                -77.28093,1.196206,0
                -77.280874,1.19656,0
                -77.280843,1.196704,0
                -77.280766,1.196697,0
                -77.280754,1.196701,0
                -77.280609,1.195799,0
                -77.280448,1.19571,0
                -77.280323,1.195299,0
                -77.280251,1.195067,0
                -77.280091,1.195067,0
                -77.280412,1.194585,0
                -77.280341,1.194352,0
                -77.279984,1.194013,0
                -77.279769,1.193763,0
                -77.279251,1.193674,0
                -77.279193,1.194083,0
                -77.279157,1.194081,0
                -77.279156,1.194093,0
                -77.278619,1.19964,0
                -77.278563,1.199891,0
                -77.278595,1.200186,0
                -77.278774,1.200404,0
                -77.279254,1.200682,0
              </coordinates>
            </LinearRing>
          </outerBoundaryIs>
        </Polygon>
      </Placemark>
    </Folder>
  </Document>
</kml>
