<?xml version="1.0" encoding="UTF-8"?>
<kml xmlns="http://www.opengis.net/kml/2.2">
  <Document>
    <name>Zona 519</name>
    <description/>
    <Style id="poly-01579B-1200-76-normal">
      <LineStyle>
        <color>ff9b5701</color>
        <width>1.2</width>
      </LineStyle>
      <PolyStyle>
        <color>4c9b5701</color>
        <fill>1</fill>
        <outline>1</outline>
      </PolyStyle>
    </Style>
    <Style id="poly-01579B-1200-76-highlight">
      <LineStyle>
        <color>ff9b5701</color>
        <width>1.8</width>
      </LineStyle>
      <PolyStyle>
        <color>4c9b5701</color>
        <fill>1</fill>
        <outline>1</outline>
      </PolyStyle>
    </Style>
    <StyleMap id="poly-01579B-1200-76">
      <Pair>
        <key>normal</key>
        <styleUrl>#poly-01579B-1200-76-normal</styleUrl>
      </Pair>
      <Pair>
        <key>highlight</key>
        <styleUrl>#poly-01579B-1200-76-highlight</styleUrl>
      </Pair>
    </StyleMap>
    <Style id="poly-4E342E-1200-76-normal">
      <LineStyle>
        <color>ff2e344e</color>
        <width>1.2</width>
      </LineStyle>
      <PolyStyle>
        <color>4c2e344e</color>
        <fill>1</fill>
        <outline>1</outline>
      </PolyStyle>
    </Style>
    <Style id="poly-4E342E-1200-76-highlight">
      <LineStyle>
        <color>ff2e344e</color>
        <width>1.8</width>
      </LineStyle>
      <PolyStyle>
        <color>4c2e344e</color>
        <fill>1</fill>
        <outline>1</outline>
      </PolyStyle>
    </Style>
    <StyleMap id="poly-4E342E-1200-76">
      <Pair>
        <key>normal</key>
        <styleUrl>#poly-4E342E-1200-76-normal</styleUrl>
      </Pair>
      <Pair>
        <key>highlight</key>
        <styleUrl>#poly-4E342E-1200-76-highlight</styleUrl>
      </Pair>
    </StyleMap>
    <Style id="poly-558B2F-1200-76-normal">
      <LineStyle>
        <color>ff2f8b55</color>
        <width>1.2</width>
      </LineStyle>
      <PolyStyle>
        <color>4c2f8b55</color>
        <fill>1</fill>
        <outline>1</outline>
      </PolyStyle>
    </Style>
    <Style id="poly-558B2F-1200-76-highlight">
      <LineStyle>
        <color>ff2f8b55</color>
        <width>1.8</width>
      </LineStyle>
      <PolyStyle>
        <color>4c2f8b55</color>
        <fill>1</fill>
        <outline>1</outline>
      </PolyStyle>
    </Style>
    <StyleMap id="poly-558B2F-1200-76">
      <Pair>
        <key>normal</key>
        <styleUrl>#poly-558B2F-1200-76-normal</styleUrl>
      </Pair>
      <Pair>
        <key>highlight</key>
        <styleUrl>#poly-558B2F-1200-76-highlight</styleUrl>
      </Pair>
    </StyleMap>
    <Style id="poly-673AB7-1200-76-normal">
      <LineStyle>
        <color>ffb73a67</color>
        <width>1.2</width>
      </LineStyle>
      <PolyStyle>
        <color>4cb73a67</color>
        <fill>1</fill>
        <outline>1</outline>
      </PolyStyle>
    </Style>
    <Style id="poly-673AB7-1200-76-highlight">
      <LineStyle>
        <color>ffb73a67</color>
        <width>1.8</width>
      </LineStyle>
      <PolyStyle>
        <color>4cb73a67</color>
        <fill>1</fill>
        <outline>1</outline>
      </PolyStyle>
    </Style>
    <StyleMap id="poly-673AB7-1200-76">
      <Pair>
        <key>normal</key>
        <styleUrl>#poly-673AB7-1200-76-normal</styleUrl>
      </Pair>
      <Pair>
        <key>highlight</key>
        <styleUrl>#poly-673AB7-1200-76-highlight</styleUrl>
      </Pair>
    </StyleMap>
    <Style id="poly-795548-1200-76-normal">
      <LineStyle>
        <color>ff485579</color>
        <width>1.2</width>
      </LineStyle>
      <PolyStyle>
        <color>4c485579</color>
        <fill>1</fill>
        <outline>1</outline>
      </PolyStyle>
    </Style>
    <Style id="poly-795548-1200-76-highlight">
      <LineStyle>
        <color>ff485579</color>
        <width>1.8</width>
      </LineStyle>
      <PolyStyle>
        <color>4c485579</color>
        <fill>1</fill>
        <outline>1</outline>
      </PolyStyle>
    </Style>
    <StyleMap id="poly-795548-1200-76">
      <Pair>
        <key>normal</key>
        <styleUrl>#poly-795548-1200-76-normal</styleUrl>
      </Pair>
      <Pair>
        <key>highlight</key>
        <styleUrl>#poly-795548-1200-76-highlight</styleUrl>
      </Pair>
    </StyleMap>
    <Style id="poly-7CB342-1200-76-normal">
      <LineStyle>
        <color>ff42b37c</color>
        <width>1.2</width>
      </LineStyle>
      <PolyStyle>
        <color>4c42b37c</color>
        <fill>1</fill>
        <outline>1</outline>
      </PolyStyle>
    </Style>
    <Style id="poly-7CB342-1200-76-highlight">
      <LineStyle>
        <color>ff42b37c</color>
        <width>1.8</width>
      </LineStyle>
      <PolyStyle>
        <color>4c42b37c</color>
        <fill>1</fill>
        <outline>1</outline>
      </PolyStyle>
    </Style>
    <StyleMap id="poly-7CB342-1200-76">
      <Pair>
        <key>normal</key>
        <styleUrl>#poly-7CB342-1200-76-normal</styleUrl>
      </Pair>
      <Pair>
        <key>highlight</key>
        <styleUrl>#poly-7CB342-1200-76-highlight</styleUrl>
      </Pair>
    </StyleMap>
    <Style id="poly-C2185B-1200-76-normal">
      <LineStyle>
        <color>ff5b18c2</color>
        <width>1.2</width>
      </LineStyle>
      <PolyStyle>
        <color>4c5b18c2</color>
        <fill>1</fill>
        <outline>1</outline>
      </PolyStyle>
    </Style>
    <Style id="poly-C2185B-1200-76-highlight">
      <LineStyle>
        <color>ff5b18c2</color>
        <width>1.8</width>
      </LineStyle>
      <PolyStyle>
        <color>4c5b18c2</color>
        <fill>1</fill>
        <outline>1</outline>
      </PolyStyle>
    </Style>
    <StyleMap id="poly-C2185B-1200-76">
      <Pair>
        <key>normal</key>
        <styleUrl>#poly-C2185B-1200-76-normal</styleUrl>
      </Pair>
      <Pair>
        <key>highlight</key>
        <styleUrl>#poly-C2185B-1200-76-highlight</styleUrl>
      </Pair>
    </StyleMap>
    <Style id="poly-E65100-1200-76-normal">
      <LineStyle>
        <color>ff0051e6</color>
        <width>1.2</width>
      </LineStyle>
      <PolyStyle>
        <color>4c0051e6</color>
        <fill>1</fill>
        <outline>1</outline>
      </PolyStyle>
    </Style>
    <Style id="poly-E65100-1200-76-highlight">
      <LineStyle>
        <color>ff0051e6</color>
        <width>1.8</width>
      </LineStyle>
      <PolyStyle>
        <color>4c0051e6</color>
        <fill>1</fill>
        <outline>1</outline>
      </PolyStyle>
    </Style>
    <StyleMap id="poly-E65100-1200-76">
      <Pair>
        <key>normal</key>
        <styleUrl>#poly-E65100-1200-76-normal</styleUrl>
      </Pair>
      <Pair>
        <key>highlight</key>
        <styleUrl>#poly-E65100-1200-76-highlight</styleUrl>
      </Pair>
    </StyleMap>
    <Style id="poly-F57C00-1200-76-normal">
      <LineStyle>
        <color>ff007cf5</color>
        <width>1.2</width>
      </LineStyle>
      <PolyStyle>
        <color>4c007cf5</color>
        <fill>1</fill>
        <outline>1</outline>
      </PolyStyle>
    </Style>
    <Style id="poly-F57C00-1200-76-highlight">
      <LineStyle>
        <color>ff007cf5</color>
        <width>1.8</width>
      </LineStyle>
      <PolyStyle>
        <color>4c007cf5</color>
        <fill>1</fill>
        <outline>1</outline>
      </PolyStyle>
    </Style>
    <StyleMap id="poly-F57C00-1200-76">
      <Pair>
        <key>normal</key>
        <styleUrl>#poly-F57C00-1200-76-normal</styleUrl>
      </Pair>
      <Pair>
        <key>highlight</key>
        <styleUrl>#poly-F57C00-1200-76-highlight</styleUrl>
      </Pair>
    </StyleMap>
    <Style id="poly-FF5252-1200-76-normal">
      <LineStyle>
        <color>ff5252ff</color>
        <width>1.2</width>
      </LineStyle>
      <PolyStyle>
        <color>4c5252ff</color>
        <fill>1</fill>
        <outline>1</outline>
      </PolyStyle>
    </Style>
    <Style id="poly-FF5252-1200-76-highlight">
      <LineStyle>
        <color>ff5252ff</color>
        <width>1.8</width>
      </LineStyle>
      <PolyStyle>
        <color>4c5252ff</color>
        <fill>1</fill>
        <outline>1</outline>
      </PolyStyle>
    </Style>
    <StyleMap id="poly-FF5252-1200-76">
      <Pair>
        <key>normal</key>
        <styleUrl>#poly-FF5252-1200-76-normal</styleUrl>
      </Pair>
      <Pair>
        <key>highlight</key>
        <styleUrl>#poly-FF5252-1200-76-highlight</styleUrl>
      </Pair>
    </StyleMap>
    <Folder>
      <name>VD519</name>
      <Placemark>
        <name/>
        <description><![CDATA[Descripción: <br>Reg_Nom: Tolhuca 155<br>Dominio: Prado<br>Region: 155<br>Zona: 519<br>Seccion: E<br>Zsec: 519E]]></description>
        <styleUrl>#poly-01579B-1200-76</styleUrl>
        <ExtendedData>
          <Data name="Descripción">
            <value/>
          </Data>
          <Data name="Reg_Nom">
            <value>Tolhuca 155</value>
          </Data>
          <Data name="Dominio">
            <value>Prado</value>
          </Data>
          <Data name="Region">
            <value>155</value>
          </Data>
          <Data name="Zona">
            <value>519</value>
          </Data>
          <Data name="Seccion">
            <value>E</value>
          </Data>
          <Data name="Zsec">
            <value>519E</value>
          </Data>
        </ExtendedData>
        <Polygon>
          <outerBoundaryIs>
            <LinearRing>
              <tessellate>1</tessellate>
              <coordinates>
                -74.923702,3.750686,0
                -74.922968,3.750075,0
                -74.922708,3.749142,0
                -74.921149,3.748727,0
                -74.92089,3.748831,0
                -74.919954,3.748996,0
                -74.919954,3.749343,0
                -74.919954,3.750283,0
                -74.920474,3.750853,0
                -74.930191,3.754431,0
                -74.930509,3.754542,0
                -74.930554,3.754431,0
                -74.932217,3.750905,0
                -74.932217,3.750075,0
                -74.932009,3.748935,0
                -74.933271,3.745599,0
                -74.93287,3.745224,0
                -74.932834,3.745191,0
                -74.933216,3.74406,0
                -74.933234,3.743927,0
                -74.933206,3.743881,0
                -74.93307,3.743746,0
                -74.932761,3.74354,0
                -74.932705,3.743513,0
                -74.932473,3.743388,0
                -74.932441,3.743414,0
                -74.930885,3.744691,0
                -74.930811,3.744749,0
                -74.930791,3.744766,0
                -74.93079,3.744766,0
                -74.930757,3.744792,0
                -74.930703,3.744837,0
                -74.930702,3.744838,0
                -74.930467,3.745033,0
                -74.929876,3.744968,0
                -74.929307,3.745928,0
                -74.928112,3.74515,0
                -74.926242,3.749298,0
                -74.924995,3.748727,0
                -74.923702,3.750686,0
              </coordinates>
            </LinearRing>
          </outerBoundaryIs>
        </Polygon>
      </Placemark>
      <Placemark>
        <name/>
        <description><![CDATA[Descripción: <br>Reg_Nom: Tolhuca 155<br>Dominio: Purificacion<br>Region: 155<br>Zona: 519<br>Seccion: E<br>Zsec: 519E]]></description>
        <styleUrl>#poly-01579B-1200-76</styleUrl>
        <ExtendedData>
          <Data name="Descripción">
            <value/>
          </Data>
          <Data name="Reg_Nom">
            <value>Tolhuca 155</value>
          </Data>
          <Data name="Dominio">
            <value>Purificacion</value>
          </Data>
          <Data name="Region">
            <value>155</value>
          </Data>
          <Data name="Zona">
            <value>519</value>
          </Data>
          <Data name="Seccion">
            <value>E</value>
          </Data>
          <Data name="Zsec">
            <value>519E</value>
          </Data>
        </ExtendedData>
        <Polygon>
          <outerBoundaryIs>
            <LinearRing>
              <tessellate>1</tessellate>
              <coordinates>
                -74.940457,3.855949,0
                -74.940441,3.8558,0
                -74.940635,3.855478,0
                -74.940401,3.8547,0
                -74.939526,3.853274,0
                -74.939284,3.852489,0
                -74.93899,3.851861,0
                -74.938713,3.851912,0
                -74.937803,3.850372,0
                -74.937308,3.850476,0
                -74.936997,3.850631,0
                -74.936964,3.850548,0
                -74.936935,3.850474,0
                -74.936452,3.849271,0
                -74.935413,3.849853,0
                -74.934347,3.850631,0
                -74.93336,3.851253,0
                -74.932113,3.851745,0
                -74.931995,3.851783,0
                -74.930632,3.852212,0
                -74.929281,3.852653,0
                -74.929041,3.852744,0
                -74.928723,3.853378,0
                -74.928658,3.854778,0
                -74.926995,3.856022,0
                -74.925358,3.857526,0
                -74.924137,3.85947,0
                -74.924657,3.860118,0
                -74.925696,3.86074,0
                -74.92554,3.861803,0
                -74.924943,3.862788,0
                -74.924475,3.863721,0
                -74.924318,3.864416,0
                -74.924567,3.864491,0
                -74.925368,3.864686,0
                -74.925398,3.864693,0
                -74.925406,3.864695,0
                -74.925415,3.864697,0
                -74.925691,3.864752,0
                -74.92598,3.864813,0
                -74.926139,3.864866,0
                -74.92632,3.864968,0
                -74.926884,3.865711,0
                -74.927676,3.866757,0
                -74.927774,3.866806,0
                -74.928011,3.86688,0
                -74.928648,3.867106,0
                -74.929319,3.867355,0
                -74.929426,3.867382,0
                -74.929493,3.867399,0
                -74.929825,3.867472,0
                -74.930355,3.86757,0
                -74.930506,3.867594,0
                -74.930574,3.86758,0
                -74.930961,3.867503,0
                -74.931282,3.867298,0
                -74.932737,3.864939,0
                -74.933386,3.86157,0
                -74.93388,3.85693,0
                -74.936841,3.856385,0
                -74.939491,3.855971,0
                -74.940457,3.855949,0
              </coordinates>
            </LinearRing>
          </outerBoundaryIs>
        </Polygon>
      </Placemark>
      <Placemark>
        <name/>
        <description><![CDATA[Descripción: <br>Reg_Nom: Tolhuca 155<br>Dominio: SaldaÃ±a<br>Region: 155<br>Zona: 519<br>Seccion: D<br>Zsec: 519D]]></description>
        <styleUrl>#poly-FF5252-1200-76</styleUrl>
        <ExtendedData>
          <Data name="Descripción">
            <value/>
          </Data>
          <Data name="Reg_Nom">
            <value>Tolhuca 155</value>
          </Data>
          <Data name="Dominio">
            <value>SaldaÃ±a</value>
          </Data>
          <Data name="Region">
            <value>155</value>
          </Data>
          <Data name="Zona">
            <value>519</value>
          </Data>
          <Data name="Seccion">
            <value>D</value>
          </Data>
          <Data name="Zsec">
            <value>519D</value>
          </Data>
        </ExtendedData>
        <Polygon>
          <outerBoundaryIs>
            <LinearRing>
              <tessellate>1</tessellate>
              <coordinates>
                -75.012458,3.921491,0
                -75.011931,3.921627,0
                -75.011216,3.921525,0
                -75.011228,3.921607,0
                -75.011233,3.92163,0
                -75.01125,3.921701,0
                -75.01125,3.921748,0
                -75.011272,3.921873,0
                -75.011277,3.92191,0
                -75.011291,3.92195,0
                -75.011313,3.92201,0
                -75.011346,3.922061,0
                -75.010995,3.932565,0
                -75.01106,3.932584,0
                -75.011047,3.932616,0
                -75.012658,3.933446,0
                -75.013206,3.933537,0
                -75.013549,3.933594,0
                -75.016711,3.93412,0
                -75.019413,3.934275,0
                -75.019366,3.93406,0
                -75.019372,3.934059,0
                -75.019365,3.933994,0
                -75.01932,3.93308,0
                -75.01925,3.932503,0
                -75.019235,3.932472,0
                -75.019229,3.93246,0
                -75.019218,3.932436,0
                -75.019121,3.931752,0
                -75.019102,3.931564,0
                -75.019049,3.931046,0
                -75.019395,3.92882,0
                -75.01995,3.927964,0
                -75.020572,3.927984,0
                -75.020841,3.927594,0
                -75.020464,3.927327,0
                -75.020559,3.927286,0
                -75.020584,3.927276,0
                -75.020696,3.927282,0
                -75.024791,3.925363,0
                -75.024816,3.925351,0
                -75.025971,3.924786,0
                -75.026076,3.924746,0
                -75.026136,3.924681,0
                -75.026162,3.924613,0
                -75.026177,3.924574,0
                -75.026194,3.924549,0
                -75.026213,3.924512,0
                -75.025326,3.924113,0
                -75.024431,3.923693,0
                -75.024437,3.923674,0
                -75.022479,3.922923,0
                -75.022331,3.922716,0
                -75.021562,3.922365,0
                -75.02151,3.922338,0
                -75.021084,3.922125,0
                -75.018644,3.922001,0
                -75.016568,3.921878,0
                -75.015951,3.921842,0
                -75.015817,3.921833,0
                -75.014713,3.921766,0
                -75.01441,3.921748,0
                -75.013276,3.921679,0
                -75.012508,3.921632,0
                -75.012471,3.921519,0
                -75.012458,3.921491,0
              </coordinates>
            </LinearRing>
          </outerBoundaryIs>
        </Polygon>
      </Placemark>
      <Placemark>
        <name/>
        <description><![CDATA[Descripción: <br>Reg_Nom: Tolhuca 155<br>Dominio: Guamo<br>Region: 155<br>Zona: 519<br>Seccion: C<br>Zsec: 519C]]></description>
        <styleUrl>#poly-558B2F-1200-76</styleUrl>
        <ExtendedData>
          <Data name="Descripción">
            <value/>
          </Data>
          <Data name="Reg_Nom">
            <value>Tolhuca 155</value>
          </Data>
          <Data name="Dominio">
            <value>Guamo</value>
          </Data>
          <Data name="Region">
            <value>155</value>
          </Data>
          <Data name="Zona">
            <value>519</value>
          </Data>
          <Data name="Seccion">
            <value>C</value>
          </Data>
          <Data name="Zsec">
            <value>519C</value>
          </Data>
        </ExtendedData>
        <Polygon>
          <outerBoundaryIs>
            <LinearRing>
              <tessellate>1</tessellate>
              <coordinates>
                -74.975523,4.024847,0
                -74.975377,4.024701,0
                -74.975143,4.024338,0
                -74.974649,4.023846,0
                -74.974208,4.022713,0
                -74.974104,4.022447,0
                -74.973922,4.022343,0
                -74.973507,4.022366,0
                -74.973454,4.022369,0
                -74.972051,4.02255,0
                -74.970882,4.022369,0
                -74.969661,4.022058,0
                -74.969297,4.021902,0
                -74.969635,4.021358,0
                -74.96962,4.021285,0
                -74.969531,4.021462,0
                -74.968024,4.020684,0
                -74.967141,4.019337,0
                -74.966465,4.01773,0
                -74.965894,4.017315,0
                -74.963944,4.016788,0
                -74.9634,4.016641,0
                -74.962724,4.016849,0
                -74.962205,4.021773,0
                -74.961373,4.022447,0
                -74.960802,4.024313,0
                -74.961633,4.024675,0
                -74.961581,4.026178,0
                -74.961841,4.030532,0
                -74.962307,4.030972,0
                -74.962287,4.031098,0
                -74.962298,4.031188,0
                -74.962299,4.031199,0
                -74.962306,4.031259,0
                -74.962412,4.032135,0
                -74.962147,4.032885,0
                -74.962867,4.033319,0
                -74.963185,4.033529,0
                -74.963489,4.033733,0
                -74.964052,4.034052,0
                -74.964232,4.034171,0
                -74.964451,4.03431,0
                -74.964608,4.034471,0
                -74.964735,4.034575,0
                -74.964839,4.034724,0
                -74.964983,4.034755,0
                -74.965134,4.034782,0
                -74.965241,4.034784,0
                -74.965379,4.034752,0
                -74.965512,4.034678,0
                -74.965506,4.034765,0
                -74.965505,4.03477,0
                -74.965496,4.034903,0
                -74.965442,4.035793,0
                -74.965568,4.035825,0
                -74.964179,4.037581,0
                -74.9657,4.038288,0
                -74.967193,4.038981,0
                -74.966579,4.040527,0
                -74.966206,4.041469,0
                -74.969115,4.040588,0
                -74.969947,4.040225,0
                -74.969573,4.039784,0
                -74.969115,4.037633,0
                -74.96844,4.035664,0
                -74.967557,4.034161,0
                -74.96766,4.033746,0
                -74.968232,4.033539,0
                -74.968804,4.034161,0
                -74.969427,4.036286,0
                -74.970258,4.036856,0
                -74.971921,4.037219,0
                -74.972493,4.036959,0
                -74.973168,4.036078,0
                -74.973792,4.033798,0
                -74.978983,4.033759,0
                -74.979445,4.033756,0
                -74.979483,4.033755,0
                -74.979559,4.031517,0
                -74.977429,4.031517,0
                -74.97613,4.031154,0
                -74.976026,4.03017,0
                -74.976494,4.029237,0
                -74.974155,4.028304,0
                -74.973376,4.027733,0
                -74.974311,4.026489,0
                -74.975523,4.024847,0
              </coordinates>
            </LinearRing>
          </outerBoundaryIs>
        </Polygon>
      </Placemark>
      <Placemark>
        <name/>
        <description><![CDATA[Descripción: <br>Reg_Nom: Tolhuca 155<br>Dominio: Espinal<br>Region: 155<br>Zona: 519<br>Seccion: B<br>Zsec: 519B]]></description>
        <styleUrl>#poly-673AB7-1200-76</styleUrl>
        <ExtendedData>
          <Data name="Descripción">
            <value/>
          </Data>
          <Data name="Reg_Nom">
            <value>Tolhuca 155</value>
          </Data>
          <Data name="Dominio">
            <value>Espinal</value>
          </Data>
          <Data name="Region">
            <value>155</value>
          </Data>
          <Data name="Zona">
            <value>519</value>
          </Data>
          <Data name="Seccion">
            <value>B</value>
          </Data>
          <Data name="Zsec">
            <value>519B</value>
          </Data>
        </ExtendedData>
        <Polygon>
          <outerBoundaryIs>
            <LinearRing>
              <tessellate>1</tessellate>
              <coordinates>
                -74.880475,4.140684,0
                -74.880466,4.140679,0
                -74.880345,4.14034,0
                -74.880175,4.139863,0
                -74.880086,4.139622,0
                -74.880078,4.1396,0
                -74.880079,4.1396,0
                -74.880057,4.139524,0
                -74.880036,4.139528,0
                -74.880008,4.139365,0
                -74.878608,4.140098,0
                -74.878552,4.140236,0
                -74.878733,4.141011,0
                -74.878866,4.141316,0
                -74.878843,4.141325,0
                -74.879107,4.141951,0
                -74.879357,4.142878,0
                -74.877049,4.143385,0
                -74.877057,4.143414,0
                -74.876736,4.143459,0
                -74.876808,4.143691,0
                -74.877199,4.144941,0
                -74.877283,4.14521,0
                -74.875876,4.145935,0
                -74.87546,4.146018,0
                -74.874933,4.146308,0
                -74.874905,4.146439,0
                -74.874878,4.146571,0
                -74.874919,4.147166,0
                -74.874475,4.146676,0
                -74.874254,4.146433,0
                -74.873338,4.14635,0
                -74.872766,4.146313,0
                -74.872272,4.146281,0
                -74.872271,4.14628,0
                -74.870426,4.145617,0
                -74.870415,4.14582,0
                -74.870177,4.149973,0
                -74.870232,4.150222,0
                -74.870426,4.150291,0
                -74.870815,4.150195,0
                -74.870662,4.152311,0
                -74.870066,4.152352,0
                -74.869959,4.152292,0
                -74.869958,4.152301,0
                -74.869719,4.152317,0
                -74.86879,4.152283,0
                -74.868722,4.152458,0
                -74.868138,4.153949,0
                -74.867757,4.154641,0
                -74.867375,4.155041,0
                -74.867965,4.155284,0
                -74.867839,4.155693,0
                -74.868485,4.15592,0
                -74.86845,4.15628,0
                -74.866057,4.156464,0
                -74.865627,4.157072,0
                -74.865691,4.158361,0
                -74.865344,4.158527,0
                -74.865386,4.15915,0
                -74.866689,4.159039,0
                -74.866807,4.159724,0
                -74.866862,4.159716,0
                -74.868614,4.159485,0
                -74.869109,4.159419,0
                -74.869263,4.159466,0
                -74.869768,4.15962,0
                -74.870107,4.159461,0
                -74.870107,4.158935,0
                -74.870718,4.159005,0
                -74.871536,4.157684,0
                -74.870898,4.157352,0
                -74.870794,4.157227,0
                -74.870808,4.157185,0
                -74.870824,4.157134,0
                -74.871111,4.156261,0
                -74.871834,4.156508,0
                -74.872035,4.156273,0
                -74.872583,4.156314,0
                -74.873013,4.156453,0
                -74.873241,4.15601,0
                -74.873359,4.155374,0
                -74.873801,4.15539,0
                -74.873921,4.155395,0
                -74.87408,4.155554,0
                -74.874131,4.155866,0
                -74.874157,4.156024,0
                -74.874344,4.156149,0
                -74.876722,4.156252,0
                -74.877131,4.156211,0
                -74.877235,4.155955,0
                -74.877296,4.155869,0
                -74.877512,4.155568,0
                -74.877552,4.155547,0
                -74.879503,4.15451,0
                -74.879946,4.154274,0
                -74.881464,4.153977,0
                -74.882283,4.153915,0
                -74.884661,4.15294,0
                -74.885111,4.154268,0
                -74.884917,4.154496,0
                -74.884806,4.154634,0
                -74.88473,4.154817,0
                -74.884602,4.155123,0
                -74.884446,4.155498,0
                -74.883496,4.157435,0
                -74.883433,4.1575,0
                -74.88343,4.157544,0
                -74.883004,4.158258,0
                -74.882726,4.15879,0
                -74.88369,4.159212,0
                -74.883836,4.159157,0
                -74.883919,4.158749,0
                -74.884044,4.158569,0
                -74.88419,4.15857,0
                -74.885465,4.158583,0
                -74.885479,4.158568,0
                -74.885583,4.158458,0
                -74.885657,4.158392,0
                -74.885777,4.158285,0
                -74.886949,4.15823,0
                -74.887722,4.157892,0
                -74.887684,4.157828,0
                -74.887344,4.157255,0
                -74.88615,4.155478,0
                -74.886002,4.15523,0
                -74.885562,4.154487,0
                -74.885541,4.154496,0
                -74.885319,4.154129,0
                -74.88538,4.154011,0
                -74.885437,4.153901,0
                -74.884744,4.15184,0
                -74.884404,4.1509,0
                -74.883745,4.149164,0
                -74.883323,4.14812,0
                -74.882941,4.147186,0
                -74.882574,4.146108,0
                -74.882269,4.145375,0
                -74.88188,4.144517,0
                -74.881457,4.143307,0
                -74.881298,4.142726,0
                -74.880577,4.140956,0
                -74.880475,4.140684,0
              </coordinates>
            </LinearRing>
          </outerBoundaryIs>
        </Polygon>
      </Placemark>
      <Placemark>
        <name/>
        <description><![CDATA[Descripción: <br>Reg_Nom: Tolhuca 155<br>Dominio: Espinal<br>Region: 155<br>Zona: 519<br>Seccion: A<br>Zsec: 519A]]></description>
        <styleUrl>#poly-4E342E-1200-76</styleUrl>
        <ExtendedData>
          <Data name="Descripción">
            <value/>
          </Data>
          <Data name="Reg_Nom">
            <value>Tolhuca 155</value>
          </Data>
          <Data name="Dominio">
            <value>Espinal</value>
          </Data>
          <Data name="Region">
            <value>155</value>
          </Data>
          <Data name="Zona">
            <value>519</value>
          </Data>
          <Data name="Seccion">
            <value>A</value>
          </Data>
          <Data name="Zsec">
            <value>519A</value>
          </Data>
        </ExtendedData>
        <Polygon>
          <outerBoundaryIs>
            <LinearRing>
              <tessellate>1</tessellate>
              <coordinates>
                -74.895699,4.154515,0
                -74.895713,4.154352,0
                -74.895733,4.154097,0
                -74.895733,4.154035,0
                -74.895729,4.153988,0
                -74.895775,4.153873,0
                -74.89551,4.153196,0
                -74.895304,4.15267,0
                -74.895276,4.152518,0
                -74.895334,4.152497,0
                -74.895955,4.152269,0
                -74.895959,4.152239,0
                -74.896122,4.1509,0
                -74.896136,4.15007,0
                -74.896066,4.14978,0
                -74.894998,4.149835,0
                -74.895109,4.149365,0
                -74.894888,4.148922,0
                -74.895434,4.148718,0
                -74.895567,4.148355,0
                -74.89583,4.147719,0
                -74.897938,4.144162,0
                -74.897028,4.144142,0
                -74.896801,4.144137,0
                -74.896912,4.143639,0
                -74.897245,4.142546,0
                -74.896744,4.140902,0
                -74.896676,4.140679,0
                -74.896237,4.140921,0
                -74.89562,4.14126,0
                -74.895317,4.141426,0
                -74.895259,4.141488,0
                -74.89479,4.141979,0
                -74.894555,4.14191,0
                -74.894208,4.141855,0
                -74.894014,4.141661,0
                -74.893556,4.141813,0
                -74.890963,4.142947,0
                -74.890886,4.142708,0
                -74.890811,4.142477,0
                -74.890561,4.142436,0
                -74.890332,4.142515,0
                -74.890067,4.142607,0
                -74.890242,4.1431,0
                -74.890074,4.143153,0
                -74.889977,4.14317,0
                -74.889898,4.143171,0
                -74.889728,4.14316,0
                -74.889645,4.143178,0
                -74.889499,4.143213,0
                -74.889162,4.143293,0
                -74.888361,4.143589,0
                -74.887353,4.143945,0
                -74.887249,4.143658,0
                -74.887442,4.14268,0
                -74.88755,4.142124,0
                -74.88755,4.142026,0
                -74.887579,4.141775,0
                -74.887619,4.141259,0
                -74.887636,4.140935,0
                -74.887622,4.140594,0
                -74.887571,4.140185,0
                -74.887484,4.139697,0
                -74.887355,4.13904,0
                -74.887314,4.139064,0
                -74.883049,4.140522,0
                -74.882948,4.140195,0
                -74.882546,4.138812,0
                -74.882074,4.138939,0
                -74.882061,4.138896,0
                -74.881788,4.138981,0
                -74.881175,4.139218,0
                -74.880564,4.139451,0
                -74.880575,4.13948,0
                -74.880494,4.139476,0
                -74.880078,4.1396,0
                -74.880175,4.139863,0
                -74.880466,4.140679,0
                -74.880475,4.140684,0
                -74.880577,4.140956,0
                -74.881298,4.142726,0
                -74.881457,4.143307,0
                -74.88188,4.144517,0
                -74.882269,4.145375,0
                -74.882574,4.146108,0
                -74.882941,4.147186,0
                -74.883323,4.14812,0
                -74.883745,4.149164,0
                -74.884404,4.1509,0
                -74.884744,4.15184,0
                -74.885437,4.153901,0
                -74.885413,4.153947,0
                -74.885319,4.154129,0
                -74.885541,4.154496,0
                -74.885562,4.154487,0
                -74.886002,4.15523,0
                -74.88615,4.155478,0
                -74.887344,4.157255,0
                -74.887684,4.157828,0
                -74.887857,4.158119,0
                -74.888211,4.158756,0
                -74.888224,4.15877,0
                -74.888273,4.158935,0
                -74.889729,4.158631,0
                -74.890006,4.158922,0
                -74.891282,4.158728,0
                -74.890769,4.155395,0
                -74.892599,4.154994,0
                -74.893002,4.15516,0
                -74.893972,4.15581,0
                -74.895387,4.156792,0
                -74.895553,4.156888,0
                -74.895706,4.15664,0
                -74.895692,4.155436,0
                -74.895699,4.154515,0
              </coordinates>
            </LinearRing>
          </outerBoundaryIs>
        </Polygon>
      </Placemark>
      <Placemark>
        <name/>
        <description><![CDATA[Descripción: <br>Reg_Nom: Tolhuca 155<br>Dominio: Coyaima<br>Region: 155<br>Zona: 519<br>Seccion: H<br>Zsec: 519H]]></description>
        <styleUrl>#poly-7CB342-1200-76</styleUrl>
        <ExtendedData>
          <Data name="Descripción">
            <value/>
          </Data>
          <Data name="Reg_Nom">
            <value>Tolhuca 155</value>
          </Data>
          <Data name="Dominio">
            <value>Coyaima</value>
          </Data>
          <Data name="Region">
            <value>155</value>
          </Data>
          <Data name="Zona">
            <value>519</value>
          </Data>
          <Data name="Seccion">
            <value>H</value>
          </Data>
          <Data name="Zsec">
            <value>519H</value>
          </Data>
        </ExtendedData>
        <Polygon>
          <outerBoundaryIs>
            <LinearRing>
              <tessellate>1</tessellate>
              <coordinates>
                -75.191116,3.793367,0
                -75.190319,3.796899,0
                -75.18979,3.79725,0
                -75.19014,3.798464,0
                -75.192295,3.798264,0
                -75.1918,3.802707,0
                -75.196215,3.804681,0
                -75.196323,3.803649,0
                -75.197843,3.800918,0
                -75.198357,3.80073,0
                -75.198679,3.798643,0
                -75.198451,3.796747,0
                -75.197995,3.795306,0
                -75.191116,3.793367,0
              </coordinates>
            </LinearRing>
          </outerBoundaryIs>
        </Polygon>
      </Placemark>
      <Placemark>
        <name/>
        <description><![CDATA[Descripción: <br>Reg_Nom: Tolhuca 155<br>Dominio: Ortega<br>Region: 155<br>Zona: 519<br>Seccion: G<br>Zsec: 519G]]></description>
        <styleUrl>#poly-F57C00-1200-76</styleUrl>
        <ExtendedData>
          <Data name="Descripción">
            <value/>
          </Data>
          <Data name="Reg_Nom">
            <value>Tolhuca 155</value>
          </Data>
          <Data name="Dominio">
            <value>Ortega</value>
          </Data>
          <Data name="Region">
            <value>155</value>
          </Data>
          <Data name="Zona">
            <value>519</value>
          </Data>
          <Data name="Seccion">
            <value>G</value>
          </Data>
          <Data name="Zsec">
            <value>519G</value>
          </Data>
        </ExtendedData>
        <Polygon>
          <outerBoundaryIs>
            <LinearRing>
              <tessellate>1</tessellate>
              <coordinates>
                -75.226499,3.93634,0
                -75.226108,3.93054,0
                -75.224623,3.93044,0
                -75.224243,3.929,0
                -75.221629,3.92749,0
                -75.220633,3.926914,0
                -75.219111,3.928776,0
                -75.217876,3.929406,0
                -75.216871,3.932564,0
                -75.216073,3.936165,0
                -75.217175,3.938061,0
                -75.217137,3.938781,0
                -75.218036,3.940372,0
                -75.218923,3.940449,0
                -75.220063,3.941814,0
                -75.223673,3.941397,0
                -75.224947,3.940694,0
                -75.224661,3.938743,0
                -75.224319,3.937606,0
                -75.226499,3.93634,0
              </coordinates>
            </LinearRing>
          </outerBoundaryIs>
        </Polygon>
      </Placemark>
      <Placemark>
        <name/>
        <description><![CDATA[Descripción: <br>Reg_Nom: Tolhuca 155<br>Dominio: Chaparral<br>Region: 155<br>Zona: 519<br>Seccion: I<br>Zsec: 519I]]></description>
        <styleUrl>#poly-795548-1200-76</styleUrl>
        <ExtendedData>
          <Data name="Descripción">
            <value/>
          </Data>
          <Data name="Reg_Nom">
            <value>Tolhuca 155</value>
          </Data>
          <Data name="Dominio">
            <value>Chaparral</value>
          </Data>
          <Data name="Region">
            <value>155</value>
          </Data>
          <Data name="Zona">
            <value>519</value>
          </Data>
          <Data name="Seccion">
            <value>I</value>
          </Data>
          <Data name="Zsec">
            <value>519I</value>
          </Data>
        </ExtendedData>
        <Polygon>
          <outerBoundaryIs>
            <LinearRing>
              <tessellate>1</tessellate>
              <coordinates>
                -75.479107,3.72946,0
                -75.478286,3.729672,0
                -75.478332,3.732306,0
                -75.490164,3.731973,0
                -75.490859,3.730289,0
                -75.493745,3.728849,0
                -75.495463,3.727958,0
                -75.495188,3.726106,0
                -75.497455,3.725558,0
                -75.499316,3.72511,0
                -75.499388,3.725092,0
                -75.499448,3.725078,0
                -75.499467,3.725087,0
                -75.501715,3.724941,0
                -75.505906,3.725969,0
                -75.506249,3.723364,0
                -75.501921,3.721856,0
                -75.499173,3.720553,0
                -75.49876,3.716371,0
                -75.497524,3.716645,0
                -75.496631,3.717331,0
                -75.496408,3.717327,0
                -75.495806,3.715617,0
                -75.494307,3.715718,0
                -75.486668,3.716234,0
                -75.486668,3.718702,0
                -75.482409,3.719456,0
                -75.475188,3.714067,0
                -75.469447,3.715658,0
                -75.467431,3.720622,0
                -75.463789,3.720827,0
                -75.463446,3.72357,0
                -75.459771,3.724051,0
                -75.45914,3.730995,0
                -75.471278,3.729534,0
                -75.479052,3.72861,0
                -75.479107,3.72946,0
              </coordinates>
            </LinearRing>
          </outerBoundaryIs>
        </Polygon>
      </Placemark>
      <Placemark>
        <name/>
        <description><![CDATA[Descripción: <br>Reg_Nom: Tolhuca 155<br>Dominio: Ataco<br>Region: 155<br>Zona: 519<br>Seccion: J<br>Zsec: 519J]]></description>
        <styleUrl>#poly-E65100-1200-76</styleUrl>
        <ExtendedData>
          <Data name="Descripción">
            <value/>
          </Data>
          <Data name="Reg_Nom">
            <value>Tolhuca 155</value>
          </Data>
          <Data name="Dominio">
            <value>Ataco</value>
          </Data>
          <Data name="Region">
            <value>155</value>
          </Data>
          <Data name="Zona">
            <value>519</value>
          </Data>
          <Data name="Seccion">
            <value>J</value>
          </Data>
          <Data name="Zsec">
            <value>519J</value>
          </Data>
        </ExtendedData>
        <Polygon>
          <outerBoundaryIs>
            <LinearRing>
              <tessellate>1</tessellate>
              <coordinates>
                -75.382087,3.597072,0
                -75.382385,3.596803,0
                -75.382459,3.596822,0
                -75.384621,3.595286,0
                -75.386567,3.593736,0
                -75.386828,3.593183,0
                -75.386401,3.589893,0
                -75.385771,3.587072,0
                -75.385436,3.586722,0
                -75.38431,3.586422,0
                -75.381329,3.584563,0
                -75.380178,3.584588,0
                -75.378555,3.58574,0
                -75.377768,3.586443,0
                -75.377354,3.587538,0
                -75.377168,3.587931,0
                -75.377147,3.590782,0
                -75.376505,3.59074,0
                -75.376505,3.592125,0
                -75.377126,3.592414,0
                -75.376402,3.593695,0
                -75.377023,3.59417,0
                -75.377478,3.594769,0
                -75.378244,3.595513,0
                -75.378517,3.595836,0
                -75.378908,3.595934,0
                -75.379217,3.596257,0
                -75.380589,3.597493,0
                -75.380894,3.597311,0
                -75.381577,3.597084,0
                -75.382053,3.597022,0
                -75.382087,3.597072,0
              </coordinates>
            </LinearRing>
          </outerBoundaryIs>
        </Polygon>
      </Placemark>
      <Placemark>
        <name/>
        <description><![CDATA[Descripción: <br>Reg_Nom: Tolhuca 155<br>Dominio: Planadas<br>Region: 155<br>Zona: 519<br>Seccion: K<br>Zsec: 519K]]></description>
        <styleUrl>#poly-C2185B-1200-76</styleUrl>
        <ExtendedData>
          <Data name="Descripción">
            <value/>
          </Data>
          <Data name="Reg_Nom">
            <value>Tolhuca 155</value>
          </Data>
          <Data name="Dominio">
            <value>Planadas</value>
          </Data>
          <Data name="Region">
            <value>155</value>
          </Data>
          <Data name="Zona">
            <value>519</value>
          </Data>
          <Data name="Seccion">
            <value>K</value>
          </Data>
          <Data name="Zsec">
            <value>519K</value>
          </Data>
        </ExtendedData>
        <Polygon>
          <outerBoundaryIs>
            <LinearRing>
              <tessellate>1</tessellate>
              <coordinates>
                -75.646637,3.199257,0
                -75.648583,3.197247,0
                -75.647861,3.196144,0
                -75.647948,3.195642,0
                -75.649192,3.194662,0
                -75.649432,3.195446,0
                -75.650119,3.194586,0
                -75.64884,3.193284,0
                -75.648123,3.193747,0
                -75.646464,3.191957,0
                -75.644907,3.191938,0
                -75.644588,3.192745,0
                -75.644806,3.193311,0
                -75.644173,3.194052,0
                -75.64354,3.194619,0
                -75.64296,3.193951,0
                -75.642522,3.195494,0
                -75.641636,3.199805,0
                -75.642499,3.200457,0
                -75.642755,3.200479,0
                -75.643366,3.200131,0
                -75.644086,3.200697,0
                -75.64437,3.200566,0
                -75.644566,3.200697,0
                -75.646334,3.198954,0
                -75.646637,3.199257,0
              </coordinates>
            </LinearRing>
          </outerBoundaryIs>
        </Polygon>
      </Placemark>
      <Placemark>
        <name/>
        <description><![CDATA[Descripción: <br>Reg_Nom: Tolhuca 155<br>Dominio: Rioblanco<br>Region: 155<br>Zona: 519<br>Seccion: K<br>Zsec: 519K]]></description>
        <styleUrl>#poly-C2185B-1200-76</styleUrl>
        <ExtendedData>
          <Data name="Descripción">
            <value/>
          </Data>
          <Data name="Reg_Nom">
            <value>Tolhuca 155</value>
          </Data>
          <Data name="Dominio">
            <value>Rioblanco</value>
          </Data>
          <Data name="Region">
            <value>155</value>
          </Data>
          <Data name="Zona">
            <value>519</value>
          </Data>
          <Data name="Seccion">
            <value>K</value>
          </Data>
          <Data name="Zsec">
            <value>519K</value>
          </Data>
        </ExtendedData>
        <Polygon>
          <outerBoundaryIs>
            <LinearRing>
              <tessellate>1</tessellate>
              <coordinates>
                -75.648947,3.528155,0
                -75.647883,3.529085,0
                -75.64504,3.526247,0
                -75.644235,3.526729,0
                -75.643591,3.528014,0
                -75.643116,3.528208,0
                -75.643645,3.528389,0
                -75.641928,3.529031,0
                -75.639782,3.527264,0
                -75.639031,3.527693,0
                -75.641392,3.530745,0
                -75.641821,3.531976,0
                -75.642304,3.532351,0
                -75.643216,3.532298,0
                -75.644718,3.532833,0
                -75.645952,3.532351,0
                -75.649557,3.531101,0
                -75.648947,3.528155,0
              </coordinates>
            </LinearRing>
          </outerBoundaryIs>
        </Polygon>
      </Placemark>
      <Placemark>
        <name/>
        <description><![CDATA[Descripción: <br>Reg_Nom: Tolhuca 155<br>Dominio: Natagaima<br>Region: 155<br>Zona: 519<br>Seccion: E<br>Zsec: 519E]]></description>
        <styleUrl>#poly-01579B-1200-76</styleUrl>
        <ExtendedData>
          <Data name="Descripción">
            <value/>
          </Data>
          <Data name="Reg_Nom">
            <value>Tolhuca 155</value>
          </Data>
          <Data name="Dominio">
            <value>Natagaima</value>
          </Data>
          <Data name="Region">
            <value>155</value>
          </Data>
          <Data name="Zona">
            <value>519</value>
          </Data>
          <Data name="Seccion">
            <value>E</value>
          </Data>
          <Data name="Zsec">
            <value>519E</value>
          </Data>
        </ExtendedData>
        <Polygon>
          <outerBoundaryIs>
            <LinearRing>
              <tessellate>1</tessellate>
              <coordinates>
                -75.091906,3.639394,0
                -75.09262,3.637252,0
                -75.101483,3.62482,0
                -75.101602,3.62363,0
                -75.100472,3.61548,0
                -75.100948,3.613339,0
                -75.09958,3.615599,0
                -75.097617,3.616491,0
                -75.092441,3.61504,0
                -75.092061,3.616944,0
                -75.088587,3.61661,0
                -75.087635,3.620227,0
                -75.087682,3.623416,0
                -75.090347,3.623749,0
                -75.089015,3.630221,0
                -75.090252,3.630459,0
                -75.091204,3.629317,0
                -75.092584,3.629602,0
                -75.092536,3.63084,0
                -75.09425,3.631363,0
                -75.091906,3.639394,0
              </coordinates>
            </LinearRing>
          </outerBoundaryIs>
        </Polygon>
      </Placemark>
    </Folder>
  </Document>
</kml>
