<?xml version="1.0" encoding="UTF-8"?>
<kml xmlns="http://www.opengis.net/kml/2.2">
  <Document>
    <name>Zona 521</name>
    <description/>
    <Style id="poly-0288D1-3201-76-normal">
      <LineStyle>
        <color>ffd18802</color>
        <width>3.201</width>
      </LineStyle>
      <PolyStyle>
        <color>4cd18802</color>
        <fill>1</fill>
        <outline>1</outline>
      </PolyStyle>
    </Style>
    <Style id="poly-0288D1-3201-76-highlight">
      <LineStyle>
        <color>ffd18802</color>
        <width>4.8015</width>
      </LineStyle>
      <PolyStyle>
        <color>4cd18802</color>
        <fill>1</fill>
        <outline>1</outline>
      </PolyStyle>
    </Style>
    <StyleMap id="poly-0288D1-3201-76">
      <Pair>
        <key>normal</key>
        <styleUrl>#poly-0288D1-3201-76-normal</styleUrl>
      </Pair>
      <Pair>
        <key>highlight</key>
        <styleUrl>#poly-0288D1-3201-76-highlight</styleUrl>
      </Pair>
    </StyleMap>
    <Style id="poly-7CB342-1200-76-normal">
      <LineStyle>
        <color>ff42b37c</color>
        <width>1.2</width>
      </LineStyle>
      <PolyStyle>
        <color>4c42b37c</color>
        <fill>1</fill>
        <outline>1</outline>
      </PolyStyle>
    </Style>
    <Style id="poly-7CB342-1200-76-highlight">
      <LineStyle>
        <color>ff42b37c</color>
        <width>1.8</width>
      </LineStyle>
      <PolyStyle>
        <color>4c42b37c</color>
        <fill>1</fill>
        <outline>1</outline>
      </PolyStyle>
    </Style>
    <StyleMap id="poly-7CB342-1200-76">
      <Pair>
        <key>normal</key>
        <styleUrl>#poly-7CB342-1200-76-normal</styleUrl>
      </Pair>
      <Pair>
        <key>highlight</key>
        <styleUrl>#poly-7CB342-1200-76-highlight</styleUrl>
      </Pair>
    </StyleMap>
    <Style id="poly-9C27B0-2801-69-normal">
      <LineStyle>
        <color>ffb0279c</color>
        <width>2.801</width>
      </LineStyle>
      <PolyStyle>
        <color>45b0279c</color>
        <fill>1</fill>
        <outline>1</outline>
      </PolyStyle>
    </Style>
    <Style id="poly-9C27B0-2801-69-highlight">
      <LineStyle>
        <color>ffb0279c</color>
        <width>4.2015</width>
      </LineStyle>
      <PolyStyle>
        <color>45b0279c</color>
        <fill>1</fill>
        <outline>1</outline>
      </PolyStyle>
    </Style>
    <StyleMap id="poly-9C27B0-2801-69">
      <Pair>
        <key>normal</key>
        <styleUrl>#poly-9C27B0-2801-69-normal</styleUrl>
      </Pair>
      <Pair>
        <key>highlight</key>
        <styleUrl>#poly-9C27B0-2801-69-highlight</styleUrl>
      </Pair>
    </StyleMap>
    <Style id="poly-FF5252-3001-71-normal">
      <LineStyle>
        <color>ff5252ff</color>
        <width>3.001</width>
      </LineStyle>
      <PolyStyle>
        <color>475252ff</color>
        <fill>1</fill>
        <outline>1</outline>
      </PolyStyle>
    </Style>
    <Style id="poly-FF5252-3001-71-highlight">
      <LineStyle>
        <color>ff5252ff</color>
        <width>4.5015</width>
      </LineStyle>
      <PolyStyle>
        <color>475252ff</color>
        <fill>1</fill>
        <outline>1</outline>
      </PolyStyle>
    </Style>
    <StyleMap id="poly-FF5252-3001-71">
      <Pair>
        <key>normal</key>
        <styleUrl>#poly-FF5252-3001-71-normal</styleUrl>
      </Pair>
      <Pair>
        <key>highlight</key>
        <styleUrl>#poly-FF5252-3001-71-highlight</styleUrl>
      </Pair>
    </StyleMap>
    <Style id="poly-FFEA00-3101-66-normal">
      <LineStyle>
        <color>ff00eaff</color>
        <width>3.101</width>
      </LineStyle>
      <PolyStyle>
        <color>4200eaff</color>
        <fill>1</fill>
        <outline>1</outline>
      </PolyStyle>
    </Style>
    <Style id="poly-FFEA00-3101-66-highlight">
      <LineStyle>
        <color>ff00eaff</color>
        <width>4.6515</width>
      </LineStyle>
      <PolyStyle>
        <color>4200eaff</color>
        <fill>1</fill>
        <outline>1</outline>
      </PolyStyle>
    </Style>
    <StyleMap id="poly-FFEA00-3101-66">
      <Pair>
        <key>normal</key>
        <styleUrl>#poly-FFEA00-3101-66-normal</styleUrl>
      </Pair>
      <Pair>
        <key>highlight</key>
        <styleUrl>#poly-FFEA00-3101-66-highlight</styleUrl>
      </Pair>
    </StyleMap>
    <Folder>
      <name>VD521</name>
      <Placemark>
        <name/>
        <description><![CDATA[Descripción: <br>Reg_Nom: Tolhuca 155<br>Dominio: Pitalito<br>Region: 155<br>Zona: 521<br>Seccion: C<br>Zsec: 521C]]></description>
        <styleUrl>#poly-FF5252-3001-71</styleUrl>
        <ExtendedData>
          <Data name="Descripción">
            <value/>
          </Data>
          <Data name="Reg_Nom">
            <value>Tolhuca 155</value>
          </Data>
          <Data name="Dominio">
            <value>Pitalito</value>
          </Data>
          <Data name="Region">
            <value>155</value>
          </Data>
          <Data name="Zona">
            <value>521</value>
          </Data>
          <Data name="Seccion">
            <value>C</value>
          </Data>
          <Data name="Zsec">
            <value>521C</value>
          </Data>
        </ExtendedData>
        <Polygon>
          <outerBoundaryIs>
            <LinearRing>
              <tessellate>1</tessellate>
              <coordinates>
                -76.048037,1.858873,0
                -76.048055,1.85887,0
                -76.048055,1.858818,0
                -76.048008,1.858748,0
                -76.047893,1.858605,0
                -76.04785,1.858573,0
                -76.047777,1.858527,0
                -76.04767,1.858405,0
                -76.047591,1.858321,0
                -76.047344,1.857991,0
                -76.046874,1.857415,0
                -76.046432,1.856822,0
                -76.046281,1.856584,0
                -76.046358,1.856558,0
                -76.046437,1.856441,0
                -76.04645,1.856324,0
                -76.046404,1.856136,0
                -76.04628,1.856012,0
                -76.046137,1.856005,0
                -76.046134,1.856006,0
                -76.045988,1.856051,0
                -76.045948,1.856071,0
                -76.045875,1.856003,0
                -76.04586,1.856012,0
                -76.045447,1.855614,0
                -76.044924,1.855133,0
                -76.044331,1.854535,0
                -76.043781,1.853949,0
                -76.043214,1.853378,0
                -76.042608,1.852786,0
                -76.042208,1.852364,0
                -76.041955,1.852116,0
                -76.041811,1.851975,0
                -76.041497,1.85166,0
                -76.041463,1.851634,0
                -76.041456,1.851628,0
                -76.04105,1.851236,0
                -76.04097,1.851158,0
                -76.040984,1.851141,0
                -76.040991,1.851126,0
                -76.040997,1.851112,0
                -76.041003,1.8511,0
                -76.041009,1.851082,0
                -76.041014,1.851064,0
                -76.041015,1.851048,0
                -76.041017,1.85103,0
                -76.041017,1.851014,0
                -76.041017,1.850999,0
                -76.041015,1.850983,0
                -76.041012,1.850968,0
                -76.041008,1.850952,0
                -76.041002,1.850935,0
                -76.040997,1.850921,0
                -76.040984,1.850901,0
                -76.040977,1.850888,0
                -76.040962,1.850872,0
                -76.040951,1.85086,0
                -76.04094,1.85085,0
                -76.040923,1.850838,0
                -76.040911,1.850831,0
                -76.040896,1.850824,0
                -76.040885,1.850819,0
                -76.040865,1.850815,0
                -76.04085,1.850811,0
                -76.04083,1.850809,0
                -76.040814,1.850811,0
                -76.040798,1.850813,0
                -76.040779,1.850817,0
                -76.040759,1.850824,0
                -76.040738,1.850835,0
                -76.040716,1.850849,0
                -76.040702,1.850861,0
                -76.040466,1.850657,0
                -76.039836,1.850035,0
                -76.039302,1.849546,0
                -76.038914,1.8494,0
                -76.038696,1.849342,0
                -76.03792,1.849116,0
                -76.037369,1.848962,0
                -76.036145,1.848731,0
                -76.036077,1.848821,0
                -76.035539,1.849579,0
                -76.034544,1.850992,0
                -76.034485,1.851067,0
                -76.034177,1.851515,0
                -76.033617,1.852315,0
                -76.032979,1.853162,0
                -76.032941,1.853215,0
                -76.032528,1.853762,0
                -76.032494,1.853806,0
                -76.032465,1.853846,0
                -76.032042,1.854408,0
                -76.031984,1.854485,0
                -76.031641,1.85494,0
                -76.03156,1.854935,0
                -76.031121,1.855481,0
                -76.030852,1.855805,0
                -76.029882,1.856965,0
                -76.029891,1.85703,0
                -76.029834,1.857401,0
                -76.030337,1.85779,0
                -76.031066,1.858116,0
                -76.03173,1.858155,0
                -76.032238,1.85796,0
                -76.033019,1.857868,0
                -76.033435,1.858064,0
                -76.033839,1.858194,0
                -76.035505,1.858116,0
                -76.037054,1.858818,0
                -76.036923,1.859247,0
                -76.036377,1.85995,0
                -76.036051,1.860015,0
                -76.035557,1.859976,0
                -76.035218,1.860067,0
                -76.035157,1.860198,0
                -76.035172,1.860203,0
                -76.035192,1.860217,0
                -76.035192,1.86034,0
                -76.035331,1.860969,0
                -76.034911,1.86139,0
                -76.034633,1.861699,0
                -76.034327,1.861992,0
                -76.033441,1.862786,0
                -76.033202,1.863005,0
                -76.032894,1.863286,0
                -76.032708,1.863494,0
                -76.032469,1.863811,0
                -76.031877,1.864812,0
                -76.032976,1.865625,0
                -76.033564,1.865946,0
                -76.03365,1.865948,0
                -76.034034,1.866003,0
                -76.03612,1.866054,0
                -76.037957,1.8661,0
                -76.038567,1.866129,0
                -76.039728,1.866141,0
                -76.040296,1.866162,0
                -76.040954,1.86616,0
                -76.041355,1.86616,0
                -76.04145,1.866163,0
                -76.041539,1.866113,0
                -76.041616,1.865986,0
                -76.041639,1.865851,0
                -76.041596,1.865716,0
                -76.041579,1.865682,0
                -76.041593,1.865482,0
                -76.04171,1.865352,0
                -76.041996,1.865261,0
                -76.042088,1.864949,0
                -76.042231,1.86461,0
                -76.042413,1.864532,0
                -76.042582,1.864181,0
                -76.042634,1.863869,0
                -76.042673,1.863752,0
                -76.042842,1.863739,0
                -76.043038,1.8637,0
                -76.043077,1.863557,0
                -76.043038,1.863192,0
                -76.043051,1.862971,0
                -76.043064,1.86275,0
                -76.043168,1.862737,0
                -76.043324,1.862789,0
                -76.043428,1.86275,0
                -76.043441,1.862529,0
                -76.043419,1.862495,0
                -76.043408,1.862479,0
                -76.043363,1.862412,0
                -76.043246,1.862334,0
                -76.043233,1.862113,0
                -76.043259,1.861787,0
                -76.04335,1.861722,0
                -76.043558,1.861709,0
                -76.043571,1.861397,0
                -76.043793,1.860903,0
                -76.043832,1.860708,0
                -76.043871,1.860408,0
                -76.044053,1.860161,0
                -76.044352,1.86007,0
                -76.044925,1.859836,0
                -76.045589,1.859628,0
                -76.046214,1.859381,0
                -76.046734,1.859172,0
                -76.047307,1.859133,0
                -76.047879,1.858927,0
                -76.047883,1.858929,0
                -76.048039,1.858877,0
                -76.048037,1.858873,0
              </coordinates>
            </LinearRing>
          </outerBoundaryIs>
        </Polygon>
      </Placemark>
      <Placemark>
        <name/>
        <description><![CDATA[Descripción: <br>Reg_Nom: Tolhuca 155<br>Dominio: Timana<br>Region: 155<br>Zona: 521<br>Seccion: C<br>Zsec: 521C]]></description>
        <styleUrl>#poly-FF5252-3001-71</styleUrl>
        <ExtendedData>
          <Data name="Descripción">
            <value/>
          </Data>
          <Data name="Reg_Nom">
            <value>Tolhuca 155</value>
          </Data>
          <Data name="Dominio">
            <value>Timana</value>
          </Data>
          <Data name="Region">
            <value>155</value>
          </Data>
          <Data name="Zona">
            <value>521</value>
          </Data>
          <Data name="Seccion">
            <value>C</value>
          </Data>
          <Data name="Zsec">
            <value>521C</value>
          </Data>
        </ExtendedData>
        <Polygon>
          <outerBoundaryIs>
            <LinearRing>
              <tessellate>1</tessellate>
              <coordinates>
                -75.935604,1.974955,0
                -75.93551,1.974485,0
                -75.935274,1.97403,0
                -75.934677,1.973057,0
                -75.934643,1.973029,0
                -75.934128,1.972099,0
                -75.933641,1.971032,0
                -75.933606,1.970529,0
                -75.933594,1.970357,0
                -75.933535,1.970161,0
                -75.933107,1.968741,0
                -75.932903,1.967862,0
                -75.932905,1.967785,0
                -75.932889,1.967681,0
                -75.932866,1.967463,0
                -75.932838,1.967454,0
                -75.93284,1.967407,0
                -75.932715,1.966764,0
                -75.932369,1.96612,0
                -75.931976,1.96543,0
                -75.931961,1.965351,0
                -75.931788,1.965383,0
                -75.931771,1.965422,0
                -75.931286,1.965555,0
                -75.930783,1.965963,0
                -75.930752,1.966905,0
                -75.930296,1.967627,0
                -75.930241,1.967755,0
                -75.930155,1.967956,0
                -75.930124,1.968521,0
                -75.930375,1.969243,0
                -75.930414,1.969437,0
                -75.929967,1.969949,0
                -75.929448,1.970499,0
                -75.92927,1.97082,0
                -75.929134,1.970907,0
                -75.928757,1.970797,0
                -75.928208,1.970593,0
                -75.928255,1.97086,0
                -75.928447,1.971033,0
                -75.928404,1.971016,0
                -75.928643,1.971275,0
                -75.928705,1.971341,0
                -75.928883,1.971534,0
                -75.928882,1.971592,0
                -75.928789,1.97188,0
                -75.928798,1.97191,0
                -75.928757,1.97188,0
                -75.928883,1.973449,0
                -75.92927,1.973426,0
                -75.929543,1.973433,0
                -75.929967,1.97472,0
                -75.929229,1.975128,0
                -75.928962,1.975411,0
                -75.928491,1.975476,0
                -75.928451,1.975523,0
                -75.928388,1.975539,0
                -75.92823,1.975579,0
                -75.928064,1.975618,0
                -75.927963,1.975642,0
                -75.927796,1.975695,0
                -75.927735,1.975725,0
                -75.927735,1.975727,0
                -75.927423,1.975756,0
                -75.92754,1.975998,0
                -75.927667,1.976263,0
                -75.927831,1.976603,0
                -75.929022,1.976447,0
                -75.929197,1.977498,0
                -75.929323,1.977639,0
                -75.92965,1.977582,0
                -75.930862,1.977372,0
                -75.931066,1.978079,0
                -75.931537,1.978047,0
                -75.931772,1.978675,0
                -75.932416,1.978534,0
                -75.932306,1.979224,0
                -75.932248,1.979408,0
                -75.932252,1.979451,0
                -75.932212,1.979538,0
                -75.932462,1.979494,0
                -75.932573,1.979836,0
                -75.932432,1.979962,0
                -75.932369,1.980841,0
                -75.932489,1.980832,0
                -75.932495,1.980845,0
                -75.932496,1.980846,0
                -75.932511,1.980876,0
                -75.932514,1.980875,0
                -75.93299,1.980645,0
                -75.933326,1.980483,0
                -75.933328,1.980526,0
                -75.933515,1.980432,0
                -75.933719,1.978832,0
                -75.934976,1.97833,0
                -75.935776,1.978251,0
                -75.935864,1.978249,0
                -75.935714,1.977372,0
                -75.936106,1.977058,0
                -75.936293,1.976924,0
                -75.936279,1.97676,0
                -75.936028,1.975881,0
                -75.935604,1.974955,0
              </coordinates>
            </LinearRing>
          </outerBoundaryIs>
        </Polygon>
      </Placemark>
      <Placemark>
        <name/>
        <description><![CDATA[Descripción: <br>Reg_Nom: Tolhuca 155<br>Dominio: Pitalito<br>Region: 155<br>Zona: 521<br>Seccion: A<br>Zsec: 521A]]></description>
        <styleUrl>#poly-FFEA00-3101-66</styleUrl>
        <ExtendedData>
          <Data name="Descripción">
            <value/>
          </Data>
          <Data name="Reg_Nom">
            <value>Tolhuca 155</value>
          </Data>
          <Data name="Dominio">
            <value>Pitalito</value>
          </Data>
          <Data name="Region">
            <value>155</value>
          </Data>
          <Data name="Zona">
            <value>521</value>
          </Data>
          <Data name="Seccion">
            <value>A</value>
          </Data>
          <Data name="Zsec">
            <value>521A</value>
          </Data>
        </ExtendedData>
        <Polygon>
          <outerBoundaryIs>
            <LinearRing>
              <tessellate>1</tessellate>
              <coordinates>
                -76.059385,1.856864,0
                -76.059446,1.856756,0
                -76.059394,1.856626,0
                -76.059126,1.856559,0
                -76.05903,1.856535,0
                -76.057351,1.856288,0
                -76.057481,1.85604,0
                -76.057494,1.856015,0
                -76.057316,1.855981,0
                -76.057048,1.855931,0
                -76.056138,1.855762,0
                -76.056026,1.855741,0
                -76.055333,1.855611,0
                -76.054292,1.855546,0
                -76.052964,1.855208,0
                -76.051949,1.855494,0
                -76.051311,1.855806,0
                -76.051361,1.855845,0
                -76.051357,1.855869,0
                -76.05202,1.856451,0
                -76.051449,1.857694,0
                -76.051405,1.85784,0
                -76.051119,1.85811,0
                -76.050751,1.858167,0
                -76.05066,1.858125,0
                -76.050526,1.858088,0
                -76.050079,1.857927,0
                -76.049667,1.857761,0
                -76.049571,1.857849,0
                -76.049162,1.857484,0
                -76.049013,1.857386,0
                -76.049006,1.857399,0
                -76.049054,1.857465,0
                -76.048996,1.857621,0
                -76.048618,1.857693,0
                -76.04841,1.857868,0
                -76.048293,1.858155,0
                -76.048241,1.85846,0
                -76.048176,1.858701,0
                -76.048052,1.858877,0
                -76.048051,1.858871,0
                -76.048037,1.858873,0
                -76.048039,1.858877,0
                -76.047883,1.858929,0
                -76.047879,1.858927,0
                -76.047725,1.858982,0
                -76.047553,1.859045,0
                -76.047307,1.859133,0
                -76.046734,1.859172,0
                -76.046416,1.8593,0
                -76.046214,1.859381,0
                -76.046131,1.859413,0
                -76.045589,1.859628,0
                -76.044925,1.859836,0
                -76.044907,1.859843,0
                -76.044352,1.86007,0
                -76.044133,1.860137,0
                -76.044053,1.860161,0
                -76.043871,1.860408,0
                -76.043845,1.860609,0
                -76.043832,1.860708,0
                -76.043793,1.860903,0
                -76.043723,1.861057,0
                -76.043595,1.861345,0
                -76.043571,1.861397,0
                -76.043558,1.861709,0
                -76.04336,1.861722,0
                -76.04335,1.861722,0
                -76.043259,1.861787,0
                -76.043254,1.861845,0
                -76.043242,1.861998,0
                -76.043233,1.862113,0
                -76.043243,1.862281,0
                -76.043246,1.862334,0
                -76.043363,1.862412,0
                -76.043441,1.862529,0
                -76.043428,1.86275,0
                -76.043324,1.862789,0
                -76.043168,1.862737,0
                -76.04314,1.86274,0
                -76.043064,1.86275,0
                -76.043061,1.862794,0
                -76.043051,1.862971,0
                -76.043038,1.863192,0
                -76.043077,1.863557,0
                -76.043038,1.8637,0
                -76.042842,1.863739,0
                -76.042673,1.863752,0
                -76.042634,1.863869,0
                -76.042582,1.864181,0
                -76.042413,1.864532,0
                -76.042231,1.86461,0
                -76.042213,1.864653,0
                -76.042138,1.864828,0
                -76.042088,1.864949,0
                -76.041996,1.865261,0
                -76.04171,1.865352,0
                -76.041627,1.865444,0
                -76.041593,1.865482,0
                -76.041581,1.865656,0
                -76.041583,1.865689,0
                -76.041596,1.865716,0
                -76.041639,1.865851,0
                -76.041616,1.865986,0
                -76.04155,1.866094,0
                -76.041547,1.866099,0
                -76.041539,1.866113,0
                -76.04145,1.866163,0
                -76.041449,1.866163,0
                -76.041437,1.866171,0
                -76.044404,1.866302,0
                -76.046056,1.86502,0
                -76.04619,1.865086,0
                -76.046227,1.864975,0
                -76.048179,1.862919,0
                -76.051381,1.866275,0
                -76.052188,1.865599,0
                -76.053087,1.864855,0
                -76.053088,1.864826,0
                -76.05309,1.864759,0
                -76.053349,1.865037,0
                -76.053547,1.865185,0
                -76.054219,1.865666,0
                -76.054284,1.865686,0
                -76.05429,1.865667,0
                -76.054301,1.865645,0
                -76.054364,1.86551,0
                -76.05443,1.86554,0
                -76.054671,1.86565,0
                -76.055572,1.863804,0
                -76.057473,1.864272,0
                -76.058123,1.862711,0
                -76.0588,1.862815,0
                -76.059737,1.862139,0
                -76.060461,1.862885,0
                -76.060679,1.862721,0
                -76.060828,1.862668,0
                -76.060844,1.862677,0
                -76.061677,1.86247,0
                -76.061683,1.862453,0
                -76.061742,1.862477,0
                -76.062445,1.86141,0
                -76.062599,1.859952,0
                -76.062627,1.859693,0
                -76.061638,1.859094,0
                -76.061616,1.859082,0
                -76.061605,1.859094,0
                -76.061468,1.859189,0
                -76.06134,1.859248,0
                -76.061203,1.859283,0
                -76.061049,1.859223,0
                -76.060947,1.859154,0
                -76.060852,1.85899,0
                -76.060845,1.858835,0
                -76.060877,1.858687,0
                -76.060588,1.858859,0
                -76.060542,1.858897,0
                -76.060449,1.858835,0
                -76.060157,1.858691,0
                -76.060057,1.858842,0
                -76.059303,1.858211,0
                -76.05998,1.85743,0
                -76.059385,1.856864,0
              </coordinates>
            </LinearRing>
          </outerBoundaryIs>
        </Polygon>
      </Placemark>
      <Placemark>
        <name/>
        <description><![CDATA[Descripción: <br>Reg_Nom: Tolhuca 155<br>Dominio: Acevedo<br>Region: 155<br>Zona: 521<br>Seccion: D<br>Zsec: 521D]]></description>
        <styleUrl>#poly-7CB342-1200-76</styleUrl>
        <ExtendedData>
          <Data name="Descripción">
            <value/>
          </Data>
          <Data name="Reg_Nom">
            <value>Tolhuca 155</value>
          </Data>
          <Data name="Dominio">
            <value>Acevedo</value>
          </Data>
          <Data name="Region">
            <value>155</value>
          </Data>
          <Data name="Zona">
            <value>521</value>
          </Data>
          <Data name="Seccion">
            <value>D</value>
          </Data>
          <Data name="Zsec">
            <value>521D</value>
          </Data>
        </ExtendedData>
        <Polygon>
          <outerBoundaryIs>
            <LinearRing>
              <tessellate>1</tessellate>
              <coordinates>
                -75.89165,1.80153,0
                -75.891035,1.8019,0
                -75.889834,1.802888,0
                -75.889229,1.802092,0
                -75.889217,1.802076,0
                -75.889166,1.802044,0
                -75.888263,1.80147,0
                -75.888227,1.801463,0
                -75.888097,1.801428,0
                -75.887989,1.80139,0
                -75.887522,1.803487,0
                -75.886975,1.804846,0
                -75.886896,1.804929,0
                -75.886842,1.804986,0
                -75.886605,1.805234,0
                -75.885952,1.805516,0
                -75.884575,1.805622,0
                -75.883375,1.805904,0
                -75.882722,1.806398,0
                -75.88235,1.806924,0
                -75.881618,1.809204,0
                -75.881219,1.810596,0
                -75.880816,1.81109,0
                -75.880075,1.811955,0
                -75.881116,1.81206,0
                -75.881892,1.811937,0
                -75.882755,1.811001,0
                -75.882947,1.811125,0
                -75.883098,1.811106,0
                -75.883485,1.81107,0
                -75.883702,1.811014,0
                -75.883772,1.811002,0
                -75.883905,1.810994,0
                -75.884063,1.810986,0
                -75.884235,1.810973,0
                -75.884394,1.810947,0
                -75.884551,1.810878,0
                -75.884748,1.810766,0
                -75.884844,1.810668,0
                -75.885083,1.81044,0
                -75.885324,1.810181,0
                -75.885898,1.809525,0
                -75.885991,1.809446,0
                -75.886062,1.809404,0
                -75.886122,1.809374,0
                -75.886181,1.809358,0
                -75.886211,1.809365,0
                -75.886282,1.809376,0
                -75.886347,1.809395,0
                -75.886413,1.809396,0
                -75.886479,1.809379,0
                -75.886587,1.809346,0
                -75.886589,1.809306,0
                -75.886567,1.809116,0
                -75.88657,1.808993,0
                -75.886568,1.80889,0
                -75.88658,1.808815,0
                -75.886617,1.808745,0
                -75.886662,1.808693,0
                -75.886739,1.808613,0
                -75.886745,1.808678,0
                -75.887314,1.809352,0
                -75.887505,1.809238,0
                -75.889446,1.806962,0
                -75.889746,1.807086,0
                -75.890082,1.80691,0
                -75.890805,1.807545,0
                -75.891075,1.807684,0
                -75.891094,1.807685,0
                -75.891128,1.807689,0
                -75.891149,1.807694,0
                -75.891164,1.807695,0
                -75.891168,1.807696,0
                -75.893422,1.805009,0
                -75.892981,1.804611,0
                -75.892658,1.804387,0
                -75.893188,1.803805,0
                -75.893205,1.803152,0
                -75.892411,1.8019,0
                -75.891882,1.801547,0
                -75.89165,1.80153,0
              </coordinates>
            </LinearRing>
          </outerBoundaryIs>
        </Polygon>
      </Placemark>
      <Placemark>
        <name/>
        <description><![CDATA[Descripción: <br>Reg_Nom: Tolhuca 155<br>Dominio: Pitalito<br>Region: 155<br>Zona: 521<br>Seccion: D<br>Zsec: 521D]]></description>
        <styleUrl>#poly-7CB342-1200-76</styleUrl>
        <ExtendedData>
          <Data name="Descripción">
            <value/>
          </Data>
          <Data name="Reg_Nom">
            <value>Tolhuca 155</value>
          </Data>
          <Data name="Dominio">
            <value>Pitalito</value>
          </Data>
          <Data name="Region">
            <value>155</value>
          </Data>
          <Data name="Zona">
            <value>521</value>
          </Data>
          <Data name="Seccion">
            <value>D</value>
          </Data>
          <Data name="Zsec">
            <value>521D</value>
          </Data>
        </ExtendedData>
        <Polygon>
          <outerBoundaryIs>
            <LinearRing>
              <tessellate>1</tessellate>
              <coordinates>
                -76.052342,1.840112,0
                -76.049697,1.839281,0
                -76.049655,1.83927,0
                -76.04959,1.839499,0
                -76.049516,1.839201,0
                -76.049443,1.838815,0
                -76.049052,1.838256,0
                -76.048943,1.838256,0
                -76.048607,1.837556,0
                -76.048227,1.836762,0
                -76.048005,1.836361,0
                -76.047101,1.837169,0
                -76.046934,1.837319,0
                -76.047145,1.837708,0
                -76.04749,1.838346,0
                -76.047805,1.839365,0
                -76.047877,1.839756,0
                -76.04782,1.839786,0
                -76.047812,1.839791,0
                -76.047849,1.839867,0
                -76.047823,1.840284,0
                -76.047146,1.840362,0
                -76.046183,1.839139,0
                -76.043321,1.836482,0
                -76.043088,1.836694,0
                -76.04282,1.836942,0
                -76.042279,1.837458,0
                -76.041731,1.837985,0
                -76.041232,1.838491,0
                -76.041227,1.838797,0
                -76.040921,1.839174,0
                -76.040663,1.839489,0
                -76.04035,1.839877,0
                -76.04014,1.840136,0
                -76.039871,1.840517,0
                -76.039539,1.84094,0
                -76.039259,1.840697,0
                -76.038724,1.840244,0
                -76.039124,1.839816,0
                -76.03885,1.83957,0
                -76.038457,1.840017,0
                -76.03775,1.839374,0
                -76.037516,1.839643,0
                -76.036913,1.840304,0
                -76.036653,1.840563,0
                -76.036054,1.841259,0
                -76.035504,1.841867,0
                -76.034905,1.842534,0
                -76.034651,1.842821,0
                -76.035361,1.843458,0
                -76.035641,1.843682,0
                -76.036347,1.844326,0
                -76.036626,1.844582,0
                -76.037345,1.845228,0
                -76.03762,1.845476,0
                -76.03819,1.844851,0
                -76.038821,1.845392,0
                -76.038703,1.845492,0
                -76.039068,1.845747,0
                -76.040031,1.846683,0
                -76.039146,1.847412,0
                -76.039745,1.847984,0
                -76.040005,1.849155,0
                -76.039243,1.849524,0
                -76.039302,1.849546,0
                -76.039836,1.850035,0
                -76.040466,1.850657,0
                -76.040702,1.850861,0
                -76.040716,1.850849,0
                -76.040738,1.850835,0
                -76.040759,1.850824,0
                -76.040779,1.850817,0
                -76.040798,1.850813,0
                -76.040814,1.850811,0
                -76.04083,1.850809,0
                -76.04085,1.850811,0
                -76.040865,1.850815,0
                -76.040885,1.850819,0
                -76.040896,1.850824,0
                -76.040911,1.850831,0
                -76.040923,1.850838,0
                -76.04094,1.85085,0
                -76.040951,1.85086,0
                -76.040962,1.850872,0
                -76.040977,1.850888,0
                -76.040984,1.850901,0
                -76.040997,1.850921,0
                -76.041002,1.850935,0
                -76.041008,1.850952,0
                -76.041012,1.850968,0
                -76.041015,1.850983,0
                -76.041017,1.850999,0
                -76.041017,1.851014,0
                -76.041017,1.85103,0
                -76.041015,1.851048,0
                -76.041014,1.851064,0
                -76.041009,1.851082,0
                -76.041003,1.8511,0
                -76.040997,1.851112,0
                -76.040991,1.851126,0
                -76.040984,1.851141,0
                -76.04097,1.851158,0
                -76.04105,1.851236,0
                -76.041456,1.851628,0
                -76.041463,1.851634,0
                -76.041497,1.85166,0
                -76.041811,1.851975,0
                -76.041955,1.852116,0
                -76.042208,1.852364,0
                -76.042608,1.852786,0
                -76.043161,1.852236,0
                -76.043741,1.851648,0
                -76.044364,1.851002,0
                -76.044884,1.850472,0
                -76.045384,1.84991,0
                -76.045935,1.849271,0
                -76.046477,1.848687,0
                -76.047192,1.847929,0
                -76.047742,1.847341,0
                -76.048348,1.846697,0
                -76.048708,1.846319,0
                -76.048917,1.846082,0
                -76.049099,1.845899,0
                -76.049434,1.8469,0
                -76.049528,1.846748,0
                -76.049769,1.84653,0
                -76.05021,1.84641,0
                -76.050715,1.846399,0
                -76.051614,1.846356,0
                -76.051896,1.846348,0
                -76.051936,1.846346,0
                -76.051922,1.846329,0
                -76.052188,1.846267,0
                -76.052344,1.845877,0
                -76.052709,1.845435,0
                -76.052839,1.845044,0
                -76.052735,1.844732,0
                -76.052344,1.84455,0
                -76.05172,1.84442,0
                -76.051485,1.844186,0
                -76.051407,1.844004,0
                -76.051537,1.843821,0
                -76.051798,1.843717,0
                -76.05185,1.843457,0
                -76.05172,1.843041,0
                -76.051563,1.842494,0
                -76.051355,1.842104,0
                -76.051147,1.841896,0
                -76.05086,1.841792,0
                -76.050314,1.841714,0
                -76.050168,1.841604,0
                -76.050105,1.841558,0
                -76.050053,1.841376,0
                -76.050084,1.841345,0
                -76.050236,1.841194,0
                -76.050678,1.841089,0
                -76.050713,1.841085,0
                -76.051251,1.841011,0
                -76.051519,1.840944,0
                -76.051667,1.840907,0
                -76.05211,1.840777,0
                -76.052448,1.840673,0
                -76.052631,1.840439,0
                -76.052683,1.840205,0
                -76.052631,1.840127,0
                -76.052342,1.840112,0
              </coordinates>
            </LinearRing>
          </outerBoundaryIs>
        </Polygon>
      </Placemark>
      <Placemark>
        <name/>
        <description><![CDATA[Descripción: <br>Reg_Nom: Tolhuca 155<br>Dominio: Pitalito<br>Region: 155<br>Zona: 521<br>Seccion: B<br>Zsec: 521B]]></description>
        <styleUrl>#poly-0288D1-3201-76</styleUrl>
        <ExtendedData>
          <Data name="Descripción">
            <value/>
          </Data>
          <Data name="Reg_Nom">
            <value>Tolhuca 155</value>
          </Data>
          <Data name="Dominio">
            <value>Pitalito</value>
          </Data>
          <Data name="Region">
            <value>155</value>
          </Data>
          <Data name="Zona">
            <value>521</value>
          </Data>
          <Data name="Seccion">
            <value>B</value>
          </Data>
          <Data name="Zsec">
            <value>521B</value>
          </Data>
        </ExtendedData>
        <Polygon>
          <outerBoundaryIs>
            <LinearRing>
              <tessellate>1</tessellate>
              <coordinates>
                -76.048051,1.858871,0
                -76.048052,1.858877,0
                -76.048176,1.858701,0
                -76.048241,1.85846,0
                -76.048293,1.858155,0
                -76.04841,1.857868,0
                -76.048618,1.857693,0
                -76.048996,1.857621,0
                -76.049054,1.857465,0
                -76.048846,1.857179,0
                -76.04875,1.857101,0
                -76.048743,1.857084,0
                -76.048524,1.85684,0
                -76.048391,1.856702,0
                -76.048322,1.856573,0
                -76.048345,1.856554,0
                -76.048359,1.856541,0
                -76.048267,1.856444,0
                -76.048057,1.856237,0
                -76.048075,1.856125,0
                -76.04785,1.855848,0
                -76.047862,1.855745,0
                -76.04783,1.855694,0
                -76.047849,1.855635,0
                -76.047771,1.855524,0
                -76.047672,1.855441,0
                -76.047289,1.855121,0
                -76.047914,1.854379,0
                -76.048714,1.852968,0
                -76.049072,1.852512,0
                -76.049743,1.851712,0
                -76.049912,1.851667,0
                -76.051155,1.852382,0
                -76.051252,1.852779,0
                -76.051296,1.852774,0
                -76.051392,1.85277,0
                -76.051499,1.852777,0
                -76.051565,1.852788,0
                -76.051626,1.852802,0
                -76.051789,1.852814,0
                -76.051901,1.852854,0
                -76.051987,1.852914,0
                -76.052056,1.852943,0
                -76.052147,1.852951,0
                -76.052283,1.852887,0
                -76.052362,1.85282,0
                -76.052497,1.852724,0
                -76.052438,1.852711,0
                -76.052437,1.85271,0
                -76.05251,1.852667,0
                -76.051772,1.851211,0
                -76.05211,1.851081,0
                -76.054062,1.851081,0
                -76.056379,1.850612,0
                -76.057525,1.850274,0
                -76.059187,1.851911,0
                -76.059407,1.851446,0
                -76.062843,1.850301,0
                -76.067113,1.848766,0
                -76.067399,1.848245,0
                -76.068597,1.848844,0
                -76.068258,1.849911,0
                -76.068644,1.850031,0
                -76.069091,1.850171,0
                -76.069612,1.849208,0
                -76.070341,1.849416,0
                -76.070809,1.847803,0
                -76.07107,1.847075,0
                -76.071101,1.846916,0
                -76.071303,1.846928,0
                -76.071196,1.846414,0
                -76.070876,1.845008,0
                -76.070766,1.844635,0
                -76.070657,1.844269,0
                -76.070619,1.844205,0
                -76.069733,1.843674,0
                -76.069712,1.84366,0
                -76.069191,1.843325,0
                -76.069072,1.843241,0
                -76.068892,1.843151,0
                -76.068573,1.842939,0
                -76.068062,1.84263,0
                -76.068232,1.842466,0
                -76.067818,1.841197,0
                -76.067582,1.841274,0
                -76.067401,1.841328,0
                -76.067165,1.840778,0
                -76.065686,1.84101,0
                -76.064197,1.8375,0
                -76.063978,1.837767,0
                -76.063043,1.838758,0
                -76.062357,1.840191,0
                -76.061519,1.839973,0
                -76.056963,1.839733,0
                -76.053668,1.839691,0
                -76.052606,1.839652,0
                -76.052613,1.839891,0
                -76.052619,1.840126,0
                -76.052631,1.840127,0
                -76.052683,1.840205,0
                -76.052631,1.840439,0
                -76.05257,1.840517,0
                -76.052458,1.840661,0
                -76.052448,1.840673,0
                -76.05242,1.840682,0
                -76.052339,1.840707,0
                -76.05211,1.840777,0
                -76.051667,1.840907,0
                -76.051648,1.840912,0
                -76.051251,1.841011,0
                -76.050678,1.841089,0
                -76.050236,1.841194,0
                -76.050053,1.841376,0
                -76.050105,1.841558,0
                -76.050314,1.841714,0
                -76.050616,1.841757,0
                -76.05086,1.841792,0
                -76.051147,1.841896,0
                -76.051355,1.842104,0
                -76.051563,1.842494,0
                -76.05172,1.843041,0
                -76.05185,1.843457,0
                -76.051798,1.843717,0
                -76.051537,1.843821,0
                -76.051407,1.844004,0
                -76.051485,1.844186,0
                -76.05172,1.84442,0
                -76.052344,1.84455,0
                -76.052735,1.844732,0
                -76.052839,1.845044,0
                -76.052709,1.845435,0
                -76.052344,1.845877,0
                -76.052188,1.846267,0
                -76.051922,1.846329,0
                -76.051936,1.846346,0
                -76.051896,1.846348,0
                -76.051614,1.846356,0
                -76.050715,1.846399,0
                -76.05021,1.84641,0
                -76.049769,1.84653,0
                -76.049528,1.846748,0
                -76.049434,1.8469,0
                -76.049099,1.845899,0
                -76.048917,1.846082,0
                -76.048708,1.846319,0
                -76.048348,1.846697,0
                -76.047742,1.847341,0
                -76.047192,1.847929,0
                -76.046477,1.848687,0
                -76.045935,1.849271,0
                -76.045384,1.84991,0
                -76.044884,1.850472,0
                -76.044364,1.851002,0
                -76.043741,1.851648,0
                -76.043161,1.852236,0
                -76.042608,1.852786,0
                -76.043214,1.853378,0
                -76.043781,1.853949,0
                -76.044331,1.854535,0
                -76.044924,1.855133,0
                -76.045447,1.855614,0
                -76.04586,1.856012,0
                -76.045875,1.856003,0
                -76.045948,1.856071,0
                -76.045988,1.856051,0
                -76.046134,1.856006,0
                -76.046137,1.856005,0
                -76.04628,1.856012,0
                -76.046404,1.856136,0
                -76.04645,1.856324,0
                -76.046437,1.856441,0
                -76.046358,1.856558,0
                -76.046281,1.856584,0
                -76.046432,1.856822,0
                -76.046874,1.857415,0
                -76.047344,1.857991,0
                -76.047591,1.858321,0
                -76.04767,1.858405,0
                -76.047777,1.858527,0
                -76.04785,1.858573,0
                -76.047893,1.858605,0
                -76.048008,1.858748,0
                -76.048055,1.858818,0
                -76.048055,1.85887,0
                -76.048051,1.858871,0
              </coordinates>
            </LinearRing>
          </outerBoundaryIs>
        </Polygon>
      </Placemark>
      <Placemark>
        <name/>
        <description><![CDATA[Descripción: <br>Reg_Nom: Tolhuca 155<br>Dominio: San Agustin<br>Region: 155<br>Zona: 521<br>Seccion: E<br>Zsec: 521E]]></description>
        <styleUrl>#poly-9C27B0-2801-69</styleUrl>
        <ExtendedData>
          <Data name="Descripción">
            <value/>
          </Data>
          <Data name="Reg_Nom">
            <value>Tolhuca 155</value>
          </Data>
          <Data name="Dominio">
            <value>San Agustin</value>
          </Data>
          <Data name="Region">
            <value>155</value>
          </Data>
          <Data name="Zona">
            <value>521</value>
          </Data>
          <Data name="Seccion">
            <value>E</value>
          </Data>
          <Data name="Zsec">
            <value>521E</value>
          </Data>
        </ExtendedData>
        <Polygon>
          <outerBoundaryIs>
            <LinearRing>
              <tessellate>1</tessellate>
              <coordinates>
                -76.277793,1.882631,0
                -76.277601,1.882326,0
                -76.277585,1.882299,0
                -76.27776,1.882243,0
                -76.278192,1.882098,0
                -76.2782,1.882053,0
                -76.278365,1.88152,0
                -76.278362,1.881451,0
                -76.276929,1.881995,0
                -76.275843,1.882021,0
                -76.275551,1.881333,0
                -76.273696,1.880962,0
                -76.272345,1.88022,0
                -76.272398,1.879638,0
                -76.271736,1.879214,0
                -76.271603,1.87887,0
                -76.271933,1.877496,0
                -76.2719,1.877493,0
                -76.271873,1.877487,0
                -76.271849,1.87748,0
                -76.271948,1.877122,0
                -76.271418,1.876884,0
                -76.270967,1.87691,0
                -76.270411,1.877599,0
                -76.269924,1.877323,0
                -76.269637,1.87716,0
                -76.269499,1.877082,0
                -76.268899,1.876742,0
                -76.268821,1.876698,0
                -76.268386,1.876524,0
                -76.267894,1.876327,0
                -76.266437,1.875586,0
                -76.266834,1.874765,0
                -76.265986,1.874235,0
                -76.266384,1.873176,0
                -76.265085,1.872646,0
                -76.264555,1.873176,0
                -76.262324,1.872111,0
                -76.262316,1.872118,0
                -76.262274,1.872146,0
                -76.26224,1.872167,0
                -76.262227,1.872175,0
                -76.261906,1.871905,0
                -76.261402,1.871773,0
                -76.261084,1.872249,0
                -76.26021,1.874871,0
                -76.260528,1.87601,0
                -76.261368,1.875924,0
                -76.26137,1.876,0
                -76.261802,1.876063,0
                -76.26225,1.876191,0
                -76.263267,1.876792,0
                -76.262421,1.878873,0
                -76.26535,1.88067,0
                -76.26535,1.880988,0
                -76.265642,1.881412,0
                -76.265493,1.881942,0
                -76.265689,1.882014,0
                -76.265726,1.882034,0
                -76.266062,1.882214,0
                -76.266303,1.882339,0
                -76.266653,1.882613,0
                -76.26674,1.88252,0
                -76.26678,1.882549,0
                -76.266888,1.882634,0
                -76.267417,1.882524,0
                -76.268715,1.882604,0
                -76.270173,1.883133,0
                -76.270067,1.883954,0
                -76.270014,1.884563,0
                -76.27057,1.884987,0
                -76.271365,1.885623,0
                -76.271365,1.886105,0
                -76.271427,1.8863,0
                -76.271418,1.88647,0
                -76.271789,1.887,0
                -76.272213,1.887556,0
                -76.272769,1.888324,0
                -76.273432,1.888615,0
                -76.274798,1.88639,0
                -76.2749,1.886441,0
                -76.275313,1.885596,0
                -76.275127,1.885199,0
                -76.275843,1.883478,0
                -76.277114,1.883716,0
                -76.277671,1.882683,0
                -76.277793,1.882631,0
              </coordinates>
            </LinearRing>
          </outerBoundaryIs>
        </Polygon>
      </Placemark>
      <Placemark>
        <name/>
        <description><![CDATA[Descripción: <br>Reg_Nom: Tolhuca 155<br>Dominio: San Jose de Isnos<br>Region: 155<br>Zona: 521<br>Seccion: E<br>Zsec: 521E]]></description>
        <styleUrl>#poly-9C27B0-2801-69</styleUrl>
        <ExtendedData>
          <Data name="Descripción">
            <value/>
          </Data>
          <Data name="Reg_Nom">
            <value>Tolhuca 155</value>
          </Data>
          <Data name="Dominio">
            <value>San Jose de Isnos</value>
          </Data>
          <Data name="Region">
            <value>155</value>
          </Data>
          <Data name="Zona">
            <value>521</value>
          </Data>
          <Data name="Seccion">
            <value>E</value>
          </Data>
          <Data name="Zsec">
            <value>521E</value>
          </Data>
        </ExtendedData>
        <Polygon>
          <outerBoundaryIs>
            <LinearRing>
              <tessellate>1</tessellate>
              <coordinates>
                -76.215429,1.936733,0
                -76.217618,1.934734,0
                -76.219046,1.930641,0
                -76.221806,1.929404,0
                -76.222377,1.928167,0
                -76.222662,1.922837,0
                -76.216571,1.922646,0
                -76.213049,1.926834,0
                -76.210575,1.929975,0
                -76.212478,1.932925,0
                -76.213145,1.935971,0
                -76.214096,1.936828,0
                -76.215429,1.936733,0
              </coordinates>
            </LinearRing>
          </outerBoundaryIs>
        </Polygon>
      </Placemark>
      <Placemark>
        <name/>
        <description><![CDATA[Descripción: <br>Reg_Nom: Tolhuca 155<br>Dominio: Saladoblanco<br>Region: 155<br>Zona: 521<br>Seccion: C<br>Zsec: 521C]]></description>
        <styleUrl>#poly-FF5252-3001-71</styleUrl>
        <ExtendedData>
          <Data name="Descripción">
            <value/>
          </Data>
          <Data name="Reg_Nom">
            <value>Tolhuca 155</value>
          </Data>
          <Data name="Dominio">
            <value>Saladoblanco</value>
          </Data>
          <Data name="Region">
            <value>155</value>
          </Data>
          <Data name="Zona">
            <value>521</value>
          </Data>
          <Data name="Seccion">
            <value>C</value>
          </Data>
          <Data name="Zsec">
            <value>521C</value>
          </Data>
        </ExtendedData>
        <Polygon>
          <outerBoundaryIs>
            <LinearRing>
              <tessellate>1</tessellate>
              <coordinates>
                -76.03891,1.99584,0
                -76.044811,1.994032,0
                -76.046191,1.996601,0
                -76.047999,1.995459,0
                -76.047285,1.993413,0
                -76.053044,1.991367,0
                -76.051902,1.987274,0
                -76.046476,1.989749,0
                -76.045049,1.989653,0
                -76.043669,1.990367,0
                -76.041527,1.992223,0
                -76.037482,1.993461,0
                -76.03753,1.994555,0
                -76.038862,1.995792,0
                -76.03891,1.99584,0
              </coordinates>
            </LinearRing>
          </outerBoundaryIs>
        </Polygon>
      </Placemark>
      <Placemark>
        <name/>
        <description><![CDATA[Descripción: <br>Reg_Nom: Tolhuca 155<br>Dominio: Oporapa<br>Region: 155<br>Zona: 521<br>Seccion: C<br>Zsec: 521C]]></description>
        <styleUrl>#poly-FF5252-3001-71</styleUrl>
        <ExtendedData>
          <Data name="Descripción">
            <value/>
          </Data>
          <Data name="Reg_Nom">
            <value>Tolhuca 155</value>
          </Data>
          <Data name="Dominio">
            <value>Oporapa</value>
          </Data>
          <Data name="Region">
            <value>155</value>
          </Data>
          <Data name="Zona">
            <value>521</value>
          </Data>
          <Data name="Seccion">
            <value>C</value>
          </Data>
          <Data name="Zsec">
            <value>521C</value>
          </Data>
        </ExtendedData>
        <Polygon>
          <outerBoundaryIs>
            <LinearRing>
              <tessellate>1</tessellate>
              <coordinates>
                -75.994275,2.026844,0
                -75.997963,2.025833,0
                -75.997428,2.022858,0
                -75.996654,2.021133,0
                -75.994453,2.021133,0
                -75.991776,2.020181,0
                -75.990646,2.021431,0
                -75.993026,2.022918,0
                -75.992669,2.024762,0
                -75.993382,2.02619,0
                -75.994275,2.026844,0
              </coordinates>
            </LinearRing>
          </outerBoundaryIs>
        </Polygon>
      </Placemark>
      <Placemark>
        <name/>
        <description><![CDATA[Descripción: <br>Reg_Nom: Tolhuca 155<br>Dominio: V. Bruselas<br>Region: 155<br>Zona: 521<br>Seccion: B<br>Zsec: 521B]]></description>
        <styleUrl>#poly-0288D1-3201-76</styleUrl>
        <ExtendedData>
          <Data name="Descripción">
            <value/>
          </Data>
          <Data name="Reg_Nom">
            <value>Tolhuca 155</value>
          </Data>
          <Data name="Dominio">
            <value>V. Bruselas</value>
          </Data>
          <Data name="Region">
            <value>155</value>
          </Data>
          <Data name="Zona">
            <value>521</value>
          </Data>
          <Data name="Seccion">
            <value>B</value>
          </Data>
          <Data name="Zsec">
            <value>521B</value>
          </Data>
        </ExtendedData>
        <Polygon>
          <outerBoundaryIs>
            <LinearRing>
              <tessellate>1</tessellate>
              <coordinates>
                -76.173584,1.779886,0
                -76.173634,1.7799,0
                -76.17369,1.779894,0
                -76.173758,1.779878,0
                -76.173791,1.779877,0
                -76.173829,1.779878,0
                -76.173865,1.779876,0
                -76.173906,1.779863,0
                -76.173974,1.779833,0
                -76.174009,1.779815,0
                -76.174065,1.779781,0
                -76.174116,1.779737,0
                -76.174152,1.779706,0
                -76.174185,1.77967,0
                -76.174257,1.779604,0
                -76.174294,1.779581,0
                -76.17432,1.779569,0
                -76.174365,1.77955,0
                -76.174419,1.779524,0
                -76.174459,1.779499,0
                -76.174492,1.779471,0
                -76.174533,1.779441,0
                -76.174568,1.779415,0
                -76.17461,1.779383,0
                -76.174672,1.779334,0
                -76.174725,1.779301,0
                -76.174822,1.779244,0
                -76.17486,1.779222,0
                -76.174896,1.779201,0
                -76.174955,1.779172,0
                -76.175021,1.779142,0
                -76.175075,1.779118,0
                -76.175123,1.779104,0
                -76.175168,1.779092,0
                -76.17523,1.779076,0
                -76.175274,1.779069,0
                -76.175336,1.779055,0
                -76.175365,1.779055,0
                -76.175405,1.779057,0
                -76.175459,1.77906,0
                -76.175505,1.779069,0
                -76.175539,1.779073,0
                -76.175592,1.779075,0
                -76.175625,1.779067,0
                -76.175673,1.779052,0
                -76.175709,1.779037,0
                -76.175744,1.779015,0
                -76.175786,1.778991,0
                -76.175823,1.778979,0
                -76.17586,1.778963,0
                -76.175904,1.778934,0
                -76.175955,1.778886,0
                -76.175983,1.778832,0
                -76.176006,1.77879,0
                -76.176027,1.778762,0
                -76.176042,1.778742,0
                -76.176096,1.778688,0
                -76.17612,1.77867,0
                -76.176149,1.778651,0
                -76.176177,1.77864,0
                -76.176204,1.778642,0
                -76.176224,1.77865,0
                -76.176243,1.778661,0
                -76.176278,1.77868,0
                -76.176323,1.778706,0
                -76.176367,1.778733,0
                -76.17642,1.778752,0
                -76.176467,1.778744,0
                -76.176517,1.778728,0
                -76.176563,1.778717,0
                -76.176619,1.778702,0
                -76.176713,1.778657,0
                -76.176731,1.778648,0
                -76.176771,1.778627,0
                -76.176804,1.778614,0
                -76.17682,1.778597,0
                -76.17684,1.778574,0
                -76.176854,1.778554,0
                -76.176876,1.778533,0
                -76.176924,1.778476,0
                -76.17694,1.778456,0
                -76.17697,1.778405,0
                -76.176996,1.77836,0
                -76.177016,1.77832,0
                -76.177049,1.778275,0
                -76.177087,1.778243,0
                -76.17712,1.778225,0
                -76.17715,1.778209,0
                -76.177193,1.778199,0
                -76.177228,1.778194,0
                -76.177285,1.778193,0
                -76.177344,1.778205,0
                -76.177424,1.778209,0
                -76.177529,1.778224,0
                -76.177617,1.778237,0
                -76.177652,1.778198,0
                -76.177714,1.778171,0
                -76.177825,1.778176,0
                -76.177934,1.778202,0
                -76.178016,1.778234,0
                -76.17813,1.7783,0
                -76.178177,1.778327,0
                -76.178279,1.778334,0
                -76.178398,1.778359,0
                -76.178519,1.778359,0
                -76.1786,1.778342,0
                -76.178652,1.778302,0
                -76.178697,1.778251,0
                -76.178793,1.778168,0
                -76.178878,1.778104,0
                -76.178971,1.778042,0
                -76.179101,1.777995,0
                -76.179218,1.777972,0
                -76.179329,1.777965,0
                -76.179336,1.77788,0
                -76.179313,1.77779,0
                -76.179303,1.777761,0
                -76.179095,1.777116,0
                -76.179069,1.777054,0
                -76.179124,1.777017,0
                -76.178997,1.776747,0
                -76.178913,1.776572,0
                -76.178778,1.776282,0
                -76.178809,1.776239,0
                -76.178661,1.775792,0
                -76.179047,1.775808,0
                -76.179091,1.775891,0
                -76.179249,1.775921,0
                -76.179728,1.775912,0
                -76.180284,1.775912,0
                -76.180677,1.775936,0
                -76.181167,1.775998,0
                -76.181183,1.775868,0
                -76.181187,1.775835,0
                -76.181189,1.775811,0
                -76.182167,1.776018,0
                -76.182169,1.776019,0
                -76.182492,1.776125,0
                -76.182611,1.776164,0
                -76.183021,1.776286,0
                -76.183055,1.776287,0
                -76.183091,1.776251,0
                -76.183126,1.776149,0
                -76.1832,1.775898,0
                -76.183196,1.775782,0
                -76.183186,1.77548,0
                -76.183153,1.775321,0
                -76.183141,1.775261,0
                -76.183129,1.775213,0
                -76.183113,1.77465,0
                -76.182784,1.77465,0
                -76.182745,1.774654,0
                -76.182765,1.77478,0
                -76.182731,1.774776,0
                -76.182482,1.774813,0
                -76.182464,1.774889,0
                -76.182417,1.774901,0
                -76.182353,1.775246,0
                -76.182447,1.775337,0
                -76.182476,1.775378,0
                -76.182456,1.775412,0
                -76.182431,1.775453,0
                -76.182389,1.775453,0
                -76.182359,1.775456,0
                -76.182313,1.775448,0
                -76.182277,1.775444,0
                -76.18225,1.775459,0
                -76.182222,1.775478,0
                -76.182188,1.775502,0
                -76.182144,1.77553,0
                -76.182114,1.775536,0
                -76.182079,1.775537,0
                -76.182031,1.775517,0
                -76.181997,1.775496,0
                -76.181955,1.775484,0
                -76.181877,1.775485,0
                -76.181827,1.775495,0
                -76.181783,1.775494,0
                -76.181728,1.775465,0
                -76.181669,1.775422,0
                -76.181603,1.775388,0
                -76.181558,1.775375,0
                -76.181505,1.775347,0
                -76.181475,1.775326,0
                -76.18144,1.775296,0
                -76.181367,1.775201,0
                -76.181316,1.775184,0
                -76.181265,1.775175,0
                -76.181209,1.77517,0
                -76.181146,1.77517,0
                -76.181059,1.77517,0
                -76.180963,1.77518,0
                -76.180922,1.775184,0
                -76.180879,1.775186,0
                -76.180825,1.775191,0
                -76.180767,1.775196,0
                -76.180695,1.7752,0
                -76.180621,1.775211,0
                -76.180548,1.77522,0
                -76.180481,1.77523,0
                -76.180435,1.775242,0
                -76.180401,1.775255,0
                -76.180362,1.775282,0
                -76.180291,1.774785,0
                -76.180136,1.774815,0
                -76.179951,1.77418,0
                -76.179938,1.774153,0
                -76.179796,1.774187,0
                -76.179709,1.774217,0
                -76.179651,1.774237,0
                -76.17939,1.774301,0
                -76.179074,1.774369,0
                -76.178933,1.774389,0
                -76.178571,1.77451,0
                -76.178415,1.774102,0
                -76.178273,1.773742,0
                -76.178263,1.773717,0
                -76.178194,1.773533,0
                -76.178148,1.773505,0
                -76.177812,1.773629,0
                -76.177801,1.773668,0
                -76.177871,1.773853,0
                -76.177878,1.773873,0
                -76.177993,1.774174,0
                -76.178157,1.774589,0
                -76.178193,1.774676,0
                -76.177839,1.774838,0
                -76.17782,1.774847,0
                -76.17735,1.775064,0
                -76.176925,1.775243,0
                -76.176916,1.775247,0
                -76.176844,1.775277,0
                -76.17682,1.775223,0
                -76.176719,1.774998,0
                -76.176542,1.77508,0
                -76.176223,1.775243,0
                -76.176079,1.775316,0
                -76.176074,1.775318,0
                -76.176037,1.775339,0
                -76.176026,1.775346,0
                -76.175839,1.774886,0
                -76.175832,1.774869,0
                -76.175678,1.774915,0
                -76.175667,1.774892,0
                -76.175645,1.774845,0
                -76.175591,1.774671,0
                -76.175552,1.774545,0
                -76.174823,1.77487,0
                -76.174591,1.774975,0
                -76.174438,1.775044,0
                -76.17437,1.774979,0
                -76.17422,1.774622,0
                -76.174015,1.774682,0
                -76.173968,1.774698,0
                -76.173848,1.774437,0
                -76.173683,1.774142,0
                -76.173646,1.774127,0
                -76.173597,1.774077,0
                -76.173546,1.774008,0
                -76.173515,1.77396,0
                -76.173468,1.773902,0
                -76.173426,1.773855,0
                -76.173406,1.773804,0
                -76.173386,1.773761,0
                -76.173372,1.773695,0
                -76.173353,1.773652,0
                -76.173312,1.773635,0
                -76.173271,1.773631,0
                -76.173247,1.773637,0
                -76.173211,1.773645,0
                -76.173185,1.773648,0
                -76.173185,1.77294,0
                -76.173185,1.772917,0
                -76.173106,1.772932,0
                -76.172983,1.77297,0
                -76.172836,1.773016,0
                -76.172793,1.773033,0
                -76.172784,1.77293,0
                -76.172777,1.772819,0
                -76.172776,1.772801,0
                -76.17278,1.772654,0
                -76.172783,1.772515,0
                -76.172803,1.772416,0
                -76.17281,1.77228,0
                -76.172816,1.772202,0
                -76.172844,1.77208,0
                -76.172906,1.771872,0
                -76.172935,1.771781,0
                -76.17291,1.771771,0
                -76.172753,1.771782,0
                -76.172646,1.771798,0
                -76.172603,1.771814,0
                -76.1726,1.77183,0
                -76.172633,1.771868,0
                -76.172662,1.77191,0
                -76.172679,1.771945,0
                -76.17269,1.772024,0
                -76.172689,1.772077,0
                -76.172674,1.77213,0
                -76.172643,1.772207,0
                -76.1726,1.772254,0
                -76.172547,1.77231,0
                -76.172532,1.772338,0
                -76.172516,1.772369,0
                -76.172486,1.772397,0
                -76.17245,1.772414,0
                -76.172408,1.772472,0
                -76.172302,1.772711,0
                -76.172133,1.772725,0
                -76.172082,1.772767,0
                -76.171979,1.77274,0
                -76.171865,1.77271,0
                -76.171768,1.772691,0
                -76.17171,1.772668,0
                -76.171691,1.772647,0
                -76.171653,1.772605,0
                -76.171599,1.772514,0
                -76.171546,1.772531,0
                -76.171282,1.77261,0
                -76.171113,1.772716,0
                -76.171205,1.772867,0
                -76.171306,1.772799,0
                -76.171635,1.772956,0
                -76.171687,1.772981,0
                -76.171692,1.773064,0
                -76.171728,1.773144,0
                -76.17177,1.773256,0
                -76.171803,1.773339,0
                -76.171855,1.77347,0
                -76.171868,1.773502,0
                -76.17192,1.773617,0
                -76.171968,1.773753,0
                -76.171997,1.773904,0
                -76.172015,1.773998,0
                -76.172028,1.774078,0
                -76.17203,1.774085,0
                -76.172047,1.774147,0
                -76.172089,1.774268,0
                -76.172131,1.774387,0
                -76.172198,1.774558,0
                -76.172199,1.774561,0
                -76.172244,1.774726,0
                -76.172225,1.774739,0
                -76.172188,1.774764,0
                -76.171802,1.774917,0
                -76.172053,1.775655,0
                -76.171899,1.775692,0
                -76.171782,1.775812,0
                -76.171765,1.775822,0
                -76.171745,1.775835,0
                -76.171293,1.776228,0
                -76.171169,1.776279,0
                -76.171124,1.776297,0
                -76.171168,1.776431,0
                -76.171137,1.776446,0
                -76.170851,1.776571,0
                -76.170832,1.776578,0
                -76.170809,1.776586,0
                -76.170794,1.776592,0
                -76.170533,1.776697,0
                -76.17066,1.777004,0
                -76.170674,1.77703,0
                -76.170688,1.777054,0
                -76.170757,1.777213,0
                -76.170822,1.777362,0
                -76.17083,1.777382,0
                -76.170843,1.777416,0
                -76.170992,1.777751,0
                -76.171032,1.777802,0
                -76.171009,1.777814,0
                -76.170795,1.777919,0
                -76.170664,1.777999,0
                -76.170651,1.778006,0
                -76.170543,1.778058,0
                -76.170281,1.778177,0
                -76.170246,1.778192,0
                -76.17001,1.778309,0
                -76.170331,1.778708,0
                -76.170375,1.778768,0
                -76.170463,1.779005,0
                -76.170492,1.779087,0
                -76.170628,1.779032,0
                -76.170711,1.778998,0
                -76.171046,1.778841,0
                -76.171077,1.778913,0
                -76.171243,1.779298,0
                -76.171626,1.779244,0
                -76.172094,1.779143,0
                -76.172269,1.779489,0
                -76.172292,1.77952,0
                -76.172735,1.779343,0
                -76.172891,1.779779,0
                -76.17295,1.779765,0
                -76.173019,1.779755,0
                -76.173079,1.779746,0
                -76.173094,1.779745,0
                -76.173135,1.779742,0
                -76.173199,1.779747,0
                -76.17328,1.779759,0
                -76.173354,1.779764,0
                -76.173414,1.779774,0
                -76.173472,1.779789,0
                -76.173511,1.779828,0
                -76.17355,1.779861,0
                -76.173584,1.779886,0
              </coordinates>
            </LinearRing>
          </outerBoundaryIs>
        </Polygon>
      </Placemark>
    </Folder>
  </Document>
</kml>
