<?xml version="1.0" encoding="UTF-8"?>
<kml xmlns="http://www.opengis.net/kml/2.2">
  <Document>
    <name>Zona 600</name>
    <description/>
    <Style id="poly-0288D1-3201-76-normal">
      <LineStyle>
        <color>ffd18802</color>
        <width>3.201</width>
      </LineStyle>
      <PolyStyle>
        <color>4cd18802</color>
        <fill>1</fill>
        <outline>1</outline>
      </PolyStyle>
    </Style>
    <Style id="poly-0288D1-3201-76-highlight">
      <LineStyle>
        <color>ffd18802</color>
        <width>4.8015</width>
      </LineStyle>
      <PolyStyle>
        <color>4cd18802</color>
        <fill>1</fill>
        <outline>1</outline>
      </PolyStyle>
    </Style>
    <StyleMap id="poly-0288D1-3201-76">
      <Pair>
        <key>normal</key>
        <styleUrl>#poly-0288D1-3201-76-normal</styleUrl>
      </Pair>
      <Pair>
        <key>highlight</key>
        <styleUrl>#poly-0288D1-3201-76-highlight</styleUrl>
      </Pair>
    </StyleMap>
    <Style id="poly-7CB342-3401-76-normal">
      <LineStyle>
        <color>ff42b37c</color>
        <width>3.401</width>
      </LineStyle>
      <PolyStyle>
        <color>4c42b37c</color>
        <fill>1</fill>
        <outline>1</outline>
      </PolyStyle>
    </Style>
    <Style id="poly-7CB342-3401-76-highlight">
      <LineStyle>
        <color>ff42b37c</color>
        <width>5.1015</width>
      </LineStyle>
      <PolyStyle>
        <color>4c42b37c</color>
        <fill>1</fill>
        <outline>1</outline>
      </PolyStyle>
    </Style>
    <StyleMap id="poly-7CB342-3401-76">
      <Pair>
        <key>normal</key>
        <styleUrl>#poly-7CB342-3401-76-normal</styleUrl>
      </Pair>
      <Pair>
        <key>highlight</key>
        <styleUrl>#poly-7CB342-3401-76-highlight</styleUrl>
      </Pair>
    </StyleMap>
    <Style id="poly-9C27B0-3501-76-normal">
      <LineStyle>
        <color>ffb0279c</color>
        <width>3.501</width>
      </LineStyle>
      <PolyStyle>
        <color>4cb0279c</color>
        <fill>1</fill>
        <outline>1</outline>
      </PolyStyle>
    </Style>
    <Style id="poly-9C27B0-3501-76-highlight">
      <LineStyle>
        <color>ffb0279c</color>
        <width>5.2515</width>
      </LineStyle>
      <PolyStyle>
        <color>4cb0279c</color>
        <fill>1</fill>
        <outline>1</outline>
      </PolyStyle>
    </Style>
    <StyleMap id="poly-9C27B0-3501-76">
      <Pair>
        <key>normal</key>
        <styleUrl>#poly-9C27B0-3501-76-normal</styleUrl>
      </Pair>
      <Pair>
        <key>highlight</key>
        <styleUrl>#poly-9C27B0-3501-76-highlight</styleUrl>
      </Pair>
    </StyleMap>
    <Style id="poly-FF5252-3501-76-normal">
      <LineStyle>
        <color>ff5252ff</color>
        <width>3.501</width>
      </LineStyle>
      <PolyStyle>
        <color>4c5252ff</color>
        <fill>1</fill>
        <outline>1</outline>
      </PolyStyle>
    </Style>
    <Style id="poly-FF5252-3501-76-highlight">
      <LineStyle>
        <color>ff5252ff</color>
        <width>5.2515</width>
      </LineStyle>
      <PolyStyle>
        <color>4c5252ff</color>
        <fill>1</fill>
        <outline>1</outline>
      </PolyStyle>
    </Style>
    <StyleMap id="poly-FF5252-3501-76">
      <Pair>
        <key>normal</key>
        <styleUrl>#poly-FF5252-3501-76-normal</styleUrl>
      </Pair>
      <Pair>
        <key>highlight</key>
        <styleUrl>#poly-FF5252-3501-76-highlight</styleUrl>
      </Pair>
    </StyleMap>
    <Style id="poly-FFEA00-3301-51-normal">
      <LineStyle>
        <color>ff00eaff</color>
        <width>3.301</width>
      </LineStyle>
      <PolyStyle>
        <color>3300eaff</color>
        <fill>1</fill>
        <outline>1</outline>
      </PolyStyle>
    </Style>
    <Style id="poly-FFEA00-3301-51-highlight">
      <LineStyle>
        <color>ff00eaff</color>
        <width>4.9515</width>
      </LineStyle>
      <PolyStyle>
        <color>3300eaff</color>
        <fill>1</fill>
        <outline>1</outline>
      </PolyStyle>
    </Style>
    <StyleMap id="poly-FFEA00-3301-51">
      <Pair>
        <key>normal</key>
        <styleUrl>#poly-FFEA00-3301-51-normal</styleUrl>
      </Pair>
      <Pair>
        <key>highlight</key>
        <styleUrl>#poly-FFEA00-3301-51-highlight</styleUrl>
      </Pair>
    </StyleMap>
    <Folder>
      <name>VD600</name>
      <Placemark>
        <name/>
        <description><![CDATA[Descripción: <br>Reg_Nom: Costa 350<br>Dominio: Barranquilla<br>Region: 350<br>Zona: 600<br>Seccion: A<br>Zsec: 600A]]></description>
        <styleUrl>#poly-FFEA00-3301-51</styleUrl>
        <ExtendedData>
          <Data name="Descripción">
            <value/>
          </Data>
          <Data name="Reg_Nom">
            <value>Costa 350</value>
          </Data>
          <Data name="Dominio">
            <value>Barranquilla</value>
          </Data>
          <Data name="Region">
            <value>350</value>
          </Data>
          <Data name="Zona">
            <value>600</value>
          </Data>
          <Data name="Seccion">
            <value>A</value>
          </Data>
          <Data name="Zsec">
            <value>600A</value>
          </Data>
        </ExtendedData>
        <Polygon>
          <outerBoundaryIs>
            <LinearRing>
              <tessellate>1</tessellate>
              <coordinates>
                -74.785229,10.958633,0
                -74.785058,10.959198,0
                -74.784444,10.960947,0
                -74.784387,10.961064,0
                -74.783924,10.962234,0
                -74.783686,10.962846,0
                -74.783457,10.963348,0
                -74.783064,10.964257,0
                -74.78269,10.965196,0
                -74.782307,10.966098,0
                -74.782353,10.966119,0
                -74.782559,10.966211,0
                -74.782788,10.966317,0
                -74.782879,10.96636,0
                -74.78294,10.966391,0
                -74.783139,10.966478,0
                -74.783193,10.966507,0
                -74.783254,10.966535,0
                -74.783399,10.966602,0
                -74.783483,10.966649,0
                -74.783528,10.966674,0
                -74.783887,10.966866,0
                -74.784001,10.96692,0
                -74.784169,10.966998,0
                -74.784245,10.967027,0
                -74.784299,10.967045,0
                -74.784711,10.96723,0
                -74.784863,10.967297,0
                -74.784925,10.967325,0
                -74.785199,10.967474,0
                -74.785482,10.967613,0
                -74.785528,10.967642,0
                -74.785596,10.96768,0
                -74.785871,10.967819,0
                -74.786222,10.967992,0
                -74.787031,10.968357,0
                -74.787756,10.968654,0
                -74.78855,10.96897,0
                -74.789336,10.969292,0
                -74.790061,10.969596,0
                -74.790325,10.968852,0
                -74.790604,10.968037,0
                -74.790765,10.967479,0
                -74.790788,10.9674,0
                -74.790834,10.967253,0
                -74.791072,10.966523,0
                -74.791087,10.966473,0
                -74.791117,10.966399,0
                -74.791301,10.965998,0
                -74.791385,10.965799,0
                -74.791499,10.965553,0
                -74.791515,10.965531,0
                -74.791622,10.965282,0
                -74.791997,10.964405,0
                -74.792104,10.964162,0
                -74.792533,10.963213,0
                -74.793229,10.961761,0
                -74.793259,10.961699,0
                -74.793673,10.960767,0
                -74.794117,10.959857,0
                -74.793345,10.959547,0
                -74.792597,10.959243,0
                -74.792041,10.959016,0
                -74.791475,10.958788,0
                -74.790903,10.958561,0
                -74.790353,10.958341,0
                -74.789796,10.958116,0
                -74.789506,10.958,0
                -74.789002,10.957799,0
                -74.78846,10.957584,0
                -74.787995,10.95742,0
                -74.787737,10.957328,0
                -74.787506,10.957259,0
                -74.786956,10.957071,0
                -74.785945,10.956719,0
                -74.785229,10.958633,0
              </coordinates>
            </LinearRing>
          </outerBoundaryIs>
        </Polygon>
      </Placemark>
      <Placemark>
        <name/>
        <description><![CDATA[Descripción: <br>Reg_Nom: Costa 350<br>Dominio: Barranquilla<br>Region: 350<br>Zona: 600<br>Seccion: B<br>Zsec: 600B]]></description>
        <styleUrl>#poly-0288D1-3201-76</styleUrl>
        <ExtendedData>
          <Data name="Descripción">
            <value/>
          </Data>
          <Data name="Reg_Nom">
            <value>Costa 350</value>
          </Data>
          <Data name="Dominio">
            <value>Barranquilla</value>
          </Data>
          <Data name="Region">
            <value>350</value>
          </Data>
          <Data name="Zona">
            <value>600</value>
          </Data>
          <Data name="Seccion">
            <value>B</value>
          </Data>
          <Data name="Zsec">
            <value>600B</value>
          </Data>
        </ExtendedData>
        <Polygon>
          <outerBoundaryIs>
            <LinearRing>
              <tessellate>1</tessellate>
              <coordinates>
                -74.779049,10.96386,0
                -74.778988,10.964117,0
                -74.779432,10.964234,0
                -74.779659,10.964295,0
                -74.779805,10.964335,0
                -74.779855,10.964367,0
                -74.780304,10.964491,0
                -74.780606,10.964564,0
                -74.780789,10.964609,0
                -74.780865,10.964629,0
                -74.7813,10.964745,0
                -74.7814,10.964779,0
                -74.78143,10.96479,0
                -74.781751,10.964879,0
                -74.781941,10.964969,0
                -74.782101,10.96502,0
                -74.78269,10.965196,0
                -74.783064,10.964257,0
                -74.783457,10.963348,0
                -74.783686,10.962846,0
                -74.783924,10.962234,0
                -74.784387,10.961064,0
                -74.784444,10.960947,0
                -74.785058,10.959198,0
                -74.785229,10.958633,0
                -74.785945,10.956719,0
                -74.784384,10.956408,0
                -74.78388,10.9563,0
                -74.783849,10.956297,0
                -74.783551,10.956262,0
                -74.783345,10.95625,0
                -74.783063,10.956245,0
                -74.782818,10.956286,0
                -74.782299,10.956385,0
                -74.782253,10.956402,0
                -74.782373,10.95698,0
                -74.782496,10.957577,0
                -74.782206,10.957647,0
                -74.781939,10.957693,0
                -74.781328,10.957808,0
                -74.779702,10.958149,0
                -74.778511,10.958397,0
                -74.777465,10.958612,0
                -74.77735,10.958592,0
                -74.777289,10.958574,0
                -74.776854,10.958438,0
                -74.776808,10.958423,0
                -74.776236,10.95823,0
                -74.776083,10.958188,0
                -74.776022,10.958172,0
                -74.775877,10.958137,0
                -74.775625,10.958081,0
                -74.775121,10.957964,0
                -74.774839,10.957914,0
                -74.77477,10.957903,0
                -74.774671,10.957875,0
                -74.774633,10.957857,0
                -74.774638,10.957953,0
                -74.774657,10.958116,0
                -74.774686,10.958362,0
                -74.774709,10.958491,0
                -74.774724,10.958572,0
                -74.77477,10.958995,0
                -74.774838,10.959513,0
                -74.774853,10.959636,0
                -74.774967,10.960588,0
                -74.77502,10.960994,0
                -74.775096,10.9617,0
                -74.775104,10.961741,0
                -74.775104,10.961839,0
                -74.775165,10.96232,0
                -74.775218,10.962564,0
                -74.775301,10.963563,0
                -74.775324,10.963886,0
                -74.77537,10.964391,0
                -74.775393,10.964691,0
                -74.776049,10.964498,0
                -74.776149,10.964469,0
                -74.776385,10.964409,0
                -74.776477,10.964389,0
                -74.777028,10.964327,0
                -74.777881,10.96408,0
                -74.778396,10.963915,0
                -74.779079,10.9637,0
                -74.779049,10.96386,0
              </coordinates>
            </LinearRing>
          </outerBoundaryIs>
        </Polygon>
      </Placemark>
      <Placemark>
        <name/>
        <description><![CDATA[Descripción: <br>Reg_Nom: Costa 350<br>Dominio: Barranquilla<br>Region: 350<br>Zona: 600<br>Seccion: D<br>Zsec: 600D]]></description>
        <styleUrl>#poly-7CB342-3401-76</styleUrl>
        <ExtendedData>
          <Data name="Descripción">
            <value/>
          </Data>
          <Data name="Reg_Nom">
            <value>Costa 350</value>
          </Data>
          <Data name="Dominio">
            <value>Barranquilla</value>
          </Data>
          <Data name="Region">
            <value>350</value>
          </Data>
          <Data name="Zona">
            <value>600</value>
          </Data>
          <Data name="Seccion">
            <value>D</value>
          </Data>
          <Data name="Zsec">
            <value>600D</value>
          </Data>
        </ExtendedData>
        <Polygon>
          <outerBoundaryIs>
            <LinearRing>
              <tessellate>1</tessellate>
              <coordinates>
                -74.791084,10.946124,0
                -74.790641,10.946177,0
                -74.790198,10.946247,0
                -74.790053,10.946252,0
                -74.789228,10.946363,0
                -74.788533,10.946441,0
                -74.788189,10.946496,0
                -74.787731,10.946544,0
                -74.787303,10.946601,0
                -74.786211,10.946721,0
                -74.784792,10.946905,0
                -74.784926,10.947307,0
                -74.785087,10.94788,0
                -74.784934,10.947931,0
                -74.784934,10.947932,0
                -74.786654,10.952994,0
                -74.786654,10.954742,0
                -74.786207,10.95635,0
                -74.785963,10.956725,0
                -74.786956,10.957071,0
                -74.787506,10.957259,0
                -74.787737,10.957328,0
                -74.787995,10.95742,0
                -74.78846,10.957584,0
                -74.789002,10.957799,0
                -74.789506,10.958,0
                -74.789796,10.958116,0
                -74.790353,10.958341,0
                -74.790903,10.958561,0
                -74.791475,10.958788,0
                -74.792041,10.959016,0
                -74.792597,10.959243,0
                -74.793345,10.959547,0
                -74.794117,10.959857,0
                -74.794438,10.959168,0
                -74.794805,10.958368,0
                -74.795525,10.956805,0
                -74.796092,10.955591,0
                -74.796405,10.954925,0
                -74.796719,10.954273,0
                -74.796872,10.953946,0
                -74.796995,10.953702,0
                -74.797194,10.953285,0
                -74.797247,10.953223,0
                -74.797347,10.953012,0
                -74.797523,10.952737,0
                -74.797691,10.952549,0
                -74.79779,10.952466,0
                -74.797989,10.952302,0
                -74.798249,10.952084,0
                -74.798562,10.95182,0
                -74.798842,10.951599,0
                -74.799204,10.951315,0
                -74.799708,10.950595,0
                -74.799841,10.950212,0
                -74.799918,10.949874,0
                -74.799911,10.949717,0
                -74.799888,10.949237,0
                -74.799871,10.948567,0
                -74.799864,10.94829,0
                -74.799857,10.948086,0
                -74.799835,10.947798,0
                -74.799797,10.947222,0
                -74.799775,10.946677,0
                -74.799775,10.946651,0
                -74.799752,10.946098,0
                -74.798866,10.946098,0
                -74.797962,10.946098,0
                -74.797736,10.946099,0
                -74.797698,10.946098,0
                -74.797285,10.946079,0
                -74.796858,10.946097,0
                -74.796697,10.946097,0
                -74.796086,10.946089,0
                -74.795437,10.946019,0
                -74.795308,10.945945,0
                -74.795231,10.945909,0
                -74.795186,10.945902,0
                -74.795033,10.945881,0
                -74.794834,10.945881,0
                -74.794657,10.945865,0
                -74.794588,10.945861,0
                -74.794354,10.945844,0
                -74.794139,10.945827,0
                -74.793933,10.945839,0
                -74.793788,10.945838,0
                -74.793688,10.945837,0
                -74.793429,10.945855,0
                -74.793368,10.945855,0
                -74.793116,10.94588,0
                -74.793071,10.945886,0
                -74.792574,10.945944,0
                -74.79236,10.945968,0
                -74.792138,10.945994,0
                -74.791504,10.946072,0
                -74.791084,10.946124,0
              </coordinates>
            </LinearRing>
          </outerBoundaryIs>
        </Polygon>
      </Placemark>
      <Placemark>
        <name/>
        <description><![CDATA[Descripción: <br>Reg_Nom: Costa 350<br>Dominio: Barranquilla<br>Region: 350<br>Zona: 600<br>Seccion: C<br>Zsec: 600C]]></description>
        <styleUrl>#poly-FF5252-3501-76</styleUrl>
        <ExtendedData>
          <Data name="Descripción">
            <value/>
          </Data>
          <Data name="Reg_Nom">
            <value>Costa 350</value>
          </Data>
          <Data name="Dominio">
            <value>Barranquilla</value>
          </Data>
          <Data name="Region">
            <value>350</value>
          </Data>
          <Data name="Zona">
            <value>600</value>
          </Data>
          <Data name="Seccion">
            <value>C</value>
          </Data>
          <Data name="Zsec">
            <value>600C</value>
          </Data>
        </ExtendedData>
        <Polygon>
          <outerBoundaryIs>
            <LinearRing>
              <tessellate>1</tessellate>
              <coordinates>
                -74.774322,10.956342,0
                -74.774382,10.956645,0
                -74.774412,10.956806,0
                -74.774511,10.957296,0
                -74.774633,10.957857,0
                -74.774671,10.957875,0
                -74.77477,10.957903,0
                -74.774839,10.957914,0
                -74.775121,10.957964,0
                -74.775625,10.958081,0
                -74.775877,10.958137,0
                -74.776022,10.958172,0
                -74.776083,10.958188,0
                -74.776236,10.95823,0
                -74.776808,10.958423,0
                -74.776854,10.958438,0
                -74.777289,10.958574,0
                -74.77735,10.958592,0
                -74.777465,10.958612,0
                -74.778511,10.958397,0
                -74.779702,10.958149,0
                -74.781328,10.957808,0
                -74.781939,10.957693,0
                -74.782206,10.957647,0
                -74.782496,10.957577,0
                -74.782373,10.95698,0
                -74.782253,10.956402,0
                -74.782299,10.956385,0
                -74.782818,10.956286,0
                -74.783063,10.956245,0
                -74.783345,10.95625,0
                -74.783551,10.956262,0
                -74.783849,10.956297,0
                -74.78388,10.9563,0
                -74.784384,10.956408,0
                -74.785945,10.956719,0
                -74.785963,10.956725,0
                -74.786207,10.95635,0
                -74.786654,10.954742,0
                -74.786654,10.952994,0
                -74.784934,10.947932,0
                -74.784934,10.947931,0
                -74.78448,10.948085,0
                -74.783643,10.948361,0
                -74.783042,10.948555,0
                -74.782927,10.948588,0
                -74.782489,10.948698,0
                -74.781013,10.949009,0
                -74.779523,10.949321,0
                -74.777897,10.949661,0
                -74.776723,10.949879,0
                -74.775555,10.950122,0
                -74.775471,10.950065,0
                -74.775456,10.95009,0
                -74.775349,10.950255,0
                -74.77528,10.950397,0
                -74.775264,10.950417,0
                -74.775249,10.950458,0
                -74.775112,10.950747,0
                -74.775067,10.950871,0
                -74.774918,10.950872,0
                -74.77476,10.950884,0
                -74.774553,10.950894,0
                -74.774455,10.950897,0
                -74.774108,10.950914,0
                -74.773844,10.95094,0
                -74.773889,10.95169,0
                -74.773897,10.951832,0
                -74.773896,10.951949,0
                -74.773888,10.952071,0
                -74.773889,10.952083,0
                -74.773904,10.952483,0
                -74.773904,10.952543,0
                -74.773912,10.95263,0
                -74.773918,10.952891,0
                -74.773933,10.9532,0
                -74.773949,10.953509,0
                -74.773949,10.953545,0
                -74.773964,10.953918,0
                -74.773979,10.954368,0
                -74.773994,10.954577,0
                -74.773994,10.954687,0
                -74.774116,10.955285,0
                -74.774138,10.955417,0
                -74.774214,10.955838,0
                -74.774252,10.955995,0
                -74.774322,10.956342,0
              </coordinates>
            </LinearRing>
          </outerBoundaryIs>
        </Polygon>
      </Placemark>
      <Placemark>
        <name/>
        <description><![CDATA[Descripción: <br>Reg_Nom: Costa 350<br>Dominio: Barranquilla<br>Region: 350<br>Zona: 600<br>Seccion: E<br>Zsec: 600E]]></description>
        <styleUrl>#poly-9C27B0-3501-76</styleUrl>
        <ExtendedData>
          <Data name="Descripción">
            <value/>
          </Data>
          <Data name="Reg_Nom">
            <value>Costa 350</value>
          </Data>
          <Data name="Dominio">
            <value>Barranquilla</value>
          </Data>
          <Data name="Region">
            <value>350</value>
          </Data>
          <Data name="Zona">
            <value>600</value>
          </Data>
          <Data name="Seccion">
            <value>E</value>
          </Data>
          <Data name="Zsec">
            <value>600E</value>
          </Data>
        </ExtendedData>
        <Polygon>
          <outerBoundaryIs>
            <LinearRing>
              <tessellate>1</tessellate>
              <coordinates>
                -74.784792,10.946905,0
                -74.786211,10.946721,0
                -74.787303,10.946601,0
                -74.787731,10.946544,0
                -74.788189,10.946496,0
                -74.788533,10.946441,0
                -74.789228,10.946363,0
                -74.790053,10.946252,0
                -74.790198,10.946247,0
                -74.790641,10.946177,0
                -74.791084,10.946124,0
                -74.791504,10.946072,0
                -74.792138,10.945994,0
                -74.79236,10.945968,0
                -74.792574,10.945944,0
                -74.793071,10.945886,0
                -74.793116,10.94588,0
                -74.793368,10.945855,0
                -74.793429,10.945855,0
                -74.793688,10.945837,0
                -74.793788,10.945838,0
                -74.793933,10.945839,0
                -74.794139,10.945827,0
                -74.794354,10.945844,0
                -74.794588,10.945861,0
                -74.794657,10.945865,0
                -74.794834,10.945881,0
                -74.795033,10.945881,0
                -74.795186,10.945902,0
                -74.795231,10.945909,0
                -74.795308,10.945945,0
                -74.795437,10.946019,0
                -74.796086,10.946089,0
                -74.796697,10.946097,0
                -74.796858,10.946097,0
                -74.797285,10.946079,0
                -74.797698,10.946098,0
                -74.797736,10.946099,0
                -74.797962,10.946098,0
                -74.798866,10.946098,0
                -74.799752,10.946098,0
                -74.799723,10.945466,0
                -74.7997,10.944938,0
                -74.799677,10.944406,0
                -74.79967,10.944284,0
                -74.799655,10.943883,0
                -74.799625,10.943333,0
                -74.799595,10.942747,0
                -74.799527,10.94216,0
                -74.799467,10.941283,0
                -74.799361,10.939792,0
                -74.799278,10.938669,0
                -74.799258,10.93828,0
                -74.79892,10.938287,0
                -74.798425,10.938079,0
                -74.797679,10.937872,0
                -74.797517,10.938032,0
                -74.797298,10.938064,0
                -74.793858,10.938541,0
                -74.79327,10.938627,0
                -74.787043,10.939529,0
                -74.784025,10.940007,0
                -74.782675,10.939636,0
                -74.782828,10.940158,0
                -74.783086,10.941064,0
                -74.783163,10.94132,0
                -74.783353,10.941927,0
                -74.783444,10.942229,0
                -74.783533,10.942541,0
                -74.783766,10.943393,0
                -74.783931,10.943963,0
                -74.784062,10.944448,0
                -74.78435,10.945411,0
                -74.784792,10.946905,0
              </coordinates>
            </LinearRing>
          </outerBoundaryIs>
        </Polygon>
      </Placemark>
    </Folder>
  </Document>
</kml>
