<?xml version="1.0" encoding="UTF-8"?>
<kml xmlns="http://www.opengis.net/kml/2.2">
  <Document>
    <name>Zona 613</name>
    <description/>
    <Style id="poly-0097A7-3201-76-normal">
      <LineStyle>
        <color>ffa79700</color>
        <width>3.201</width>
      </LineStyle>
      <PolyStyle>
        <color>4ca79700</color>
        <fill>1</fill>
        <outline>1</outline>
      </PolyStyle>
    </Style>
    <Style id="poly-0097A7-3201-76-highlight">
      <LineStyle>
        <color>ffa79700</color>
        <width>4.8015</width>
      </LineStyle>
      <PolyStyle>
        <color>4ca79700</color>
        <fill>1</fill>
        <outline>1</outline>
      </PolyStyle>
    </Style>
    <StyleMap id="poly-0097A7-3201-76">
      <Pair>
        <key>normal</key>
        <styleUrl>#poly-0097A7-3201-76-normal</styleUrl>
      </Pair>
      <Pair>
        <key>highlight</key>
        <styleUrl>#poly-0097A7-3201-76-highlight</styleUrl>
      </Pair>
    </StyleMap>
    <Style id="poly-7CB342-2801-76-normal">
      <LineStyle>
        <color>ff42b37c</color>
        <width>2.801</width>
      </LineStyle>
      <PolyStyle>
        <color>4c42b37c</color>
        <fill>1</fill>
        <outline>1</outline>
      </PolyStyle>
    </Style>
    <Style id="poly-7CB342-2801-76-highlight">
      <LineStyle>
        <color>ff42b37c</color>
        <width>4.2015</width>
      </LineStyle>
      <PolyStyle>
        <color>4c42b37c</color>
        <fill>1</fill>
        <outline>1</outline>
      </PolyStyle>
    </Style>
    <StyleMap id="poly-7CB342-2801-76">
      <Pair>
        <key>normal</key>
        <styleUrl>#poly-7CB342-2801-76-normal</styleUrl>
      </Pair>
      <Pair>
        <key>highlight</key>
        <styleUrl>#poly-7CB342-2801-76-highlight</styleUrl>
      </Pair>
    </StyleMap>
    <Style id="poly-9C27B0-3301-76-normal">
      <LineStyle>
        <color>ffb0279c</color>
        <width>3.301</width>
      </LineStyle>
      <PolyStyle>
        <color>4cb0279c</color>
        <fill>1</fill>
        <outline>1</outline>
      </PolyStyle>
    </Style>
    <Style id="poly-9C27B0-3301-76-highlight">
      <LineStyle>
        <color>ffb0279c</color>
        <width>4.9515</width>
      </LineStyle>
      <PolyStyle>
        <color>4cb0279c</color>
        <fill>1</fill>
        <outline>1</outline>
      </PolyStyle>
    </Style>
    <StyleMap id="poly-9C27B0-3301-76">
      <Pair>
        <key>normal</key>
        <styleUrl>#poly-9C27B0-3301-76-normal</styleUrl>
      </Pair>
      <Pair>
        <key>highlight</key>
        <styleUrl>#poly-9C27B0-3301-76-highlight</styleUrl>
      </Pair>
    </StyleMap>
    <Style id="poly-FF5252-3201-76-normal">
      <LineStyle>
        <color>ff5252ff</color>
        <width>3.201</width>
      </LineStyle>
      <PolyStyle>
        <color>4c5252ff</color>
        <fill>1</fill>
        <outline>1</outline>
      </PolyStyle>
    </Style>
    <Style id="poly-FF5252-3201-76-highlight">
      <LineStyle>
        <color>ff5252ff</color>
        <width>4.8015</width>
      </LineStyle>
      <PolyStyle>
        <color>4c5252ff</color>
        <fill>1</fill>
        <outline>1</outline>
      </PolyStyle>
    </Style>
    <StyleMap id="poly-FF5252-3201-76">
      <Pair>
        <key>normal</key>
        <styleUrl>#poly-FF5252-3201-76-normal</styleUrl>
      </Pair>
      <Pair>
        <key>highlight</key>
        <styleUrl>#poly-FF5252-3201-76-highlight</styleUrl>
      </Pair>
    </StyleMap>
    <Style id="poly-FFEA00-2801-56-normal">
      <LineStyle>
        <color>ff00eaff</color>
        <width>2.801</width>
      </LineStyle>
      <PolyStyle>
        <color>3800eaff</color>
        <fill>1</fill>
        <outline>1</outline>
      </PolyStyle>
    </Style>
    <Style id="poly-FFEA00-2801-56-highlight">
      <LineStyle>
        <color>ff00eaff</color>
        <width>4.2015</width>
      </LineStyle>
      <PolyStyle>
        <color>3800eaff</color>
        <fill>1</fill>
        <outline>1</outline>
      </PolyStyle>
    </Style>
    <StyleMap id="poly-FFEA00-2801-56">
      <Pair>
        <key>normal</key>
        <styleUrl>#poly-FFEA00-2801-56-normal</styleUrl>
      </Pair>
      <Pair>
        <key>highlight</key>
        <styleUrl>#poly-FFEA00-2801-56-highlight</styleUrl>
      </Pair>
    </StyleMap>
    <Style id="poly-FFEA00-2801-76-normal">
      <LineStyle>
        <color>ff00eaff</color>
        <width>2.801</width>
      </LineStyle>
      <PolyStyle>
        <color>4c00eaff</color>
        <fill>1</fill>
        <outline>1</outline>
      </PolyStyle>
    </Style>
    <Style id="poly-FFEA00-2801-76-highlight">
      <LineStyle>
        <color>ff00eaff</color>
        <width>4.2015</width>
      </LineStyle>
      <PolyStyle>
        <color>4c00eaff</color>
        <fill>1</fill>
        <outline>1</outline>
      </PolyStyle>
    </Style>
    <StyleMap id="poly-FFEA00-2801-76">
      <Pair>
        <key>normal</key>
        <styleUrl>#poly-FFEA00-2801-76-normal</styleUrl>
      </Pair>
      <Pair>
        <key>highlight</key>
        <styleUrl>#poly-FFEA00-2801-76-highlight</styleUrl>
      </Pair>
    </StyleMap>
    <Folder>
      <name>VD613</name>
      <Placemark>
        <name/>
        <description><![CDATA[Descripción: <br>Reg_Nom: Costa 350<br>Dominio: Sabanalarga<br>Region: 350<br>Zona: 613<br>Seccion: D<br>Zsec: 613D]]></description>
        <styleUrl>#poly-7CB342-2801-76</styleUrl>
        <ExtendedData>
          <Data name="Descripción">
            <value/>
          </Data>
          <Data name="Reg_Nom">
            <value>Costa 350</value>
          </Data>
          <Data name="Dominio">
            <value>Sabanalarga</value>
          </Data>
          <Data name="Region">
            <value>350</value>
          </Data>
          <Data name="Zona">
            <value>613</value>
          </Data>
          <Data name="Seccion">
            <value>D</value>
          </Data>
          <Data name="Zsec">
            <value>613D</value>
          </Data>
        </ExtendedData>
        <Polygon>
          <outerBoundaryIs>
            <LinearRing>
              <tessellate>1</tessellate>
              <coordinates>
                -74.914169,10.625988,0
                -74.913981,10.62679,0
                -74.914119,10.627159,0
                -74.914346,10.62746,0
                -74.914099,10.628469,0
                -74.91401,10.628918,0
                -74.913724,10.630265,0
                -74.913135,10.629879,0
                -74.912213,10.629275,0
                -74.911828,10.629148,0
                -74.91085,10.6291,0
                -74.908796,10.628983,0
                -74.908737,10.62908,0
                -74.908846,10.629236,0
                -74.909092,10.629585,0
                -74.909518,10.630113,0
                -74.909882,10.630566,0
                -74.909685,10.630731,0
                -74.909162,10.630905,0
                -74.909102,10.631061,0
                -74.909083,10.631429,0
                -74.909162,10.631759,0
                -74.909359,10.632031,0
                -74.909489,10.632968,0
                -74.909446,10.633157,0
                -74.909327,10.633329,0
                -74.909017,10.633836,0
                -74.908691,10.634484,0
                -74.908934,10.634617,0
                -74.909311,10.634793,0
                -74.909637,10.635045,0
                -74.909912,10.635448,0
                -74.910077,10.635703,0
                -74.910634,10.636562,0
                -74.911138,10.637361,0
                -74.911611,10.638176,0
                -74.912301,10.639341,0
                -74.912383,10.63942,0
                -74.912525,10.639201,0
                -74.912896,10.639317,0
                -74.913289,10.639376,0
                -74.913643,10.639369,0
                -74.914001,10.63933,0
                -74.914342,10.639412,0
                -74.914848,10.63961,0
                -74.915118,10.639867,0
                -74.915658,10.640227,0
                -74.916022,10.640412,0
                -74.916331,10.640517,0
                -74.916844,10.640706,0
                -74.917329,10.640697,0
                -74.917807,10.640828,0
                -74.918608,10.641737,0
                -74.918968,10.642193,0
                -74.919506,10.642611,0
                -74.919724,10.642572,0
                -74.919978,10.642739,0
                -74.921211,10.641714,0
                -74.923811,10.639377,0
                -74.925847,10.637612,0
                -74.925671,10.636042,0
                -74.925583,10.635393,0
                -74.925454,10.634713,0
                -74.925393,10.634052,0
                -74.925202,10.633657,0
                -74.925097,10.633444,0
                -74.925089,10.633246,0
                -74.925207,10.632745,0
                -74.925127,10.632603,0
                -74.924941,10.632398,0
                -74.924633,10.632155,0
                -74.924483,10.631945,0
                -74.924482,10.631943,0
                -74.924417,10.631854,0
                -74.924329,10.631875,0
                -74.924072,10.63192,0
                -74.92366,10.632009,0
                -74.923372,10.632077,0
                -74.921798,10.631972,0
                -74.921114,10.631875,0
                -74.920217,10.631681,0
                -74.919685,10.631464,0
                -74.919397,10.631315,0
                -74.918789,10.631098,0
                -74.918341,10.630962,0
                -74.917989,10.63091,0
                -74.918028,10.630254,0
                -74.918127,10.629469,0
                -74.918241,10.628663,0
                -74.918241,10.628581,0
                -74.917914,10.628521,0
                -74.917975,10.628207,0
                -74.917025,10.627721,0
                -74.916189,10.627341,0
                -74.915771,10.627191,0
                -74.915437,10.627124,0
                -74.915338,10.627057,0
                -74.915247,10.626945,0
                -74.915004,10.626855,0
                -74.915034,10.62672,0
                -74.914646,10.626668,0
                -74.914525,10.626564,0
                -74.914259,10.626153,0
                -74.914169,10.625988,0
              </coordinates>
            </LinearRing>
          </outerBoundaryIs>
        </Polygon>
      </Placemark>
      <Placemark>
        <name/>
        <description><![CDATA[Descripción: <br>Reg_Nom: Costa 350<br>Dominio: Baranoa<br>Region: 350<br>Zona: 613<br>Seccion: A<br>Zsec: 613A]]></description>
        <styleUrl>#poly-FFEA00-2801-56</styleUrl>
        <ExtendedData>
          <Data name="Descripción">
            <value/>
          </Data>
          <Data name="Reg_Nom">
            <value>Costa 350</value>
          </Data>
          <Data name="Dominio">
            <value>Baranoa</value>
          </Data>
          <Data name="Region">
            <value>350</value>
          </Data>
          <Data name="Zona">
            <value>613</value>
          </Data>
          <Data name="Seccion">
            <value>A</value>
          </Data>
          <Data name="Zsec">
            <value>613A</value>
          </Data>
        </ExtendedData>
        <Polygon>
          <outerBoundaryIs>
            <LinearRing>
              <tessellate>1</tessellate>
              <coordinates>
                -74.914912,10.798224,0
                -74.916353,10.798323,0
                -74.917998,10.798455,0
                -74.92017,10.798647,0
                -74.92202,10.798859,0
                -74.921992,10.79905,0
                -74.922215,10.799352,0
                -74.922772,10.799668,0
                -74.9239,10.800308,0
                -74.925365,10.801241,0
                -74.926229,10.801926,0
                -74.926843,10.802857,0
                -74.927372,10.802419,0
                -74.927804,10.802049,0
                -74.927721,10.801488,0
                -74.927317,10.800885,0
                -74.926954,10.801282,0
                -74.926341,10.80068,0
                -74.925881,10.800913,0
                -74.924849,10.800776,0
                -74.92425,10.800351,0
                -74.924445,10.799858,0
                -74.924511,10.79968,0
                -74.924759,10.799012,0
                -74.924989,10.798393,0
                -74.925114,10.798475,0
                -74.925281,10.798448,0
                -74.925449,10.797352,0
                -74.924236,10.797243,0
                -74.92418,10.796421,0
                -74.924112,10.796159,0
                -74.923901,10.795353,0
                -74.924284,10.795118,0
                -74.924487,10.79497,0
                -74.924919,10.794367,0
                -74.925295,10.794011,0
                -74.925616,10.793423,0
                -74.925043,10.792992,0
                -74.924465,10.792536,0
                -74.924361,10.792382,0
                -74.924682,10.791177,0
                -74.924292,10.791081,0
                -74.924431,10.790698,0
                -74.923804,10.790479,0
                -74.924111,10.789575,0
                -74.923407,10.78934,0
                -74.922772,10.789164,0
                -74.922703,10.789328,0
                -74.921908,10.789123,0
                -74.922187,10.788192,0
                -74.921574,10.787904,0
                -74.921629,10.787726,0
                -74.921267,10.787576,0
                -74.921086,10.788069,0
                -74.920319,10.787822,0
                -74.920663,10.786674,0
                -74.920935,10.785472,0
                -74.921202,10.784231,0
                -74.921587,10.782441,0
                -74.919301,10.781688,0
                -74.919129,10.781946,0
                -74.919029,10.782375,0
                -74.919759,10.782612,0
                -74.919501,10.783379,0
                -74.917954,10.782735,0
                -74.91777,10.783253,0
                -74.917699,10.783454,0
                -74.917158,10.783303,0
                -74.916942,10.783243,0
                -74.916784,10.783598,0
                -74.91669,10.783555,0
                -74.916155,10.783312,0
                -74.916047,10.783263,0
                -74.915931,10.783592,0
                -74.915456,10.783442,0
                -74.915279,10.783472,0
                -74.914985,10.783365,0
                -74.914717,10.783312,0
                -74.914647,10.783107,0
                -74.914983,10.781801,0
                -74.914423,10.781639,0
                -74.914169,10.782532,0
                -74.914029,10.782518,0
                -74.913973,10.782729,0
                -74.913606,10.7827,0
                -74.913318,10.782828,0
                -74.913217,10.783281,0
                -74.912919,10.783199,0
                -74.912129,10.783201,0
                -74.912158,10.784123,0
                -74.912192,10.785245,0
                -74.91222,10.786149,0
                -74.912486,10.786505,0
                -74.91249,10.786509,0
                -74.91284,10.786916,0
                -74.913043,10.787151,0
                -74.913033,10.787158,0
                -74.913034,10.787159,0
                -74.91335,10.78753,0
                -74.913503,10.787776,0
                -74.913907,10.788413,0
                -74.914417,10.789235,0
                -74.914627,10.789606,0
                -74.915,10.790168,0
                -74.915286,10.79065,0
                -74.915357,10.791096,0
                -74.915428,10.791924,0
                -74.915464,10.792441,0
                -74.915495,10.792977,0
                -74.915454,10.793394,0
                -74.915403,10.793755,0
                -74.915331,10.794096,0
                -74.91526,10.794502,0
                -74.915178,10.794974,0
                -74.915051,10.795676,0
                -74.915,10.796047,0
                -74.914964,10.796408,0
                -74.914887,10.79688,0
                -74.914857,10.797296,0
                -74.914831,10.797642,0
                -74.914851,10.797898,0
                -74.914887,10.798184,0
                -74.914912,10.798224,0
              </coordinates>
            </LinearRing>
          </outerBoundaryIs>
        </Polygon>
      </Placemark>
      <Placemark>
        <name/>
        <description><![CDATA[Descripción: <br>Reg_Nom: Costa 350<br>Dominio: Baranoa<br>Region: 350<br>Zona: 613<br>Seccion: B<br>Zsec: 613B]]></description>
        <styleUrl>#poly-0097A7-3201-76</styleUrl>
        <ExtendedData>
          <Data name="Descripción">
            <value/>
          </Data>
          <Data name="Reg_Nom">
            <value>Costa 350</value>
          </Data>
          <Data name="Dominio">
            <value>Baranoa</value>
          </Data>
          <Data name="Region">
            <value>350</value>
          </Data>
          <Data name="Zona">
            <value>613</value>
          </Data>
          <Data name="Seccion">
            <value>B</value>
          </Data>
          <Data name="Zsec">
            <value>613B</value>
          </Data>
        </ExtendedData>
        <Polygon>
          <outerBoundaryIs>
            <LinearRing>
              <tessellate>1</tessellate>
              <coordinates>
                -74.913033,10.787158,0
                -74.912346,10.787631,0
                -74.912555,10.788042,0
                -74.91289,10.788753,0
                -74.913252,10.789548,0
                -74.913118,10.789526,0
                -74.911903,10.789325,0
                -74.910378,10.789088,0
                -74.909269,10.788922,0
                -74.908463,10.78877,0
                -74.908317,10.789534,0
                -74.908464,10.789558,0
                -74.90877,10.789609,0
                -74.909167,10.789657,0
                -74.909137,10.789943,0
                -74.90907,10.790588,0
                -74.908686,10.790521,0
                -74.908206,10.790438,0
                -74.907397,10.790561,0
                -74.90708,10.790393,0
                -74.906261,10.78988,0
                -74.90571,10.789397,0
                -74.905181,10.789205,0
                -74.904163,10.788931,0
                -74.903369,10.788644,0
                -74.903116,10.789665,0
                -74.902913,10.790416,0
                -74.902741,10.791054,0
                -74.902769,10.791547,0
                -74.902871,10.791767,0
                -74.903132,10.792239,0
                -74.903544,10.792728,0
                -74.904219,10.793532,0
                -74.904798,10.794239,0
                -74.905655,10.795285,0
                -74.905759,10.795558,0
                -74.906021,10.796243,0
                -74.906221,10.796764,0
                -74.906682,10.798037,0
                -74.906898,10.798651,0
                -74.907224,10.799246,0
                -74.907332,10.799489,0
                -74.906831,10.799853,0
                -74.90644,10.800065,0
                -74.90635,10.800236,0
                -74.90605,10.800843,0
                -74.906397,10.800994,0
                -74.90603,10.801725,0
                -74.906403,10.801868,0
                -74.906792,10.802027,0
                -74.906576,10.802493,0
                -74.906277,10.803099,0
                -74.906343,10.803195,0
                -74.907084,10.803669,0
                -74.907781,10.80409,0
                -74.907879,10.803732,0
                -74.908037,10.803094,0
                -74.908122,10.802747,0
                -74.908373,10.802829,0
                -74.908904,10.802938,0
                -74.909525,10.803065,0
                -74.910046,10.803172,0
                -74.910046,10.803596,0
                -74.910202,10.803605,0
                -74.910757,10.803637,0
                -74.910673,10.804062,0
                -74.910631,10.804459,0
                -74.911091,10.804445,0
                -74.911147,10.804924,0
                -74.911256,10.804928,0
                -74.911931,10.804954,0
                -74.912381,10.804954,0
                -74.912921,10.804915,0
                -74.913349,10.804883,0
                -74.913558,10.804966,0
                -74.913724,10.805125,0
                -74.914214,10.805595,0
                -74.915524,10.805513,0
                -74.915501,10.805154,0
                -74.915373,10.803361,0
                -74.915241,10.801625,0
                -74.915127,10.800129,0
                -74.915036,10.798934,0
                -74.91489,10.798222,0
                -74.914912,10.798224,0
                -74.914887,10.798184,0
                -74.914851,10.797898,0
                -74.914831,10.797642,0
                -74.914857,10.797296,0
                -74.914887,10.79688,0
                -74.914964,10.796408,0
                -74.915,10.796047,0
                -74.915051,10.795676,0
                -74.915178,10.794974,0
                -74.91526,10.794502,0
                -74.915331,10.794096,0
                -74.915403,10.793755,0
                -74.915454,10.793394,0
                -74.915495,10.792977,0
                -74.915464,10.792441,0
                -74.915428,10.791924,0
                -74.915357,10.791096,0
                -74.915286,10.79065,0
                -74.915,10.790168,0
                -74.914627,10.789606,0
                -74.914417,10.789235,0
                -74.913907,10.788413,0
                -74.913503,10.787776,0
                -74.91335,10.78753,0
                -74.913034,10.787159,0
                -74.913033,10.787158,0
              </coordinates>
            </LinearRing>
          </outerBoundaryIs>
        </Polygon>
      </Placemark>
      <Placemark>
        <name/>
        <description><![CDATA[Descripción: <br>Reg_Nom: Costa 350<br>Dominio: Sabanalarga<br>Region: 350<br>Zona: 613<br>Seccion: C<br>Zsec: 613C]]></description>
        <styleUrl>#poly-FF5252-3201-76</styleUrl>
        <ExtendedData>
          <Data name="Descripción">
            <value/>
          </Data>
          <Data name="Reg_Nom">
            <value>Costa 350</value>
          </Data>
          <Data name="Dominio">
            <value>Sabanalarga</value>
          </Data>
          <Data name="Region">
            <value>350</value>
          </Data>
          <Data name="Zona">
            <value>613</value>
          </Data>
          <Data name="Seccion">
            <value>C</value>
          </Data>
          <Data name="Zsec">
            <value>613C</value>
          </Data>
        </ExtendedData>
        <Polygon>
          <outerBoundaryIs>
            <LinearRing>
              <tessellate>1</tessellate>
              <coordinates>
                -74.925847,10.637612,0
                -74.925885,10.637669,0
                -74.925955,10.637736,0
                -74.925995,10.637835,0
                -74.926012,10.637959,0
                -74.926035,10.638,0
                -74.926089,10.63803,0
                -74.926152,10.638025,0
                -74.926591,10.637865,0
                -74.926934,10.637768,0
                -74.927101,10.637757,0
                -74.927566,10.637842,0
                -74.927929,10.637909,0
                -74.928222,10.637976,0
                -74.928265,10.637983,0
                -74.928343,10.637598,0
                -74.928386,10.637395,0
                -74.928528,10.637438,0
                -74.928528,10.637607,0
                -74.928571,10.637739,0
                -74.928649,10.63788,0
                -74.928599,10.638115,0
                -74.928543,10.638336,0
                -74.92851,10.638462,0
                -74.928519,10.638539,0
                -74.928546,10.63869,0
                -74.928554,10.638861,0
                -74.928706,10.638912,0
                -74.928923,10.638969,0
                -74.929079,10.638979,0
                -74.929097,10.639113,0
                -74.929165,10.639368,0
                -74.929241,10.639522,0
                -74.929451,10.639807,0
                -74.929689,10.640086,0
                -74.929847,10.640396,0
                -74.930103,10.640701,0
                -74.930524,10.641204,0
                -74.930863,10.641331,0
                -74.931425,10.641443,0
                -74.931407,10.641329,0
                -74.931952,10.641243,0
                -74.931928,10.640977,0
                -74.931861,10.640591,0
                -74.931889,10.640407,0
                -74.931867,10.640149,0
                -74.93199,10.63962,0
                -74.931947,10.639331,0
                -74.931987,10.63906,0
                -74.932059,10.638359,0
                -74.931516,10.63831,0
                -74.931526,10.638116,0
                -74.933412,10.638553,0
                -74.937474,10.639456,0
                -74.937639,10.63883,0
                -74.937777,10.638398,0
                -74.937757,10.638223,0
                -74.937244,10.637708,0
                -74.937059,10.637627,0
                -74.936483,10.637315,0
                -74.935294,10.636856,0
                -74.934986,10.636762,0
                -74.934355,10.636544,0
                -74.934671,10.636374,0
                -74.935101,10.636165,0
                -74.935397,10.63569,0
                -74.935748,10.63483,0
                -74.936024,10.634099,0
                -74.935515,10.634025,0
                -74.935329,10.634002,0
                -74.935104,10.633965,0
                -74.934953,10.633908,0
                -74.934929,10.633796,0
                -74.934842,10.633714,0
                -74.934646,10.633595,0
                -74.934478,10.633506,0
                -74.934471,10.633332,0
                -74.934399,10.633151,0
                -74.934406,10.632903,0
                -74.934311,10.632783,0
                -74.933906,10.632715,0
                -74.932925,10.63255,0
                -74.932103,10.632434,0
                -74.931842,10.632399,0
                -74.931982,10.632004,0
                -74.932235,10.632075,0
                -74.932618,10.632144,0
                -74.933148,10.632236,0
                -74.9332,10.631905,0
                -74.933256,10.631628,0
                -74.933291,10.631476,0
                -74.933339,10.631223,0
                -74.933206,10.631109,0
                -74.933027,10.631044,0
                -74.932518,10.630856,0
                -74.932621,10.63068,0
                -74.932611,10.630592,0
                -74.932502,10.6305,0
                -74.932399,10.630412,0
                -74.932106,10.630207,0
                -74.931842,10.629949,0
                -74.931592,10.629607,0
                -74.931305,10.629356,0
                -74.93119,10.629369,0
                -74.931113,10.629552,0
                -74.930966,10.629829,0
                -74.93089,10.630023,0
                -74.930647,10.62989,0
                -74.930708,10.629711,0
                -74.930884,10.629191,0
                -74.930973,10.628871,0
                -74.930538,10.628745,0
                -74.930617,10.628575,0
                -74.930545,10.628192,0
                -74.930465,10.627764,0
                -74.93034,10.627764,0
                -74.929911,10.627609,0
                -74.92837,10.627199,0
                -74.928413,10.626892,0
                -74.928413,10.626719,0
                -74.928282,10.626613,0
                -74.928079,10.626449,0
                -74.927714,10.626206,0
                -74.927259,10.625721,0
                -74.926884,10.625799,0
                -74.926899,10.625775,0
                -74.926792,10.625809,0
                -74.926057,10.626547,0
                -74.925859,10.626739,0
                -74.925761,10.626833,0
                -74.925725,10.626833,0
                -74.925643,10.626819,0
                -74.925606,10.626945,0
                -74.925469,10.627303,0
                -74.925409,10.627796,0
                -74.925388,10.628053,0
                -74.925352,10.628238,0
                -74.925199,10.628552,0
                -74.925059,10.628962,0
                -74.924816,10.628827,0
                -74.924466,10.628633,0
                -74.92404,10.628483,0
                -74.923554,10.628424,0
                -74.923508,10.628398,0
                -74.923303,10.628999,0
                -74.923364,10.629081,0
                -74.923318,10.629272,0
                -74.923356,10.62957,0
                -74.923733,10.62969,0
                -74.924018,10.629792,0
                -74.924341,10.629906,0
                -74.924322,10.630187,0
                -74.924329,10.630388,0
                -74.924348,10.630646,0
                -74.924347,10.631316,0
                -74.924336,10.631554,0
                -74.92435,10.631692,0
                -74.924363,10.631723,0
                -74.924417,10.631854,0
                -74.924482,10.631943,0
                -74.924483,10.631945,0
                -74.924633,10.632155,0
                -74.924941,10.632398,0
                -74.925127,10.632603,0
                -74.925207,10.632745,0
                -74.925089,10.633246,0
                -74.925097,10.633444,0
                -74.925202,10.633657,0
                -74.925393,10.634052,0
                -74.925454,10.634713,0
                -74.925583,10.635393,0
                -74.925671,10.636042,0
                -74.925847,10.637612,0
              </coordinates>
            </LinearRing>
          </outerBoundaryIs>
        </Polygon>
      </Placemark>
      <Placemark>
        <name/>
        <description><![CDATA[Descripción: <br>Reg_Nom: Costa 350<br>Dominio: Sabanalarga<br>Region: 350<br>Zona: 613<br>Seccion: E<br>Zsec: 613E]]></description>
        <styleUrl>#poly-9C27B0-3301-76</styleUrl>
        <ExtendedData>
          <Data name="Descripción">
            <value/>
          </Data>
          <Data name="Reg_Nom">
            <value>Costa 350</value>
          </Data>
          <Data name="Dominio">
            <value>Sabanalarga</value>
          </Data>
          <Data name="Region">
            <value>350</value>
          </Data>
          <Data name="Zona">
            <value>613</value>
          </Data>
          <Data name="Seccion">
            <value>E</value>
          </Data>
          <Data name="Zsec">
            <value>613E</value>
          </Data>
        </ExtendedData>
        <Polygon>
          <outerBoundaryIs>
            <LinearRing>
              <tessellate>1</tessellate>
              <coordinates>
                -74.914169,10.625988,0
                -74.914259,10.626153,0
                -74.914525,10.626564,0
                -74.914646,10.626668,0
                -74.915034,10.62672,0
                -74.915004,10.626855,0
                -74.915247,10.626945,0
                -74.915338,10.627057,0
                -74.915437,10.627124,0
                -74.915771,10.627191,0
                -74.916189,10.627341,0
                -74.917025,10.627721,0
                -74.917975,10.628207,0
                -74.917914,10.628521,0
                -74.918241,10.628581,0
                -74.918241,10.628663,0
                -74.918127,10.629469,0
                -74.918028,10.630254,0
                -74.917989,10.63091,0
                -74.918341,10.630962,0
                -74.918789,10.631098,0
                -74.919397,10.631315,0
                -74.919685,10.631464,0
                -74.920217,10.631681,0
                -74.921114,10.631875,0
                -74.921798,10.631972,0
                -74.923372,10.632077,0
                -74.92366,10.632009,0
                -74.924072,10.63192,0
                -74.924329,10.631875,0
                -74.924417,10.631854,0
                -74.924363,10.631723,0
                -74.92435,10.631692,0
                -74.924336,10.631554,0
                -74.924347,10.631316,0
                -74.924348,10.630646,0
                -74.924329,10.630388,0
                -74.924322,10.630187,0
                -74.924341,10.629906,0
                -74.924018,10.629792,0
                -74.923733,10.62969,0
                -74.923356,10.62957,0
                -74.923318,10.629272,0
                -74.923364,10.629081,0
                -74.923303,10.628999,0
                -74.923508,10.628398,0
                -74.923554,10.628424,0
                -74.92404,10.628483,0
                -74.924466,10.628633,0
                -74.924816,10.628827,0
                -74.925059,10.628962,0
                -74.925199,10.628552,0
                -74.925352,10.628238,0
                -74.925388,10.628053,0
                -74.925409,10.627796,0
                -74.925469,10.627303,0
                -74.925606,10.626945,0
                -74.925643,10.626819,0
                -74.925725,10.626833,0
                -74.925761,10.626833,0
                -74.925859,10.626739,0
                -74.926057,10.626547,0
                -74.926792,10.625809,0
                -74.926899,10.625775,0
                -74.927116,10.625438,0
                -74.927121,10.625432,0
                -74.927458,10.62499,0
                -74.927775,10.624957,0
                -74.92793,10.624692,0
                -74.92822,10.624195,0
                -74.928025,10.624023,0
                -74.928422,10.623592,0
                -74.928651,10.623818,0
                -74.928766,10.623824,0
                -74.928996,10.623546,0
                -74.929313,10.623162,0
                -74.92973,10.622658,0
                -74.929292,10.622215,0
                -74.928847,10.621864,0
                -74.928506,10.622248,0
                -74.928308,10.622054,0
                -74.927857,10.621679,0
                -74.927595,10.6219,0
                -74.927494,10.622039,0
                -74.927211,10.621786,0
                -74.926762,10.621485,0
                -74.926325,10.621327,0
                -74.926191,10.621624,0
                -74.926079,10.621936,0
                -74.92572,10.622891,0
                -74.925638,10.623291,0
                -74.925213,10.623129,0
                -74.924615,10.622894,0
                -74.92362,10.622489,0
                -74.922893,10.622186,0
                -74.9223,10.621966,0
                -74.922046,10.621867,0
                -74.922102,10.621621,0
                -74.922225,10.621444,0
                -74.922281,10.621169,0
                -74.922371,10.621019,0
                -74.922031,10.620839,0
                -74.921242,10.620591,0
                -74.920785,10.620299,0
                -74.920993,10.619928,0
                -74.921878,10.618562,0
                -74.921314,10.618259,0
                -74.920616,10.619485,0
                -74.920257,10.620135,0
                -74.919775,10.619792,0
                -74.919703,10.619973,0
                -74.919703,10.620195,0
                -74.919559,10.620831,0
                -74.91958,10.620941,0
                -74.919108,10.620871,0
                -74.918215,10.620871,0
                -74.917743,10.619873,0
                -74.917517,10.619873,0
                -74.917076,10.620135,0
                -74.91685,10.620135,0
                -74.916738,10.620205,0
                -74.916799,10.620397,0
                -74.91606,10.62082,0
                -74.916338,10.621133,0
                -74.916543,10.621365,0
                -74.917599,10.622535,0
                -74.917671,10.622716,0
                -74.917835,10.623261,0
                -74.918061,10.623816,0
                -74.918061,10.624189,0
                -74.917918,10.624693,0
                -74.917086,10.624441,0
                -74.916929,10.625243,0
                -74.916873,10.625529,0
                -74.916805,10.625879,0
                -74.916707,10.626377,0
                -74.915681,10.626266,0
                -74.915742,10.625968,0
                -74.915917,10.625126,0
                -74.915055,10.624874,0
                -74.914927,10.625255,0
                -74.914675,10.626004,0
                -74.914326,10.625903,0
                -74.914173,10.625974,0
                -74.914169,10.625988,0
              </coordinates>
            </LinearRing>
          </outerBoundaryIs>
        </Polygon>
      </Placemark>
      <Placemark>
        <name/>
        <description><![CDATA[Descripción: <br>Reg_Nom: Costa 350<br>Dominio: Galapa<br>Region: 350<br>Zona: 613<br>Seccion: G<br>Zsec: 613G]]></description>
        <styleUrl>#poly-FFEA00-2801-76</styleUrl>
        <ExtendedData>
          <Data name="Descripción">
            <value/>
          </Data>
          <Data name="Reg_Nom">
            <value>Costa 350</value>
          </Data>
          <Data name="Dominio">
            <value>Galapa</value>
          </Data>
          <Data name="Region">
            <value>350</value>
          </Data>
          <Data name="Zona">
            <value>613</value>
          </Data>
          <Data name="Seccion">
            <value>G</value>
          </Data>
          <Data name="Zsec">
            <value>613G</value>
          </Data>
        </ExtendedData>
        <Polygon>
          <outerBoundaryIs>
            <LinearRing>
              <tessellate>1</tessellate>
              <coordinates>
                -74.881897,10.909206,0
                -74.883229,10.911396,0
                -74.88894,10.913299,0
                -74.891224,10.906161,0
                -74.887608,10.904923,0
                -74.888369,10.901116,0
                -74.893509,10.900164,0
                -74.89408,10.897119,0
                -74.889606,10.896548,0
                -74.890463,10.892455,0
                -74.890273,10.888077,0
                -74.889035,10.887601,0
                -74.888179,10.887506,0
                -74.883991,10.892741,0
                -74.883134,10.896643,0
                -74.882182,10.904923,0
                -74.881326,10.908159,0
                -74.881897,10.909206,0
              </coordinates>
            </LinearRing>
          </outerBoundaryIs>
        </Polygon>
      </Placemark>
    </Folder>
  </Document>
</kml>
