<?xml version="1.0" encoding="UTF-8"?>
<kml xmlns="http://www.opengis.net/kml/2.2">
  <Document>
    <name>Zona 615</name>
    <description/>
    <Style id="poly-0097A7-3101-76-normal">
      <LineStyle>
        <color>ffa79700</color>
        <width>3.101</width>
      </LineStyle>
      <PolyStyle>
        <color>4ca79700</color>
        <fill>1</fill>
        <outline>1</outline>
      </PolyStyle>
    </Style>
    <Style id="poly-0097A7-3101-76-highlight">
      <LineStyle>
        <color>ffa79700</color>
        <width>4.6515</width>
      </LineStyle>
      <PolyStyle>
        <color>4ca79700</color>
        <fill>1</fill>
        <outline>1</outline>
      </PolyStyle>
    </Style>
    <StyleMap id="poly-0097A7-3101-76">
      <Pair>
        <key>normal</key>
        <styleUrl>#poly-0097A7-3101-76-normal</styleUrl>
      </Pair>
      <Pair>
        <key>highlight</key>
        <styleUrl>#poly-0097A7-3101-76-highlight</styleUrl>
      </Pair>
    </StyleMap>
    <Style id="poly-7CB342-3001-76-normal">
      <LineStyle>
        <color>ff42b37c</color>
        <width>3.001</width>
      </LineStyle>
      <PolyStyle>
        <color>4c42b37c</color>
        <fill>1</fill>
        <outline>1</outline>
      </PolyStyle>
    </Style>
    <Style id="poly-7CB342-3001-76-highlight">
      <LineStyle>
        <color>ff42b37c</color>
        <width>4.5015</width>
      </LineStyle>
      <PolyStyle>
        <color>4c42b37c</color>
        <fill>1</fill>
        <outline>1</outline>
      </PolyStyle>
    </Style>
    <StyleMap id="poly-7CB342-3001-76">
      <Pair>
        <key>normal</key>
        <styleUrl>#poly-7CB342-3001-76-normal</styleUrl>
      </Pair>
      <Pair>
        <key>highlight</key>
        <styleUrl>#poly-7CB342-3001-76-highlight</styleUrl>
      </Pair>
    </StyleMap>
    <Style id="poly-9C27B0-3001-76-normal">
      <LineStyle>
        <color>ffb0279c</color>
        <width>3.001</width>
      </LineStyle>
      <PolyStyle>
        <color>4cb0279c</color>
        <fill>1</fill>
        <outline>1</outline>
      </PolyStyle>
    </Style>
    <Style id="poly-9C27B0-3001-76-highlight">
      <LineStyle>
        <color>ffb0279c</color>
        <width>4.5015</width>
      </LineStyle>
      <PolyStyle>
        <color>4cb0279c</color>
        <fill>1</fill>
        <outline>1</outline>
      </PolyStyle>
    </Style>
    <StyleMap id="poly-9C27B0-3001-76">
      <Pair>
        <key>normal</key>
        <styleUrl>#poly-9C27B0-3001-76-normal</styleUrl>
      </Pair>
      <Pair>
        <key>highlight</key>
        <styleUrl>#poly-9C27B0-3001-76-highlight</styleUrl>
      </Pair>
    </StyleMap>
    <Style id="poly-FF5252-3201-76-normal">
      <LineStyle>
        <color>ff5252ff</color>
        <width>3.201</width>
      </LineStyle>
      <PolyStyle>
        <color>4c5252ff</color>
        <fill>1</fill>
        <outline>1</outline>
      </PolyStyle>
    </Style>
    <Style id="poly-FF5252-3201-76-highlight">
      <LineStyle>
        <color>ff5252ff</color>
        <width>4.8015</width>
      </LineStyle>
      <PolyStyle>
        <color>4c5252ff</color>
        <fill>1</fill>
        <outline>1</outline>
      </PolyStyle>
    </Style>
    <StyleMap id="poly-FF5252-3201-76">
      <Pair>
        <key>normal</key>
        <styleUrl>#poly-FF5252-3201-76-normal</styleUrl>
      </Pair>
      <Pair>
        <key>highlight</key>
        <styleUrl>#poly-FF5252-3201-76-highlight</styleUrl>
      </Pair>
    </StyleMap>
    <Style id="poly-FFEA00-2501-61-normal">
      <LineStyle>
        <color>ff00eaff</color>
        <width>2.501</width>
      </LineStyle>
      <PolyStyle>
        <color>3d00eaff</color>
        <fill>1</fill>
        <outline>1</outline>
      </PolyStyle>
    </Style>
    <Style id="poly-FFEA00-2501-61-highlight">
      <LineStyle>
        <color>ff00eaff</color>
        <width>3.7515</width>
      </LineStyle>
      <PolyStyle>
        <color>3d00eaff</color>
        <fill>1</fill>
        <outline>1</outline>
      </PolyStyle>
    </Style>
    <StyleMap id="poly-FFEA00-2501-61">
      <Pair>
        <key>normal</key>
        <styleUrl>#poly-FFEA00-2501-61-normal</styleUrl>
      </Pair>
      <Pair>
        <key>highlight</key>
        <styleUrl>#poly-FFEA00-2501-61-highlight</styleUrl>
      </Pair>
    </StyleMap>
    <Folder>
      <name>VD615</name>
      <Placemark>
        <name/>
        <description><![CDATA[Descripción: <br>Reg_Nom: Costa 350<br>Dominio: Monteria<br>Region: 350<br>Zona: 615<br>Seccion: A<br>Zsec: 615A]]></description>
        <styleUrl>#poly-FFEA00-2501-61</styleUrl>
        <ExtendedData>
          <Data name="Descripción">
            <value/>
          </Data>
          <Data name="Reg_Nom">
            <value>Costa 350</value>
          </Data>
          <Data name="Dominio">
            <value>Monteria</value>
          </Data>
          <Data name="Region">
            <value>350</value>
          </Data>
          <Data name="Zona">
            <value>615</value>
          </Data>
          <Data name="Seccion">
            <value>A</value>
          </Data>
          <Data name="Zsec">
            <value>615A</value>
          </Data>
        </ExtendedData>
        <Polygon>
          <outerBoundaryIs>
            <LinearRing>
              <tessellate>1</tessellate>
              <coordinates>
                -75.890036,8.758137,0
                -75.889272,8.758862,0
                -75.888367,8.759958,0
                -75.88798,8.760417,0
                -75.887123,8.760898,0
                -75.889456,8.763723,0
                -75.891089,8.762454,0
                -75.893655,8.76453,0
                -75.894822,8.761474,0
                -75.895977,8.758413,0
                -75.896015,8.758325,0
                -75.896096,8.758139,0
                -75.896176,8.75791,0
                -75.896317,8.757607,0
                -75.896435,8.7574,0
                -75.896523,8.757151,0
                -75.896613,8.756936,0
                -75.896751,8.756528,0
                -75.896814,8.756304,0
                -75.896837,8.756176,0
                -75.89686,8.756054,0
                -75.896872,8.755876,0
                -75.897049,8.755928,0
                -75.897186,8.756004,0
                -75.897348,8.756145,0
                -75.897834,8.755703,0
                -75.898277,8.755207,0
                -75.898582,8.754868,0
                -75.898696,8.754746,0
                -75.898851,8.754579,0
                -75.8993,8.75409,0
                -75.899372,8.753904,0
                -75.899415,8.753862,0
                -75.899803,8.753456,0
                -75.899029,8.752686,0
                -75.898671,8.752327,0
                -75.898485,8.752144,0
                -75.898206,8.751918,0
                -75.897969,8.75169,0
                -75.897735,8.751462,0
                -75.897492,8.751227,0
                -75.897275,8.751011,0
                -75.897035,8.750775,0
                -75.896777,8.750538,0
                -75.896648,8.750477,0
                -75.89645,8.750465,0
                -75.897122,8.75037,0
                -75.896831,8.750071,0
                -75.896557,8.749799,0
                -75.896272,8.749521,0
                -75.896,8.749264,0
                -75.895715,8.748979,0
                -75.895526,8.748765,0
                -75.895425,8.748697,0
                -75.895013,8.748559,0
                -75.894572,8.748414,0
                -75.894448,8.748379,0
                -75.893931,8.748198,0
                -75.893819,8.748344,0
                -75.893275,8.749012,0
                -75.893248,8.749075,0
                -75.893244,8.74974,0
                -75.893233,8.750486,0
                -75.893226,8.750854,0
                -75.8932,8.751337,0
                -75.893842,8.751389,0
                -75.894048,8.751433,0
                -75.894302,8.751576,0
                -75.893913,8.752149,0
                -75.893718,8.752342,0
                -75.893082,8.753066,0
                -75.893057,8.753121,0
                -75.89303,8.753145,0
                -75.892987,8.753315,0
                -75.892954,8.753671,0
                -75.892935,8.754316,0
                -75.892929,8.754443,0
                -75.892886,8.754565,0
                -75.892813,8.754701,0
                -75.892605,8.754984,0
                -75.892335,8.755337,0
                -75.892017,8.755763,0
                -75.891409,8.756553,0
                -75.891179,8.756799,0
                -75.890952,8.757015,0
                -75.89072,8.757206,0
                -75.890689,8.757248,0
                -75.890039,8.758131,0
                -75.890036,8.758137,0
              </coordinates>
            </LinearRing>
          </outerBoundaryIs>
        </Polygon>
      </Placemark>
      <Placemark>
        <name/>
        <description><![CDATA[Descripción: <br>Reg_Nom: Costa 350<br>Dominio: Monteria<br>Region: 350<br>Zona: 615<br>Seccion: B<br>Zsec: 615B]]></description>
        <styleUrl>#poly-0097A7-3101-76</styleUrl>
        <ExtendedData>
          <Data name="Descripción">
            <value/>
          </Data>
          <Data name="Reg_Nom">
            <value>Costa 350</value>
          </Data>
          <Data name="Dominio">
            <value>Monteria</value>
          </Data>
          <Data name="Region">
            <value>350</value>
          </Data>
          <Data name="Zona">
            <value>615</value>
          </Data>
          <Data name="Seccion">
            <value>B</value>
          </Data>
          <Data name="Zsec">
            <value>615B</value>
          </Data>
        </ExtendedData>
        <Polygon>
          <outerBoundaryIs>
            <LinearRing>
              <tessellate>1</tessellate>
              <coordinates>
                -75.889714,8.750884,0
                -75.889848,8.750963,0
                -75.88999,8.751068,0
                -75.890309,8.750036,0
                -75.890537,8.749336,0
                -75.89084,8.74879,0
                -75.89129,8.748131,0
                -75.891502,8.747854,0
                -75.891828,8.747307,0
                -75.89208,8.746976,0
                -75.892092,8.746773,0
                -75.892459,8.74639,0
                -75.892961,8.74592,0
                -75.893724,8.745232,0
                -75.893918,8.745719,0
                -75.894075,8.745798,0
                -75.89449,8.745902,0
                -75.894915,8.746012,0
                -75.895131,8.746087,0
                -75.895157,8.746098,0
                -75.895309,8.746165,0
                -75.896065,8.746616,0
                -75.896755,8.747009,0
                -75.897084,8.747199,0
                -75.897333,8.747308,0
                -75.897418,8.746654,0
                -75.897263,8.746612,0
                -75.897272,8.746437,0
                -75.897285,8.746239,0
                -75.897254,8.745974,0
                -75.897206,8.745698,0
                -75.897182,8.74543,0
                -75.897199,8.745158,0
                -75.897196,8.744892,0
                -75.897174,8.74458,0
                -75.897182,8.744041,0
                -75.897267,8.743898,0
                -75.897269,8.743448,0
                -75.897269,8.74314,0
                -75.897259,8.742674,0
                -75.897254,8.742191,0
                -75.897253,8.741754,0
                -75.897268,8.741304,0
                -75.897281,8.740828,0
                -75.897265,8.74038,0
                -75.895828,8.740369,0
                -75.895809,8.739946,0
                -75.895829,8.739486,0
                -75.895822,8.739044,0
                -75.895817,8.738583,0
                -75.895828,8.738127,0
                -75.89434,8.738129,0
                -75.89308,8.738118,0
                -75.892964,8.738165,0
                -75.89282,8.738214,0
                -75.891798,8.738211,0
                -75.891711,8.738214,0
                -75.89067,8.738225,0
                -75.889634,8.738216,0
                -75.889533,8.738217,0
                -75.889297,8.738213,0
                -75.888829,8.738258,0
                -75.88833,8.738286,0
                -75.888148,8.73832,0
                -75.888124,8.739069,0
                -75.888092,8.739431,0
                -75.888065,8.739749,0
                -75.887928,8.740174,0
                -75.887883,8.740291,0
                -75.887845,8.740387,0
                -75.887435,8.741369,0
                -75.887246,8.741962,0
                -75.88717,8.742272,0
                -75.887087,8.742639,0
                -75.886923,8.743254,0
                -75.887599,8.743428,0
                -75.887824,8.743508,0
                -75.888027,8.743618,0
                -75.88813,8.743685,0
                -75.888215,8.743757,0
                -75.888279,8.743833,0
                -75.888403,8.743992,0
                -75.888498,8.744167,0
                -75.888566,8.744383,0
                -75.888602,8.744576,0
                -75.888732,8.745465,0
                -75.888868,8.746341,0
                -75.888982,8.747245,0
                -75.889024,8.747666,0
                -75.889047,8.747803,0
                -75.889155,8.748542,0
                -75.889245,8.749026,0
                -75.889246,8.749275,0
                -75.889345,8.749713,0
                -75.889443,8.750164,0
                -75.889494,8.750388,0
                -75.889533,8.750627,0
                -75.889608,8.750777,0
                -75.889706,8.750877,0
                -75.889714,8.750884,0
              </coordinates>
            </LinearRing>
          </outerBoundaryIs>
        </Polygon>
      </Placemark>
      <Placemark>
        <name/>
        <description><![CDATA[Descripción: <br>Reg_Nom: Costa 350<br>Dominio: Monteria<br>Region: 350<br>Zona: 615<br>Seccion: C<br>Zsec: 615C]]></description>
        <styleUrl>#poly-FF5252-3201-76</styleUrl>
        <ExtendedData>
          <Data name="Descripción">
            <value/>
          </Data>
          <Data name="Reg_Nom">
            <value>Costa 350</value>
          </Data>
          <Data name="Dominio">
            <value>Monteria</value>
          </Data>
          <Data name="Region">
            <value>350</value>
          </Data>
          <Data name="Zona">
            <value>615</value>
          </Data>
          <Data name="Seccion">
            <value>C</value>
          </Data>
          <Data name="Zsec">
            <value>615C</value>
          </Data>
        </ExtendedData>
        <Polygon>
          <outerBoundaryIs>
            <LinearRing>
              <tessellate>1</tessellate>
              <coordinates>
                -75.898599,8.733824,0
                -75.89854,8.733846,0
                -75.89749,8.734351,0
                -75.897607,8.734567,0
                -75.895843,8.73454,0
                -75.895842,8.734553,0
                -75.895828,8.734552,0
                -75.895826,8.734951,0
                -75.895832,8.735412,0
                -75.895815,8.735859,0
                -75.895821,8.736314,0
                -75.89583,8.736762,0
                -75.895839,8.737235,0
                -75.895808,8.737692,0
                -75.895828,8.738127,0
                -75.895817,8.738583,0
                -75.895822,8.739044,0
                -75.895829,8.739486,0
                -75.895809,8.739946,0
                -75.895828,8.740369,0
                -75.897265,8.74038,0
                -75.897281,8.740828,0
                -75.897268,8.741304,0
                -75.897253,8.741754,0
                -75.897254,8.742191,0
                -75.897259,8.742674,0
                -75.897269,8.74314,0
                -75.897269,8.743448,0
                -75.897267,8.743898,0
                -75.897182,8.744041,0
                -75.897174,8.74458,0
                -75.897196,8.744892,0
                -75.897199,8.745158,0
                -75.897182,8.74543,0
                -75.897206,8.745698,0
                -75.897254,8.745974,0
                -75.897285,8.746239,0
                -75.897272,8.746437,0
                -75.897263,8.746612,0
                -75.897418,8.746654,0
                -75.897333,8.747308,0
                -75.897364,8.747315,0
                -75.897805,8.747414,0
                -75.898146,8.747491,0
                -75.898303,8.747526,0
                -75.898394,8.747559,0
                -75.898676,8.747541,0
                -75.89893,8.747532,0
                -75.899108,8.747523,0
                -75.899355,8.747511,0
                -75.899326,8.747073,0
                -75.899314,8.746604,0
                -75.899569,8.746581,0
                -75.899806,8.746564,0
                -75.899985,8.746556,0
                -75.900053,8.746561,0
                -75.900322,8.746525,0
                -75.900543,8.74652,0
                -75.90065,8.746584,0
                -75.900996,8.746513,0
                -75.901967,8.746034,0
                -75.902657,8.745714,0
                -75.902946,8.745548,0
                -75.902754,8.745189,0
                -75.902548,8.744818,0
                -75.902382,8.744419,0
                -75.902165,8.743993,0
                -75.901953,8.743578,0
                -75.901787,8.743187,0
                -75.901576,8.742774,0
                -75.901385,8.742393,0
                -75.901174,8.742011,0
                -75.900892,8.741314,0
                -75.901907,8.741021,0
                -75.901245,8.739508,0
                -75.900832,8.738616,0
                -75.900625,8.738186,0
                -75.900618,8.738172,0
                -75.900475,8.737869,0
                -75.900307,8.737508,0
                -75.900117,8.737142,0
                -75.899956,8.736756,0
                -75.899816,8.736433,0
                -75.899686,8.736182,0
                -75.899569,8.735924,0
                -75.899445,8.735675,0
                -75.89911,8.734936,0
                -75.899108,8.734936,0
                -75.898968,8.734606,0
                -75.898767,8.734201,0
                -75.898599,8.733824,0
              </coordinates>
            </LinearRing>
          </outerBoundaryIs>
        </Polygon>
      </Placemark>
      <Placemark>
        <name/>
        <description><![CDATA[Descripción: <br>Reg_Nom: Costa 350<br>Dominio: Monteria<br>Region: 350<br>Zona: 615<br>Seccion: E<br>Zsec: 615E]]></description>
        <styleUrl>#poly-9C27B0-3001-76</styleUrl>
        <ExtendedData>
          <Data name="Descripción">
            <value/>
          </Data>
          <Data name="Reg_Nom">
            <value>Costa 350</value>
          </Data>
          <Data name="Dominio">
            <value>Monteria</value>
          </Data>
          <Data name="Region">
            <value>350</value>
          </Data>
          <Data name="Zona">
            <value>615</value>
          </Data>
          <Data name="Seccion">
            <value>E</value>
          </Data>
          <Data name="Zsec">
            <value>615E</value>
          </Data>
        </ExtendedData>
        <Polygon>
          <outerBoundaryIs>
            <LinearRing>
              <tessellate>1</tessellate>
              <coordinates>
                -75.888572,8.727111,0
                -75.888478,8.727041,0
                -75.88798,8.726673,0
                -75.887863,8.726586,0
                -75.887763,8.726763,0
                -75.887666,8.727039,0
                -75.887516,8.727381,0
                -75.887357,8.727668,0
                -75.887231,8.727937,0
                -75.887084,8.728227,0
                -75.886973,8.728364,0
                -75.886588,8.728209,0
                -75.886355,8.728067,0
                -75.88632,8.72875,0
                -75.886318,8.729432,0
                -75.886297,8.729884,0
                -75.886238,8.729894,0
                -75.885681,8.72983,0
                -75.885641,8.729812,0
                -75.885231,8.729774,0
                -75.885229,8.730266,0
                -75.885257,8.730877,0
                -75.885235,8.731214,0
                -75.88524,8.732251,0
                -75.885197,8.732453,0
                -75.885178,8.732467,0
                -75.884475,8.732298,0
                -75.884309,8.732209,0
                -75.883158,8.7319,0
                -75.882733,8.731814,0
                -75.882294,8.73168,0
                -75.881847,8.731561,0
                -75.881433,8.731445,0
                -75.881303,8.732251,0
                -75.881434,8.732339,0
                -75.881527,8.732416,0
                -75.88177,8.732604,0
                -75.881979,8.732782,0
                -75.88213,8.732913,0
                -75.882198,8.732959,0
                -75.882441,8.73316,0
                -75.882694,8.733352,0
                -75.882912,8.733534,0
                -75.883176,8.733735,0
                -75.88341,8.733956,0
                -75.883326,8.734163,0
                -75.883311,8.73432,0
                -75.883317,8.734407,0
                -75.883351,8.734482,0
                -75.883402,8.734543,0
                -75.883718,8.734956,0
                -75.88358,8.735333,0
                -75.883531,8.735451,0
                -75.883383,8.735891,0
                -75.883309,8.736134,0
                -75.883249,8.736352,0
                -75.883178,8.736759,0
                -75.88315,8.737117,0
                -75.88312,8.737334,0
                -75.883106,8.737434,0
                -75.883093,8.737528,0
                -75.883057,8.737784,0
                -75.882625,8.737706,0
                -75.882071,8.737555,0
                -75.881829,8.737491,0
                -75.881706,8.738012,0
                -75.881571,8.738502,0
                -75.881437,8.738913,0
                -75.881312,8.739334,0
                -75.881168,8.73973,0
                -75.881003,8.73969,0
                -75.880427,8.739535,0
                -75.880181,8.739456,0
                -75.879433,8.739237,0
                -75.879366,8.739202,0
                -75.879055,8.739127,0
                -75.877464,8.741176,0
                -75.877495,8.74121,0
                -75.878058,8.741738,0
                -75.878151,8.741818,0
                -75.878245,8.741905,0
                -75.878912,8.741767,0
                -75.879089,8.741743,0
                -75.879714,8.741619,0
                -75.879814,8.741593,0
                -75.880672,8.741465,0
                -75.880734,8.74144,0
                -75.880893,8.741464,0
                -75.881248,8.741573,0
                -75.88194,8.741747,0
                -75.882071,8.741789,0
                -75.882599,8.741962,0
                -75.882668,8.741981,0
                -75.883081,8.742095,0
                -75.883231,8.742136,0
                -75.88363,8.742247,0
                -75.883884,8.742351,0
                -75.883994,8.742298,0
                -75.884056,8.742481,0
                -75.884262,8.742474,0
                -75.884521,8.742521,0
                -75.884918,8.742648,0
                -75.885071,8.742713,0
                -75.88574,8.742917,0
                -75.88574,8.742918,0
                -75.885887,8.742968,0
                -75.886532,8.743155,0
                -75.886923,8.743254,0
                -75.887087,8.74264,0
                -75.887169,8.742273,0
                -75.887245,8.741964,0
                -75.887434,8.741369,0
                -75.887435,8.741369,0
                -75.887845,8.740387,0
                -75.887883,8.740291,0
                -75.887928,8.740174,0
                -75.888065,8.739749,0
                -75.888092,8.739431,0
                -75.888124,8.739069,0
                -75.888148,8.73832,0
                -75.888103,8.738056,0
                -75.888115,8.737685,0
                -75.888109,8.737243,0
                -75.888108,8.73707,0
                -75.888123,8.736788,0
                -75.888176,8.736449,0
                -75.888194,8.736129,0
                -75.888197,8.735682,0
                -75.888241,8.735217,0
                -75.888274,8.734752,0
                -75.888314,8.734326,0
                -75.888415,8.733878,0
                -75.888444,8.733761,0
                -75.888514,8.733557,0
                -75.888576,8.733407,0
                -75.888701,8.733082,0
                -75.88897,8.731872,0
                -75.889087,8.731382,0
                -75.889359,8.730812,0
                -75.889361,8.730807,0
                -75.889366,8.730801,0
                -75.889505,8.730596,0
                -75.889614,8.730418,0
                -75.889675,8.730332,0
                -75.889659,8.730272,0
                -75.889839,8.730061,0
                -75.890029,8.729798,0
                -75.890249,8.729545,0
                -75.890453,8.729298,0
                -75.890637,8.729118,0
                -75.890829,8.728828,0
                -75.890545,8.7286,0
                -75.890262,8.728407,0
                -75.889943,8.728152,0
                -75.889619,8.727937,0
                -75.889356,8.727692,0
                -75.889097,8.727509,0
                -75.888846,8.727326,0
                -75.888597,8.727163,0
                -75.888564,8.727124,0
                -75.888572,8.727111,0
              </coordinates>
            </LinearRing>
          </outerBoundaryIs>
        </Polygon>
      </Placemark>
      <Placemark>
        <name/>
        <description><![CDATA[Descripción: <br>Reg_Nom: Costa 350<br>Dominio: Monteria<br>Region: 350<br>Zona: 615<br>Seccion: D<br>Zsec: 615D]]></description>
        <styleUrl>#poly-7CB342-3001-76</styleUrl>
        <ExtendedData>
          <Data name="Descripción">
            <value/>
          </Data>
          <Data name="Reg_Nom">
            <value>Costa 350</value>
          </Data>
          <Data name="Dominio">
            <value>Monteria</value>
          </Data>
          <Data name="Region">
            <value>350</value>
          </Data>
          <Data name="Zona">
            <value>615</value>
          </Data>
          <Data name="Seccion">
            <value>D</value>
          </Data>
          <Data name="Zsec">
            <value>615D</value>
          </Data>
        </ExtendedData>
        <Polygon>
          <outerBoundaryIs>
            <LinearRing>
              <tessellate>1</tessellate>
              <coordinates>
                -75.895828,8.734552,0
                -75.895288,8.734538,0
                -75.89383,8.734538,0
                -75.893393,8.734279,0
                -75.893212,8.734074,0
                -75.893204,8.734076,0
                -75.893007,8.733935,0
                -75.892709,8.733724,0
                -75.892868,8.7334,0
                -75.893174,8.732852,0
                -75.893291,8.732592,0
                -75.893495,8.731757,0
                -75.893509,8.7302,0
                -75.893334,8.728845,0
                -75.893086,8.726842,0
                -75.89226,8.726842,0
                -75.89222,8.72682,0
                -75.892113,8.726749,0
                -75.891993,8.727057,0
                -75.891873,8.727338,0
                -75.891767,8.727551,0
                -75.891648,8.727711,0
                -75.891512,8.727882,0
                -75.891511,8.727883,0
                -75.891046,8.728516,0
                -75.890829,8.728828,0
                -75.890637,8.729118,0
                -75.890453,8.729298,0
                -75.890249,8.729545,0
                -75.890029,8.729798,0
                -75.889839,8.730061,0
                -75.889659,8.730272,0
                -75.889675,8.730332,0
                -75.889614,8.730418,0
                -75.889505,8.730596,0
                -75.889366,8.730801,0
                -75.889361,8.730807,0
                -75.889359,8.730812,0
                -75.889087,8.731382,0
                -75.88897,8.731872,0
                -75.888701,8.733082,0
                -75.888576,8.733407,0
                -75.888514,8.733557,0
                -75.888444,8.733761,0
                -75.888415,8.733878,0
                -75.888314,8.734326,0
                -75.888274,8.734752,0
                -75.888241,8.735217,0
                -75.888197,8.735682,0
                -75.888194,8.736129,0
                -75.888176,8.736449,0
                -75.888123,8.736788,0
                -75.888108,8.73707,0
                -75.888109,8.737243,0
                -75.888115,8.737685,0
                -75.888103,8.738056,0
                -75.888148,8.73832,0
                -75.88833,8.738286,0
                -75.888829,8.738258,0
                -75.889297,8.738213,0
                -75.889533,8.738217,0
                -75.889634,8.738216,0
                -75.89067,8.738225,0
                -75.891711,8.738214,0
                -75.891798,8.738211,0
                -75.89282,8.738214,0
                -75.892964,8.738165,0
                -75.89308,8.738118,0
                -75.89434,8.738129,0
                -75.895828,8.738127,0
                -75.895808,8.737692,0
                -75.895839,8.737235,0
                -75.89583,8.736762,0
                -75.895821,8.736314,0
                -75.895815,8.735859,0
                -75.895832,8.735412,0
                -75.895826,8.734951,0
                -75.895828,8.734552,0
              </coordinates>
            </LinearRing>
          </outerBoundaryIs>
        </Polygon>
      </Placemark>
    </Folder>
  </Document>
</kml>
