<?xml version="1.0" encoding="UTF-8"?>
<kml xmlns="http://www.opengis.net/kml/2.2">
  <Document>
    <name>Zona 626</name>
    <description/>
    <Style id="poly-0097A7-3201-76-normal">
      <LineStyle>
        <color>ffa79700</color>
        <width>3.201</width>
      </LineStyle>
      <PolyStyle>
        <color>4ca79700</color>
        <fill>1</fill>
        <outline>1</outline>
      </PolyStyle>
    </Style>
    <Style id="poly-0097A7-3201-76-highlight">
      <LineStyle>
        <color>ffa79700</color>
        <width>4.8015</width>
      </LineStyle>
      <PolyStyle>
        <color>4ca79700</color>
        <fill>1</fill>
        <outline>1</outline>
      </PolyStyle>
    </Style>
    <StyleMap id="poly-0097A7-3201-76">
      <Pair>
        <key>normal</key>
        <styleUrl>#poly-0097A7-3201-76-normal</styleUrl>
      </Pair>
      <Pair>
        <key>highlight</key>
        <styleUrl>#poly-0097A7-3201-76-highlight</styleUrl>
      </Pair>
    </StyleMap>
    <Style id="poly-0288D1-3501-76-normal">
      <LineStyle>
        <color>ffd18802</color>
        <width>3.501</width>
      </LineStyle>
      <PolyStyle>
        <color>4cd18802</color>
        <fill>1</fill>
        <outline>1</outline>
      </PolyStyle>
    </Style>
    <Style id="poly-0288D1-3501-76-highlight">
      <LineStyle>
        <color>ffd18802</color>
        <width>5.2515</width>
      </LineStyle>
      <PolyStyle>
        <color>4cd18802</color>
        <fill>1</fill>
        <outline>1</outline>
      </PolyStyle>
    </Style>
    <StyleMap id="poly-0288D1-3501-76">
      <Pair>
        <key>normal</key>
        <styleUrl>#poly-0288D1-3501-76-normal</styleUrl>
      </Pair>
      <Pair>
        <key>highlight</key>
        <styleUrl>#poly-0288D1-3501-76-highlight</styleUrl>
      </Pair>
    </StyleMap>
    <Style id="poly-7CB342-3201-76-normal">
      <LineStyle>
        <color>ff42b37c</color>
        <width>3.201</width>
      </LineStyle>
      <PolyStyle>
        <color>4c42b37c</color>
        <fill>1</fill>
        <outline>1</outline>
      </PolyStyle>
    </Style>
    <Style id="poly-7CB342-3201-76-highlight">
      <LineStyle>
        <color>ff42b37c</color>
        <width>4.8015</width>
      </LineStyle>
      <PolyStyle>
        <color>4c42b37c</color>
        <fill>1</fill>
        <outline>1</outline>
      </PolyStyle>
    </Style>
    <StyleMap id="poly-7CB342-3201-76">
      <Pair>
        <key>normal</key>
        <styleUrl>#poly-7CB342-3201-76-normal</styleUrl>
      </Pair>
      <Pair>
        <key>highlight</key>
        <styleUrl>#poly-7CB342-3201-76-highlight</styleUrl>
      </Pair>
    </StyleMap>
    <Style id="poly-7CB342-3401-76-normal">
      <LineStyle>
        <color>ff42b37c</color>
        <width>3.401</width>
      </LineStyle>
      <PolyStyle>
        <color>4c42b37c</color>
        <fill>1</fill>
        <outline>1</outline>
      </PolyStyle>
    </Style>
    <Style id="poly-7CB342-3401-76-highlight">
      <LineStyle>
        <color>ff42b37c</color>
        <width>5.1015</width>
      </LineStyle>
      <PolyStyle>
        <color>4c42b37c</color>
        <fill>1</fill>
        <outline>1</outline>
      </PolyStyle>
    </Style>
    <StyleMap id="poly-7CB342-3401-76">
      <Pair>
        <key>normal</key>
        <styleUrl>#poly-7CB342-3401-76-normal</styleUrl>
      </Pair>
      <Pair>
        <key>highlight</key>
        <styleUrl>#poly-7CB342-3401-76-highlight</styleUrl>
      </Pair>
    </StyleMap>
    <Style id="poly-9C27B0-3001-76-normal">
      <LineStyle>
        <color>ffb0279c</color>
        <width>3.001</width>
      </LineStyle>
      <PolyStyle>
        <color>4cb0279c</color>
        <fill>1</fill>
        <outline>1</outline>
      </PolyStyle>
    </Style>
    <Style id="poly-9C27B0-3001-76-highlight">
      <LineStyle>
        <color>ffb0279c</color>
        <width>4.5015</width>
      </LineStyle>
      <PolyStyle>
        <color>4cb0279c</color>
        <fill>1</fill>
        <outline>1</outline>
      </PolyStyle>
    </Style>
    <StyleMap id="poly-9C27B0-3001-76">
      <Pair>
        <key>normal</key>
        <styleUrl>#poly-9C27B0-3001-76-normal</styleUrl>
      </Pair>
      <Pair>
        <key>highlight</key>
        <styleUrl>#poly-9C27B0-3001-76-highlight</styleUrl>
      </Pair>
    </StyleMap>
    <Style id="poly-9C27B0-3101-76-normal">
      <LineStyle>
        <color>ffb0279c</color>
        <width>3.101</width>
      </LineStyle>
      <PolyStyle>
        <color>4cb0279c</color>
        <fill>1</fill>
        <outline>1</outline>
      </PolyStyle>
    </Style>
    <Style id="poly-9C27B0-3101-76-highlight">
      <LineStyle>
        <color>ffb0279c</color>
        <width>4.6515</width>
      </LineStyle>
      <PolyStyle>
        <color>4cb0279c</color>
        <fill>1</fill>
        <outline>1</outline>
      </PolyStyle>
    </Style>
    <StyleMap id="poly-9C27B0-3101-76">
      <Pair>
        <key>normal</key>
        <styleUrl>#poly-9C27B0-3101-76-normal</styleUrl>
      </Pair>
      <Pair>
        <key>highlight</key>
        <styleUrl>#poly-9C27B0-3101-76-highlight</styleUrl>
      </Pair>
    </StyleMap>
    <Style id="poly-FF5252-2701-76-normal">
      <LineStyle>
        <color>ff5252ff</color>
        <width>2.701</width>
      </LineStyle>
      <PolyStyle>
        <color>4c5252ff</color>
        <fill>1</fill>
        <outline>1</outline>
      </PolyStyle>
    </Style>
    <Style id="poly-FF5252-2701-76-highlight">
      <LineStyle>
        <color>ff5252ff</color>
        <width>4.0515</width>
      </LineStyle>
      <PolyStyle>
        <color>4c5252ff</color>
        <fill>1</fill>
        <outline>1</outline>
      </PolyStyle>
    </Style>
    <StyleMap id="poly-FF5252-2701-76">
      <Pair>
        <key>normal</key>
        <styleUrl>#poly-FF5252-2701-76-normal</styleUrl>
      </Pair>
      <Pair>
        <key>highlight</key>
        <styleUrl>#poly-FF5252-2701-76-highlight</styleUrl>
      </Pair>
    </StyleMap>
    <Style id="poly-FF5252-3301-76-normal">
      <LineStyle>
        <color>ff5252ff</color>
        <width>3.301</width>
      </LineStyle>
      <PolyStyle>
        <color>4c5252ff</color>
        <fill>1</fill>
        <outline>1</outline>
      </PolyStyle>
    </Style>
    <Style id="poly-FF5252-3301-76-highlight">
      <LineStyle>
        <color>ff5252ff</color>
        <width>4.9515</width>
      </LineStyle>
      <PolyStyle>
        <color>4c5252ff</color>
        <fill>1</fill>
        <outline>1</outline>
      </PolyStyle>
    </Style>
    <StyleMap id="poly-FF5252-3301-76">
      <Pair>
        <key>normal</key>
        <styleUrl>#poly-FF5252-3301-76-normal</styleUrl>
      </Pair>
      <Pair>
        <key>highlight</key>
        <styleUrl>#poly-FF5252-3301-76-highlight</styleUrl>
      </Pair>
    </StyleMap>
    <Style id="poly-FFEA00-3301-76-normal">
      <LineStyle>
        <color>ff00eaff</color>
        <width>3.301</width>
      </LineStyle>
      <PolyStyle>
        <color>4c00eaff</color>
        <fill>1</fill>
        <outline>1</outline>
      </PolyStyle>
    </Style>
    <Style id="poly-FFEA00-3301-76-highlight">
      <LineStyle>
        <color>ff00eaff</color>
        <width>4.9515</width>
      </LineStyle>
      <PolyStyle>
        <color>4c00eaff</color>
        <fill>1</fill>
        <outline>1</outline>
      </PolyStyle>
    </Style>
    <StyleMap id="poly-FFEA00-3301-76">
      <Pair>
        <key>normal</key>
        <styleUrl>#poly-FFEA00-3301-76-normal</styleUrl>
      </Pair>
      <Pair>
        <key>highlight</key>
        <styleUrl>#poly-FFEA00-3301-76-highlight</styleUrl>
      </Pair>
    </StyleMap>
    <Style id="poly-FFEA00-3401-64-normal">
      <LineStyle>
        <color>ff00eaff</color>
        <width>3.401</width>
      </LineStyle>
      <PolyStyle>
        <color>4000eaff</color>
        <fill>1</fill>
        <outline>1</outline>
      </PolyStyle>
    </Style>
    <Style id="poly-FFEA00-3401-64-highlight">
      <LineStyle>
        <color>ff00eaff</color>
        <width>5.1015</width>
      </LineStyle>
      <PolyStyle>
        <color>4000eaff</color>
        <fill>1</fill>
        <outline>1</outline>
      </PolyStyle>
    </Style>
    <StyleMap id="poly-FFEA00-3401-64">
      <Pair>
        <key>normal</key>
        <styleUrl>#poly-FFEA00-3401-64-normal</styleUrl>
      </Pair>
      <Pair>
        <key>highlight</key>
        <styleUrl>#poly-FFEA00-3401-64-highlight</styleUrl>
      </Pair>
    </StyleMap>
    <Folder>
      <name>VD626</name>
      <Placemark>
        <name/>
        <description><![CDATA[Descripción: <br>Reg_Nom: Costa 350<br>Dominio: Cartagena<br>Region: 350<br>Zona: 626<br>Seccion: C<br>Zsec: 626C]]></description>
        <styleUrl>#poly-FF5252-2701-76</styleUrl>
        <ExtendedData>
          <Data name="Descripción">
            <value/>
          </Data>
          <Data name="Reg_Nom">
            <value>Costa 350</value>
          </Data>
          <Data name="Dominio">
            <value>Cartagena</value>
          </Data>
          <Data name="Region">
            <value>350</value>
          </Data>
          <Data name="Zona">
            <value>626</value>
          </Data>
          <Data name="Seccion">
            <value>C</value>
          </Data>
          <Data name="Zsec">
            <value>626C</value>
          </Data>
        </ExtendedData>
        <Polygon>
          <outerBoundaryIs>
            <LinearRing>
              <tessellate>1</tessellate>
              <coordinates>
                -75.485793,10.385009,0
                -75.485774,10.385156,0
                -75.485737,10.385449,0
                -75.485723,10.385607,0
                -75.485689,10.386004,0
                -75.485684,10.386049,0
                -75.485649,10.386405,0
                -75.48565,10.386791,0
                -75.485679,10.387083,0
                -75.485726,10.387574,0
                -75.485771,10.388033,0
                -75.485815,10.388492,0
                -75.485914,10.38877,0
                -75.486036,10.388891,0
                -75.486304,10.389078,0
                -75.486439,10.389171,0
                -75.486707,10.389327,0
                -75.48695,10.389475,0
                -75.487007,10.389518,0
                -75.487085,10.389574,0
                -75.487211,10.389656,0
                -75.487464,10.389854,0
                -75.487697,10.390093,0
                -75.487851,10.390307,0
                -75.487958,10.390456,0
                -75.488109,10.390686,0
                -75.488176,10.390845,0
                -75.488267,10.391147,0
                -75.48846,10.391056,0
                -75.488585,10.390564,0
                -75.488717,10.390034,0
                -75.488765,10.389824,0
                -75.488838,10.389505,0
                -75.488921,10.389141,0
                -75.488958,10.388977,0
                -75.489033,10.388649,0
                -75.489074,10.388529,0
                -75.489115,10.3884,0
                -75.48915,10.388315,0
                -75.489276,10.388005,0
                -75.489316,10.38792,0
                -75.489395,10.387747,0
                -75.489493,10.387539,0
                -75.489597,10.387313,0
                -75.489692,10.387107,0
                -75.489799,10.386877,0
                -75.489864,10.386738,0
                -75.489894,10.386674,0
                -75.48997,10.386532,0
                -75.490042,10.386302,0
                -75.490145,10.385966,0
                -75.49018,10.385815,0
                -75.490184,10.385753,0
                -75.49018,10.385665,0
                -75.490228,10.385347,0
                -75.490316,10.384952,0
                -75.490892,10.384946,0
                -75.490954,10.384916,0
                -75.49143,10.384892,0
                -75.491858,10.384812,0
                -75.492055,10.384795,0
                -75.492172,10.384811,0
                -75.492318,10.384856,0
                -75.492428,10.384168,0
                -75.492516,10.38369,0
                -75.492654,10.383231,0
                -75.492755,10.382864,0
                -75.492893,10.382406,0
                -75.493199,10.381246,0
                -75.492661,10.38103,0
                -75.492478,10.380965,0
                -75.49168,10.38068,0
                -75.49126,10.380522,0
                -75.490649,10.380315,0
                -75.490111,10.380108,0
                -75.489957,10.380077,0
                -75.489594,10.380012,0
                -75.488831,10.3799,0
                -75.488699,10.379896,0
                -75.488053,10.379883,0
                -75.487893,10.379885,0
                -75.487703,10.379884,0
                -75.487412,10.379877,0
                -75.487023,10.379849,0
                -75.486926,10.379848,0
                -75.486471,10.379824,0
                -75.486193,10.379806,0
                -75.485191,10.37972,0
                -75.484563,10.37972,0
                -75.484384,10.379963,0
                -75.484178,10.380532,0
                -75.484138,10.380639,0
                -75.483917,10.381229,0
                -75.484388,10.381358,0
                -75.484626,10.381423,0
                -75.484736,10.381453,0
                -75.484827,10.381479,0
                -75.485081,10.381548,0
                -75.485308,10.38161,0
                -75.485525,10.381669,0
                -75.485674,10.38171,0
                -75.485753,10.381731,0
                -75.485983,10.381794,0
                -75.486457,10.381923,0
                -75.486893,10.382042,0
                -75.487269,10.382146,0
                -75.487197,10.382232,0
                -75.486994,10.382477,0
                -75.486801,10.38271,0
                -75.486631,10.382916,0
                -75.486223,10.383409,0
                -75.486188,10.383452,0
                -75.486013,10.383784,0
                -75.485924,10.384223,0
                -75.48591,10.384301,0
                -75.485839,10.384731,0
                -75.485793,10.385009,0
              </coordinates>
            </LinearRing>
          </outerBoundaryIs>
        </Polygon>
      </Placemark>
      <Placemark>
        <name/>
        <description><![CDATA[Descripción: <br>Reg_Nom: Costa 350<br>Dominio: Cartagena<br>Region: 350<br>Zona: 626<br>Seccion: B<br>Zsec: 626B]]></description>
        <styleUrl>#poly-0288D1-3501-76</styleUrl>
        <ExtendedData>
          <Data name="Descripción">
            <value/>
          </Data>
          <Data name="Reg_Nom">
            <value>Costa 350</value>
          </Data>
          <Data name="Dominio">
            <value>Cartagena</value>
          </Data>
          <Data name="Region">
            <value>350</value>
          </Data>
          <Data name="Zona">
            <value>626</value>
          </Data>
          <Data name="Seccion">
            <value>B</value>
          </Data>
          <Data name="Zsec">
            <value>626B</value>
          </Data>
        </ExtendedData>
        <Polygon>
          <outerBoundaryIs>
            <LinearRing>
              <tessellate>1</tessellate>
              <coordinates>
                -75.49704,10.38249,0
                -75.496737,10.382347,0
                -75.496636,10.382267,0
                -75.496547,10.382168,0
                -75.496495,10.382057,0
                -75.496436,10.38192,0
                -75.496289,10.381786,0
                -75.496096,10.381669,0
                -75.495763,10.381517,0
                -75.49564,10.381454,0
                -75.49552,10.381392,0
                -75.495278,10.381261,0
                -75.494996,10.381101,0
                -75.494843,10.381092,0
                -75.494726,10.381077,0
                -75.494461,10.381089,0
                -75.493933,10.381096,0
                -75.493857,10.381089,0
                -75.493588,10.380983,0
                -75.493461,10.380883,0
                -75.492951,10.380398,0
                -75.492478,10.380965,0
                -75.492661,10.38103,0
                -75.493199,10.381246,0
                -75.492893,10.382406,0
                -75.492755,10.382864,0
                -75.492654,10.383231,0
                -75.492516,10.38369,0
                -75.492428,10.384168,0
                -75.492318,10.384856,0
                -75.492172,10.384811,0
                -75.492055,10.384795,0
                -75.491858,10.384812,0
                -75.49143,10.384892,0
                -75.490954,10.384916,0
                -75.490892,10.384946,0
                -75.490316,10.384952,0
                -75.490228,10.385347,0
                -75.49018,10.385665,0
                -75.490184,10.385753,0
                -75.49018,10.385815,0
                -75.490145,10.385966,0
                -75.490042,10.386302,0
                -75.48997,10.386532,0
                -75.489894,10.386674,0
                -75.489864,10.386738,0
                -75.489799,10.386877,0
                -75.489692,10.387107,0
                -75.489597,10.387313,0
                -75.489493,10.387539,0
                -75.489395,10.387747,0
                -75.489316,10.38792,0
                -75.489276,10.388005,0
                -75.48915,10.388315,0
                -75.489115,10.3884,0
                -75.489074,10.388529,0
                -75.489033,10.388649,0
                -75.488958,10.388977,0
                -75.488921,10.389141,0
                -75.488838,10.389505,0
                -75.488765,10.389824,0
                -75.488717,10.390034,0
                -75.488585,10.390564,0
                -75.48846,10.391056,0
                -75.488827,10.390884,0
                -75.489419,10.390633,0
                -75.489606,10.390553,0
                -75.489959,10.390485,0
                -75.490325,10.390414,0
                -75.49054,10.390379,0
                -75.490988,10.390304,0
                -75.491136,10.39028,0
                -75.491686,10.390192,0
                -75.491921,10.390155,0
                -75.492109,10.390125,0
                -75.492588,10.390042,0
                -75.492846,10.389998,0
                -75.493286,10.389918,0
                -75.493365,10.389904,0
                -75.493748,10.389838,0
                -75.495299,10.389573,0
                -75.495328,10.389568,0
                -75.495301,10.389398,0
                -75.495295,10.389365,0
                -75.495121,10.388311,0
                -75.495263,10.388251,0
                -75.495877,10.387777,0
                -75.495862,10.387666,0
                -75.495839,10.387555,0
                -75.495547,10.387775,0
                -75.49536,10.387917,0
                -75.49519,10.388046,0
                -75.495084,10.388125,0
                -75.494926,10.387325,0
                -75.494934,10.387228,0
                -75.494821,10.386608,0
                -75.494783,10.386405,0
                -75.494685,10.385847,0
                -75.494687,10.385772,0
                -75.494866,10.385369,0
                -75.494802,10.385343,0
                -75.49486,10.385212,0
                -75.494959,10.384984,0
                -75.495104,10.384677,0
                -75.495129,10.384625,0
                -75.495202,10.384565,0
                -75.495243,10.384482,0
                -75.495469,10.38402,0
                -75.495483,10.383921,0
                -75.49561,10.383656,0
                -75.495707,10.383446,0
                -75.495707,10.383413,0
                -75.495717,10.383354,0
                -75.495823,10.383159,0
                -75.496143,10.382416,0
                -75.496422,10.382526,0
                -75.496444,10.382479,0
                -75.496688,10.38261,0
                -75.496711,10.382561,0
                -75.496954,10.382682,0
                -75.49704,10.38249,0
              </coordinates>
            </LinearRing>
          </outerBoundaryIs>
        </Polygon>
      </Placemark>
      <Placemark>
        <name/>
        <description><![CDATA[Descripción: <br>Reg_Nom: Costa 350<br>Dominio: Cartagena<br>Region: 350<br>Zona: 626<br>Seccion: D<br>Zsec: 626D]]></description>
        <styleUrl>#poly-7CB342-3201-76</styleUrl>
        <ExtendedData>
          <Data name="Descripción">
            <value/>
          </Data>
          <Data name="Reg_Nom">
            <value>Costa 350</value>
          </Data>
          <Data name="Dominio">
            <value>Cartagena</value>
          </Data>
          <Data name="Region">
            <value>350</value>
          </Data>
          <Data name="Zona">
            <value>626</value>
          </Data>
          <Data name="Seccion">
            <value>D</value>
          </Data>
          <Data name="Zsec">
            <value>626D</value>
          </Data>
        </ExtendedData>
        <Polygon>
          <outerBoundaryIs>
            <LinearRing>
              <tessellate>1</tessellate>
              <coordinates>
                -75.498377,10.383074,0
                -75.4989,10.383268,0
                -75.499534,10.383508,0
                -75.499574,10.383524,0
                -75.500333,10.383839,0
                -75.500695,10.383998,0
                -75.500841,10.383496,0
                -75.500962,10.383222,0
                -75.501119,10.382922,0
                -75.501312,10.383036,0
                -75.501139,10.383665,0
                -75.501199,10.383675,0
                -75.501219,10.383674,0
                -75.501239,10.383674,0
                -75.501254,10.383671,0
                -75.501278,10.383671,0
                -75.501291,10.383673,0
                -75.501307,10.383677,0
                -75.50132,10.38368,0
                -75.501335,10.383685,0
                -75.501349,10.383688,0
                -75.501365,10.38369,0
                -75.501378,10.383692,0
                -75.501392,10.383692,0
                -75.501406,10.383694,0
                -75.501432,10.383694,0
                -75.501444,10.383695,0
                -75.501457,10.383695,0
                -75.501471,10.383697,0
                -75.501486,10.383697,0
                -75.501501,10.383698,0
                -75.501514,10.3837,0
                -75.501527,10.3837,0
                -75.501539,10.383701,0
                -75.501558,10.383703,0
                -75.50157,10.383706,0
                -75.501607,10.383713,0
                -75.501653,10.38372,0
                -75.501743,10.38372,0
                -75.501763,10.383719,0
                -75.501778,10.383716,0
                -75.501793,10.383715,0
                -75.501806,10.383713,0
                -75.501824,10.383711,0
                -75.501843,10.383706,0
                -75.501864,10.383704,0
                -75.501888,10.383699,0
                -75.501913,10.383694,0
                -75.501937,10.383692,0
                -75.501952,10.383689,0
                -75.501963,10.383686,0
                -75.501978,10.383683,0
                -75.501991,10.383678,0
                -75.502003,10.383676,0
                -75.502017,10.383675,0
                -75.502029,10.38367,0
                -75.502042,10.38367,0
                -75.50206,10.383672,0
                -75.502072,10.383672,0
                -75.502089,10.383673,0
                -75.502149,10.383673,0
                -75.502165,10.383675,0
                -75.502197,10.383675,0
                -75.50221,10.383676,0
                -75.502223,10.383678,0
                -75.502244,10.383682,0
                -75.502263,10.383686,0
                -75.502281,10.383689,0
                -75.502294,10.383693,0
                -75.50231,10.383695,0
                -75.502322,10.383697,0
                -75.502334,10.383702,0
                -75.502351,10.383706,0
                -75.502367,10.383709,0
                -75.502381,10.383709,0
                -75.502399,10.383711,0
                -75.502416,10.383711,0
                -75.502433,10.383714,0
                -75.502445,10.383715,0
                -75.502461,10.383717,0
                -75.502477,10.383718,0
                -75.502489,10.383719,0
                -75.502504,10.383719,0
                -75.502518,10.38372,0
                -75.502536,10.38372,0
                -75.502553,10.383721,0
                -75.502565,10.383721,0
                -75.502582,10.383722,0
                -75.502602,10.383724,0
                -75.502627,10.383727,0
                -75.502654,10.383731,0
                -75.502682,10.383734,0
                -75.502711,10.383737,0
                -75.502734,10.383738,0
                -75.502758,10.383741,0
                -75.502782,10.383744,0
                -75.502805,10.383746,0
                -75.50283,10.383749,0
                -75.502858,10.383755,0
                -75.502875,10.383757,0
                -75.502899,10.383759,0
                -75.502923,10.383762,0
                -75.502946,10.383764,0
                -75.502974,10.383767,0
                -75.503005,10.383769,0
                -75.503035,10.383773,0
                -75.503067,10.383774,0
                -75.503095,10.383778,0
                -75.503119,10.383783,0
                -75.503137,10.383788,0
                -75.503157,10.383793,0
                -75.503176,10.383796,0
                -75.503193,10.383801,0
                -75.503214,10.383804,0
                -75.50324,10.383808,0
                -75.50326,10.38381,0
                -75.503287,10.383816,0
                -75.503314,10.383626,0
                -75.504131,10.383722,0
                -75.504949,10.383824,0
                -75.505739,10.383923,0
                -75.505874,10.383792,0
                -75.505766,10.383598,0
                -75.505671,10.383338,0
                -75.505617,10.383037,0
                -75.505605,10.382816,0
                -75.505621,10.38257,0
                -75.505746,10.381716,0
                -75.505898,10.380635,0
                -75.505898,10.380586,0
                -75.505887,10.380553,0
                -75.505871,10.380518,0
                -75.505839,10.380484,0
                -75.505806,10.38047,0
                -75.502439,10.380089,0
                -75.503153,10.3785,0
                -75.50231,10.378123,0
                -75.501705,10.377841,0
                -75.501153,10.377577,0
                -75.500751,10.377385,0
                -75.499741,10.376932,0
                -75.498139,10.376213,0
                -75.497863,10.376093,0
                -75.49767,10.375975,0
                -75.49757,10.375888,0
                -75.497355,10.375602,0
                -75.497213,10.375356,0
                -75.497041,10.375053,0
                -75.496875,10.374779,0
                -75.496687,10.374441,0
                -75.496652,10.374376,0
                -75.496402,10.373955,0
                -75.496283,10.373878,0
                -75.496201,10.373812,0
                -75.495981,10.374356,0
                -75.495766,10.374887,0
                -75.495461,10.375547,0
                -75.495364,10.375783,0
                -75.495237,10.376064,0
                -75.495172,10.37621,0
                -75.495084,10.376407,0
                -75.495004,10.376588,0
                -75.494907,10.376798,0
                -75.494859,10.3769,0
                -75.494695,10.377247,0
                -75.494434,10.377846,0
                -75.494299,10.37815,0
                -75.494279,10.378296,0
                -75.494108,10.378625,0
                -75.493929,10.378996,0
                -75.493775,10.379311,0
                -75.493497,10.379886,0
                -75.493492,10.379992,0
                -75.493109,10.379842,0
                -75.492913,10.380329,0
                -75.492951,10.380398,0
                -75.493461,10.380883,0
                -75.493588,10.380983,0
                -75.493857,10.381089,0
                -75.493933,10.381096,0
                -75.494461,10.381089,0
                -75.494726,10.381077,0
                -75.494843,10.381092,0
                -75.494996,10.381101,0
                -75.495278,10.381261,0
                -75.49552,10.381392,0
                -75.49564,10.381454,0
                -75.495763,10.381517,0
                -75.496096,10.381669,0
                -75.496289,10.381786,0
                -75.496436,10.38192,0
                -75.496495,10.382057,0
                -75.496547,10.382168,0
                -75.496636,10.382267,0
                -75.496737,10.382347,0
                -75.49704,10.38249,0
                -75.497359,10.38265,0
                -75.497631,10.382769,0
                -75.497803,10.382834,0
                -75.498377,10.383074,0
              </coordinates>
            </LinearRing>
          </outerBoundaryIs>
        </Polygon>
      </Placemark>
      <Placemark>
        <name/>
        <description><![CDATA[Descripción: <br>Reg_Nom: Costa 350<br>Dominio: Cartagena<br>Region: 350<br>Zona: 626<br>Seccion: E<br>Zsec: 626E]]></description>
        <styleUrl>#poly-9C27B0-3101-76</styleUrl>
        <ExtendedData>
          <Data name="Descripción">
            <value/>
          </Data>
          <Data name="Reg_Nom">
            <value>Costa 350</value>
          </Data>
          <Data name="Dominio">
            <value>Cartagena</value>
          </Data>
          <Data name="Region">
            <value>350</value>
          </Data>
          <Data name="Zona">
            <value>626</value>
          </Data>
          <Data name="Seccion">
            <value>E</value>
          </Data>
          <Data name="Zsec">
            <value>626E</value>
          </Data>
        </ExtendedData>
        <Polygon>
          <outerBoundaryIs>
            <LinearRing>
              <tessellate>1</tessellate>
              <coordinates>
                -75.488699,10.379896,0
                -75.488831,10.3799,0
                -75.489594,10.380012,0
                -75.489957,10.380077,0
                -75.490111,10.380108,0
                -75.490649,10.380315,0
                -75.49126,10.380522,0
                -75.49168,10.38068,0
                -75.492478,10.380965,0
                -75.492951,10.380398,0
                -75.492913,10.380329,0
                -75.493109,10.379842,0
                -75.493492,10.379992,0
                -75.493497,10.379886,0
                -75.493775,10.379311,0
                -75.493929,10.378996,0
                -75.494108,10.378625,0
                -75.494279,10.378296,0
                -75.494299,10.37815,0
                -75.494434,10.377846,0
                -75.494695,10.377247,0
                -75.494859,10.3769,0
                -75.494907,10.376798,0
                -75.495004,10.376588,0
                -75.495084,10.376407,0
                -75.495172,10.37621,0
                -75.495237,10.376064,0
                -75.495364,10.375783,0
                -75.495461,10.375547,0
                -75.495766,10.374887,0
                -75.495981,10.374356,0
                -75.496201,10.373812,0
                -75.496118,10.373742,0
                -75.496075,10.373714,0
                -75.495971,10.373673,0
                -75.49584,10.37363,0
                -75.495749,10.373601,0
                -75.495656,10.373565,0
                -75.495567,10.373537,0
                -75.495431,10.373511,0
                -75.495282,10.37349,0
                -75.495037,10.373418,0
                -75.494952,10.373384,0
                -75.49487,10.373345,0
                -75.494684,10.373248,0
                -75.494171,10.373085,0
                -75.493272,10.3728,0
                -75.493014,10.372717,0
                -75.492859,10.372668,0
                -75.493006,10.371772,0
                -75.493097,10.37154,0
                -75.493265,10.37124,0
                -75.493175,10.370877,0
                -75.492829,10.370245,0
                -75.492567,10.370227,0
                -75.491791,10.370215,0
                -75.491614,10.37017,0
                -75.491051,10.370482,0
                -75.490899,10.370573,0
                -75.490717,10.370537,0
                -75.490571,10.370541,0
                -75.490565,10.370691,0
                -75.490589,10.370977,0
                -75.490609,10.371199,0
                -75.490566,10.37138,0
                -75.490505,10.371636,0
                -75.490153,10.371626,0
                -75.490067,10.371884,0
                -75.489941,10.372259,0
                -75.489779,10.372242,0
                -75.489404,10.372199,0
                -75.489102,10.372179,0
                -75.488897,10.372123,0
                -75.488775,10.372055,0
                -75.488983,10.371623,0
                -75.489054,10.371385,0
                -75.488843,10.371414,0
                -75.488723,10.3714,0
                -75.488382,10.371292,0
                -75.488208,10.371268,0
                -75.487987,10.371168,0
                -75.487926,10.371006,0
                -75.487716,10.370949,0
                -75.4876,10.370905,0
                -75.487247,10.370698,0
                -75.487044,10.371079,0
                -75.486948,10.371028,0
                -75.486749,10.3713,0
                -75.486982,10.371448,0
                -75.487189,10.371158,0
                -75.487812,10.371503,0
                -75.487706,10.371667,0
                -75.487431,10.372157,0
                -75.48743,10.372223,0
                -75.487042,10.371953,0
                -75.487017,10.372049,0
                -75.486671,10.371957,0
                -75.48617,10.37183,0
                -75.486064,10.372145,0
                -75.485985,10.372381,0
                -75.486001,10.372471,0
                -75.485977,10.372546,0
                -75.485828,10.37304,0
                -75.48565,10.374058,0
                -75.485477,10.375184,0
                -75.48548,10.375274,0
                -75.485472,10.375616,0
                -75.485465,10.375903,0
                -75.485461,10.376122,0
                -75.485459,10.376212,0
                -75.485458,10.376331,0
                -75.485443,10.376399,0
                -75.485408,10.376455,0
                -75.485337,10.376523,0
                -75.48525,10.376864,0
                -75.485216,10.377,0
                -75.485137,10.377308,0
                -75.485125,10.377524,0
                -75.485093,10.377811,0
                -75.48507,10.377941,0
                -75.485013,10.378068,0
                -75.484981,10.378098,0
                -75.484893,10.378465,0
                -75.484816,10.378748,0
                -75.484742,10.379076,0
                -75.484672,10.379345,0
                -75.484563,10.37972,0
                -75.485191,10.37972,0
                -75.486193,10.379806,0
                -75.486471,10.379824,0
                -75.486926,10.379848,0
                -75.487023,10.379849,0
                -75.487412,10.379877,0
                -75.487703,10.379884,0
                -75.487893,10.379885,0
                -75.488053,10.379883,0
                -75.488699,10.379896,0
              </coordinates>
            </LinearRing>
          </outerBoundaryIs>
        </Polygon>
      </Placemark>
      <Placemark>
        <name/>
        <description><![CDATA[Descripción: <br>Reg_Nom: Costa 350<br>Dominio: Cartagena<br>Region: 350<br>Zona: 626<br>Seccion: A<br>Zsec: 626A]]></description>
        <styleUrl>#poly-FFEA00-3401-64</styleUrl>
        <ExtendedData>
          <Data name="Descripción">
            <value/>
          </Data>
          <Data name="Reg_Nom">
            <value>Costa 350</value>
          </Data>
          <Data name="Dominio">
            <value>Cartagena</value>
          </Data>
          <Data name="Region">
            <value>350</value>
          </Data>
          <Data name="Zona">
            <value>626</value>
          </Data>
          <Data name="Seccion">
            <value>A</value>
          </Data>
          <Data name="Zsec">
            <value>626A</value>
          </Data>
        </ExtendedData>
        <Polygon>
          <outerBoundaryIs>
            <LinearRing>
              <tessellate>1</tessellate>
              <coordinates>
                -75.495862,10.387666,0
                -75.495877,10.387777,0
                -75.495263,10.388251,0
                -75.495121,10.388311,0
                -75.495295,10.389365,0
                -75.495301,10.389398,0
                -75.495328,10.389568,0
                -75.495451,10.389547,0
                -75.495473,10.389543,0
                -75.495624,10.389518,0
                -75.496254,10.389408,0
                -75.496652,10.389338,0
                -75.497743,10.389153,0
                -75.499931,10.388779,0
                -75.500297,10.388719,0
                -75.500619,10.388665,0
                -75.501008,10.388602,0
                -75.501475,10.388525,0
                -75.502553,10.388338,0
                -75.502725,10.388208,0
                -75.502782,10.388158,0
                -75.503002,10.387985,0
                -75.502975,10.387956,0
                -75.502852,10.387821,0
                -75.502728,10.387686,0
                -75.502581,10.387515,0
                -75.502246,10.387108,0
                -75.502512,10.387275,0
                -75.502723,10.387413,0
                -75.50291,10.387518,0
                -75.503042,10.387576,0
                -75.503215,10.38765,0
                -75.503309,10.387681,0
                -75.50326,10.387626,0
                -75.503196,10.387554,0
                -75.503152,10.387498,0
                -75.503095,10.387416,0
                -75.502861,10.387122,0
                -75.502653,10.386888,0
                -75.502486,10.386698,0
                -75.502292,10.386476,0
                -75.502029,10.38616,0
                -75.501665,10.385695,0
                -75.501443,10.385427,0
                -75.501273,10.385211,0
                -75.501156,10.384996,0
                -75.501121,10.384909,0
                -75.501039,10.384705,0
                -75.501022,10.384628,0
                -75.501003,10.384538,0
                -75.500998,10.384414,0
                -75.501036,10.384105,0
                -75.501106,10.383785,0
                -75.501139,10.383665,0
                -75.501312,10.383036,0
                -75.501119,10.382922,0
                -75.500962,10.383222,0
                -75.500841,10.383496,0
                -75.500695,10.383998,0
                -75.500333,10.383839,0
                -75.499574,10.383524,0
                -75.499534,10.383508,0
                -75.4989,10.383268,0
                -75.498377,10.383074,0
                -75.497803,10.382834,0
                -75.497631,10.382769,0
                -75.497359,10.38265,0
                -75.49704,10.38249,0
                -75.496954,10.382682,0
                -75.496711,10.382561,0
                -75.496688,10.38261,0
                -75.496444,10.382479,0
                -75.496422,10.382526,0
                -75.496143,10.382416,0
                -75.495823,10.383159,0
                -75.495717,10.383354,0
                -75.495707,10.383413,0
                -75.495707,10.383446,0
                -75.49561,10.383656,0
                -75.495483,10.383921,0
                -75.495469,10.38402,0
                -75.495243,10.384482,0
                -75.495202,10.384565,0
                -75.495129,10.384625,0
                -75.495104,10.384677,0
                -75.494959,10.384984,0
                -75.49486,10.385212,0
                -75.494802,10.385343,0
                -75.494866,10.385369,0
                -75.494687,10.385772,0
                -75.494685,10.385847,0
                -75.494783,10.386405,0
                -75.494821,10.386608,0
                -75.494934,10.387228,0
                -75.494926,10.387325,0
                -75.495084,10.388125,0
                -75.49519,10.388046,0
                -75.49536,10.387917,0
                -75.495547,10.387775,0
                -75.495839,10.387555,0
                -75.495862,10.387666,0
              </coordinates>
            </LinearRing>
          </outerBoundaryIs>
        </Polygon>
      </Placemark>
      <Placemark>
        <name/>
        <description><![CDATA[Descripción: <br>Reg_Nom: Costa 350<br>Dominio: Cartagena<br>Region: 350<br>Zona: 626<br>Seccion: H<br>Zsec: 626H]]></description>
        <styleUrl>#poly-0097A7-3201-76</styleUrl>
        <ExtendedData>
          <Data name="Descripción">
            <value/>
          </Data>
          <Data name="Reg_Nom">
            <value>Costa 350</value>
          </Data>
          <Data name="Dominio">
            <value>Cartagena</value>
          </Data>
          <Data name="Region">
            <value>350</value>
          </Data>
          <Data name="Zona">
            <value>626</value>
          </Data>
          <Data name="Seccion">
            <value>H</value>
          </Data>
          <Data name="Zsec">
            <value>626H</value>
          </Data>
        </ExtendedData>
        <Polygon>
          <outerBoundaryIs>
            <LinearRing>
              <tessellate>1</tessellate>
              <coordinates>
                -75.499638,10.397449,0
                -75.499293,10.398118,0
                -75.499087,10.398548,0
                -75.498931,10.398867,0
                -75.499207,10.399021,0
                -75.499509,10.399192,0
                -75.500007,10.399532,0
                -75.500107,10.399612,0
                -75.500409,10.399793,0
                -75.500725,10.399958,0
                -75.500933,10.400074,0
                -75.501132,10.400198,0
                -75.502103,10.400785,0
                -75.502571,10.401071,0
                -75.503144,10.401433,0
                -75.504273,10.402104,0
                -75.504345,10.402192,0
                -75.504586,10.401628,0
                -75.504206,10.401431,0
                -75.504271,10.401339,0
                -75.504345,10.400933,0
                -75.504377,10.400511,0
                -75.504377,10.399894,0
                -75.50436,10.399721,0
                -75.504389,10.399596,0
                -75.504422,10.399037,0
                -75.504445,10.398906,0
                -75.504511,10.398832,0
                -75.504618,10.398661,0
                -75.50471,10.398401,0
                -75.504871,10.397949,0
                -75.505086,10.397357,0
                -75.505178,10.397275,0
                -75.505208,10.397222,0
                -75.505232,10.39719,0
                -75.505305,10.397146,0
                -75.505427,10.397182,0
                -75.505602,10.397257,0
                -75.505648,10.397113,0
                -75.505125,10.39672,0
                -75.504709,10.396402,0
                -75.504556,10.396286,0
                -75.504464,10.396197,0
                -75.504523,10.395995,0
                -75.504525,10.39587,0
                -75.504494,10.3956,0
                -75.504387,10.395021,0
                -75.504325,10.394813,0
                -75.504185,10.393945,0
                -75.504129,10.393637,0
                -75.50404,10.393201,0
                -75.50403,10.39315,0
                -75.503867,10.392213,0
                -75.503786,10.39173,0
                -75.50373,10.391609,0
                -75.503643,10.391263,0
                -75.503589,10.39082,0
                -75.50353,10.390401,0
                -75.503453,10.390026,0
                -75.50345,10.389924,0
                -75.503344,10.389416,0
                -75.503263,10.388964,0
                -75.503138,10.388283,0
                -75.502618,10.388327,0
                -75.502553,10.388338,0
                -75.501475,10.388525,0
                -75.501008,10.388602,0
                -75.500619,10.388665,0
                -75.500297,10.388719,0
                -75.499931,10.388779,0
                -75.497743,10.389153,0
                -75.496652,10.389338,0
                -75.496254,10.389408,0
                -75.495624,10.389518,0
                -75.495956,10.391276,0
                -75.496242,10.391226,0
                -75.496436,10.391215,0
                -75.496647,10.392261,0
                -75.496659,10.392319,0
                -75.496725,10.392339,0
                -75.496628,10.392625,0
                -75.496584,10.392809,0
                -75.496985,10.39292,0
                -75.497556,10.393078,0
                -75.497856,10.393162,0
                -75.498046,10.393216,0
                -75.49817,10.393251,0
                -75.498339,10.3933,0
                -75.498486,10.393342,0
                -75.498788,10.393425,0
                -75.498874,10.39345,0
                -75.499167,10.393525,0
                -75.499143,10.393574,0
                -75.499411,10.393663,0
                -75.499648,10.393693,0
                -75.499927,10.393746,0
                -75.500099,10.393774,0
                -75.500514,10.393704,0
                -75.500453,10.393864,0
                -75.50039,10.394139,0
                -75.500332,10.394563,0
                -75.500265,10.394908,0
                -75.500209,10.395128,0
                -75.500194,10.395365,0
                -75.500199,10.395734,0
                -75.500225,10.395927,0
                -75.500231,10.396029,0
                -75.500217,10.396151,0
                -75.500155,10.396323,0
                -75.499638,10.397449,0
              </coordinates>
            </LinearRing>
          </outerBoundaryIs>
        </Polygon>
      </Placemark>
      <Placemark>
        <name/>
        <description><![CDATA[Descripción: <br>Reg_Nom: Costa 350<br>Dominio: Cartagena<br>Region: 350<br>Zona: 626<br>Seccion: K<br>Zsec: 626K]]></description>
        <styleUrl>#poly-9C27B0-3001-76</styleUrl>
        <ExtendedData>
          <Data name="Descripción">
            <value/>
          </Data>
          <Data name="Reg_Nom">
            <value>Costa 350</value>
          </Data>
          <Data name="Dominio">
            <value>Cartagena</value>
          </Data>
          <Data name="Region">
            <value>350</value>
          </Data>
          <Data name="Zona">
            <value>626</value>
          </Data>
          <Data name="Seccion">
            <value>K</value>
          </Data>
          <Data name="Zsec">
            <value>626K</value>
          </Data>
        </ExtendedData>
        <Polygon>
          <outerBoundaryIs>
            <LinearRing>
              <tessellate>1</tessellate>
              <coordinates>
                -75.52057,10.393449,0
                -75.519405,10.393382,0
                -75.518042,10.393335,0
                -75.51682,10.393298,0
                -75.516857,10.393415,0
                -75.516676,10.393412,0
                -75.516197,10.393395,0
                -75.515395,10.393368,0
                -75.515072,10.393355,0
                -75.514958,10.393353,0
                -75.514851,10.393374,0
                -75.51477,10.393393,0
                -75.514521,10.393391,0
                -75.513872,10.393394,0
                -75.513596,10.393379,0
                -75.513268,10.393359,0
                -75.513159,10.393356,0
                -75.513084,10.393479,0
                -75.512983,10.393714,0
                -75.512954,10.393779,0
                -75.51281,10.394067,0
                -75.512609,10.394342,0
                -75.512542,10.394459,0
                -75.512047,10.395291,0
                -75.512213,10.395276,0
                -75.512178,10.395594,0
                -75.512102,10.395715,0
                -75.512064,10.395779,0
                -75.512043,10.395825,0
                -75.512015,10.395897,0
                -75.511985,10.395941,0
                -75.511822,10.396176,0
                -75.511826,10.396208,0
                -75.511817,10.396326,0
                -75.511836,10.396501,0
                -75.511953,10.396771,0
                -75.512604,10.39675,0
                -75.512612,10.396477,0
                -75.512606,10.396177,0
                -75.512614,10.395874,0
                -75.512975,10.395873,0
                -75.513304,10.395867,0
                -75.513699,10.39586,0
                -75.514071,10.395863,0
                -75.514556,10.395861,0
                -75.515026,10.395862,0
                -75.515136,10.395866,0
                -75.515126,10.395936,0
                -75.515123,10.396161,0
                -75.515118,10.396476,0
                -75.515116,10.396784,0
                -75.515127,10.397094,0
                -75.514923,10.397095,0
                -75.514922,10.397326,0
                -75.514562,10.397336,0
                -75.514486,10.397349,0
                -75.514255,10.397361,0
                -75.513963,10.397363,0
                -75.513571,10.397346,0
                -75.513519,10.397342,0
                -75.513104,10.397358,0
                -75.513156,10.397538,0
                -75.513564,10.397499,0
                -75.513727,10.397538,0
                -75.51391,10.397714,0
                -75.513808,10.397714,0
                -75.513797,10.398039,0
                -75.513795,10.398082,0
                -75.513788,10.39834,0
                -75.514207,10.398324,0
                -75.51425,10.398324,0
                -75.514251,10.398651,0
                -75.514883,10.398647,0
                -75.515292,10.398638,0
                -75.515309,10.398777,0
                -75.515306,10.399102,0
                -75.515312,10.399779,0
                -75.515885,10.39977,0
                -75.516252,10.399767,0
                -75.516547,10.399759,0
                -75.516612,10.399757,0
                -75.516882,10.399758,0
                -75.51717,10.399758,0
                -75.517478,10.39975,0
                -75.517844,10.399696,0
                -75.517963,10.399668,0
                -75.518315,10.399558,0
                -75.518406,10.399529,0
                -75.518654,10.399453,0
                -75.51954,10.399484,0
                -75.520264,10.399541,0
                -75.520272,10.399555,0
                -75.521759,10.399644,0
                -75.522027,10.393517,0
                -75.520568,10.393463,0
                -75.52057,10.393449,0
              </coordinates>
            </LinearRing>
          </outerBoundaryIs>
        </Polygon>
      </Placemark>
      <Placemark>
        <name/>
        <description><![CDATA[Descripción: <br>Reg_Nom: Costa 350<br>Dominio: Cartagena<br>Region: 350<br>Zona: 626<br>Seccion: G<br>Zsec: 626G]]></description>
        <styleUrl>#poly-FFEA00-3301-76</styleUrl>
        <ExtendedData>
          <Data name="Descripción">
            <value/>
          </Data>
          <Data name="Reg_Nom">
            <value>Costa 350</value>
          </Data>
          <Data name="Dominio">
            <value>Cartagena</value>
          </Data>
          <Data name="Region">
            <value>350</value>
          </Data>
          <Data name="Zona">
            <value>626</value>
          </Data>
          <Data name="Seccion">
            <value>G</value>
          </Data>
          <Data name="Zsec">
            <value>626G</value>
          </Data>
        </ExtendedData>
        <Polygon>
          <outerBoundaryIs>
            <LinearRing>
              <tessellate>1</tessellate>
              <coordinates>
                -75.48846,10.391056,0
                -75.488267,10.391147,0
                -75.488113,10.391219,0
                -75.487506,10.391443,0
                -75.486912,10.391663,0
                -75.48629,10.391893,0
                -75.48679,10.392133,0
                -75.487254,10.392365,0
                -75.487742,10.392613,0
                -75.488253,10.392867,0
                -75.488301,10.392901,0
                -75.488896,10.393205,0
                -75.48924,10.393411,0
                -75.489445,10.393513,0
                -75.489669,10.393614,0
                -75.49006,10.393801,0
                -75.490463,10.394,0
                -75.490664,10.394088,0
                -75.491697,10.394627,0
                -75.492048,10.394812,0
                -75.492222,10.394919,0
                -75.492305,10.395019,0
                -75.492812,10.395348,0
                -75.492969,10.395429,0
                -75.493194,10.395549,0
                -75.493384,10.395656,0
                -75.493555,10.395753,0
                -75.493643,10.395798,0
                -75.493864,10.395918,0
                -75.493971,10.395975,0
                -75.494294,10.396152,0
                -75.494463,10.39621,0
                -75.49464,10.396275,0
                -75.494881,10.396369,0
                -75.495137,10.396458,0
                -75.495473,10.396677,0
                -75.495615,10.396769,0
                -75.495675,10.396801,0
                -75.495899,10.396972,0
                -75.496545,10.397501,0
                -75.496637,10.397559,0
                -75.497084,10.397829,0
                -75.497606,10.398091,0
                -75.497759,10.398177,0
                -75.498303,10.398515,0
                -75.498931,10.398867,0
                -75.499087,10.398548,0
                -75.499293,10.398118,0
                -75.499638,10.397449,0
                -75.500155,10.396323,0
                -75.500217,10.396151,0
                -75.500231,10.396029,0
                -75.500225,10.395927,0
                -75.500199,10.395734,0
                -75.500194,10.395365,0
                -75.500209,10.395128,0
                -75.500265,10.394908,0
                -75.500332,10.394563,0
                -75.50039,10.394139,0
                -75.500453,10.393864,0
                -75.500514,10.393704,0
                -75.500099,10.393774,0
                -75.499927,10.393746,0
                -75.499648,10.393693,0
                -75.499411,10.393663,0
                -75.499143,10.393574,0
                -75.499167,10.393525,0
                -75.498874,10.39345,0
                -75.498788,10.393425,0
                -75.498486,10.393342,0
                -75.498339,10.3933,0
                -75.49817,10.393251,0
                -75.498046,10.393216,0
                -75.497856,10.393162,0
                -75.497556,10.393078,0
                -75.496985,10.39292,0
                -75.496584,10.392809,0
                -75.496628,10.392625,0
                -75.496725,10.392339,0
                -75.496659,10.392319,0
                -75.496647,10.392261,0
                -75.496436,10.391215,0
                -75.496242,10.391226,0
                -75.495956,10.391276,0
                -75.495624,10.389518,0
                -75.495473,10.389543,0
                -75.495451,10.389547,0
                -75.495328,10.389568,0
                -75.495299,10.389573,0
                -75.493748,10.389838,0
                -75.493365,10.389904,0
                -75.493286,10.389918,0
                -75.492846,10.389998,0
                -75.492588,10.390042,0
                -75.492109,10.390125,0
                -75.491921,10.390155,0
                -75.491686,10.390192,0
                -75.491136,10.39028,0
                -75.490988,10.390304,0
                -75.49054,10.390379,0
                -75.490325,10.390414,0
                -75.489959,10.390485,0
                -75.489606,10.390553,0
                -75.489419,10.390633,0
                -75.488827,10.390884,0
                -75.48846,10.391056,0
              </coordinates>
            </LinearRing>
          </outerBoundaryIs>
        </Polygon>
      </Placemark>
      <Placemark>
        <name/>
        <description><![CDATA[Descripción: <br>Reg_Nom: Costa 350<br>Dominio: Cartagena<br>Region: 350<br>Zona: 626<br>Seccion: I<br>Zsec: 626I]]></description>
        <styleUrl>#poly-FF5252-3301-76</styleUrl>
        <ExtendedData>
          <Data name="Descripción">
            <value/>
          </Data>
          <Data name="Reg_Nom">
            <value>Costa 350</value>
          </Data>
          <Data name="Dominio">
            <value>Cartagena</value>
          </Data>
          <Data name="Region">
            <value>350</value>
          </Data>
          <Data name="Zona">
            <value>626</value>
          </Data>
          <Data name="Seccion">
            <value>I</value>
          </Data>
          <Data name="Zsec">
            <value>626I</value>
          </Data>
        </ExtendedData>
        <Polygon>
          <outerBoundaryIs>
            <LinearRing>
              <tessellate>1</tessellate>
              <coordinates>
                -75.506477,10.397331,0
                -75.506588,10.397346,0
                -75.506749,10.397413,0
                -75.506861,10.397157,0
                -75.506982,10.396774,0
                -75.507199,10.396827,0
                -75.50723,10.396557,0
                -75.507533,10.396645,0
                -75.50798,10.396747,0
                -75.508176,10.396773,0
                -75.508303,10.39677,0
                -75.50848,10.396723,0
                -75.50875,10.396636,0
                -75.508817,10.396589,0
                -75.509046,10.396506,0
                -75.509303,10.396411,0
                -75.509364,10.396388,0
                -75.509473,10.396289,0
                -75.509553,10.39621,0
                -75.509681,10.39605,0
                -75.509609,10.39595,0
                -75.509433,10.395712,0
                -75.50914,10.395313,0
                -75.508969,10.395082,0
                -75.508829,10.394926,0
                -75.508793,10.394885,0
                -75.508922,10.394759,0
                -75.50896,10.394523,0
                -75.50902,10.394353,0
                -75.509107,10.394142,0
                -75.509292,10.393855,0
                -75.509514,10.393546,0
                -75.50966,10.393335,0
                -75.509899,10.39288,0
                -75.510074,10.392572,0
                -75.51024,10.392258,0
                -75.510434,10.391929,0
                -75.510768,10.391361,0
                -75.510388,10.39115,0
                -75.510398,10.391083,0
                -75.51038,10.39095,0
                -75.510385,10.390895,0
                -75.510448,10.390685,0
                -75.510632,10.39011,0
                -75.51077,10.389759,0
                -75.510958,10.389348,0
                -75.51108,10.38901,0
                -75.511162,10.388732,0
                -75.511187,10.388629,0
                -75.511578,10.387656,0
                -75.510995,10.387438,0
                -75.510486,10.387244,0
                -75.510329,10.38719,0
                -75.509831,10.387184,0
                -75.507704,10.387537,0
                -75.506845,10.387677,0
                -75.506747,10.387694,0
                -75.506559,10.387725,0
                -75.506422,10.387748,0
                -75.505661,10.387877,0
                -75.504881,10.38801,0
                -75.503968,10.388152,0
                -75.503395,10.388242,0
                -75.503258,10.388264,0
                -75.503138,10.388283,0
                -75.503263,10.388964,0
                -75.503344,10.389416,0
                -75.50345,10.389924,0
                -75.503453,10.390026,0
                -75.50353,10.390401,0
                -75.503589,10.39082,0
                -75.503643,10.391263,0
                -75.50373,10.391609,0
                -75.503786,10.39173,0
                -75.503867,10.392213,0
                -75.50403,10.39315,0
                -75.50404,10.393201,0
                -75.504129,10.393637,0
                -75.504185,10.393945,0
                -75.504325,10.394813,0
                -75.504387,10.395021,0
                -75.504494,10.3956,0
                -75.504525,10.39587,0
                -75.504523,10.395995,0
                -75.504464,10.396197,0
                -75.504556,10.396286,0
                -75.504709,10.396402,0
                -75.505125,10.39672,0
                -75.505648,10.397113,0
                -75.5058,10.397223,0
                -75.505872,10.397273,0
                -75.505945,10.397303,0
                -75.506029,10.397321,0
                -75.506128,10.397333,0
                -75.506231,10.397335,0
                -75.50636,10.397326,0
                -75.506477,10.397331,0
              </coordinates>
            </LinearRing>
          </outerBoundaryIs>
        </Polygon>
      </Placemark>
      <Placemark>
        <name/>
        <description><![CDATA[Descripción: <br>Reg_Nom: Costa 350<br>Dominio: Cartagena<br>Region: 350<br>Zona: 626<br>Seccion: J<br>Zsec: 626J]]></description>
        <styleUrl>#poly-7CB342-3401-76</styleUrl>
        <ExtendedData>
          <Data name="Descripción">
            <value/>
          </Data>
          <Data name="Reg_Nom">
            <value>Costa 350</value>
          </Data>
          <Data name="Dominio">
            <value>Cartagena</value>
          </Data>
          <Data name="Region">
            <value>350</value>
          </Data>
          <Data name="Zona">
            <value>626</value>
          </Data>
          <Data name="Seccion">
            <value>J</value>
          </Data>
          <Data name="Zsec">
            <value>626J</value>
          </Data>
        </ExtendedData>
        <Polygon>
          <outerBoundaryIs>
            <LinearRing>
              <tessellate>1</tessellate>
              <coordinates>
                -75.519378,10.388675,0
                -75.519377,10.388671,0
                -75.51904,10.388659,0
                -75.518386,10.388636,0
                -75.517535,10.388593,0
                -75.51723,10.38856,0
                -75.516453,10.3885,0
                -75.515765,10.388474,0
                -75.514916,10.388442,0
                -75.514352,10.388355,0
                -75.513469,10.388161,0
                -75.513019,10.38807,0
                -75.512364,10.387912,0
                -75.511982,10.387803,0
                -75.511578,10.387656,0
                -75.511187,10.388629,0
                -75.511162,10.388732,0
                -75.51108,10.38901,0
                -75.510958,10.389348,0
                -75.51077,10.389759,0
                -75.510632,10.39011,0
                -75.510448,10.390685,0
                -75.510385,10.390895,0
                -75.51038,10.39095,0
                -75.510398,10.391083,0
                -75.510388,10.39115,0
                -75.510768,10.391361,0
                -75.510434,10.391929,0
                -75.51024,10.392258,0
                -75.510074,10.392572,0
                -75.509899,10.39288,0
                -75.50966,10.393335,0
                -75.509514,10.393546,0
                -75.509292,10.393855,0
                -75.509107,10.394142,0
                -75.50902,10.394353,0
                -75.50896,10.394523,0
                -75.508922,10.394759,0
                -75.508793,10.394885,0
                -75.508829,10.394926,0
                -75.508969,10.395082,0
                -75.50914,10.395313,0
                -75.509433,10.395712,0
                -75.509609,10.39595,0
                -75.509911,10.395694,0
                -75.510364,10.395303,0
                -75.510503,10.395184,0
                -75.510662,10.395225,0
                -75.510838,10.395281,0
                -75.510917,10.39572,0
                -75.51095,10.395826,0
                -75.511001,10.395993,0
                -75.511083,10.396157,0
                -75.511163,10.396251,0
                -75.511252,10.39629,0
                -75.511472,10.396344,0
                -75.511549,10.39635,0
                -75.511817,10.396326,0
                -75.511826,10.396208,0
                -75.511822,10.396176,0
                -75.511985,10.395941,0
                -75.512015,10.395897,0
                -75.512043,10.395825,0
                -75.512064,10.395779,0
                -75.512102,10.395715,0
                -75.512178,10.395594,0
                -75.512213,10.395276,0
                -75.512047,10.395291,0
                -75.512542,10.394459,0
                -75.512609,10.394342,0
                -75.51281,10.394067,0
                -75.512954,10.393779,0
                -75.512983,10.393714,0
                -75.513084,10.393479,0
                -75.513159,10.393356,0
                -75.513268,10.393359,0
                -75.513596,10.393379,0
                -75.513872,10.393394,0
                -75.514521,10.393391,0
                -75.51477,10.393393,0
                -75.514851,10.393374,0
                -75.514958,10.393353,0
                -75.515072,10.393355,0
                -75.515395,10.393368,0
                -75.516197,10.393395,0
                -75.516676,10.393412,0
                -75.516857,10.393415,0
                -75.51682,10.393298,0
                -75.518042,10.393335,0
                -75.519405,10.393382,0
                -75.52057,10.393449,0
                -75.520571,10.39342,0
                -75.520629,10.393458,0
                -75.522056,10.393517,0
                -75.522235,10.389472,0
                -75.522086,10.389026,0
                -75.52167,10.388788,0
                -75.520807,10.388699,0
                -75.519378,10.388675,0
              </coordinates>
            </LinearRing>
          </outerBoundaryIs>
        </Polygon>
      </Placemark>
    </Folder>
  </Document>
</kml>
