<?xml version="1.0" encoding="UTF-8"?>
<kml xmlns="http://www.opengis.net/kml/2.2">
  <Document>
    <name>Zona 620</name>
    <description/>
    <Style id="poly-0288D1-2301-76-normal">
      <LineStyle>
        <color>ffd18802</color>
        <width>2.301</width>
      </LineStyle>
      <PolyStyle>
        <color>4cd18802</color>
        <fill>1</fill>
        <outline>1</outline>
      </PolyStyle>
    </Style>
    <Style id="poly-0288D1-2301-76-highlight">
      <LineStyle>
        <color>ffd18802</color>
        <width>3.4515</width>
      </LineStyle>
      <PolyStyle>
        <color>4cd18802</color>
        <fill>1</fill>
        <outline>1</outline>
      </PolyStyle>
    </Style>
    <StyleMap id="poly-0288D1-2301-76">
      <Pair>
        <key>normal</key>
        <styleUrl>#poly-0288D1-2301-76-normal</styleUrl>
      </Pair>
      <Pair>
        <key>highlight</key>
        <styleUrl>#poly-0288D1-2301-76-highlight</styleUrl>
      </Pair>
    </StyleMap>
    <Style id="poly-7CB342-3001-76-normal">
      <LineStyle>
        <color>ff42b37c</color>
        <width>3.001</width>
      </LineStyle>
      <PolyStyle>
        <color>4c42b37c</color>
        <fill>1</fill>
        <outline>1</outline>
      </PolyStyle>
    </Style>
    <Style id="poly-7CB342-3001-76-highlight">
      <LineStyle>
        <color>ff42b37c</color>
        <width>4.5015</width>
      </LineStyle>
      <PolyStyle>
        <color>4c42b37c</color>
        <fill>1</fill>
        <outline>1</outline>
      </PolyStyle>
    </Style>
    <StyleMap id="poly-7CB342-3001-76">
      <Pair>
        <key>normal</key>
        <styleUrl>#poly-7CB342-3001-76-normal</styleUrl>
      </Pair>
      <Pair>
        <key>highlight</key>
        <styleUrl>#poly-7CB342-3001-76-highlight</styleUrl>
      </Pair>
    </StyleMap>
    <Style id="poly-9C27B0-3601-76-normal">
      <LineStyle>
        <color>ffb0279c</color>
        <width>3.601</width>
      </LineStyle>
      <PolyStyle>
        <color>4cb0279c</color>
        <fill>1</fill>
        <outline>1</outline>
      </PolyStyle>
    </Style>
    <Style id="poly-9C27B0-3601-76-highlight">
      <LineStyle>
        <color>ffb0279c</color>
        <width>5.4015</width>
      </LineStyle>
      <PolyStyle>
        <color>4cb0279c</color>
        <fill>1</fill>
        <outline>1</outline>
      </PolyStyle>
    </Style>
    <StyleMap id="poly-9C27B0-3601-76">
      <Pair>
        <key>normal</key>
        <styleUrl>#poly-9C27B0-3601-76-normal</styleUrl>
      </Pair>
      <Pair>
        <key>highlight</key>
        <styleUrl>#poly-9C27B0-3601-76-highlight</styleUrl>
      </Pair>
    </StyleMap>
    <Style id="poly-FF5252-2901-76-normal">
      <LineStyle>
        <color>ff5252ff</color>
        <width>2.901</width>
      </LineStyle>
      <PolyStyle>
        <color>4c5252ff</color>
        <fill>1</fill>
        <outline>1</outline>
      </PolyStyle>
    </Style>
    <Style id="poly-FF5252-2901-76-highlight">
      <LineStyle>
        <color>ff5252ff</color>
        <width>4.3515</width>
      </LineStyle>
      <PolyStyle>
        <color>4c5252ff</color>
        <fill>1</fill>
        <outline>1</outline>
      </PolyStyle>
    </Style>
    <StyleMap id="poly-FF5252-2901-76">
      <Pair>
        <key>normal</key>
        <styleUrl>#poly-FF5252-2901-76-normal</styleUrl>
      </Pair>
      <Pair>
        <key>highlight</key>
        <styleUrl>#poly-FF5252-2901-76-highlight</styleUrl>
      </Pair>
    </StyleMap>
    <Style id="poly-FFEA00-2801-59-normal">
      <LineStyle>
        <color>ff00eaff</color>
        <width>2.801</width>
      </LineStyle>
      <PolyStyle>
        <color>3b00eaff</color>
        <fill>1</fill>
        <outline>1</outline>
      </PolyStyle>
    </Style>
    <Style id="poly-FFEA00-2801-59-highlight">
      <LineStyle>
        <color>ff00eaff</color>
        <width>4.2015</width>
      </LineStyle>
      <PolyStyle>
        <color>3b00eaff</color>
        <fill>1</fill>
        <outline>1</outline>
      </PolyStyle>
    </Style>
    <StyleMap id="poly-FFEA00-2801-59">
      <Pair>
        <key>normal</key>
        <styleUrl>#poly-FFEA00-2801-59-normal</styleUrl>
      </Pair>
      <Pair>
        <key>highlight</key>
        <styleUrl>#poly-FFEA00-2801-59-highlight</styleUrl>
      </Pair>
    </StyleMap>
    <Folder>
      <name>VD620</name>
      <Placemark>
        <name/>
        <description><![CDATA[Descripción: <br>Reg_Nom: Costa 305<br>Dominio: Maicao<br>Region: 305<br>Zona: 620<br>Seccion: A<br>Zsec: 620A]]></description>
        <styleUrl>#poly-FFEA00-2801-59</styleUrl>
        <ExtendedData>
          <Data name="Descripción">
            <value/>
          </Data>
          <Data name="Reg_Nom">
            <value>Costa 305</value>
          </Data>
          <Data name="Dominio">
            <value>Maicao</value>
          </Data>
          <Data name="Region">
            <value>305</value>
          </Data>
          <Data name="Zona">
            <value>620</value>
          </Data>
          <Data name="Seccion">
            <value>A</value>
          </Data>
          <Data name="Zsec">
            <value>620A</value>
          </Data>
        </ExtendedData>
        <Polygon>
          <outerBoundaryIs>
            <LinearRing>
              <tessellate>1</tessellate>
              <coordinates>
                -72.211939,11.378991,0
                -72.211927,11.379019,0
                -72.205858,11.377944,0
                -72.205642,11.381053,0
                -72.205741,11.38104,0
                -72.206129,11.380925,0
                -72.206636,11.380833,0
                -72.207096,11.38074,0
                -72.207249,11.380601,0
                -72.207756,11.38074,0
                -72.207838,11.380659,0
                -72.207909,11.379689,0
                -72.208227,11.379689,0
                -72.208616,11.379585,0
                -72.208663,11.378742,0
                -72.212269,11.379331,0
                -72.211998,11.38029,0
                -72.212964,11.38044,0
                -72.212575,11.382473,0
                -72.212316,11.384252,0
                -72.212316,11.384372,0
                -72.212659,11.384218,0
                -72.213107,11.384005,0
                -72.213855,11.384715,0
                -72.214521,11.384758,0
                -72.214669,11.384946,0
                -72.215345,11.384999,0
                -72.215354,11.385115,0
                -72.215363,11.385231,0
                -72.215311,11.385348,0
                -72.21531,11.385365,0
                -72.215332,11.385643,0
                -72.215329,11.3858,0
                -72.215321,11.385856,0
                -72.215244,11.386047,0
                -72.215178,11.386186,0
                -72.215365,11.386189,0
                -72.215707,11.386194,0
                -72.215894,11.386203,0
                -72.216168,11.386212,0
                -72.216362,11.386224,0
                -72.216647,11.386309,0
                -72.216938,11.386384,0
                -72.217213,11.386439,0
                -72.217477,11.386375,0
                -72.217833,11.386192,0
                -72.218214,11.386336,0
                -72.218673,11.386142,0
                -72.218934,11.386014,0
                -72.219431,11.386033,0
                -72.219684,11.386117,0
                -72.22024,11.386425,0
                -72.220794,11.386552,0
                -72.22199,11.386621,0
                -72.222299,11.386727,0
                -72.222957,11.386737,0
                -72.223374,11.386711,0
                -72.223523,11.38715,0
                -72.223547,11.387702,0
                -72.223543,11.387991,0
                -72.223542,11.388086,0
                -72.222126,11.388229,0
                -72.222095,11.388232,0
                -72.222107,11.388317,0
                -72.222131,11.388477,0
                -72.2221,11.389498,0
                -72.222077,11.390204,0
                -72.222074,11.390293,0
                -72.222889,11.39023,0
                -72.224211,11.390034,0
                -72.224363,11.390991,0
                -72.225046,11.39088,0
                -72.225822,11.390786,0
                -72.226139,11.391168,0
                -72.226172,11.391307,0
                -72.226339,11.391554,0
                -72.226565,11.391848,0
                -72.226902,11.392319,0
                -72.227145,11.392637,0
                -72.227409,11.393004,0
                -72.227635,11.393289,0
                -72.227657,11.393316,0
                -72.227931,11.393669,0
                -72.227975,11.393736,0
                -72.228082,11.393848,0
                -72.228215,11.393986,0
                -72.228151,11.394076,0
                -72.228204,11.394045,0
                -72.229359,11.392659,0
                -72.229736,11.392359,0
                -72.230348,11.392035,0
                -72.230655,11.391781,0
                -72.230796,11.392081,0
                -72.231244,11.392151,0
                -72.231385,11.392451,0
                -72.231503,11.392636,0
                -72.233342,11.392197,0
                -72.233389,11.392636,0
                -72.23386,11.392705,0
                -72.233954,11.39326,0
                -72.233601,11.394299,0
                -72.233389,11.395085,0
                -72.234261,11.3949,0
                -72.234426,11.39527,0
                -72.234897,11.395108,0
                -72.235227,11.39587,0
                -72.235581,11.395732,0
                -72.235746,11.396956,0
                -72.237018,11.396864,0
                -72.238173,11.396771,0
                -72.238833,11.396517,0
                -72.239199,11.396433,0
                -72.239253,11.396375,0
                -72.239346,11.396348,0
                -72.239459,11.396336,0
                -72.239533,11.396354,0
                -72.239546,11.396358,0
                -72.239768,11.396358,0
                -72.23997,11.396299,0
                -72.240191,11.396261,0
                -72.240427,11.396181,0
                -72.240696,11.396117,0
                -72.240904,11.396057,0
                -72.2411,11.395984,0
                -72.241241,11.395928,0
                -72.241365,11.395879,0
                -72.241587,11.395793,0
                -72.241654,11.395767,0
                -72.241679,11.395702,0
                -72.241785,11.395636,0
                -72.24187,11.395603,0
                -72.242011,11.395594,0
                -72.242101,11.395553,0
                -72.242119,11.3955,0
                -72.242158,11.39547,0
                -72.242254,11.395447,0
                -72.242394,11.395456,0
                -72.242571,11.395496,0
                -72.242584,11.395511,0
                -72.242613,11.395561,0
                -72.242677,11.395646,0
                -72.242716,11.395693,0
                -72.242796,11.395763,0
                -72.242829,11.39576,0
                -72.242969,11.395736,0
                -72.243304,11.395675,0
                -72.243521,11.395603,0
                -72.243779,11.395468,0
                -72.244004,11.395314,0
                -72.244307,11.395147,0
                -72.24455,11.395006,0
                -72.244693,11.394928,0
                -72.244684,11.394855,0
                -72.244677,11.394845,0
                -72.244681,11.394829,0
                -72.244692,11.394807,0
                -72.244726,11.394789,0
                -72.244863,11.394771,0
                -72.245064,11.394757,0
                -72.245139,11.394763,0
                -72.245205,11.394806,0
                -72.245316,11.394908,0
                -72.24543,11.395036,0
                -72.245482,11.395077,0
                -72.2456,11.395101,0
                -72.245658,11.395103,0
                -72.245715,11.395091,0
                -72.245782,11.39506,0
                -72.245837,11.395016,0
                -72.245879,11.394945,0
                -72.245951,11.394724,0
                -72.246031,11.394531,0
                -72.246155,11.394344,0
                -72.246243,11.394212,0
                -72.246308,11.394156,0
                -72.246382,11.394086,0
                -72.24646,11.394027,0
                -72.24655,11.393994,0
                -72.246613,11.393992,0
                -72.246642,11.394004,0
                -72.246667,11.394031,0
                -72.246697,11.394106,0
                -72.246711,11.394143,0
                -72.246736,11.394176,0
                -72.246774,11.394197,0
                -72.246821,11.394203,0
                -72.24689,11.394203,0
                -72.24694,11.39419,0
                -72.247039,11.394156,0
                -72.247081,11.394143,0
                -72.247119,11.394143,0
                -72.24717,11.394146,0
                -72.247216,11.394159,0
                -72.247251,11.394171,0
                -72.247316,11.394175,0
                -72.247413,11.394174,0
                -72.247511,11.394175,0
                -72.247566,11.394171,0
                -72.247601,11.394163,0
                -72.247655,11.394094,0
                -72.247685,11.394057,0
                -72.247695,11.394035,0
                -72.247698,11.394004,0
                -72.247705,11.393989,0
                -72.24774,11.393959,0
                -72.24777,11.393923,0
                -72.247787,11.39389,0
                -72.247804,11.393839,0
                -72.247809,11.393804,0
                -72.24782,11.393775,0
                -72.247834,11.393739,0
                -72.247848,11.393723,0
                -72.247904,11.393691,0
                -72.247906,11.393675,0
                -72.247898,11.393662,0
                -72.247895,11.393639,0
                -72.247913,11.39357,0
                -72.247925,11.393549,0
                -72.247941,11.393529,0
                -72.247946,11.393513,0
                -72.247937,11.393457,0
                -72.247931,11.393412,0
                -72.247935,11.393375,0
                -72.24795,11.39334,0
                -72.247979,11.393285,0
                -72.247986,11.393264,0
                -72.247982,11.393205,0
                -72.247982,11.393178,0
                -72.247989,11.393167,0
                -72.248014,11.393149,0
                -72.248044,11.393128,0
                -72.248065,11.3931,0
                -72.248076,11.393069,0
                -72.248076,11.393042,0
                -72.248067,11.392994,0
                -72.248042,11.392894,0
                -72.248,11.392798,0
                -72.247988,11.392771,0
                -72.247949,11.392713,0
                -72.247917,11.392674,0
                -72.247894,11.392652,0
                -72.247878,11.392612,0
                -72.247862,11.392578,0
                -72.247853,11.392548,0
                -72.247851,11.392526,0
                -72.247852,11.392526,0
                -72.24788,11.392509,0
                -72.247922,11.392465,0
                -72.247937,11.392431,0
                -72.247984,11.392396,0
                -72.248055,11.392361,0
                -72.248145,11.392295,0
                -72.248209,11.39221,0
                -72.248274,11.392155,0
                -72.24831,11.392132,0
                -72.248389,11.392117,0
                -72.248432,11.392092,0
                -72.248466,11.392079,0
                -72.248556,11.392085,0
                -72.248693,11.392063,0
                -72.24876,11.392021,0
                -72.248835,11.391987,0
                -72.248856,11.391973,0
                -72.248983,11.39197,0
                -72.249167,11.392009,0
                -72.249415,11.391993,0
                -72.249611,11.392026,0
                -72.249992,11.392065,0
                -72.250153,11.392084,0
                -72.250443,11.392077,0
                -72.250731,11.392123,0
                -72.250908,11.392128,0
                -72.251129,11.392087,0
                -72.251417,11.392088,0
                -72.251529,11.392201,0
                -72.251714,11.392331,0
                -72.252124,11.392517,0
                -72.252194,11.392585,0
                -72.252312,11.392651,0
                -72.252322,11.392927,0
                -72.252353,11.393038,0
                -72.252369,11.393353,0
                -72.252389,11.393669,0
                -72.252424,11.394095,0
                -72.252491,11.394558,0
                -72.252467,11.394768,0
                -72.252495,11.395051,0
                -72.252769,11.395015,0
                -72.25293,11.39501,0
                -72.253031,11.395086,0
                -72.253068,11.395095,0
                -72.253163,11.395092,0
                -72.25319,11.395091,0
                -72.253315,11.394933,0
                -72.25357,11.394613,0
                -72.253757,11.394384,0
                -72.253833,11.394281,0
                -72.253964,11.394088,0
                -72.25408,11.39388,0
                -72.254136,11.393585,0
                -72.254184,11.393324,0
                -72.254206,11.393217,0
                -72.254227,11.393125,0
                -72.25423,11.393059,0
                -72.254222,11.392981,0
                -72.254189,11.392817,0
                -72.254116,11.39258,0
                -72.254086,11.392444,0
                -72.254069,11.392277,0
                -72.254028,11.392066,0
                -72.253987,11.391921,0
                -72.253937,11.391825,0
                -72.253817,11.391611,0
                -72.25372,11.391438,0
                -72.253649,11.391256,0
                -72.253596,11.391033,0
                -72.253571,11.390946,0
                -72.25397,11.390688,0
                -72.254272,11.390418,0
                -72.254382,11.390329,0
                -72.254594,11.390259,0
                -72.254768,11.390247,0
                -72.255038,11.390234,0
                -72.255209,11.390212,0
                -72.255371,11.39018,0
                -72.255786,11.390121,0
                -72.255949,11.390095,0
                -72.256129,11.390068,0
                -72.256221,11.390079,0
                -72.25634,11.390084,0
                -72.256561,11.39007,0
                -72.256683,11.390074,0
                -72.256731,11.390085,0
                -72.256847,11.390109,0
                -72.256902,11.390108,0
                -72.256964,11.39009,0
                -72.256996,11.39007,0
                -72.25706,11.390036,0
                -72.25715,11.390022,0
                -72.257294,11.39001,0
                -72.257421,11.389997,0
                -72.257523,11.389979,0
                -72.25762,11.389967,0
                -72.257758,11.389958,0
                -72.257863,11.389944,0
                -72.258077,11.389918,0
                -72.258277,11.389892,0
                -72.258345,11.389862,0
                -72.258464,11.389843,0
                -72.258625,11.389822,0
                -72.258787,11.389793,0
                -72.258933,11.389759,0
                -72.258976,11.389736,0
                -72.25903,11.389704,0
                -72.259122,11.389708,0
                -72.259291,11.389686,0
                -72.259507,11.389657,0
                -72.259821,11.389647,0
                -72.259937,11.389633,0
                -72.26012,11.389593,0
                -72.260249,11.389577,0
                -72.260272,11.38958,0
                -72.260275,11.389611,0
                -72.260283,11.389671,0
                -72.260303,11.389731,0
                -72.260319,11.389786,0
                -72.260351,11.389847,0
                -72.260385,11.389916,0
                -72.260435,11.390027,0
                -72.260481,11.390136,0
                -72.260506,11.390305,0
                -72.260517,11.390398,0
                -72.260535,11.390449,0
                -72.260572,11.390522,0
                -72.260647,11.39065,0
                -72.260743,11.390814,0
                -72.260821,11.390928,0
                -72.260865,11.390955,0
                -72.260934,11.390968,0
                -72.261033,11.390979,0
                -72.261112,11.390937,0
                -72.261179,11.390916,0
                -72.261318,11.390907,0
                -72.261422,11.390857,0
                -72.261524,11.390807,0
                -72.261553,11.390796,0
                -72.261644,11.390783,0
                -72.261695,11.390769,0
                -72.261745,11.390747,0
                -72.261804,11.390733,0
                -72.261881,11.390716,0
                -72.261923,11.390703,0
                -72.261834,11.389835,0
                -72.261781,11.38946,0
                -72.261721,11.388998,0
                -72.261684,11.388411,0
                -72.261634,11.388008,0
                -72.261618,11.387823,0
                -72.261615,11.387765,0
                -72.261609,11.38766,0
                -72.261763,11.38769,0
                -72.262179,11.387674,0
                -72.262574,11.387671,0
                -72.263058,11.387627,0
                -72.263369,11.387602,0
                -72.263682,11.387606,0
                -72.263904,11.387592,0
                -72.264139,11.38756,0
                -72.264343,11.38757,0
                -72.264493,11.387561,0
                -72.264621,11.387556,0
                -72.26476,11.387596,0
                -72.265026,11.387743,0
                -72.265187,11.387816,0
                -72.265343,11.387877,0
                -72.265492,11.387911,0
                -72.265642,11.387909,0
                -72.265795,11.387879,0
                -72.265892,11.387875,0
                -72.266118,11.387933,0
                -72.266305,11.387919,0
                -72.266903,11.387783,0
                -72.267455,11.387655,0
                -72.267614,11.387692,0
                -72.267815,11.387726,0
                -72.267987,11.387722,0
                -72.268174,11.387683,0
                -72.26832,11.387677,0
                -72.268424,11.387653,0
                -72.268558,11.387589,0
                -72.26858,11.387563,0
                -72.268624,11.387492,0
                -72.268669,11.387486,0
                -72.268706,11.387789,0
                -72.268716,11.387792,0
                -72.270602,11.388173,0
                -72.270628,11.388173,0
                -72.270645,11.388173,0
                -72.270721,11.388188,0
                -72.270814,11.38825,0
                -72.270928,11.388187,0
                -72.270996,11.388168,0
                -72.27114,11.388164,0
                -72.271232,11.388135,0
                -72.271309,11.388107,0
                -72.271397,11.388044,0
                -72.27149,11.387943,0
                -72.271619,11.387885,0
                -72.271864,11.387826,0
                -72.27203,11.387801,0
                -72.272174,11.387812,0
                -72.272305,11.387821,0
                -72.272435,11.387838,0
                -72.272557,11.387845,0
                -72.272608,11.387862,0
                -72.272698,11.387884,0
                -72.27278,11.387892,0
                -72.272896,11.387912,0
                -72.272987,11.387921,0
                -72.273059,11.387935,0
                -72.273154,11.387944,0
                -72.273241,11.387945,0
                -72.273284,11.387933,0
                -72.27333,11.387893,0
                -72.273398,11.387843,0
                -72.273447,11.387807,0
                -72.273507,11.387793,0
                -72.273592,11.38777,0
                -72.273754,11.387754,0
                -72.273829,11.387741,0
                -72.273933,11.387721,0
                -72.274008,11.387705,0
                -72.274135,11.387708,0
                -72.274174,11.387688,0
                -72.274239,11.387676,0
                -72.274341,11.387668,0
                -72.274411,11.387688,0
                -72.274498,11.387725,0
                -72.274545,11.387725,0
                -72.27458,11.387713,0
                -72.274621,11.387695,0
                -72.274658,11.387695,0
                -72.274695,11.387713,0
                -72.274752,11.387732,0
                -72.274804,11.38774,0
                -72.274852,11.387743,0
                -72.274914,11.387734,0
                -72.275071,11.387739,0
                -72.275145,11.387747,0
                -72.275223,11.387776,0
                -72.2753,11.387784,0
                -72.275383,11.387792,0
                -72.275445,11.387779,0
                -72.275495,11.38778,0
                -72.275605,11.38797,0
                -72.275714,11.388163,0
                -72.275721,11.388169,0
                -72.275714,11.388193,0
                -72.275681,11.388288,0
                -72.275664,11.388317,0
                -72.275669,11.388322,0
                -72.275827,11.388312,0
                -72.276009,11.388324,0
                -72.276141,11.388338,0
                -72.276322,11.388371,0
                -72.276372,11.388373,0
                -72.276398,11.388363,0
                -72.27646,11.38838,0
                -72.276609,11.388425,0
                -72.276718,11.388478,0
                -72.276795,11.388509,0
                -72.276902,11.388545,0
                -72.277031,11.388587,0
                -72.277129,11.388628,0
                -72.277195,11.388668,0
                -72.277268,11.388719,0
                -72.277364,11.388778,0
                -72.277403,11.388803,0
                -72.277589,11.38886,0
                -72.277692,11.388881,0
                -72.277804,11.388895,0
                -72.277872,11.388893,0
                -72.277964,11.388836,0
                -72.27811,11.38874,0
                -72.278201,11.388683,0
                -72.278292,11.388637,0
                -72.278339,11.388572,0
                -72.278361,11.388554,0
                -72.27841,11.38854,0
                -72.278447,11.388532,0
                -72.27852,11.388502,0
                -72.278528,11.388506,0
                -72.278571,11.388522,0
                -72.278611,11.388531,0
                -72.278658,11.388537,0
                -72.278707,11.388547,0
                -72.278756,11.38857,0
                -72.278791,11.388571,0
                -72.278813,11.388562,0
                -72.278847,11.388539,0
                -72.278884,11.388514,0
                -72.278911,11.388513,0
                -72.278961,11.388521,0
                -72.278995,11.388533,0
                -72.279057,11.388591,0
                -72.279245,11.388612,0
                -72.279901,11.388662,0
                -72.28002,11.388658,0
                -72.280122,11.388596,0
                -72.280126,11.388596,0
                -72.280158,11.388557,0
                -72.280272,11.388551,0
                -72.280437,11.388777,0
                -72.280486,11.388823,0
                -72.281011,11.389113,0
                -72.281326,11.389041,0
                -72.281787,11.388824,0
                -72.282321,11.388826,0
                -72.282351,11.388561,0
                -72.282403,11.388337,0
                -72.28239,11.388252,0
                -72.282333,11.388197,0
                -72.2822,11.388131,0
                -72.282067,11.388071,0
                -72.28201,11.388005,0
                -72.281905,11.387802,0
                -72.281834,11.387667,0
                -72.281826,11.387585,0
                -72.281869,11.387346,0
                -72.281929,11.387234,0
                -72.281945,11.387169,0
                -72.281941,11.387128,0
                -72.281924,11.387065,0
                -72.281916,11.387009,0
                -72.281923,11.386716,0
                -72.281935,11.386591,0
                -72.281963,11.386512,0
                -72.281976,11.386417,0
                -72.281972,11.386376,0
                -72.281943,11.386213,0
                -72.280894,11.385977,0
                -72.279982,11.385775,0
                -72.279605,11.385695,0
                -72.279419,11.385655,0
                -72.279402,11.385653,0
                -72.279304,11.385631,0
                -72.279092,11.385647,0
                -72.267923,11.383093,0
                -72.257796,11.380828,0
                -72.251474,11.379414,0
                -72.248903,11.378904,0
                -72.24859,11.378904,0
                -72.23902,11.380709,0
                -72.229761,11.382343,0
                -72.229223,11.382309,0
                -72.228563,11.382173,0
                -72.224759,11.381458,0
                -72.219305,11.380453,0
                -72.211957,11.37904,0
                -72.211939,11.378991,0
              </coordinates>
            </LinearRing>
          </outerBoundaryIs>
        </Polygon>
      </Placemark>
      <Placemark>
        <name/>
        <description><![CDATA[Descripción: <br>Reg_Nom: Costa 305<br>Dominio: Uribia<br>Region: 305<br>Zona: 620<br>Seccion: C<br>Zsec: 620C]]></description>
        <styleUrl>#poly-FF5252-2901-76</styleUrl>
        <ExtendedData>
          <Data name="Descripción">
            <value/>
          </Data>
          <Data name="Reg_Nom">
            <value>Costa 305</value>
          </Data>
          <Data name="Dominio">
            <value>Uribia</value>
          </Data>
          <Data name="Region">
            <value>305</value>
          </Data>
          <Data name="Zona">
            <value>620</value>
          </Data>
          <Data name="Seccion">
            <value>C</value>
          </Data>
          <Data name="Zsec">
            <value>620C</value>
          </Data>
        </ExtendedData>
        <Polygon>
          <outerBoundaryIs>
            <LinearRing>
              <tessellate>1</tessellate>
              <coordinates>
                -72.271857,11.71815,0
                -72.273369,11.717942,0
                -72.273504,11.718898,0
                -72.274144,11.718733,0
                -72.274413,11.719657,0
                -72.275255,11.719525,0
                -72.27539,11.718964,0
                -72.277781,11.718997,0
                -72.277882,11.718502,0
                -72.278253,11.718436,0
                -72.278825,11.71715,0
                -72.278556,11.716557,0
                -72.278152,11.716095,0
                -72.275065,11.716033,0
                -72.275061,11.715903,0
                -72.274167,11.715848,0
                -72.27396,11.71584,0
                -72.273747,11.715859,0
                -72.273619,11.715792,0
                -72.273122,11.71561,0
                -72.273096,11.7156,0
                -72.273699,11.714126,0
                -72.273668,11.714114,0
                -72.273379,11.714028,0
                -72.276535,11.706333,0
                -72.276195,11.706277,0
                -72.276202,11.706258,0
                -72.274735,11.706059,0
                -72.274701,11.706271,0
                -72.274166,11.706246,0
                -72.274234,11.705917,0
                -72.273816,11.705741,0
                -72.27377,11.706227,0
                -72.273144,11.706127,0
                -72.273259,11.705421,0
                -72.272507,11.70513,0
                -72.271205,11.705026,0
                -72.271201,11.705026,0
                -72.271104,11.705163,0
                -72.270241,11.70492,0
                -72.2702,11.704915,0
                -72.269435,11.704814,0
                -72.268987,11.705692,0
                -72.268764,11.705639,0
                -72.26853,11.705607,0
                -72.268505,11.705563,0
                -72.267979,11.704818,0
                -72.267382,11.704069,0
                -72.267328,11.704069,0
                -72.267365,11.705076,0
                -72.267319,11.70509,0
                -72.267035,11.70527,0
                -72.264827,11.705126,0
                -72.264563,11.705796,0
                -72.264309,11.705782,0
                -72.264072,11.706538,0
                -72.264343,11.706602,0
                -72.264197,11.707394,0
                -72.264031,11.707359,0
                -72.26404,11.707454,0
                -72.26377,11.708576,0
                -72.263437,11.709328,0
                -72.263472,11.709437,0
                -72.263578,11.709851,0
                -72.263629,11.71007,0
                -72.263629,11.710107,0
                -72.263481,11.710091,0
                -72.263016,11.710093,0
                -72.262647,11.709992,0
                -72.262568,11.709961,0
                -72.262558,11.709961,0
                -72.26212,11.709829,0
                -72.261952,11.709664,0
                -72.261514,11.709136,0
                -72.261177,11.708905,0
                -72.260941,11.708576,0
                -72.260503,11.707685,0
                -72.260303,11.707647,0
                -72.259628,11.70752,0
                -72.258112,11.709532,0
                -72.255855,11.713292,0
                -72.254205,11.715897,0
                -72.25279,11.71837,0
                -72.252049,11.719953,0
                -72.252824,11.720547,0
                -72.254778,11.72213,0
                -72.256428,11.722987,0
                -72.258091,11.723437,0
                -72.259378,11.723921,0
                -72.261625,11.724679,0
                -72.261994,11.724739,0
                -72.262238,11.724798,0
                -72.262745,11.724921,0
                -72.263476,11.725075,0
                -72.264165,11.725408,0
                -72.264391,11.725428,0
                -72.264985,11.72548,0
                -72.265832,11.725189,0
                -72.26647,11.724837,0
                -72.267039,11.724588,0
                -72.267046,11.724585,0
                -72.268745,11.723848,0
                -72.268792,11.723843,0
                -72.26903,11.72382,0
                -72.269056,11.723746,0
                -72.269125,11.723746,0
                -72.269597,11.723416,0
                -72.271857,11.71815,0
              </coordinates>
            </LinearRing>
          </outerBoundaryIs>
        </Polygon>
      </Placemark>
      <Placemark>
        <name/>
        <description><![CDATA[Descripción: <br>Reg_Nom: Costa 305<br>Dominio: Manaure<br>Region: 305<br>Zona: 620<br>Seccion: D<br>Zsec: 620D]]></description>
        <styleUrl>#poly-7CB342-3001-76</styleUrl>
        <ExtendedData>
          <Data name="Descripción">
            <value/>
          </Data>
          <Data name="Reg_Nom">
            <value>Costa 305</value>
          </Data>
          <Data name="Dominio">
            <value>Manaure</value>
          </Data>
          <Data name="Region">
            <value>305</value>
          </Data>
          <Data name="Zona">
            <value>620</value>
          </Data>
          <Data name="Seccion">
            <value>D</value>
          </Data>
          <Data name="Zsec">
            <value>620D</value>
          </Data>
        </ExtendedData>
        <Polygon>
          <outerBoundaryIs>
            <LinearRing>
              <tessellate>1</tessellate>
              <coordinates>
                -72.430312,11.767473,0
                -72.430157,11.768041,0
                -72.430157,11.770222,0
                -72.429831,11.774795,0
                -72.430023,11.780249,0
                -72.430102,11.782482,0
                -72.434869,11.782054,0
                -72.435644,11.781576,0
                -72.436649,11.780871,0
                -72.437966,11.7801,0
                -72.438129,11.780007,0
                -72.438129,11.779901,0
                -72.439134,11.779754,0
                -72.439161,11.779568,0
                -72.439487,11.779525,0
                -72.441008,11.779259,0
                -72.442122,11.779339,0
                -72.44329,11.779711,0
                -72.445789,11.779259,0
                -72.449727,11.778461,0
                -72.450189,11.778461,0
                -72.450895,11.778515,0
                -72.452525,11.778621,0
                -72.453348,11.778557,0
                -72.453404,11.778553,0
                -72.454236,11.778488,0
                -72.454282,11.778488,0
                -72.454651,11.778488,0
                -72.455081,11.778488,0
                -72.456246,11.778488,0
                -72.457169,11.778195,0
                -72.457522,11.77785,0
                -72.458138,11.777378,0
                -72.458025,11.777347,0
                -72.457694,11.777268,0
                -72.457426,11.777184,0
                -72.45732,11.777124,0
                -72.457271,11.777036,0
                -72.457249,11.776809,0
                -72.456938,11.77671,0
                -72.456924,11.776634,0
                -72.45682,11.776574,0
                -72.456795,11.776568,0
                -72.456725,11.77655,0
                -72.456715,11.776548,0
                -72.456664,11.776529,0
                -72.456421,11.776511,0
                -72.456414,11.776612,0
                -72.45623,11.776587,0
                -72.456137,11.776552,0
                -72.456131,11.776129,0
                -72.456043,11.776005,0
                -72.456033,11.775981,0
                -72.456016,11.775941,0
                -72.455999,11.775901,0
                -72.455989,11.775879,0
                -72.455234,11.775959,0
                -72.455192,11.775963,0
                -72.455146,11.775968,0
                -72.455085,11.775974,0
                -72.451977,11.776256,0
                -72.451925,11.776261,0
                -72.451717,11.776338,0
                -72.451408,11.776526,0
                -72.451346,11.776564,0
                -72.451326,11.776539,0
                -72.45109,11.776241,0
                -72.451029,11.77614,0
                -72.45083,11.775815,0
                -72.450826,11.775808,0
                -72.450761,11.775689,0
                -72.450403,11.775038,0
                -72.45016,11.774525,0
                -72.450028,11.774227,0
                -72.449778,11.773775,0
                -72.449543,11.773383,0
                -72.449437,11.773047,0
                -72.449424,11.773004,0
                -72.449326,11.772531,0
                -72.449332,11.772436,0
                -72.449346,11.77224,0
                -72.449353,11.772135,0
                -72.449355,11.772104,0
                -72.449358,11.772057,0
                -72.449384,11.771688,0
                -72.449445,11.771355,0
                -72.449469,11.771226,0
                -72.449485,11.771136,0
                -72.449625,11.770374,0
                -72.449637,11.770172,0
                -72.449511,11.769863,0
                -72.449491,11.769814,0
                -72.44928,11.769929,0
                -72.448801,11.770189,0
                -72.448701,11.770243,0
                -72.448671,11.769693,0
                -72.448447,11.769498,0
                -72.448449,11.768898,0
                -72.450583,11.767137,0
                -72.452484,11.765861,0
                -72.453462,11.765329,0
                -72.453043,11.765046,0
                -72.452755,11.76485,0
                -72.446834,11.763521,0
                -72.446128,11.763308,0
                -72.444335,11.764797,0
                -72.442271,11.765489,0
                -72.441402,11.766233,0
                -72.432596,11.760948,0
                -72.432276,11.760755,0
                -72.431515,11.760383,0
                -72.431569,11.764797,0
                -72.431569,11.765063,0
                -72.431461,11.765169,0
                -72.431243,11.765276,0
                -72.430972,11.765382,0
                -72.430646,11.765489,0
                -72.430483,11.765595,0
                -72.430483,11.76567,0
                -72.430317,11.765644,0
                -72.430228,11.766471,0
                -72.430215,11.766588,0
                -72.430148,11.767444,0
                -72.430312,11.767473,0
              </coordinates>
            </LinearRing>
          </outerBoundaryIs>
        </Polygon>
      </Placemark>
      <Placemark>
        <name/>
        <description><![CDATA[Descripción: <br>Reg_Nom: Costa 305<br>Dominio: Maicao<br>Region: 305<br>Zona: 620<br>Seccion: B<br>Zsec: 620B]]></description>
        <styleUrl>#poly-0288D1-2301-76</styleUrl>
        <ExtendedData>
          <Data name="Descripción">
            <value/>
          </Data>
          <Data name="Reg_Nom">
            <value>Costa 305</value>
          </Data>
          <Data name="Dominio">
            <value>Maicao</value>
          </Data>
          <Data name="Region">
            <value>305</value>
          </Data>
          <Data name="Zona">
            <value>620</value>
          </Data>
          <Data name="Seccion">
            <value>B</value>
          </Data>
          <Data name="Zsec">
            <value>620B</value>
          </Data>
        </ExtendedData>
        <Polygon>
          <outerBoundaryIs>
            <LinearRing>
              <tessellate>1</tessellate>
              <coordinates>
                -72.279304,11.385631,0
                -72.279252,11.385619,0
                -72.279332,11.385583,0
                -72.27935,11.385579,0
                -72.279397,11.385554,0
                -72.279502,11.385531,0
                -72.279536,11.385524,0
                -72.279654,11.385453,0
                -72.279704,11.385354,0
                -72.279754,11.38505,0
                -72.279949,11.384034,0
                -72.280011,11.383565,0
                -72.280025,11.383456,0
                -72.279995,11.38341,0
                -72.27989,11.383401,0
                -72.279738,11.383409,0
                -72.278789,11.38344,0
                -72.278172,11.383522,0
                -72.278092,11.383525,0
                -72.278058,11.383536,0
                -72.278043,11.383539,0
                -72.27802,11.383564,0
                -72.278004,11.383624,0
                -72.27798,11.3837,0
                -72.277777,11.383685,0
                -72.276572,11.383601,0
                -72.276535,11.383364,0
                -72.276465,11.382923,0
                -72.276319,11.381888,0
                -72.276236,11.381333,0
                -72.276193,11.381117,0
                -72.276063,11.380932,0
                -72.275998,11.380773,0
                -72.275948,11.380385,0
                -72.275944,11.380254,0
                -72.27577,11.38029,0
                -72.275169,11.380232,0
                -72.274645,11.38017,0
                -72.274218,11.380076,0
                -72.273789,11.380059,0
                -72.273362,11.380032,0
                -72.273091,11.379998,0
                -72.272832,11.380012,0
                -72.272332,11.380087,0
                -72.271862,11.380168,0
                -72.271861,11.380169,0
                -72.271861,11.380164,0
                -72.271898,11.379952,0
                -72.271911,11.379776,0
                -72.271903,11.37965,0
                -72.271897,11.379553,0
                -72.27207,11.379317,0
                -72.27217,11.379154,0
                -72.272255,11.378942,0
                -72.272259,11.37893,0
                -72.27226,11.378886,0
                -72.272264,11.37872,0
                -72.272264,11.378709,0
                -72.272247,11.378602,0
                -72.272244,11.378596,0
                -72.272235,11.378534,0
                -72.272259,11.378435,0
                -72.272301,11.378365,0
                -72.272313,11.378322,0
                -72.272313,11.378296,0
                -72.272313,11.378275,0
                -72.272302,11.378232,0
                -72.272253,11.378161,0
                -72.272017,11.377923,0
                -72.271918,11.377779,0
                -72.271832,11.377575,0
                -72.271812,11.377501,0
                -72.271808,11.377487,0
                -72.27174,11.377243,0
                -72.271668,11.376914,0
                -72.271672,11.376684,0
                -72.271665,11.376623,0
                -72.271648,11.376573,0
                -72.27163,11.376527,0
                -72.271626,11.376492,0
                -72.271567,11.375955,0
                -72.271564,11.375933,0
                -72.271644,11.375913,0
                -72.271661,11.375597,0
                -72.271666,11.375561,0
                -72.271935,11.374952,0
                -72.271979,11.374827,0
                -72.271968,11.374743,0
                -72.271929,11.374449,0
                -72.271924,11.374413,0
                -72.272058,11.374286,0
                -72.271942,11.3743,0
                -72.271809,11.374261,0
                -72.27177,11.37423,0
                -72.271747,11.374212,0
                -72.271642,11.374207,0
                -72.271535,11.3742,0
                -72.27148,11.37417,0
                -72.271371,11.374154,0
                -72.271271,11.374109,0
                -72.271142,11.374081,0
                -72.270943,11.374012,0
                -72.270674,11.373829,0
                -72.27039,11.37369,0
                -72.270297,11.373574,0
                -72.270166,11.373178,0
                -72.270135,11.373022,0
                -72.270114,11.372917,0
                -72.270109,11.372909,0
                -72.270055,11.372834,0
                -72.26999,11.372801,0
                -72.269961,11.372793,0
                -72.269925,11.372795,0
                -72.269888,11.372778,0
                -72.269839,11.372726,0
                -72.269822,11.372658,0
                -72.269816,11.372385,0
                -72.269771,11.372212,0
                -72.26964,11.371975,0
                -72.27061,11.371508,0
                -72.270083,11.37027,0
                -72.271107,11.369831,0
                -72.270918,11.369451,0
                -72.271495,11.369168,0
                -72.270789,11.367648,0
                -72.270192,11.367892,0
                -72.270162,11.367784,0
                -72.269069,11.368262,0
                -72.269158,11.368584,0
                -72.268293,11.369003,0
                -72.268442,11.369324,0
                -72.267629,11.369718,0
                -72.267617,11.369724,0
                -72.268234,11.370991,0
                -72.2671,11.371381,0
                -72.266981,11.371225,0
                -72.266762,11.371176,0
                -72.266762,11.370903,0
                -72.266752,11.37065,0
                -72.266563,11.370738,0
                -72.266424,11.370621,0
                -72.266225,11.370377,0
                -72.266134,11.370312,0
                -72.265988,11.370146,0
                -72.265778,11.369793,0
                -72.265482,11.369427,0
                -72.265238,11.369156,0
                -72.265116,11.36905,0
                -72.265099,11.369035,0
                -72.264568,11.368761,0
                -72.264437,11.368693,0
                -72.26432,11.368206,0
                -72.264183,11.367958,0
                -72.264059,11.367651,0
                -72.263674,11.367981,0
                -72.259538,11.370788,0
                -72.258444,11.37034,0
                -72.257251,11.368235,0
                -72.256357,11.366597,0
                -72.2558,11.365388,0
                -72.255601,11.365057,0
                -72.254537,11.364842,0
                -72.254448,11.364882,0
                -72.251763,11.364882,0
                -72.251366,11.362406,0
                -72.251366,11.361841,0
                -72.248323,11.362289,0
                -72.248085,11.363088,0
                -72.24723,11.363244,0
                -72.246812,11.362815,0
                -72.246474,11.362796,0
                -72.246335,11.363108,0
                -72.246494,11.363459,0
                -72.246474,11.363751,0
                -72.246256,11.363907,0
                -72.24544,11.364063,0
                -72.245102,11.364063,0
                -72.244605,11.36264,0
                -72.242915,11.362152,0
                -72.241642,11.361509,0
                -72.240986,11.360671,0
                -72.242338,11.360125,0
                -72.242159,11.359345,0
                -72.242148,11.359295,0
                -72.242134,11.359304,0
                -72.242057,11.35903,0
                -72.241259,11.359132,0
                -72.240427,11.359267,0
                -72.240117,11.359384,0
                -72.24,11.359546,0
                -72.239923,11.359459,0
                -72.239886,11.359444,0
                -72.23981,11.359476,0
                -72.23937,11.35962,0
                -72.239289,11.359632,0
                -72.239071,11.359569,0
                -72.238772,11.359475,0
                -72.238531,11.35946,0
                -72.238317,11.359478,0
                -72.238221,11.359486,0
                -72.238251,11.359647,0
                -72.238351,11.359973,0
                -72.238421,11.360028,0
                -72.239058,11.360612,0
                -72.239336,11.361158,0
                -72.239455,11.361958,0
                -72.239515,11.363283,0
                -72.23699,11.363439,0
                -72.236393,11.363439,0
                -72.236194,11.363556,0
                -72.236174,11.363751,0
                -72.236095,11.363985,0
                -72.235816,11.363907,0
                -72.235458,11.363712,0
                -72.233669,11.363595,0
                -72.23349,11.363283,0
                -72.233112,11.363244,0
                -72.232436,11.3634,0
                -72.232118,11.363692,0
                -72.231541,11.36379,0
                -72.230647,11.363654,0
                -72.230527,11.363459,0
                -72.230551,11.363398,0
                -72.230368,11.363439,0
                -72.229931,11.363478,0
                -72.229772,11.364063,0
                -72.228638,11.36416,0
                -72.228559,11.364511,0
                -72.227664,11.364765,0
                -72.227127,11.364765,0
                -72.226491,11.365057,0
                -72.22486,11.365369,0
                -72.224065,11.364882,0
                -72.223687,11.364648,0
                -72.223309,11.364472,0
                -72.22314,11.364517,0
                -72.223139,11.364578,0
                -72.223098,11.365005,0
                -72.22268,11.365022,0
                -72.222157,11.365121,0
                -72.221368,11.365296,0
                -72.221284,11.365314,0
                -72.220915,11.365411,0
                -72.220789,11.365444,0
                -72.220737,11.36559,0
                -72.220719,11.365868,0
                -72.220734,11.36607,0
                -72.220836,11.366367,0
                -72.221076,11.366837,0
                -72.221101,11.366876,0
                -72.221192,11.367015,0
                -72.221131,11.367044,0
                -72.221331,11.367304,0
                -72.222226,11.367998,0
                -72.222981,11.368645,0
                -72.223499,11.369107,0
                -72.22463,11.370031,0
                -72.223923,11.370863,0
                -72.22397,11.371648,0
                -72.224489,11.374929,0
                -72.221189,11.375669,0
                -72.217843,11.376547,0
                -72.217701,11.377332,0
                -72.216476,11.377471,0
                -72.215651,11.37769,0
                -72.214237,11.377667,0
                -72.214025,11.376454,0
                -72.212387,11.376396,0
                -72.212481,11.377748,0
                -72.211939,11.378991,0
                -72.211957,11.37904,0
                -72.219305,11.380453,0
                -72.224759,11.381458,0
                -72.228563,11.382173,0
                -72.229223,11.382309,0
                -72.229761,11.382343,0
                -72.23902,11.380709,0
                -72.24859,11.378904,0
                -72.248903,11.378904,0
                -72.251474,11.379414,0
                -72.257796,11.380828,0
                -72.267923,11.383093,0
                -72.279092,11.385647,0
                -72.279304,11.385631,0
              </coordinates>
            </LinearRing>
          </outerBoundaryIs>
        </Polygon>
      </Placemark>
      <Placemark>
        <name/>
        <description><![CDATA[Descripción: <br>Reg_Nom: Costa 305<br>Dominio: Albania<br>Region: 305<br>Zona: 620<br>Seccion: E<br>Zsec: 620E]]></description>
        <styleUrl>#poly-9C27B0-3601-76</styleUrl>
        <ExtendedData>
          <Data name="Descripción">
            <value/>
          </Data>
          <Data name="Reg_Nom">
            <value>Costa 305</value>
          </Data>
          <Data name="Dominio">
            <value>Albania</value>
          </Data>
          <Data name="Region">
            <value>305</value>
          </Data>
          <Data name="Zona">
            <value>620</value>
          </Data>
          <Data name="Seccion">
            <value>E</value>
          </Data>
          <Data name="Zsec">
            <value>620E</value>
          </Data>
        </ExtendedData>
        <Polygon>
          <outerBoundaryIs>
            <LinearRing>
              <tessellate>1</tessellate>
              <coordinates>
                -72.601208,11.158201,0
                -72.601414,11.158329,0
                -72.601847,11.158128,0
                -72.60196,11.15786,0
                -72.602484,11.157256,0
                -72.60319,11.157525,0
                -72.610159,11.15739,0
                -72.611139,11.1571,0
                -72.612141,11.153391,0
                -72.612346,11.152944,0
                -72.6123,11.152475,0
                -72.612073,11.152005,0
                -72.613439,11.150173,0
                -72.613963,11.148743,0
                -72.614031,11.148229,0
                -72.612027,11.146665,0
                -72.611526,11.14662,0
                -72.610911,11.146486,0
                -72.61082,11.146419,0
                -72.610706,11.146196,0
                -72.610569,11.146062,0
                -72.610524,11.146062,0
                -72.610342,11.146084,0
                -72.610182,11.146151,0
                -72.61,11.146374,0
                -72.609955,11.146643,0
                -72.609818,11.146799,0
                -72.609499,11.146754,0
                -72.60934,11.146732,0
                -72.609294,11.146598,0
                -72.609226,11.14633,0
                -72.60877,11.145704,0
                -72.608314,11.145512,0
                -72.606279,11.14843,0
                -72.601309,11.155625,0
                -72.601163,11.155916,0
                -72.600275,11.157212,0
                -72.600216,11.15724,0
                -72.599968,11.157625,0
                -72.599455,11.158206,0
                -72.598931,11.158876,0
                -72.598351,11.159569,0
                -72.597907,11.160094,0
                -72.597349,11.160563,0
                -72.597144,11.160809,0
                -72.596916,11.160988,0
                -72.596631,11.161133,0
                -72.596494,11.161189,0
                -72.596312,11.161093,0
                -72.595982,11.160921,0
                -72.595185,11.159536,0
                -72.594479,11.159089,0
                -72.593739,11.158709,0
                -72.593431,11.158027,0
                -72.59334,11.157547,0
                -72.593363,11.157178,0
                -72.593374,11.156955,0
                -72.593226,11.156653,0
                -72.592987,11.15653,0
                -72.592406,11.156396,0
                -72.591757,11.156519,0
                -72.59129,11.156877,0
                -72.590767,11.157201,0
                -72.590083,11.157703,0
                -72.589664,11.157923,0
                -72.589104,11.158217,0
                -72.588844,11.158543,0
                -72.588819,11.158575,0
                -72.587703,11.160128,0
                -72.587725,11.160685,0
                -72.587726,11.16072,0
                -72.587624,11.160988,0
                -72.586883,11.161133,0
                -72.586314,11.161167,0
                -72.586052,11.161178,0
                -72.585665,11.161211,0
                -72.585414,11.161223,0
                -72.585039,11.161245,0
                -72.584629,11.161256,0
                -72.584207,11.161301,0
                -72.583968,11.161334,0
                -72.583752,11.161357,0
                -72.583615,11.161401,0
                -72.583444,11.161513,0
                -72.583479,11.161658,0
                -72.583581,11.161826,0
                -72.583647,11.161855,0
                -72.58682,11.161919,0
                -72.587191,11.163904,0
                -72.586542,11.164016,0
                -72.586622,11.164395,0
                -72.586838,11.164563,0
                -72.587259,11.164719,0
                -72.587476,11.16511,0
                -72.587601,11.16539,0
                -72.588147,11.165311,0
                -72.588679,11.165126,0
                -72.588694,11.16511,0
                -72.589286,11.164887,0
                -72.589753,11.164686,0
                -72.589981,11.164652,0
                -72.590095,11.164619,0
                -72.5903,11.164619,0
                -72.590436,11.164686,0
                -72.590539,11.164809,0
                -72.59063,11.164999,0
                -72.590744,11.165099,0
                -72.591427,11.164764,0
                -72.593545,11.163781,0
                -72.595082,11.16282,0
                -72.596688,11.161647,0
                -72.598715,11.159804,0
                -72.600389,11.157837,0
                -72.600526,11.15758,0
                -72.600594,11.157446,0
                -72.600696,11.157457,0
                -72.600822,11.157603,0
                -72.601106,11.157983,0
                -72.601209,11.158161,0
                -72.601208,11.158201,0
              </coordinates>
            </LinearRing>
          </outerBoundaryIs>
        </Polygon>
      </Placemark>
      <Placemark>
        <name/>
        <description><![CDATA[Descripción: <br>Reg_Nom: Costa 305<br>Dominio: Cuestecita<br>Region: 305<br>Zona: 620<br>Seccion: E<br>Zsec: 620E]]></description>
        <styleUrl>#poly-9C27B0-3601-76</styleUrl>
        <ExtendedData>
          <Data name="Descripción">
            <value/>
          </Data>
          <Data name="Reg_Nom">
            <value>Costa 305</value>
          </Data>
          <Data name="Dominio">
            <value>Cuestecita</value>
          </Data>
          <Data name="Region">
            <value>305</value>
          </Data>
          <Data name="Zona">
            <value>620</value>
          </Data>
          <Data name="Seccion">
            <value>E</value>
          </Data>
          <Data name="Zsec">
            <value>620E</value>
          </Data>
        </ExtendedData>
        <Polygon>
          <outerBoundaryIs>
            <LinearRing>
              <tessellate>1</tessellate>
              <coordinates>
                -72.62071,11.183279,0
                -72.620791,11.18323,0
                -72.620848,11.183135,0
                -72.620968,11.182956,0
                -72.621002,11.182895,0
                -72.621035,11.182821,0
                -72.621042,11.182806,0
                -72.621195,11.182727,0
                -72.6214,11.182649,0
                -72.621594,11.182582,0
                -72.621816,11.182577,0
                -72.62189,11.182577,0
                -72.622032,11.182565,0
                -72.622135,11.182537,0
                -72.622215,11.182521,0
                -72.622306,11.182482,0
                -72.62238,11.182375,0
                -72.622398,11.182332,0
                -72.622408,11.182308,0
                -72.622414,11.182236,0
                -72.622425,11.182102,0
                -72.622437,11.182029,0
                -72.622443,11.182019,0
                -72.623344,11.181952,0
                -72.623376,11.181929,0
                -72.623479,11.181912,0
                -72.623541,11.181889,0
                -72.623575,11.181839,0
                -72.623581,11.181767,0
                -72.623587,11.181711,0
                -72.623579,11.181637,0
                -72.623575,11.181605,0
                -72.623569,11.181597,0
                -72.623479,11.181236,0
                -72.623034,11.180923,0
                -72.622921,11.180577,0
                -72.623046,11.180164,0
                -72.622892,11.179912,0
                -72.622317,11.180096,0
                -72.621611,11.180063,0
                -72.621281,11.180057,0
                -72.620867,11.180071,0
                -72.620764,11.180074,0
                -72.620217,11.179918,0
                -72.619261,11.17994,0
                -72.619147,11.179851,0
                -72.618942,11.179761,0
                -72.618783,11.17965,0
                -72.618713,11.179611,0
                -72.618213,11.179337,0
                -72.618054,11.179337,0
                -72.61712,11.179337,0
                -72.617368,11.179917,0
                -72.617416,11.180029,0
                -72.617872,11.180253,0
                -72.617826,11.180543,0
                -72.617257,11.181214,0
                -72.616938,11.181392,0
                -72.616619,11.181348,0
                -72.616437,11.181035,0
                -72.615571,11.181236,0
                -72.615503,11.180923,0
                -72.615139,11.180901,0
                -72.615011,11.180844,0
                -72.615015,11.180966,0
                -72.613658,11.181035,0
                -72.613476,11.181526,0
                -72.612292,11.181593,0
                -72.612132,11.181191,0
                -72.611381,11.181191,0
                -72.610925,11.181281,0
                -72.610766,11.181616,0
                -72.608443,11.181772,0
                -72.608466,11.184163,0
                -72.611016,11.184163,0
                -72.61113,11.185325,0
                -72.609536,11.185526,0
                -72.609718,11.186956,0
                -72.611609,11.186732,0
                -72.611973,11.187581,0
                -72.61252,11.187693,0
                -72.613134,11.187581,0
                -72.613226,11.188251,0
                -72.613658,11.188475,0
                -72.614273,11.18843,0
                -72.615025,11.188184,0
                -72.615161,11.187715,0
                -72.615116,11.186978,0
                -72.615116,11.185772,0
                -72.616277,11.185794,0
                -72.616072,11.184833,0
                -72.615822,11.183627,0
                -72.615822,11.183381,0
                -72.615981,11.183135,0
                -72.616828,11.18306,0
                -72.616862,11.183074,0
                -72.616871,11.18309,0
                -72.616908,11.183163,0
                -72.616999,11.183202,0
                -72.617067,11.183163,0
                -72.617193,11.183079,0
                -72.617301,11.183029,0
                -72.617426,11.182956,0
                -72.61754,11.182928,0
                -72.617637,11.182917,0
                -72.61766,11.182923,0
                -72.617779,11.182968,0
                -72.617842,11.183068,0
                -72.618001,11.183074,0
                -72.618195,11.183074,0
                -72.61844,11.183057,0
                -72.618605,11.183035,0
                -72.618787,11.183079,0
                -72.618946,11.183286,0
                -72.619032,11.18328,0
                -72.61926,11.183191,0
                -72.619339,11.183118,0
                -72.619447,11.183057,0
                -72.61955,11.183079,0
                -72.619595,11.183096,0
                -72.619681,11.183174,0
                -72.619783,11.183185,0
                -72.61988,11.183085,0
                -72.619937,11.183023,0
                -72.620062,11.182945,0
                -72.620171,11.1829,0
                -72.620421,11.18294,0
                -72.620563,11.183152,0
                -72.62071,11.183279,0
              </coordinates>
            </LinearRing>
          </outerBoundaryIs>
        </Polygon>
      </Placemark>
    </Folder>
  </Document>
</kml>
