<?xml version="1.0" encoding="UTF-8"?>
<kml xmlns="http://www.opengis.net/kml/2.2">
  <Document>
    <name>Zona 713</name>
    <description/>
    <Style id="poly-0288D1-3201-76-normal">
      <LineStyle>
        <color>ffd18802</color>
        <width>3.201</width>
      </LineStyle>
      <PolyStyle>
        <color>4cd18802</color>
        <fill>1</fill>
        <outline>1</outline>
      </PolyStyle>
    </Style>
    <Style id="poly-0288D1-3201-76-highlight">
      <LineStyle>
        <color>ffd18802</color>
        <width>4.8015</width>
      </LineStyle>
      <PolyStyle>
        <color>4cd18802</color>
        <fill>1</fill>
        <outline>1</outline>
      </PolyStyle>
    </Style>
    <StyleMap id="poly-0288D1-3201-76">
      <Pair>
        <key>normal</key>
        <styleUrl>#poly-0288D1-3201-76-normal</styleUrl>
      </Pair>
      <Pair>
        <key>highlight</key>
        <styleUrl>#poly-0288D1-3201-76-highlight</styleUrl>
      </Pair>
    </StyleMap>
    <Style id="poly-7CB342-2501-76-normal">
      <LineStyle>
        <color>ff42b37c</color>
        <width>2.501</width>
      </LineStyle>
      <PolyStyle>
        <color>4c42b37c</color>
        <fill>1</fill>
        <outline>1</outline>
      </PolyStyle>
    </Style>
    <Style id="poly-7CB342-2501-76-highlight">
      <LineStyle>
        <color>ff42b37c</color>
        <width>3.7515</width>
      </LineStyle>
      <PolyStyle>
        <color>4c42b37c</color>
        <fill>1</fill>
        <outline>1</outline>
      </PolyStyle>
    </Style>
    <StyleMap id="poly-7CB342-2501-76">
      <Pair>
        <key>normal</key>
        <styleUrl>#poly-7CB342-2501-76-normal</styleUrl>
      </Pair>
      <Pair>
        <key>highlight</key>
        <styleUrl>#poly-7CB342-2501-76-highlight</styleUrl>
      </Pair>
    </StyleMap>
    <Style id="poly-9C27B0-1200-76-normal">
      <LineStyle>
        <color>ffb0279c</color>
        <width>1.2</width>
      </LineStyle>
      <PolyStyle>
        <color>4cb0279c</color>
        <fill>1</fill>
        <outline>1</outline>
      </PolyStyle>
    </Style>
    <Style id="poly-9C27B0-1200-76-highlight">
      <LineStyle>
        <color>ffb0279c</color>
        <width>1.8</width>
      </LineStyle>
      <PolyStyle>
        <color>4cb0279c</color>
        <fill>1</fill>
        <outline>1</outline>
      </PolyStyle>
    </Style>
    <StyleMap id="poly-9C27B0-1200-76">
      <Pair>
        <key>normal</key>
        <styleUrl>#poly-9C27B0-1200-76-normal</styleUrl>
      </Pair>
      <Pair>
        <key>highlight</key>
        <styleUrl>#poly-9C27B0-1200-76-highlight</styleUrl>
      </Pair>
    </StyleMap>
    <Style id="poly-FF5252-2501-76-normal">
      <LineStyle>
        <color>ff5252ff</color>
        <width>2.501</width>
      </LineStyle>
      <PolyStyle>
        <color>4c5252ff</color>
        <fill>1</fill>
        <outline>1</outline>
      </PolyStyle>
    </Style>
    <Style id="poly-FF5252-2501-76-highlight">
      <LineStyle>
        <color>ff5252ff</color>
        <width>3.7515</width>
      </LineStyle>
      <PolyStyle>
        <color>4c5252ff</color>
        <fill>1</fill>
        <outline>1</outline>
      </PolyStyle>
    </Style>
    <StyleMap id="poly-FF5252-2501-76">
      <Pair>
        <key>normal</key>
        <styleUrl>#poly-FF5252-2501-76-normal</styleUrl>
      </Pair>
      <Pair>
        <key>highlight</key>
        <styleUrl>#poly-FF5252-2501-76-highlight</styleUrl>
      </Pair>
    </StyleMap>
    <Style id="poly-FFEA00-3201-61-normal">
      <LineStyle>
        <color>ff00eaff</color>
        <width>3.201</width>
      </LineStyle>
      <PolyStyle>
        <color>3d00eaff</color>
        <fill>1</fill>
        <outline>1</outline>
      </PolyStyle>
    </Style>
    <Style id="poly-FFEA00-3201-61-highlight">
      <LineStyle>
        <color>ff00eaff</color>
        <width>4.8015</width>
      </LineStyle>
      <PolyStyle>
        <color>3d00eaff</color>
        <fill>1</fill>
        <outline>1</outline>
      </PolyStyle>
    </Style>
    <StyleMap id="poly-FFEA00-3201-61">
      <Pair>
        <key>normal</key>
        <styleUrl>#poly-FFEA00-3201-61-normal</styleUrl>
      </Pair>
      <Pair>
        <key>highlight</key>
        <styleUrl>#poly-FFEA00-3201-61-highlight</styleUrl>
      </Pair>
    </StyleMap>
    <Folder>
      <name>VD713</name>
      <Placemark>
        <name/>
        <description><![CDATA[Descripción: <br>Reg_Nom: Antioquia 450<br>Dominio: Carepa<br>Region: 450<br>Zona: 713<br>Seccion: C<br>Zsec: 713C]]></description>
        <styleUrl>#poly-FF5252-2501-76</styleUrl>
        <ExtendedData>
          <Data name="Descripción">
            <value/>
          </Data>
          <Data name="Reg_Nom">
            <value>Antioquia 450</value>
          </Data>
          <Data name="Dominio">
            <value>Carepa</value>
          </Data>
          <Data name="Region">
            <value>450</value>
          </Data>
          <Data name="Zona">
            <value>713</value>
          </Data>
          <Data name="Seccion">
            <value>C</value>
          </Data>
          <Data name="Zsec">
            <value>713C</value>
          </Data>
        </ExtendedData>
        <Polygon>
          <outerBoundaryIs>
            <LinearRing>
              <tessellate>1</tessellate>
              <coordinates>
                -76.649671,7.752957,0
                -76.649152,7.755236,0
                -76.647671,7.755047,0
                -76.647241,7.755331,0
                -76.646763,7.757319,0
                -76.64738,7.75793,0
                -76.647492,7.757844,0
                -76.648078,7.757715,0
                -76.648707,7.757779,0
                -76.649184,7.758037,0
                -76.649574,7.758467,0
                -76.649635,7.758618,0
                -76.649834,7.759111,0
                -76.650268,7.760486,0
                -76.650268,7.760615,0
                -76.650398,7.761367,0
                -76.650246,7.762055,0
                -76.649943,7.762355,0
                -76.649466,7.763043,0
                -76.649227,7.76358,0
                -76.649221,7.76369,0
                -76.649184,7.764332,0
                -76.6492,7.76435,0
                -76.649379,7.764547,0
                -76.649726,7.764633,0
                -76.649964,7.764504,0
                -76.650289,7.763988,0
                -76.650571,7.763451,0
                -76.651021,7.76309,0
                -76.651027,7.763064,0
                -76.651525,7.762806,0
                -76.652317,7.762713,0
                -76.653325,7.762484,0
                -76.653949,7.762228,0
                -76.654214,7.762119,0
                -76.654778,7.76214,0
                -76.655471,7.762205,0
                -76.655927,7.76242,0
                -76.656295,7.762742,0
                -76.656555,7.763515,0
                -76.656859,7.763967,0
                -76.657293,7.764117,0
                -76.657705,7.764138,0
                -76.658333,7.763945,0
                -76.658962,7.763902,0
                -76.659352,7.764117,0
                -76.660176,7.764611,0
                -76.660504,7.7647,0
                -76.660999,7.758361,0
                -76.662258,7.758306,0
                -76.662424,7.75759,0
                -76.662311,7.757482,0
                -76.662342,7.75728,0
                -76.660187,7.757319,0
                -76.660232,7.757151,0
                -76.660188,7.757145,0
                -76.65849,7.756608,0
                -76.655731,7.755826,0
                -76.655835,7.75378,0
                -76.655986,7.752366,0
                -76.653866,7.751932,0
                -76.653762,7.753275,0
                -76.653706,7.753527,0
                -76.6531,7.753496,0
                -76.653044,7.753575,0
                -76.652686,7.753559,0
                -76.652008,7.753456,0
                -76.650095,7.753046,0
                -76.649671,7.752957,0
              </coordinates>
            </LinearRing>
          </outerBoundaryIs>
        </Polygon>
      </Placemark>
      <Placemark>
        <name/>
        <description><![CDATA[Descripción: <br>Reg_Nom: Antioquia 450<br>Dominio: Chigorodo<br>Region: 450<br>Zona: 713<br>Seccion: A<br>Zsec: 713A]]></description>
        <styleUrl>#poly-FFEA00-3201-61</styleUrl>
        <ExtendedData>
          <Data name="Descripción">
            <value/>
          </Data>
          <Data name="Reg_Nom">
            <value>Antioquia 450</value>
          </Data>
          <Data name="Dominio">
            <value>Chigorodo</value>
          </Data>
          <Data name="Region">
            <value>450</value>
          </Data>
          <Data name="Zona">
            <value>713</value>
          </Data>
          <Data name="Seccion">
            <value>A</value>
          </Data>
          <Data name="Zsec">
            <value>713A</value>
          </Data>
        </ExtendedData>
        <Polygon>
          <outerBoundaryIs>
            <LinearRing>
              <tessellate>1</tessellate>
              <coordinates>
                -76.682595,7.67178,0
                -76.682928,7.671854,0
                -76.683661,7.672296,0
                -76.684172,7.673245,0
                -76.68473,7.673924,0
                -76.684884,7.674014,0
                -76.685463,7.674351,0
                -76.686133,7.674572,0
                -76.686659,7.674414,0
                -76.687185,7.673971,0
                -76.688094,7.673908,0
                -76.688652,7.674208,0
                -76.688907,7.674493,0
                -76.688916,7.674467,0
                -76.68892,7.674491,0
                -76.688938,7.674482,0
                -76.689,7.674455,0
                -76.689006,7.674452,0
                -76.689027,7.674442,0
                -76.689072,7.674422,0
                -76.689073,7.674422,0
                -76.689078,7.674419,0
                -76.689248,7.674291,0
                -76.689439,7.674121,0
                -76.689705,7.673885,0
                -76.689885,7.6737,0
                -76.690083,7.673442,0
                -76.690085,7.673439,0
                -76.690104,7.673415,0
                -76.690693,7.671743,0
                -76.690741,7.670858,0
                -76.690805,7.670526,0
                -76.691522,7.670384,0
                -76.691602,7.669942,0
                -76.692329,7.669987,0
                -76.692368,7.669477,0
                -76.692369,7.669419,0
                -76.692359,7.669321,0
                -76.692331,7.668707,0
                -76.691928,7.66861,0
                -76.691839,7.668567,0
                -76.691687,7.668456,0
                -76.692702,7.667966,0
                -76.693292,7.667334,0
                -76.693771,7.66705,0
                -76.693292,7.666764,0
                -76.692288,7.666165,0
                -76.691235,7.665707,0
                -76.690885,7.665738,0
                -76.689561,7.66558,0
                -76.689641,7.66498,0
                -76.688915,7.66484,0
                -76.688832,7.664955,0
                -76.688628,7.665235,0
                -76.688564,7.665323,0
                -76.688352,7.665613,0
                -76.688294,7.665702,0
                -76.688197,7.665851,0
                -76.688133,7.665928,0
                -76.688126,7.665991,0
                -76.687775,7.666149,0
                -76.686595,7.665975,0
                -76.686532,7.664174,0
                -76.685495,7.664142,0
                -76.685543,7.663004,0
                -76.685336,7.662846,0
                -76.685336,7.662253,0
                -76.685336,7.662088,0
                -76.685207,7.662092,0
                -76.684793,7.662104,0
                -76.684807,7.661496,0
                -76.684683,7.661494,0
                -76.684698,7.660413,0
                -76.684538,7.660415,0
                -76.682091,7.660442,0
                -76.682092,7.660403,0
                -76.681939,7.660444,0
                -76.681844,7.660903,0
                -76.681748,7.663557,0
                -76.681557,7.667082,0
                -76.681413,7.668693,0
                -76.681461,7.670021,0
                -76.681557,7.670779,0
                -76.682402,7.670621,0
                -76.682434,7.671174,0
                -76.682595,7.67178,0
              </coordinates>
            </LinearRing>
          </outerBoundaryIs>
        </Polygon>
      </Placemark>
      <Placemark>
        <name/>
        <description><![CDATA[Descripción: <br>Reg_Nom: Antioquia 450<br>Dominio: Belen de Bajira<br>Region: 450<br>Zona: 713<br>Seccion: E<br>Zsec: 713E]]></description>
        <styleUrl>#poly-9C27B0-1200-76</styleUrl>
        <ExtendedData>
          <Data name="Descripción">
            <value/>
          </Data>
          <Data name="Reg_Nom">
            <value>Antioquia 450</value>
          </Data>
          <Data name="Dominio">
            <value>Belen de Bajira</value>
          </Data>
          <Data name="Region">
            <value>450</value>
          </Data>
          <Data name="Zona">
            <value>713</value>
          </Data>
          <Data name="Seccion">
            <value>E</value>
          </Data>
          <Data name="Zsec">
            <value>713E</value>
          </Data>
        </ExtendedData>
        <Polygon>
          <outerBoundaryIs>
            <LinearRing>
              <tessellate>1</tessellate>
              <coordinates>
                -76.714113,7.369003,0
                -76.713819,7.369129,0
                -76.713413,7.369439,0
                -76.712807,7.370353,0
                -76.712969,7.370472,0
                -76.712851,7.370736,0
                -76.713287,7.371354,0
                -76.713598,7.371406,0
                -76.713541,7.371639,0
                -76.713357,7.371607,0
                -76.713306,7.371788,0
                -76.713296,7.371835,0
                -76.713338,7.371845,0
                -76.713206,7.372348,0
                -76.713114,7.372727,0
                -76.712902,7.373536,0
                -76.712449,7.373574,0
                -76.712688,7.37491,0
                -76.712726,7.375152,0
                -76.71292,7.375153,0
                -76.713146,7.375278,0
                -76.713254,7.375276,0
                -76.713351,7.375204,0
                -76.713448,7.375049,0
                -76.713532,7.37493,0
                -76.714243,7.374534,0
                -76.714563,7.374356,0
                -76.714916,7.374159,0
                -76.715413,7.373882,0
                -76.71632,7.373377,0
                -76.717008,7.372881,0
                -76.717093,7.372463,0
                -76.717242,7.371734,0
                -76.717157,7.371636,0
                -76.716851,7.371284,0
                -76.716539,7.371206,0
                -76.716527,7.371196,0
                -76.716253,7.370966,0
                -76.716226,7.370943,0
                -76.715651,7.370905,0
                -76.715523,7.370896,0
                -76.715524,7.370892,0
                -76.715913,7.369284,0
                -76.715809,7.369268,0
                -76.714113,7.369003,0
              </coordinates>
            </LinearRing>
          </outerBoundaryIs>
        </Polygon>
      </Placemark>
      <Placemark>
        <name/>
        <description><![CDATA[Descripción: <br>Reg_Nom: Antioquia 450<br>Dominio: Mutata<br>Region: 450<br>Zona: 713<br>Seccion: E<br>Zsec: 713E]]></description>
        <styleUrl>#poly-9C27B0-1200-76</styleUrl>
        <ExtendedData>
          <Data name="Descripción">
            <value/>
          </Data>
          <Data name="Reg_Nom">
            <value>Antioquia 450</value>
          </Data>
          <Data name="Dominio">
            <value>Mutata</value>
          </Data>
          <Data name="Region">
            <value>450</value>
          </Data>
          <Data name="Zona">
            <value>713</value>
          </Data>
          <Data name="Seccion">
            <value>E</value>
          </Data>
          <Data name="Zsec">
            <value>713E</value>
          </Data>
        </ExtendedData>
        <Polygon>
          <outerBoundaryIs>
            <LinearRing>
              <tessellate>1</tessellate>
              <coordinates>
                -76.435522,7.247367,0
                -76.436632,7.246498,0
                -76.436945,7.246932,0
                -76.437695,7.246963,0
                -76.439986,7.245092,0
                -76.43832,7.242963,0
                -76.438695,7.242622,0
                -76.437726,7.241599,0
                -76.43882,7.24073,0
                -76.438164,7.239831,0
                -76.438289,7.239521,0
                -76.438195,7.239366,0
                -76.437178,7.238256,0
                -76.436404,7.238315,0
                -76.435647,7.238839,0
                -76.435085,7.239133,0
                -76.434444,7.239133,0
                -76.433881,7.239195,0
                -76.43385,7.239211,0
                -76.433506,7.239366,0
                -76.432724,7.240126,0
                -76.432662,7.240219,0
                -76.432193,7.240591,0
                -76.432052,7.240978,0
                -76.432115,7.241118,0
                -76.432188,7.241276,0
                -76.432594,7.242077,0
                -76.433443,7.243134,0
                -76.433287,7.243351,0
                -76.433251,7.24337,0
                -76.433257,7.243381,0
                -76.432434,7.244095,0
                -76.432436,7.244203,0
                -76.433551,7.245431,0
                -76.433787,7.245692,0
                -76.435362,7.247343,0
                -76.435522,7.247367,0
              </coordinates>
            </LinearRing>
          </outerBoundaryIs>
        </Polygon>
      </Placemark>
      <Placemark>
        <name/>
        <description><![CDATA[Descripción: <br>Reg_Nom: Antioquia 450<br>Dominio: Chigorodo<br>Region: 450<br>Zona: 713<br>Seccion: B<br>Zsec: 713B]]></description>
        <styleUrl>#poly-0288D1-3201-76</styleUrl>
        <ExtendedData>
          <Data name="Descripción">
            <value/>
          </Data>
          <Data name="Reg_Nom">
            <value>Antioquia 450</value>
          </Data>
          <Data name="Dominio">
            <value>Chigorodo</value>
          </Data>
          <Data name="Region">
            <value>450</value>
          </Data>
          <Data name="Zona">
            <value>713</value>
          </Data>
          <Data name="Seccion">
            <value>B</value>
          </Data>
          <Data name="Zsec">
            <value>713B</value>
          </Data>
        </ExtendedData>
        <Polygon>
          <outerBoundaryIs>
            <LinearRing>
              <tessellate>1</tessellate>
              <coordinates>
                -76.682092,7.660403,0
                -76.682225,7.656907,0
                -76.682386,7.656667,0
                -76.682474,7.655903,0
                -76.682581,7.655909,0
                -76.682585,7.655844,0
                -76.681254,7.655735,0
                -76.681286,7.655245,0
                -76.680695,7.655193,0
                -76.680664,7.655956,0
                -76.680329,7.656525,0
                -76.679914,7.656999,0
                -76.679213,7.657458,0
                -76.678782,7.657616,0
                -76.678559,7.657616,0
                -76.677905,7.657631,0
                -76.67698,7.657505,0
                -76.676217,7.657443,0
                -76.675784,7.657663,0
                -76.67545,7.657805,0
                -76.674987,7.65771,0
                -76.674541,7.657347,0
                -76.67459,7.65673,0
                -76.674473,7.656588,0
                -76.674473,7.656541,0
                -76.674514,7.656455,0
                -76.674558,7.656417,0
                -76.674477,7.656304,0
                -76.673871,7.656256,0
                -76.67379,7.655246,0
                -76.673075,7.655639,0
                -76.673131,7.655771,0
                -76.673132,7.655773,0
                -76.673133,7.655776,0
                -76.673192,7.655932,0
                -76.673192,7.655934,0
                -76.673197,7.656006,0
                -76.673202,7.656064,0
                -76.673195,7.656123,0
                -76.673182,7.656163,0
                -76.673146,7.656186,0
                -76.673145,7.656186,0
                -76.673141,7.656187,0
                -76.673082,7.656198,0
                -76.673039,7.65619,0
                -76.673083,7.656372,0
                -76.673085,7.656377,0
                -76.673094,7.656414,0
                -76.6731,7.656413,0
                -76.673107,7.656414,0
                -76.673114,7.656414,0
                -76.673121,7.656414,0
                -76.673128,7.656413,0
                -76.673135,7.656413,0
                -76.673141,7.656413,0
                -76.673149,7.656413,0
                -76.673155,7.656414,0
                -76.673164,7.656415,0
                -76.673171,7.656419,0
                -76.67318,7.656425,0
                -76.673186,7.656433,0
                -76.673192,7.65644,0
                -76.673193,7.656442,0
                -76.673398,7.657185,0
                -76.673154,7.657301,0
                -76.673148,7.657304,0
                -76.672588,7.657573,0
                -76.672569,7.657582,0
                -76.672275,7.657722,0
                -76.67227,7.657725,0
                -76.672231,7.657744,0
                -76.671894,7.657886,0
                -76.671445,7.658075,0
                -76.671423,7.658085,0
                -76.671402,7.658093,0
                -76.671035,7.658321,0
                -76.671026,7.658329,0
                -76.670997,7.658354,0
                -76.670979,7.658324,0
                -76.670955,7.658364,0
                -76.670963,7.658376,0
                -76.670986,7.658421,0
                -76.670873,7.658453,0
                -76.671686,7.660144,0
                -76.672468,7.661551,0
                -76.672962,7.66242,0
                -76.673254,7.662709,0
                -76.673223,7.662787,0
                -76.673185,7.662883,0
                -76.673181,7.662892,0
                -76.673101,7.663095,0
                -76.673085,7.663137,0
                -76.673082,7.663145,0
                -76.673035,7.663268,0
                -76.672981,7.663401,0
                -76.67297,7.663427,0
                -76.672964,7.663442,0
                -76.672888,7.663609,0
                -76.672881,7.663625,0
                -76.67288,7.663626,0
                -76.672822,7.663683,0
                -76.67275,7.663871,0
                -76.672628,7.66419,0
                -76.672582,7.664311,0
                -76.672518,7.664551,0
                -76.672357,7.665147,0
                -76.672279,7.665436,0
                -76.672233,7.665608,0
                -76.672223,7.665617,0
                -76.672214,7.665617,0
                -76.672152,7.665587,0
                -76.671958,7.66626,0
                -76.670953,7.666007,0
                -76.670539,7.667109,0
                -76.670395,7.667492,0
                -76.671543,7.668362,0
                -76.672563,7.668804,0
                -76.673759,7.66931,0
                -76.674764,7.669831,0
                -76.675753,7.670637,0
                -76.678208,7.671791,0
                -76.678341,7.671783,0
                -76.678332,7.671863,0
                -76.678463,7.671933,0
                -76.679117,7.67198,0
                -76.680122,7.671712,0
                -76.680361,7.671712,0
                -76.681094,7.671712,0
                -76.68229,7.671712,0
                -76.682595,7.67178,0
                -76.682434,7.671174,0
                -76.682402,7.670621,0
                -76.681557,7.670779,0
                -76.681461,7.670021,0
                -76.681413,7.668693,0
                -76.681557,7.667082,0
                -76.681748,7.663557,0
                -76.681844,7.660903,0
                -76.681939,7.660444,0
                -76.682092,7.660403,0
              </coordinates>
            </LinearRing>
          </outerBoundaryIs>
        </Polygon>
      </Placemark>
      <Placemark>
        <name/>
        <description><![CDATA[Descripción: <br>Reg_Nom: Antioquia 450<br>Dominio: Carepa<br>Region: 450<br>Zona: 713<br>Seccion: D<br>Zsec: 713D]]></description>
        <styleUrl>#poly-7CB342-2501-76</styleUrl>
        <ExtendedData>
          <Data name="Descripción">
            <value/>
          </Data>
          <Data name="Reg_Nom">
            <value>Antioquia 450</value>
          </Data>
          <Data name="Dominio">
            <value>Carepa</value>
          </Data>
          <Data name="Region">
            <value>450</value>
          </Data>
          <Data name="Zona">
            <value>713</value>
          </Data>
          <Data name="Seccion">
            <value>D</value>
          </Data>
          <Data name="Zsec">
            <value>713D</value>
          </Data>
        </ExtendedData>
        <Polygon>
          <outerBoundaryIs>
            <LinearRing>
              <tessellate>1</tessellate>
              <coordinates>
                -76.660232,7.757151,0
                -76.661234,7.753379,0
                -76.661096,7.753267,0
                -76.661031,7.753243,0
                -76.66103,7.753243,0
                -76.661122,7.753014,0
                -76.660331,7.75287,0
                -76.658276,7.752349,0
                -76.658941,7.748918,0
                -76.657815,7.74863,0
                -76.657414,7.748523,0
                -76.657751,7.746811,0
                -76.654025,7.74629,0
                -76.653595,7.746574,0
                -76.650967,7.746243,0
                -76.650728,7.747521,0
                -76.649248,7.747331,0
                -76.649152,7.748373,0
                -76.648531,7.748562,0
                -76.647958,7.749177,0
                -76.647913,7.75015,0
                -76.647862,7.75126,0
                -76.649916,7.751876,0
                -76.649671,7.752957,0
                -76.650095,7.753046,0
                -76.652008,7.753456,0
                -76.652686,7.753559,0
                -76.653044,7.753575,0
                -76.6531,7.753496,0
                -76.653706,7.753527,0
                -76.653762,7.753275,0
                -76.653866,7.751932,0
                -76.655986,7.752366,0
                -76.655835,7.75378,0
                -76.655731,7.755826,0
                -76.65849,7.756608,0
                -76.660188,7.757145,0
                -76.660232,7.757151,0
              </coordinates>
            </LinearRing>
          </outerBoundaryIs>
        </Polygon>
      </Placemark>
    </Folder>
  </Document>
</kml>
